 2017-02-04 04:56:13.35549+01 | 1486180573.35549 | pgbench_branches_pkey |            57344
 2017-02-04 04:56:13.35549+01 | 1486180573.35549 | pgbench_tellers_pkey  |           262144
 2017-02-04 04:56:13.35549+01 | 1486180573.35549 | pgbench_accounts_pkey |        224641024

 2017-02-04 04:56:14.449339+01 | 1486180574.44934 | pgbench_branches_pkey |            57344
 2017-02-04 04:56:14.449339+01 | 1486180574.44934 | pgbench_tellers_pkey  |           262144
 2017-02-04 04:56:14.449339+01 | 1486180574.44934 | pgbench_accounts_pkey |        224641024

 2017-02-04 04:56:15.536666+01 | 1486180575.53667 | pgbench_branches_pkey |            57344
 2017-02-04 04:56:15.536666+01 | 1486180575.53667 | pgbench_tellers_pkey  |           262144
 2017-02-04 04:56:15.536666+01 | 1486180575.53667 | pgbench_accounts_pkey |        224641024

 2017-02-04 04:56:16.613566+01 | 1486180576.61357 | pgbench_branches_pkey |            57344
 2017-02-04 04:56:16.613566+01 | 1486180576.61357 | pgbench_tellers_pkey  |           262144
 2017-02-04 04:56:16.613566+01 | 1486180576.61357 | pgbench_accounts_pkey |        224641024

 2017-02-04 04:56:17.687452+01 | 1486180577.68745 | pgbench_branches_pkey |            57344
 2017-02-04 04:56:17.687452+01 | 1486180577.68745 | pgbench_tellers_pkey  |           262144
 2017-02-04 04:56:17.687452+01 | 1486180577.68745 | pgbench_accounts_pkey |        224641024

 2017-02-04 04:56:18.772123+01 | 1486180578.77212 | pgbench_branches_pkey |            57344
 2017-02-04 04:56:18.772123+01 | 1486180578.77212 | pgbench_tellers_pkey  |           262144
 2017-02-04 04:56:18.772123+01 | 1486180578.77212 | pgbench_accounts_pkey |        224641024

 2017-02-04 04:56:19.848566+01 | 1486180579.84857 | pgbench_branches_pkey |            57344
 2017-02-04 04:56:19.848566+01 | 1486180579.84857 | pgbench_tellers_pkey  |           262144
 2017-02-04 04:56:19.848566+01 | 1486180579.84857 | pgbench_accounts_pkey |        224641024

 2017-02-04 04:56:20.936399+01 | 1486180580.9364 | pgbench_branches_pkey |            57344
 2017-02-04 04:56:20.936399+01 | 1486180580.9364 | pgbench_tellers_pkey  |           262144
 2017-02-04 04:56:20.936399+01 | 1486180580.9364 | pgbench_accounts_pkey |        224641024

 2017-02-04 04:56:22.019536+01 | 1486180582.01954 | pgbench_branches_pkey |            57344
 2017-02-04 04:56:22.019536+01 | 1486180582.01954 | pgbench_tellers_pkey  |           262144
 2017-02-04 04:56:22.019536+01 | 1486180582.01954 | pgbench_accounts_pkey |        224641024

 2017-02-04 04:56:23.110564+01 | 1486180583.11056 | pgbench_branches_pkey |            57344
 2017-02-04 04:56:23.110564+01 | 1486180583.11056 | pgbench_tellers_pkey  |           262144
 2017-02-04 04:56:23.110564+01 | 1486180583.11056 | pgbench_accounts_pkey |        224641024

 2017-02-04 04:56:24.193874+01 | 1486180584.19387 | pgbench_branches_pkey |            57344
 2017-02-04 04:56:24.193874+01 | 1486180584.19387 | pgbench_tellers_pkey  |           262144
 2017-02-04 04:56:24.193874+01 | 1486180584.19387 | pgbench_accounts_pkey |        224641024

 2017-02-04 04:56:25.280762+01 | 1486180585.28076 | pgbench_branches_pkey |            57344
 2017-02-04 04:56:25.280762+01 | 1486180585.28076 | pgbench_tellers_pkey  |           262144
 2017-02-04 04:56:25.280762+01 | 1486180585.28076 | pgbench_accounts_pkey |        224641024

 2017-02-04 04:56:26.366602+01 | 1486180586.3666 | pgbench_branches_pkey |            57344
 2017-02-04 04:56:26.366602+01 | 1486180586.3666 | pgbench_tellers_pkey  |           262144
 2017-02-04 04:56:26.366602+01 | 1486180586.3666 | pgbench_accounts_pkey |        224641024

 2017-02-04 04:56:27.450644+01 | 1486180587.45064 | pgbench_branches_pkey |            57344
 2017-02-04 04:56:27.450644+01 | 1486180587.45064 | pgbench_tellers_pkey  |           262144
 2017-02-04 04:56:27.450644+01 | 1486180587.45064 | pgbench_accounts_pkey |        224641024

 2017-02-04 04:56:28.53358+01 | 1486180588.53358 | pgbench_branches_pkey |            57344
 2017-02-04 04:56:28.53358+01 | 1486180588.53358 | pgbench_tellers_pkey  |           262144
 2017-02-04 04:56:28.53358+01 | 1486180588.53358 | pgbench_accounts_pkey |        224641024

 2017-02-04 04:56:29.618132+01 | 1486180589.61813 | pgbench_branches_pkey |            57344
 2017-02-04 04:56:29.618132+01 | 1486180589.61813 | pgbench_tellers_pkey  |           262144
 2017-02-04 04:56:29.618132+01 | 1486180589.61813 | pgbench_accounts_pkey |        224641024

 2017-02-04 04:56:30.691648+01 | 1486180590.69165 | pgbench_branches_pkey |            57344
 2017-02-04 04:56:30.691648+01 | 1486180590.69165 | pgbench_tellers_pkey  |           262144
 2017-02-04 04:56:30.691648+01 | 1486180590.69165 | pgbench_accounts_pkey |        224641024

 2017-02-04 04:56:31.778668+01 | 1486180591.77867 | pgbench_branches_pkey |            57344
 2017-02-04 04:56:31.778668+01 | 1486180591.77867 | pgbench_tellers_pkey  |           262144
 2017-02-04 04:56:31.778668+01 | 1486180591.77867 | pgbench_accounts_pkey |        224641024

 2017-02-04 04:56:32.863299+01 | 1486180592.8633 | pgbench_branches_pkey |            57344
 2017-02-04 04:56:32.863299+01 | 1486180592.8633 | pgbench_tellers_pkey  |           262144
 2017-02-04 04:56:32.863299+01 | 1486180592.8633 | pgbench_accounts_pkey |        224641024

 2017-02-04 04:56:33.939757+01 | 1486180593.93976 | pgbench_branches_pkey |            57344
 2017-02-04 04:56:33.939757+01 | 1486180593.93976 | pgbench_tellers_pkey  |           262144
 2017-02-04 04:56:33.939757+01 | 1486180593.93976 | pgbench_accounts_pkey |        224641024

 2017-02-04 04:56:35.013764+01 | 1486180595.01376 | pgbench_branches_pkey |            57344
 2017-02-04 04:56:35.013764+01 | 1486180595.01376 | pgbench_tellers_pkey  |           262144
 2017-02-04 04:56:35.013764+01 | 1486180595.01376 | pgbench_accounts_pkey |        224641024

 2017-02-04 04:56:36.099713+01 | 1486180596.09971 | pgbench_branches_pkey |            57344
 2017-02-04 04:56:36.099713+01 | 1486180596.09971 | pgbench_tellers_pkey  |           262144
 2017-02-04 04:56:36.099713+01 | 1486180596.09971 | pgbench_accounts_pkey |        224641024

 2017-02-04 04:56:37.186144+01 | 1486180597.18614 | pgbench_branches_pkey |            57344
 2017-02-04 04:56:37.186144+01 | 1486180597.18614 | pgbench_tellers_pkey  |           262144
 2017-02-04 04:56:37.186144+01 | 1486180597.18614 | pgbench_accounts_pkey |        224641024

 2017-02-04 04:56:38.256966+01 | 1486180598.25697 | pgbench_branches_pkey |            57344
 2017-02-04 04:56:38.256966+01 | 1486180598.25697 | pgbench_tellers_pkey  |           262144
 2017-02-04 04:56:38.256966+01 | 1486180598.25697 | pgbench_accounts_pkey |        224641024

 2017-02-04 04:56:39.346682+01 | 1486180599.34668 | pgbench_branches_pkey |            57344
 2017-02-04 04:56:39.346682+01 | 1486180599.34668 | pgbench_tellers_pkey  |           262144
 2017-02-04 04:56:39.346682+01 | 1486180599.34668 | pgbench_accounts_pkey |        224641024

 2017-02-04 04:56:40.428379+01 | 1486180600.42838 | pgbench_branches_pkey |            57344
 2017-02-04 04:56:40.428379+01 | 1486180600.42838 | pgbench_tellers_pkey  |           262144
 2017-02-04 04:56:40.428379+01 | 1486180600.42838 | pgbench_accounts_pkey |        224641024

 2017-02-04 04:56:41.507265+01 | 1486180601.50727 | pgbench_branches_pkey |            57344
 2017-02-04 04:56:41.507265+01 | 1486180601.50727 | pgbench_tellers_pkey  |           262144
 2017-02-04 04:56:41.507265+01 | 1486180601.50727 | pgbench_accounts_pkey |        224641024

 2017-02-04 04:56:42.591788+01 | 1486180602.59179 | pgbench_branches_pkey |            57344
 2017-02-04 04:56:42.591788+01 | 1486180602.59179 | pgbench_tellers_pkey  |           262144
 2017-02-04 04:56:42.591788+01 | 1486180602.59179 | pgbench_accounts_pkey |        224641024

 2017-02-04 04:56:43.677009+01 | 1486180603.67701 | pgbench_branches_pkey |            57344
 2017-02-04 04:56:43.677009+01 | 1486180603.67701 | pgbench_tellers_pkey  |           262144
 2017-02-04 04:56:43.677009+01 | 1486180603.67701 | pgbench_accounts_pkey |        224641024

 2017-02-04 04:56:44.769591+01 | 1486180604.76959 | pgbench_branches_pkey |            57344
 2017-02-04 04:56:44.769591+01 | 1486180604.76959 | pgbench_tellers_pkey  |           262144
 2017-02-04 04:56:44.769591+01 | 1486180604.76959 | pgbench_accounts_pkey |        224641024

 2017-02-04 04:56:45.853598+01 | 1486180605.8536 | pgbench_branches_pkey |            57344
 2017-02-04 04:56:45.853598+01 | 1486180605.8536 | pgbench_tellers_pkey  |           262144
 2017-02-04 04:56:45.853598+01 | 1486180605.8536 | pgbench_accounts_pkey |        224641024

 2017-02-04 04:56:46.937501+01 | 1486180606.9375 | pgbench_branches_pkey |            57344
 2017-02-04 04:56:46.937501+01 | 1486180606.9375 | pgbench_tellers_pkey  |           262144
 2017-02-04 04:56:46.937501+01 | 1486180606.9375 | pgbench_accounts_pkey |        224641024

 2017-02-04 04:56:48.023984+01 | 1486180608.02398 | pgbench_branches_pkey |            57344
 2017-02-04 04:56:48.023984+01 | 1486180608.02398 | pgbench_tellers_pkey  |           262144
 2017-02-04 04:56:48.023984+01 | 1486180608.02398 | pgbench_accounts_pkey |        224641024

 2017-02-04 04:56:49.111567+01 | 1486180609.11157 | pgbench_branches_pkey |            57344
 2017-02-04 04:56:49.111567+01 | 1486180609.11157 | pgbench_tellers_pkey  |           262144
 2017-02-04 04:56:49.111567+01 | 1486180609.11157 | pgbench_accounts_pkey |        224641024

 2017-02-04 04:56:50.199969+01 | 1486180610.19997 | pgbench_branches_pkey |            57344
 2017-02-04 04:56:50.199969+01 | 1486180610.19997 | pgbench_tellers_pkey  |           262144
 2017-02-04 04:56:50.199969+01 | 1486180610.19997 | pgbench_accounts_pkey |        224641024

 2017-02-04 04:56:51.277207+01 | 1486180611.27721 | pgbench_branches_pkey |            57344
 2017-02-04 04:56:51.277207+01 | 1486180611.27721 | pgbench_tellers_pkey  |           262144
 2017-02-04 04:56:51.277207+01 | 1486180611.27721 | pgbench_accounts_pkey |        224641024

 2017-02-04 04:56:52.367+01 | 1486180612.367 | pgbench_branches_pkey |            57344
 2017-02-04 04:56:52.367+01 | 1486180612.367 | pgbench_tellers_pkey  |           262144
 2017-02-04 04:56:52.367+01 | 1486180612.367 | pgbench_accounts_pkey |        224641024

 2017-02-04 04:56:53.44926+01 | 1486180613.44926 | pgbench_branches_pkey |            57344
 2017-02-04 04:56:53.44926+01 | 1486180613.44926 | pgbench_tellers_pkey  |           262144
 2017-02-04 04:56:53.44926+01 | 1486180613.44926 | pgbench_accounts_pkey |        224641024

 2017-02-04 04:56:54.521839+01 | 1486180614.52184 | pgbench_branches_pkey |            57344
 2017-02-04 04:56:54.521839+01 | 1486180614.52184 | pgbench_tellers_pkey  |           262144
 2017-02-04 04:56:54.521839+01 | 1486180614.52184 | pgbench_accounts_pkey |        224641024

 2017-02-04 04:56:55.604352+01 | 1486180615.60435 | pgbench_branches_pkey |            57344
 2017-02-04 04:56:55.604352+01 | 1486180615.60435 | pgbench_tellers_pkey  |           262144
 2017-02-04 04:56:55.604352+01 | 1486180615.60435 | pgbench_accounts_pkey |        224641024

 2017-02-04 04:56:56.695113+01 | 1486180616.69511 | pgbench_branches_pkey |            57344
 2017-02-04 04:56:56.695113+01 | 1486180616.69511 | pgbench_tellers_pkey  |           262144
 2017-02-04 04:56:56.695113+01 | 1486180616.69511 | pgbench_accounts_pkey |        224641024

 2017-02-04 04:56:57.783756+01 | 1486180617.78376 | pgbench_branches_pkey |            57344
 2017-02-04 04:56:57.783756+01 | 1486180617.78376 | pgbench_tellers_pkey  |           262144
 2017-02-04 04:56:57.783756+01 | 1486180617.78376 | pgbench_accounts_pkey |        224641024

 2017-02-04 04:56:58.86388+01 | 1486180618.86388 | pgbench_branches_pkey |            57344
 2017-02-04 04:56:58.86388+01 | 1486180618.86388 | pgbench_tellers_pkey  |           262144
 2017-02-04 04:56:58.86388+01 | 1486180618.86388 | pgbench_accounts_pkey |        224641024

 2017-02-04 04:56:59.949208+01 | 1486180619.94921 | pgbench_branches_pkey |            57344
 2017-02-04 04:56:59.949208+01 | 1486180619.94921 | pgbench_tellers_pkey  |           262144
 2017-02-04 04:56:59.949208+01 | 1486180619.94921 | pgbench_accounts_pkey |        224641024

 2017-02-04 04:57:01.038731+01 | 1486180621.03873 | pgbench_branches_pkey |            57344
 2017-02-04 04:57:01.038731+01 | 1486180621.03873 | pgbench_tellers_pkey  |           262144
 2017-02-04 04:57:01.038731+01 | 1486180621.03873 | pgbench_accounts_pkey |        224641024

 2017-02-04 04:57:02.11641+01 | 1486180622.11641 | pgbench_branches_pkey |            57344
 2017-02-04 04:57:02.11641+01 | 1486180622.11641 | pgbench_tellers_pkey  |           262144
 2017-02-04 04:57:02.11641+01 | 1486180622.11641 | pgbench_accounts_pkey |        224641024

 2017-02-04 04:57:03.206853+01 | 1486180623.20685 | pgbench_branches_pkey |            57344
 2017-02-04 04:57:03.206853+01 | 1486180623.20685 | pgbench_tellers_pkey  |           262144
 2017-02-04 04:57:03.206853+01 | 1486180623.20685 | pgbench_accounts_pkey |        224641024

 2017-02-04 04:57:04.292647+01 | 1486180624.29265 | pgbench_branches_pkey |            57344
 2017-02-04 04:57:04.292647+01 | 1486180624.29265 | pgbench_tellers_pkey  |           262144
 2017-02-04 04:57:04.292647+01 | 1486180624.29265 | pgbench_accounts_pkey |        224641024

 2017-02-04 04:57:05.370494+01 | 1486180625.37049 | pgbench_branches_pkey |            57344
 2017-02-04 04:57:05.370494+01 | 1486180625.37049 | pgbench_tellers_pkey  |           262144
 2017-02-04 04:57:05.370494+01 | 1486180625.37049 | pgbench_accounts_pkey |        224641024

 2017-02-04 04:57:06.453058+01 | 1486180626.45306 | pgbench_branches_pkey |            57344
 2017-02-04 04:57:06.453058+01 | 1486180626.45306 | pgbench_tellers_pkey  |           262144
 2017-02-04 04:57:06.453058+01 | 1486180626.45306 | pgbench_accounts_pkey |        224641024

 2017-02-04 04:57:07.536436+01 | 1486180627.53644 | pgbench_branches_pkey |            57344
 2017-02-04 04:57:07.536436+01 | 1486180627.53644 | pgbench_tellers_pkey  |           262144
 2017-02-04 04:57:07.536436+01 | 1486180627.53644 | pgbench_accounts_pkey |        224641024

 2017-02-04 04:57:08.611968+01 | 1486180628.61197 | pgbench_branches_pkey |            57344
 2017-02-04 04:57:08.611968+01 | 1486180628.61197 | pgbench_tellers_pkey  |           262144
 2017-02-04 04:57:08.611968+01 | 1486180628.61197 | pgbench_accounts_pkey |        224641024

 2017-02-04 04:57:09.702753+01 | 1486180629.70275 | pgbench_branches_pkey |            57344
 2017-02-04 04:57:09.702753+01 | 1486180629.70275 | pgbench_tellers_pkey  |           262144
 2017-02-04 04:57:09.702753+01 | 1486180629.70275 | pgbench_accounts_pkey |        224641024

 2017-02-04 04:57:10.794031+01 | 1486180630.79403 | pgbench_branches_pkey |            57344
 2017-02-04 04:57:10.794031+01 | 1486180630.79403 | pgbench_tellers_pkey  |           262144
 2017-02-04 04:57:10.794031+01 | 1486180630.79403 | pgbench_accounts_pkey |        224641024

 2017-02-04 04:57:11.877225+01 | 1486180631.87722 | pgbench_branches_pkey |            57344
 2017-02-04 04:57:11.877225+01 | 1486180631.87722 | pgbench_tellers_pkey  |           262144
 2017-02-04 04:57:11.877225+01 | 1486180631.87722 | pgbench_accounts_pkey |        224641024

 2017-02-04 04:57:12.966278+01 | 1486180632.96628 | pgbench_branches_pkey |            57344
 2017-02-04 04:57:12.966278+01 | 1486180632.96628 | pgbench_tellers_pkey  |           262144
 2017-02-04 04:57:12.966278+01 | 1486180632.96628 | pgbench_accounts_pkey |        224641024

 2017-02-04 04:57:14.049952+01 | 1486180634.04995 | pgbench_branches_pkey |            57344
 2017-02-04 04:57:14.049952+01 | 1486180634.04995 | pgbench_tellers_pkey  |           262144
 2017-02-04 04:57:14.049952+01 | 1486180634.04995 | pgbench_accounts_pkey |        224641024

 2017-02-04 04:57:15.138787+01 | 1486180635.13879 | pgbench_branches_pkey |            57344
 2017-02-04 04:57:15.138787+01 | 1486180635.13879 | pgbench_tellers_pkey  |           262144
 2017-02-04 04:57:15.138787+01 | 1486180635.13879 | pgbench_accounts_pkey |        224641024

 2017-02-04 04:57:16.225643+01 | 1486180636.22564 | pgbench_branches_pkey |            57344
 2017-02-04 04:57:16.225643+01 | 1486180636.22564 | pgbench_tellers_pkey  |           262144
 2017-02-04 04:57:16.225643+01 | 1486180636.22564 | pgbench_accounts_pkey |        224641024

 2017-02-04 04:57:17.318257+01 | 1486180637.31826 | pgbench_branches_pkey |            57344
 2017-02-04 04:57:17.318257+01 | 1486180637.31826 | pgbench_tellers_pkey  |           262144
 2017-02-04 04:57:17.318257+01 | 1486180637.31826 | pgbench_accounts_pkey |        224641024

 2017-02-04 04:57:18.406094+01 | 1486180638.40609 | pgbench_branches_pkey |            57344
 2017-02-04 04:57:18.406094+01 | 1486180638.40609 | pgbench_tellers_pkey  |           262144
 2017-02-04 04:57:18.406094+01 | 1486180638.40609 | pgbench_accounts_pkey |        224641024

 2017-02-04 04:57:19.497413+01 | 1486180639.49741 | pgbench_branches_pkey |            57344
 2017-02-04 04:57:19.497413+01 | 1486180639.49741 | pgbench_tellers_pkey  |           262144
 2017-02-04 04:57:19.497413+01 | 1486180639.49741 | pgbench_accounts_pkey |        224641024

 2017-02-04 04:57:20.578377+01 | 1486180640.57838 | pgbench_branches_pkey |            57344
 2017-02-04 04:57:20.578377+01 | 1486180640.57838 | pgbench_tellers_pkey  |           262144
 2017-02-04 04:57:20.578377+01 | 1486180640.57838 | pgbench_accounts_pkey |        224641024

 2017-02-04 04:57:21.661896+01 | 1486180641.6619 | pgbench_branches_pkey |            57344
 2017-02-04 04:57:21.661896+01 | 1486180641.6619 | pgbench_tellers_pkey  |           262144
 2017-02-04 04:57:21.661896+01 | 1486180641.6619 | pgbench_accounts_pkey |        224641024

 2017-02-04 04:57:22.75458+01 | 1486180642.75458 | pgbench_branches_pkey |            57344
 2017-02-04 04:57:22.75458+01 | 1486180642.75458 | pgbench_tellers_pkey  |           262144
 2017-02-04 04:57:22.75458+01 | 1486180642.75458 | pgbench_accounts_pkey |        224641024

 2017-02-04 04:57:23.842837+01 | 1486180643.84284 | pgbench_branches_pkey |            57344
 2017-02-04 04:57:23.842837+01 | 1486180643.84284 | pgbench_tellers_pkey  |           262144
 2017-02-04 04:57:23.842837+01 | 1486180643.84284 | pgbench_accounts_pkey |        224641024

 2017-02-04 04:57:24.929869+01 | 1486180644.92987 | pgbench_branches_pkey |            57344
 2017-02-04 04:57:24.929869+01 | 1486180644.92987 | pgbench_tellers_pkey  |           262144
 2017-02-04 04:57:24.929869+01 | 1486180644.92987 | pgbench_accounts_pkey |        224641024

 2017-02-04 04:57:26.014365+01 | 1486180646.01436 | pgbench_branches_pkey |            57344
 2017-02-04 04:57:26.014365+01 | 1486180646.01436 | pgbench_tellers_pkey  |           262144
 2017-02-04 04:57:26.014365+01 | 1486180646.01436 | pgbench_accounts_pkey |        224641024

 2017-02-04 04:57:27.084435+01 | 1486180647.08443 | pgbench_branches_pkey |            57344
 2017-02-04 04:57:27.084435+01 | 1486180647.08443 | pgbench_tellers_pkey  |           262144
 2017-02-04 04:57:27.084435+01 | 1486180647.08443 | pgbench_accounts_pkey |        224641024

 2017-02-04 04:57:28.165706+01 | 1486180648.16571 | pgbench_branches_pkey |            57344
 2017-02-04 04:57:28.165706+01 | 1486180648.16571 | pgbench_tellers_pkey  |           262144
 2017-02-04 04:57:28.165706+01 | 1486180648.16571 | pgbench_accounts_pkey |        224641024

 2017-02-04 04:57:29.255366+01 | 1486180649.25537 | pgbench_branches_pkey |            57344
 2017-02-04 04:57:29.255366+01 | 1486180649.25537 | pgbench_tellers_pkey  |           262144
 2017-02-04 04:57:29.255366+01 | 1486180649.25537 | pgbench_accounts_pkey |        224641024

 2017-02-04 04:57:30.333881+01 | 1486180650.33388 | pgbench_branches_pkey |            57344
 2017-02-04 04:57:30.333881+01 | 1486180650.33388 | pgbench_tellers_pkey  |           262144
 2017-02-04 04:57:30.333881+01 | 1486180650.33388 | pgbench_accounts_pkey |        224641024

 2017-02-04 04:57:31.415029+01 | 1486180651.41503 | pgbench_branches_pkey |            57344
 2017-02-04 04:57:31.415029+01 | 1486180651.41503 | pgbench_tellers_pkey  |           262144
 2017-02-04 04:57:31.415029+01 | 1486180651.41503 | pgbench_accounts_pkey |        224641024

 2017-02-04 04:57:32.491772+01 | 1486180652.49177 | pgbench_branches_pkey |            57344
 2017-02-04 04:57:32.491772+01 | 1486180652.49177 | pgbench_tellers_pkey  |           262144
 2017-02-04 04:57:32.491772+01 | 1486180652.49177 | pgbench_accounts_pkey |        224641024

 2017-02-04 04:57:33.574424+01 | 1486180653.57442 | pgbench_branches_pkey |            57344
 2017-02-04 04:57:33.574424+01 | 1486180653.57442 | pgbench_tellers_pkey  |           262144
 2017-02-04 04:57:33.574424+01 | 1486180653.57442 | pgbench_accounts_pkey |        224641024

 2017-02-04 04:57:34.652256+01 | 1486180654.65226 | pgbench_branches_pkey |            57344
 2017-02-04 04:57:34.652256+01 | 1486180654.65226 | pgbench_tellers_pkey  |           262144
 2017-02-04 04:57:34.652256+01 | 1486180654.65226 | pgbench_accounts_pkey |        224641024

 2017-02-04 04:57:35.726187+01 | 1486180655.72619 | pgbench_branches_pkey |            57344
 2017-02-04 04:57:35.726187+01 | 1486180655.72619 | pgbench_tellers_pkey  |           262144
 2017-02-04 04:57:35.726187+01 | 1486180655.72619 | pgbench_accounts_pkey |        224641024

 2017-02-04 04:57:36.811957+01 | 1486180656.81196 | pgbench_branches_pkey |            57344
 2017-02-04 04:57:36.811957+01 | 1486180656.81196 | pgbench_tellers_pkey  |           262144
 2017-02-04 04:57:36.811957+01 | 1486180656.81196 | pgbench_accounts_pkey |        224641024

 2017-02-04 04:57:37.88737+01 | 1486180657.88737 | pgbench_branches_pkey |            57344
 2017-02-04 04:57:37.88737+01 | 1486180657.88737 | pgbench_tellers_pkey  |           262144
 2017-02-04 04:57:37.88737+01 | 1486180657.88737 | pgbench_accounts_pkey |        224641024

 2017-02-04 04:57:38.973305+01 | 1486180658.9733 | pgbench_branches_pkey |            57344
 2017-02-04 04:57:38.973305+01 | 1486180658.9733 | pgbench_tellers_pkey  |           262144
 2017-02-04 04:57:38.973305+01 | 1486180658.9733 | pgbench_accounts_pkey |        224641024

 2017-02-04 04:57:40.056287+01 | 1486180660.05629 | pgbench_branches_pkey |            57344
 2017-02-04 04:57:40.056287+01 | 1486180660.05629 | pgbench_tellers_pkey  |           262144
 2017-02-04 04:57:40.056287+01 | 1486180660.05629 | pgbench_accounts_pkey |        224641024

 2017-02-04 04:57:41.128305+01 | 1486180661.1283 | pgbench_branches_pkey |            57344
 2017-02-04 04:57:41.128305+01 | 1486180661.1283 | pgbench_tellers_pkey  |           262144
 2017-02-04 04:57:41.128305+01 | 1486180661.1283 | pgbench_accounts_pkey |        224641024

 2017-02-04 04:57:42.210423+01 | 1486180662.21042 | pgbench_branches_pkey |            57344
 2017-02-04 04:57:42.210423+01 | 1486180662.21042 | pgbench_tellers_pkey  |           262144
 2017-02-04 04:57:42.210423+01 | 1486180662.21042 | pgbench_accounts_pkey |        224641024

 2017-02-04 04:57:43.292305+01 | 1486180663.2923 | pgbench_branches_pkey |            57344
 2017-02-04 04:57:43.292305+01 | 1486180663.2923 | pgbench_tellers_pkey  |           262144
 2017-02-04 04:57:43.292305+01 | 1486180663.2923 | pgbench_accounts_pkey |        224641024

 2017-02-04 04:57:44.36809+01 | 1486180664.36809 | pgbench_branches_pkey |            57344
 2017-02-04 04:57:44.36809+01 | 1486180664.36809 | pgbench_tellers_pkey  |           262144
 2017-02-04 04:57:44.36809+01 | 1486180664.36809 | pgbench_accounts_pkey |        224641024

 2017-02-04 04:57:45.455701+01 | 1486180665.4557 | pgbench_branches_pkey |            57344
 2017-02-04 04:57:45.455701+01 | 1486180665.4557 | pgbench_tellers_pkey  |           262144
 2017-02-04 04:57:45.455701+01 | 1486180665.4557 | pgbench_accounts_pkey |        224641024

 2017-02-04 04:57:46.540518+01 | 1486180666.54052 | pgbench_branches_pkey |            57344
 2017-02-04 04:57:46.540518+01 | 1486180666.54052 | pgbench_tellers_pkey  |           262144
 2017-02-04 04:57:46.540518+01 | 1486180666.54052 | pgbench_accounts_pkey |        224641024

 2017-02-04 04:57:47.625308+01 | 1486180667.62531 | pgbench_branches_pkey |            57344
 2017-02-04 04:57:47.625308+01 | 1486180667.62531 | pgbench_tellers_pkey  |           262144
 2017-02-04 04:57:47.625308+01 | 1486180667.62531 | pgbench_accounts_pkey |        224641024

 2017-02-04 04:57:48.713981+01 | 1486180668.71398 | pgbench_branches_pkey |            57344
 2017-02-04 04:57:48.713981+01 | 1486180668.71398 | pgbench_tellers_pkey  |           262144
 2017-02-04 04:57:48.713981+01 | 1486180668.71398 | pgbench_accounts_pkey |        224641024

 2017-02-04 04:57:49.794921+01 | 1486180669.79492 | pgbench_branches_pkey |            57344
 2017-02-04 04:57:49.794921+01 | 1486180669.79492 | pgbench_tellers_pkey  |           262144
 2017-02-04 04:57:49.794921+01 | 1486180669.79492 | pgbench_accounts_pkey |        224641024

 2017-02-04 04:57:50.885013+01 | 1486180670.88501 | pgbench_branches_pkey |            57344
 2017-02-04 04:57:50.885013+01 | 1486180670.88501 | pgbench_tellers_pkey  |           262144
 2017-02-04 04:57:50.885013+01 | 1486180670.88501 | pgbench_accounts_pkey |        224641024

 2017-02-04 04:57:51.974763+01 | 1486180671.97476 | pgbench_branches_pkey |            57344
 2017-02-04 04:57:51.974763+01 | 1486180671.97476 | pgbench_tellers_pkey  |           262144
 2017-02-04 04:57:51.974763+01 | 1486180671.97476 | pgbench_accounts_pkey |        224641024

 2017-02-04 04:57:53.067142+01 | 1486180673.06714 | pgbench_branches_pkey |            57344
 2017-02-04 04:57:53.067142+01 | 1486180673.06714 | pgbench_tellers_pkey  |           262144
 2017-02-04 04:57:53.067142+01 | 1486180673.06714 | pgbench_accounts_pkey |        224641024

 2017-02-04 04:57:54.157872+01 | 1486180674.15787 | pgbench_branches_pkey |            57344
 2017-02-04 04:57:54.157872+01 | 1486180674.15787 | pgbench_tellers_pkey  |           262144
 2017-02-04 04:57:54.157872+01 | 1486180674.15787 | pgbench_accounts_pkey |        224641024

 2017-02-04 04:57:55.230295+01 | 1486180675.23029 | pgbench_branches_pkey |            57344
 2017-02-04 04:57:55.230295+01 | 1486180675.23029 | pgbench_tellers_pkey  |           262144
 2017-02-04 04:57:55.230295+01 | 1486180675.23029 | pgbench_accounts_pkey |        224641024

 2017-02-04 04:57:56.30794+01 | 1486180676.30794 | pgbench_branches_pkey |            57344
 2017-02-04 04:57:56.30794+01 | 1486180676.30794 | pgbench_tellers_pkey  |           262144
 2017-02-04 04:57:56.30794+01 | 1486180676.30794 | pgbench_accounts_pkey |        224641024

 2017-02-04 04:57:57.387482+01 | 1486180677.38748 | pgbench_branches_pkey |            57344
 2017-02-04 04:57:57.387482+01 | 1486180677.38748 | pgbench_tellers_pkey  |           262144
 2017-02-04 04:57:57.387482+01 | 1486180677.38748 | pgbench_accounts_pkey |        224641024

 2017-02-04 04:57:58.472104+01 | 1486180678.4721 | pgbench_branches_pkey |            57344
 2017-02-04 04:57:58.472104+01 | 1486180678.4721 | pgbench_tellers_pkey  |           262144
 2017-02-04 04:57:58.472104+01 | 1486180678.4721 | pgbench_accounts_pkey |        224641024

 2017-02-04 04:57:59.55209+01 | 1486180679.55209 | pgbench_branches_pkey |            57344
 2017-02-04 04:57:59.55209+01 | 1486180679.55209 | pgbench_tellers_pkey  |           262144
 2017-02-04 04:57:59.55209+01 | 1486180679.55209 | pgbench_accounts_pkey |        224641024

 2017-02-04 04:58:00.641545+01 | 1486180680.64155 | pgbench_branches_pkey |            57344
 2017-02-04 04:58:00.641545+01 | 1486180680.64155 | pgbench_tellers_pkey  |           262144
 2017-02-04 04:58:00.641545+01 | 1486180680.64155 | pgbench_accounts_pkey |        224641024

 2017-02-04 04:58:01.724897+01 | 1486180681.7249 | pgbench_branches_pkey |            57344
 2017-02-04 04:58:01.724897+01 | 1486180681.7249 | pgbench_tellers_pkey  |           262144
 2017-02-04 04:58:01.724897+01 | 1486180681.7249 | pgbench_accounts_pkey |        224641024

 2017-02-04 04:58:02.804776+01 | 1486180682.80478 | pgbench_branches_pkey |            57344
 2017-02-04 04:58:02.804776+01 | 1486180682.80478 | pgbench_tellers_pkey  |           262144
 2017-02-04 04:58:02.804776+01 | 1486180682.80478 | pgbench_accounts_pkey |        224641024

 2017-02-04 04:58:03.893479+01 | 1486180683.89348 | pgbench_branches_pkey |            57344
 2017-02-04 04:58:03.893479+01 | 1486180683.89348 | pgbench_tellers_pkey  |           262144
 2017-02-04 04:58:03.893479+01 | 1486180683.89348 | pgbench_accounts_pkey |        224641024

 2017-02-04 04:58:04.979718+01 | 1486180684.97972 | pgbench_branches_pkey |            57344
 2017-02-04 04:58:04.979718+01 | 1486180684.97972 | pgbench_tellers_pkey  |           262144
 2017-02-04 04:58:04.979718+01 | 1486180684.97972 | pgbench_accounts_pkey |        224641024

 2017-02-04 04:58:06.064748+01 | 1486180686.06475 | pgbench_branches_pkey |            57344
 2017-02-04 04:58:06.064748+01 | 1486180686.06475 | pgbench_tellers_pkey  |           262144
 2017-02-04 04:58:06.064748+01 | 1486180686.06475 | pgbench_accounts_pkey |        224641024

 2017-02-04 04:58:07.146372+01 | 1486180687.14637 | pgbench_branches_pkey |            57344
 2017-02-04 04:58:07.146372+01 | 1486180687.14637 | pgbench_tellers_pkey  |           262144
 2017-02-04 04:58:07.146372+01 | 1486180687.14637 | pgbench_accounts_pkey |        224641024

 2017-02-04 04:58:08.216634+01 | 1486180688.21663 | pgbench_branches_pkey |            57344
 2017-02-04 04:58:08.216634+01 | 1486180688.21663 | pgbench_tellers_pkey  |           262144
 2017-02-04 04:58:08.216634+01 | 1486180688.21663 | pgbench_accounts_pkey |        224641024

 2017-02-04 04:58:09.286946+01 | 1486180689.28695 | pgbench_branches_pkey |            57344
 2017-02-04 04:58:09.286946+01 | 1486180689.28695 | pgbench_tellers_pkey  |           262144
 2017-02-04 04:58:09.286946+01 | 1486180689.28695 | pgbench_accounts_pkey |        224641024

 2017-02-04 04:58:10.357806+01 | 1486180690.35781 | pgbench_branches_pkey |            57344
 2017-02-04 04:58:10.357806+01 | 1486180690.35781 | pgbench_tellers_pkey  |           262144
 2017-02-04 04:58:10.357806+01 | 1486180690.35781 | pgbench_accounts_pkey |        224641024

 2017-02-04 04:58:11.44199+01 | 1486180691.44199 | pgbench_branches_pkey |            57344
 2017-02-04 04:58:11.44199+01 | 1486180691.44199 | pgbench_tellers_pkey  |           262144
 2017-02-04 04:58:11.44199+01 | 1486180691.44199 | pgbench_accounts_pkey |        224641024

 2017-02-04 04:58:12.527246+01 | 1486180692.52725 | pgbench_branches_pkey |            57344
 2017-02-04 04:58:12.527246+01 | 1486180692.52725 | pgbench_tellers_pkey  |           262144
 2017-02-04 04:58:12.527246+01 | 1486180692.52725 | pgbench_accounts_pkey |        224641024

 2017-02-04 04:58:13.608908+01 | 1486180693.60891 | pgbench_branches_pkey |            57344
 2017-02-04 04:58:13.608908+01 | 1486180693.60891 | pgbench_tellers_pkey  |           262144
 2017-02-04 04:58:13.608908+01 | 1486180693.60891 | pgbench_accounts_pkey |        224641024

 2017-02-04 04:58:14.693879+01 | 1486180694.69388 | pgbench_branches_pkey |            57344
 2017-02-04 04:58:14.693879+01 | 1486180694.69388 | pgbench_tellers_pkey  |           262144
 2017-02-04 04:58:14.693879+01 | 1486180694.69388 | pgbench_accounts_pkey |        224641024

 2017-02-04 04:58:15.772882+01 | 1486180695.77288 | pgbench_branches_pkey |            57344
 2017-02-04 04:58:15.772882+01 | 1486180695.77288 | pgbench_tellers_pkey  |           262144
 2017-02-04 04:58:15.772882+01 | 1486180695.77288 | pgbench_accounts_pkey |        224641024

 2017-02-04 04:58:16.855734+01 | 1486180696.85573 | pgbench_branches_pkey |            57344
 2017-02-04 04:58:16.855734+01 | 1486180696.85573 | pgbench_tellers_pkey  |           262144
 2017-02-04 04:58:16.855734+01 | 1486180696.85573 | pgbench_accounts_pkey |        224641024

 2017-02-04 04:58:17.930277+01 | 1486180697.93028 | pgbench_branches_pkey |            57344
 2017-02-04 04:58:17.930277+01 | 1486180697.93028 | pgbench_tellers_pkey  |           262144
 2017-02-04 04:58:17.930277+01 | 1486180697.93028 | pgbench_accounts_pkey |        224641024

 2017-02-04 04:58:19.020408+01 | 1486180699.02041 | pgbench_branches_pkey |            57344
 2017-02-04 04:58:19.020408+01 | 1486180699.02041 | pgbench_tellers_pkey  |           262144
 2017-02-04 04:58:19.020408+01 | 1486180699.02041 | pgbench_accounts_pkey |        224641024

 2017-02-04 04:58:20.100742+01 | 1486180700.10074 | pgbench_branches_pkey |            57344
 2017-02-04 04:58:20.100742+01 | 1486180700.10074 | pgbench_tellers_pkey  |           262144
 2017-02-04 04:58:20.100742+01 | 1486180700.10074 | pgbench_accounts_pkey |        224641024

 2017-02-04 04:58:21.1808+01 | 1486180701.1808 | pgbench_branches_pkey |            57344
 2017-02-04 04:58:21.1808+01 | 1486180701.1808 | pgbench_tellers_pkey  |           262144
 2017-02-04 04:58:21.1808+01 | 1486180701.1808 | pgbench_accounts_pkey |        224641024

 2017-02-04 04:58:22.270546+01 | 1486180702.27055 | pgbench_branches_pkey |            57344
 2017-02-04 04:58:22.270546+01 | 1486180702.27055 | pgbench_tellers_pkey  |           262144
 2017-02-04 04:58:22.270546+01 | 1486180702.27055 | pgbench_accounts_pkey |        224641024

 2017-02-04 04:58:23.357391+01 | 1486180703.35739 | pgbench_branches_pkey |            57344
 2017-02-04 04:58:23.357391+01 | 1486180703.35739 | pgbench_tellers_pkey  |           262144
 2017-02-04 04:58:23.357391+01 | 1486180703.35739 | pgbench_accounts_pkey |        224641024

 2017-02-04 04:58:24.428952+01 | 1486180704.42895 | pgbench_branches_pkey |            57344
 2017-02-04 04:58:24.428952+01 | 1486180704.42895 | pgbench_tellers_pkey  |           262144
 2017-02-04 04:58:24.428952+01 | 1486180704.42895 | pgbench_accounts_pkey |        224641024

 2017-02-04 04:58:25.513401+01 | 1486180705.5134 | pgbench_branches_pkey |            57344
 2017-02-04 04:58:25.513401+01 | 1486180705.5134 | pgbench_tellers_pkey  |           262144
 2017-02-04 04:58:25.513401+01 | 1486180705.5134 | pgbench_accounts_pkey |        224641024

 2017-02-04 04:58:26.593712+01 | 1486180706.59371 | pgbench_branches_pkey |            57344
 2017-02-04 04:58:26.593712+01 | 1486180706.59371 | pgbench_tellers_pkey  |           262144
 2017-02-04 04:58:26.593712+01 | 1486180706.59371 | pgbench_accounts_pkey |        224641024

 2017-02-04 04:58:27.680096+01 | 1486180707.6801 | pgbench_branches_pkey |            57344
 2017-02-04 04:58:27.680096+01 | 1486180707.6801 | pgbench_tellers_pkey  |           262144
 2017-02-04 04:58:27.680096+01 | 1486180707.6801 | pgbench_accounts_pkey |        224641024

 2017-02-04 04:58:28.764233+01 | 1486180708.76423 | pgbench_branches_pkey |            57344
 2017-02-04 04:58:28.764233+01 | 1486180708.76423 | pgbench_tellers_pkey  |           262144
 2017-02-04 04:58:28.764233+01 | 1486180708.76423 | pgbench_accounts_pkey |        224641024

 2017-02-04 04:58:29.844921+01 | 1486180709.84492 | pgbench_branches_pkey |            57344
 2017-02-04 04:58:29.844921+01 | 1486180709.84492 | pgbench_tellers_pkey  |           262144
 2017-02-04 04:58:29.844921+01 | 1486180709.84492 | pgbench_accounts_pkey |        224641024

 2017-02-04 04:58:30.928215+01 | 1486180710.92822 | pgbench_branches_pkey |            57344
 2017-02-04 04:58:30.928215+01 | 1486180710.92822 | pgbench_tellers_pkey  |           262144
 2017-02-04 04:58:30.928215+01 | 1486180710.92822 | pgbench_accounts_pkey |        224641024

 2017-02-04 04:58:32.019551+01 | 1486180712.01955 | pgbench_branches_pkey |            57344
 2017-02-04 04:58:32.019551+01 | 1486180712.01955 | pgbench_tellers_pkey  |           262144
 2017-02-04 04:58:32.019551+01 | 1486180712.01955 | pgbench_accounts_pkey |        224641024

 2017-02-04 04:58:33.103454+01 | 1486180713.10345 | pgbench_branches_pkey |            57344
 2017-02-04 04:58:33.103454+01 | 1486180713.10345 | pgbench_tellers_pkey  |           262144
 2017-02-04 04:58:33.103454+01 | 1486180713.10345 | pgbench_accounts_pkey |        224641024

 2017-02-04 04:58:34.184851+01 | 1486180714.18485 | pgbench_branches_pkey |            57344
 2017-02-04 04:58:34.184851+01 | 1486180714.18485 | pgbench_tellers_pkey  |           262144
 2017-02-04 04:58:34.184851+01 | 1486180714.18485 | pgbench_accounts_pkey |        224641024

 2017-02-04 04:58:35.263835+01 | 1486180715.26383 | pgbench_branches_pkey |            57344
 2017-02-04 04:58:35.263835+01 | 1486180715.26383 | pgbench_tellers_pkey  |           262144
 2017-02-04 04:58:35.263835+01 | 1486180715.26383 | pgbench_accounts_pkey |        224641024

 2017-02-04 04:58:36.352099+01 | 1486180716.3521 | pgbench_branches_pkey |            57344
 2017-02-04 04:58:36.352099+01 | 1486180716.3521 | pgbench_tellers_pkey  |           262144
 2017-02-04 04:58:36.352099+01 | 1486180716.3521 | pgbench_accounts_pkey |        224641024

 2017-02-04 04:58:37.44164+01 | 1486180717.44164 | pgbench_branches_pkey |            57344
 2017-02-04 04:58:37.44164+01 | 1486180717.44164 | pgbench_tellers_pkey  |           262144
 2017-02-04 04:58:37.44164+01 | 1486180717.44164 | pgbench_accounts_pkey |        224641024

 2017-02-04 04:58:38.533066+01 | 1486180718.53307 | pgbench_branches_pkey |            57344
 2017-02-04 04:58:38.533066+01 | 1486180718.53307 | pgbench_tellers_pkey  |           262144
 2017-02-04 04:58:38.533066+01 | 1486180718.53307 | pgbench_accounts_pkey |        224641024

 2017-02-04 04:58:39.626607+01 | 1486180719.62661 | pgbench_branches_pkey |            57344
 2017-02-04 04:58:39.626607+01 | 1486180719.62661 | pgbench_tellers_pkey  |           262144
 2017-02-04 04:58:39.626607+01 | 1486180719.62661 | pgbench_accounts_pkey |        224641024

 2017-02-04 04:58:40.715704+01 | 1486180720.7157 | pgbench_branches_pkey |            57344
 2017-02-04 04:58:40.715704+01 | 1486180720.7157 | pgbench_tellers_pkey  |           262144
 2017-02-04 04:58:40.715704+01 | 1486180720.7157 | pgbench_accounts_pkey |        224641024

 2017-02-04 04:58:41.798579+01 | 1486180721.79858 | pgbench_branches_pkey |            57344
 2017-02-04 04:58:41.798579+01 | 1486180721.79858 | pgbench_tellers_pkey  |           262144
 2017-02-04 04:58:41.798579+01 | 1486180721.79858 | pgbench_accounts_pkey |        224641024

 2017-02-04 04:58:42.88282+01 | 1486180722.88282 | pgbench_branches_pkey |            57344
 2017-02-04 04:58:42.88282+01 | 1486180722.88282 | pgbench_tellers_pkey  |           262144
 2017-02-04 04:58:42.88282+01 | 1486180722.88282 | pgbench_accounts_pkey |        224641024

 2017-02-04 04:58:43.968718+01 | 1486180723.96872 | pgbench_branches_pkey |            57344
 2017-02-04 04:58:43.968718+01 | 1486180723.96872 | pgbench_tellers_pkey  |           262144
 2017-02-04 04:58:43.968718+01 | 1486180723.96872 | pgbench_accounts_pkey |        224641024

 2017-02-04 04:58:45.048071+01 | 1486180725.04807 | pgbench_branches_pkey |            57344
 2017-02-04 04:58:45.048071+01 | 1486180725.04807 | pgbench_tellers_pkey  |           262144
 2017-02-04 04:58:45.048071+01 | 1486180725.04807 | pgbench_accounts_pkey |        224641024

 2017-02-04 04:58:46.12211+01 | 1486180726.12211 | pgbench_branches_pkey |            57344
 2017-02-04 04:58:46.12211+01 | 1486180726.12211 | pgbench_tellers_pkey  |           262144
 2017-02-04 04:58:46.12211+01 | 1486180726.12211 | pgbench_accounts_pkey |        224641024

 2017-02-04 04:58:47.194497+01 | 1486180727.1945 | pgbench_branches_pkey |            57344
 2017-02-04 04:58:47.194497+01 | 1486180727.1945 | pgbench_tellers_pkey  |           262144
 2017-02-04 04:58:47.194497+01 | 1486180727.1945 | pgbench_accounts_pkey |        224641024

 2017-02-04 04:58:48.282259+01 | 1486180728.28226 | pgbench_branches_pkey |            57344
 2017-02-04 04:58:48.282259+01 | 1486180728.28226 | pgbench_tellers_pkey  |           262144
 2017-02-04 04:58:48.282259+01 | 1486180728.28226 | pgbench_accounts_pkey |        224641024

 2017-02-04 04:58:49.354386+01 | 1486180729.35439 | pgbench_branches_pkey |            57344
 2017-02-04 04:58:49.354386+01 | 1486180729.35439 | pgbench_tellers_pkey  |           262144
 2017-02-04 04:58:49.354386+01 | 1486180729.35439 | pgbench_accounts_pkey |        224641024

 2017-02-04 04:58:50.442132+01 | 1486180730.44213 | pgbench_branches_pkey |            57344
 2017-02-04 04:58:50.442132+01 | 1486180730.44213 | pgbench_tellers_pkey  |           262144
 2017-02-04 04:58:50.442132+01 | 1486180730.44213 | pgbench_accounts_pkey |        224641024

 2017-02-04 04:58:51.527421+01 | 1486180731.52742 | pgbench_branches_pkey |            57344
 2017-02-04 04:58:51.527421+01 | 1486180731.52742 | pgbench_tellers_pkey  |           262144
 2017-02-04 04:58:51.527421+01 | 1486180731.52742 | pgbench_accounts_pkey |        224641024

 2017-02-04 04:58:52.615045+01 | 1486180732.61505 | pgbench_branches_pkey |            57344
 2017-02-04 04:58:52.615045+01 | 1486180732.61505 | pgbench_tellers_pkey  |           262144
 2017-02-04 04:58:52.615045+01 | 1486180732.61505 | pgbench_accounts_pkey |        224641024

 2017-02-04 04:58:53.705365+01 | 1486180733.70536 | pgbench_branches_pkey |            57344
 2017-02-04 04:58:53.705365+01 | 1486180733.70536 | pgbench_tellers_pkey  |           262144
 2017-02-04 04:58:53.705365+01 | 1486180733.70536 | pgbench_accounts_pkey |        224641024

 2017-02-04 04:58:54.788712+01 | 1486180734.78871 | pgbench_branches_pkey |            57344
 2017-02-04 04:58:54.788712+01 | 1486180734.78871 | pgbench_tellers_pkey  |           262144
 2017-02-04 04:58:54.788712+01 | 1486180734.78871 | pgbench_accounts_pkey |        224641024

 2017-02-04 04:58:55.875411+01 | 1486180735.87541 | pgbench_branches_pkey |            57344
 2017-02-04 04:58:55.875411+01 | 1486180735.87541 | pgbench_tellers_pkey  |           262144
 2017-02-04 04:58:55.875411+01 | 1486180735.87541 | pgbench_accounts_pkey |        224641024

 2017-02-04 04:58:56.967162+01 | 1486180736.96716 | pgbench_branches_pkey |            57344
 2017-02-04 04:58:56.967162+01 | 1486180736.96716 | pgbench_tellers_pkey  |           262144
 2017-02-04 04:58:56.967162+01 | 1486180736.96716 | pgbench_accounts_pkey |        224641024

 2017-02-04 04:58:58.049892+01 | 1486180738.04989 | pgbench_branches_pkey |            57344
 2017-02-04 04:58:58.049892+01 | 1486180738.04989 | pgbench_tellers_pkey  |           262144
 2017-02-04 04:58:58.049892+01 | 1486180738.04989 | pgbench_accounts_pkey |        224641024

 2017-02-04 04:58:59.13458+01 | 1486180739.13458 | pgbench_branches_pkey |            57344
 2017-02-04 04:58:59.13458+01 | 1486180739.13458 | pgbench_tellers_pkey  |           262144
 2017-02-04 04:58:59.13458+01 | 1486180739.13458 | pgbench_accounts_pkey |        224641024

 2017-02-04 04:59:00.230177+01 | 1486180740.23018 | pgbench_branches_pkey |            57344
 2017-02-04 04:59:00.230177+01 | 1486180740.23018 | pgbench_tellers_pkey  |           262144
 2017-02-04 04:59:00.230177+01 | 1486180740.23018 | pgbench_accounts_pkey |        224641024

 2017-02-04 04:59:01.315186+01 | 1486180741.31519 | pgbench_branches_pkey |            57344
 2017-02-04 04:59:01.315186+01 | 1486180741.31519 | pgbench_tellers_pkey  |           262144
 2017-02-04 04:59:01.315186+01 | 1486180741.31519 | pgbench_accounts_pkey |        224641024

 2017-02-04 04:59:02.409484+01 | 1486180742.40948 | pgbench_branches_pkey |            57344
 2017-02-04 04:59:02.409484+01 | 1486180742.40948 | pgbench_tellers_pkey  |           262144
 2017-02-04 04:59:02.409484+01 | 1486180742.40948 | pgbench_accounts_pkey |        224641024

 2017-02-04 04:59:03.48601+01 | 1486180743.48601 | pgbench_branches_pkey |            57344
 2017-02-04 04:59:03.48601+01 | 1486180743.48601 | pgbench_tellers_pkey  |           262144
 2017-02-04 04:59:03.48601+01 | 1486180743.48601 | pgbench_accounts_pkey |        224641024

 2017-02-04 04:59:04.574465+01 | 1486180744.57447 | pgbench_branches_pkey |            57344
 2017-02-04 04:59:04.574465+01 | 1486180744.57447 | pgbench_tellers_pkey  |           262144
 2017-02-04 04:59:04.574465+01 | 1486180744.57447 | pgbench_accounts_pkey |        224641024

 2017-02-04 04:59:05.663175+01 | 1486180745.66318 | pgbench_branches_pkey |            57344
 2017-02-04 04:59:05.663175+01 | 1486180745.66318 | pgbench_tellers_pkey  |           262144
 2017-02-04 04:59:05.663175+01 | 1486180745.66318 | pgbench_accounts_pkey |        224641024

 2017-02-04 04:59:06.751226+01 | 1486180746.75123 | pgbench_branches_pkey |            57344
 2017-02-04 04:59:06.751226+01 | 1486180746.75123 | pgbench_tellers_pkey  |           262144
 2017-02-04 04:59:06.751226+01 | 1486180746.75123 | pgbench_accounts_pkey |        224641024

 2017-02-04 04:59:07.845034+01 | 1486180747.84503 | pgbench_branches_pkey |            57344
 2017-02-04 04:59:07.845034+01 | 1486180747.84503 | pgbench_tellers_pkey  |           262144
 2017-02-04 04:59:07.845034+01 | 1486180747.84503 | pgbench_accounts_pkey |        224641024

 2017-02-04 04:59:08.931391+01 | 1486180748.93139 | pgbench_branches_pkey |            57344
 2017-02-04 04:59:08.931391+01 | 1486180748.93139 | pgbench_tellers_pkey  |           262144
 2017-02-04 04:59:08.931391+01 | 1486180748.93139 | pgbench_accounts_pkey |        224641024

 2017-02-04 04:59:10.017988+01 | 1486180750.01799 | pgbench_branches_pkey |            57344
 2017-02-04 04:59:10.017988+01 | 1486180750.01799 | pgbench_tellers_pkey  |           262144
 2017-02-04 04:59:10.017988+01 | 1486180750.01799 | pgbench_accounts_pkey |        224641024

 2017-02-04 04:59:11.107598+01 | 1486180751.1076 | pgbench_branches_pkey |            57344
 2017-02-04 04:59:11.107598+01 | 1486180751.1076 | pgbench_tellers_pkey  |           262144
 2017-02-04 04:59:11.107598+01 | 1486180751.1076 | pgbench_accounts_pkey |        224641024

 2017-02-04 04:59:12.194603+01 | 1486180752.1946 | pgbench_branches_pkey |            57344
 2017-02-04 04:59:12.194603+01 | 1486180752.1946 | pgbench_tellers_pkey  |           262144
 2017-02-04 04:59:12.194603+01 | 1486180752.1946 | pgbench_accounts_pkey |        224641024

 2017-02-04 04:59:13.282358+01 | 1486180753.28236 | pgbench_branches_pkey |            57344
 2017-02-04 04:59:13.282358+01 | 1486180753.28236 | pgbench_tellers_pkey  |           262144
 2017-02-04 04:59:13.282358+01 | 1486180753.28236 | pgbench_accounts_pkey |        224641024

 2017-02-04 04:59:14.361671+01 | 1486180754.36167 | pgbench_branches_pkey |            57344
 2017-02-04 04:59:14.361671+01 | 1486180754.36167 | pgbench_tellers_pkey  |           262144
 2017-02-04 04:59:14.361671+01 | 1486180754.36167 | pgbench_accounts_pkey |        224641024

 2017-02-04 04:59:15.44646+01 | 1486180755.44646 | pgbench_branches_pkey |            57344
 2017-02-04 04:59:15.44646+01 | 1486180755.44646 | pgbench_tellers_pkey  |           262144
 2017-02-04 04:59:15.44646+01 | 1486180755.44646 | pgbench_accounts_pkey |        224641024

 2017-02-04 04:59:16.522869+01 | 1486180756.52287 | pgbench_branches_pkey |            57344
 2017-02-04 04:59:16.522869+01 | 1486180756.52287 | pgbench_tellers_pkey  |           262144
 2017-02-04 04:59:16.522869+01 | 1486180756.52287 | pgbench_accounts_pkey |        224641024

 2017-02-04 04:59:17.604358+01 | 1486180757.60436 | pgbench_branches_pkey |            57344
 2017-02-04 04:59:17.604358+01 | 1486180757.60436 | pgbench_tellers_pkey  |           262144
 2017-02-04 04:59:17.604358+01 | 1486180757.60436 | pgbench_accounts_pkey |        224641024

 2017-02-04 04:59:18.680033+01 | 1486180758.68003 | pgbench_branches_pkey |            57344
 2017-02-04 04:59:18.680033+01 | 1486180758.68003 | pgbench_tellers_pkey  |           262144
 2017-02-04 04:59:18.680033+01 | 1486180758.68003 | pgbench_accounts_pkey |        224641024

 2017-02-04 04:59:19.768423+01 | 1486180759.76842 | pgbench_branches_pkey |            57344
 2017-02-04 04:59:19.768423+01 | 1486180759.76842 | pgbench_tellers_pkey  |           262144
 2017-02-04 04:59:19.768423+01 | 1486180759.76842 | pgbench_accounts_pkey |        224641024

 2017-02-04 04:59:20.856542+01 | 1486180760.85654 | pgbench_branches_pkey |            57344
 2017-02-04 04:59:20.856542+01 | 1486180760.85654 | pgbench_tellers_pkey  |           262144
 2017-02-04 04:59:20.856542+01 | 1486180760.85654 | pgbench_accounts_pkey |        224641024

 2017-02-04 04:59:21.947809+01 | 1486180761.94781 | pgbench_branches_pkey |            57344
 2017-02-04 04:59:21.947809+01 | 1486180761.94781 | pgbench_tellers_pkey  |           262144
 2017-02-04 04:59:21.947809+01 | 1486180761.94781 | pgbench_accounts_pkey |        224641024

 2017-02-04 04:59:23.036957+01 | 1486180763.03696 | pgbench_branches_pkey |            57344
 2017-02-04 04:59:23.036957+01 | 1486180763.03696 | pgbench_tellers_pkey  |           262144
 2017-02-04 04:59:23.036957+01 | 1486180763.03696 | pgbench_accounts_pkey |        224641024

 2017-02-04 04:59:24.129654+01 | 1486180764.12965 | pgbench_branches_pkey |            57344
 2017-02-04 04:59:24.129654+01 | 1486180764.12965 | pgbench_tellers_pkey  |           262144
 2017-02-04 04:59:24.129654+01 | 1486180764.12965 | pgbench_accounts_pkey |        224641024

 2017-02-04 04:59:25.218464+01 | 1486180765.21846 | pgbench_branches_pkey |            57344
 2017-02-04 04:59:25.218464+01 | 1486180765.21846 | pgbench_tellers_pkey  |           262144
 2017-02-04 04:59:25.218464+01 | 1486180765.21846 | pgbench_accounts_pkey |        224641024

 2017-02-04 04:59:26.295275+01 | 1486180766.29527 | pgbench_branches_pkey |            57344
 2017-02-04 04:59:26.295275+01 | 1486180766.29527 | pgbench_tellers_pkey  |           262144
 2017-02-04 04:59:26.295275+01 | 1486180766.29527 | pgbench_accounts_pkey |        224641024

 2017-02-04 04:59:27.369538+01 | 1486180767.36954 | pgbench_branches_pkey |            57344
 2017-02-04 04:59:27.369538+01 | 1486180767.36954 | pgbench_tellers_pkey  |           262144
 2017-02-04 04:59:27.369538+01 | 1486180767.36954 | pgbench_accounts_pkey |        224641024

 2017-02-04 04:59:28.453482+01 | 1486180768.45348 | pgbench_branches_pkey |            57344
 2017-02-04 04:59:28.453482+01 | 1486180768.45348 | pgbench_tellers_pkey  |           262144
 2017-02-04 04:59:28.453482+01 | 1486180768.45348 | pgbench_accounts_pkey |        224641024

 2017-02-04 04:59:29.537781+01 | 1486180769.53778 | pgbench_branches_pkey |            57344
 2017-02-04 04:59:29.537781+01 | 1486180769.53778 | pgbench_tellers_pkey  |           262144
 2017-02-04 04:59:29.537781+01 | 1486180769.53778 | pgbench_accounts_pkey |        224641024

 2017-02-04 04:59:30.627683+01 | 1486180770.62768 | pgbench_branches_pkey |            57344
 2017-02-04 04:59:30.627683+01 | 1486180770.62768 | pgbench_tellers_pkey  |           262144
 2017-02-04 04:59:30.627683+01 | 1486180770.62768 | pgbench_accounts_pkey |        224641024

 2017-02-04 04:59:31.710003+01 | 1486180771.71 | pgbench_branches_pkey |            57344
 2017-02-04 04:59:31.710003+01 | 1486180771.71 | pgbench_tellers_pkey  |           262144
 2017-02-04 04:59:31.710003+01 | 1486180771.71 | pgbench_accounts_pkey |        224641024

 2017-02-04 04:59:32.790582+01 | 1486180772.79058 | pgbench_branches_pkey |            57344
 2017-02-04 04:59:32.790582+01 | 1486180772.79058 | pgbench_tellers_pkey  |           262144
 2017-02-04 04:59:32.790582+01 | 1486180772.79058 | pgbench_accounts_pkey |        224641024

 2017-02-04 04:59:33.868579+01 | 1486180773.86858 | pgbench_branches_pkey |            57344
 2017-02-04 04:59:33.868579+01 | 1486180773.86858 | pgbench_tellers_pkey  |           262144
 2017-02-04 04:59:33.868579+01 | 1486180773.86858 | pgbench_accounts_pkey |        224641024

 2017-02-04 04:59:34.947913+01 | 1486180774.94791 | pgbench_branches_pkey |            57344
 2017-02-04 04:59:34.947913+01 | 1486180774.94791 | pgbench_tellers_pkey  |           262144
 2017-02-04 04:59:34.947913+01 | 1486180774.94791 | pgbench_accounts_pkey |        224641024

 2017-02-04 04:59:36.028955+01 | 1486180776.02895 | pgbench_branches_pkey |            57344
 2017-02-04 04:59:36.028955+01 | 1486180776.02895 | pgbench_tellers_pkey  |           262144
 2017-02-04 04:59:36.028955+01 | 1486180776.02895 | pgbench_accounts_pkey |        224641024

 2017-02-04 04:59:37.112426+01 | 1486180777.11243 | pgbench_branches_pkey |            57344
 2017-02-04 04:59:37.112426+01 | 1486180777.11243 | pgbench_tellers_pkey  |           262144
 2017-02-04 04:59:37.112426+01 | 1486180777.11243 | pgbench_accounts_pkey |        224641024

 2017-02-04 04:59:38.186514+01 | 1486180778.18651 | pgbench_branches_pkey |            57344
 2017-02-04 04:59:38.186514+01 | 1486180778.18651 | pgbench_tellers_pkey  |           262144
 2017-02-04 04:59:38.186514+01 | 1486180778.18651 | pgbench_accounts_pkey |        224641024

 2017-02-04 04:59:39.260289+01 | 1486180779.26029 | pgbench_branches_pkey |            57344
 2017-02-04 04:59:39.260289+01 | 1486180779.26029 | pgbench_tellers_pkey  |           262144
 2017-02-04 04:59:39.260289+01 | 1486180779.26029 | pgbench_accounts_pkey |        224641024

 2017-02-04 04:59:40.346117+01 | 1486180780.34612 | pgbench_branches_pkey |            57344
 2017-02-04 04:59:40.346117+01 | 1486180780.34612 | pgbench_tellers_pkey  |           262144
 2017-02-04 04:59:40.346117+01 | 1486180780.34612 | pgbench_accounts_pkey |        224641024

 2017-02-04 04:59:41.426387+01 | 1486180781.42639 | pgbench_branches_pkey |            57344
 2017-02-04 04:59:41.426387+01 | 1486180781.42639 | pgbench_tellers_pkey  |           262144
 2017-02-04 04:59:41.426387+01 | 1486180781.42639 | pgbench_accounts_pkey |        224641024

 2017-02-04 04:59:42.50043+01 | 1486180782.50043 | pgbench_branches_pkey |            57344
 2017-02-04 04:59:42.50043+01 | 1486180782.50043 | pgbench_tellers_pkey  |           262144
 2017-02-04 04:59:42.50043+01 | 1486180782.50043 | pgbench_accounts_pkey |        224641024

 2017-02-04 04:59:43.583354+01 | 1486180783.58335 | pgbench_branches_pkey |            57344
 2017-02-04 04:59:43.583354+01 | 1486180783.58335 | pgbench_tellers_pkey  |           262144
 2017-02-04 04:59:43.583354+01 | 1486180783.58335 | pgbench_accounts_pkey |        224641024

 2017-02-04 04:59:44.673308+01 | 1486180784.67331 | pgbench_branches_pkey |            57344
 2017-02-04 04:59:44.673308+01 | 1486180784.67331 | pgbench_tellers_pkey  |           262144
 2017-02-04 04:59:44.673308+01 | 1486180784.67331 | pgbench_accounts_pkey |        224641024

 2017-02-04 04:59:45.749715+01 | 1486180785.74972 | pgbench_branches_pkey |            57344
 2017-02-04 04:59:45.749715+01 | 1486180785.74972 | pgbench_tellers_pkey  |           262144
 2017-02-04 04:59:45.749715+01 | 1486180785.74972 | pgbench_accounts_pkey |        224641024

 2017-02-04 04:59:46.830005+01 | 1486180786.83 | pgbench_branches_pkey |            57344
 2017-02-04 04:59:46.830005+01 | 1486180786.83 | pgbench_tellers_pkey  |           262144
 2017-02-04 04:59:46.830005+01 | 1486180786.83 | pgbench_accounts_pkey |        224641024

 2017-02-04 04:59:47.905797+01 | 1486180787.9058 | pgbench_branches_pkey |            57344
 2017-02-04 04:59:47.905797+01 | 1486180787.9058 | pgbench_tellers_pkey  |           262144
 2017-02-04 04:59:47.905797+01 | 1486180787.9058 | pgbench_accounts_pkey |        224641024

 2017-02-04 04:59:48.989405+01 | 1486180788.9894 | pgbench_branches_pkey |            57344
 2017-02-04 04:59:48.989405+01 | 1486180788.9894 | pgbench_tellers_pkey  |           262144
 2017-02-04 04:59:48.989405+01 | 1486180788.9894 | pgbench_accounts_pkey |        224641024

 2017-02-04 04:59:50.07917+01 | 1486180790.07917 | pgbench_branches_pkey |            57344
 2017-02-04 04:59:50.07917+01 | 1486180790.07917 | pgbench_tellers_pkey  |           262144
 2017-02-04 04:59:50.07917+01 | 1486180790.07917 | pgbench_accounts_pkey |        224641024

 2017-02-04 04:59:51.158457+01 | 1486180791.15846 | pgbench_branches_pkey |            57344
 2017-02-04 04:59:51.158457+01 | 1486180791.15846 | pgbench_tellers_pkey  |           262144
 2017-02-04 04:59:51.158457+01 | 1486180791.15846 | pgbench_accounts_pkey |        224641024

 2017-02-04 04:59:52.244018+01 | 1486180792.24402 | pgbench_branches_pkey |            57344
 2017-02-04 04:59:52.244018+01 | 1486180792.24402 | pgbench_tellers_pkey  |           262144
 2017-02-04 04:59:52.244018+01 | 1486180792.24402 | pgbench_accounts_pkey |        224641024

 2017-02-04 04:59:53.332088+01 | 1486180793.33209 | pgbench_branches_pkey |            57344
 2017-02-04 04:59:53.332088+01 | 1486180793.33209 | pgbench_tellers_pkey  |           262144
 2017-02-04 04:59:53.332088+01 | 1486180793.33209 | pgbench_accounts_pkey |        224641024

 2017-02-04 04:59:54.421399+01 | 1486180794.4214 | pgbench_branches_pkey |            57344
 2017-02-04 04:59:54.421399+01 | 1486180794.4214 | pgbench_tellers_pkey  |           262144
 2017-02-04 04:59:54.421399+01 | 1486180794.4214 | pgbench_accounts_pkey |        224641024

 2017-02-04 04:59:55.502835+01 | 1486180795.50284 | pgbench_branches_pkey |            57344
 2017-02-04 04:59:55.502835+01 | 1486180795.50284 | pgbench_tellers_pkey  |           262144
 2017-02-04 04:59:55.502835+01 | 1486180795.50284 | pgbench_accounts_pkey |        224641024

 2017-02-04 04:59:56.589578+01 | 1486180796.58958 | pgbench_branches_pkey |            57344
 2017-02-04 04:59:56.589578+01 | 1486180796.58958 | pgbench_tellers_pkey  |           262144
 2017-02-04 04:59:56.589578+01 | 1486180796.58958 | pgbench_accounts_pkey |        224641024

 2017-02-04 04:59:57.680424+01 | 1486180797.68042 | pgbench_branches_pkey |            57344
 2017-02-04 04:59:57.680424+01 | 1486180797.68042 | pgbench_tellers_pkey  |           262144
 2017-02-04 04:59:57.680424+01 | 1486180797.68042 | pgbench_accounts_pkey |        224641024

 2017-02-04 04:59:58.762631+01 | 1486180798.76263 | pgbench_branches_pkey |            57344
 2017-02-04 04:59:58.762631+01 | 1486180798.76263 | pgbench_tellers_pkey  |           262144
 2017-02-04 04:59:58.762631+01 | 1486180798.76263 | pgbench_accounts_pkey |        224641024

 2017-02-04 04:59:59.838188+01 | 1486180799.83819 | pgbench_branches_pkey |            57344
 2017-02-04 04:59:59.838188+01 | 1486180799.83819 | pgbench_tellers_pkey  |           262144
 2017-02-04 04:59:59.838188+01 | 1486180799.83819 | pgbench_accounts_pkey |        224641024

 2017-02-04 05:00:00.922409+01 | 1486180800.92241 | pgbench_branches_pkey |            57344
 2017-02-04 05:00:00.922409+01 | 1486180800.92241 | pgbench_tellers_pkey  |           262144
 2017-02-04 05:00:00.922409+01 | 1486180800.92241 | pgbench_accounts_pkey |        224641024

 2017-02-04 05:00:01.997322+01 | 1486180801.99732 | pgbench_branches_pkey |            57344
 2017-02-04 05:00:01.997322+01 | 1486180801.99732 | pgbench_tellers_pkey  |           262144
 2017-02-04 05:00:01.997322+01 | 1486180801.99732 | pgbench_accounts_pkey |        224641024

 2017-02-04 05:00:03.088764+01 | 1486180803.08876 | pgbench_branches_pkey |            57344
 2017-02-04 05:00:03.088764+01 | 1486180803.08876 | pgbench_tellers_pkey  |           262144
 2017-02-04 05:00:03.088764+01 | 1486180803.08876 | pgbench_accounts_pkey |        224641024

 2017-02-04 05:00:04.176916+01 | 1486180804.17692 | pgbench_branches_pkey |            57344
 2017-02-04 05:00:04.176916+01 | 1486180804.17692 | pgbench_tellers_pkey  |           262144
 2017-02-04 05:00:04.176916+01 | 1486180804.17692 | pgbench_accounts_pkey |        224641024

 2017-02-04 05:00:05.25897+01 | 1486180805.25897 | pgbench_branches_pkey |            57344
 2017-02-04 05:00:05.25897+01 | 1486180805.25897 | pgbench_tellers_pkey  |           262144
 2017-02-04 05:00:05.25897+01 | 1486180805.25897 | pgbench_accounts_pkey |        224641024

 2017-02-04 05:00:06.345746+01 | 1486180806.34575 | pgbench_branches_pkey |            57344
 2017-02-04 05:00:06.345746+01 | 1486180806.34575 | pgbench_tellers_pkey  |           262144
 2017-02-04 05:00:06.345746+01 | 1486180806.34575 | pgbench_accounts_pkey |        224641024

 2017-02-04 05:00:07.430711+01 | 1486180807.43071 | pgbench_branches_pkey |            57344
 2017-02-04 05:00:07.430711+01 | 1486180807.43071 | pgbench_tellers_pkey  |           262144
 2017-02-04 05:00:07.430711+01 | 1486180807.43071 | pgbench_accounts_pkey |        224641024

 2017-02-04 05:00:08.521826+01 | 1486180808.52183 | pgbench_branches_pkey |            57344
 2017-02-04 05:00:08.521826+01 | 1486180808.52183 | pgbench_tellers_pkey  |           262144
 2017-02-04 05:00:08.521826+01 | 1486180808.52183 | pgbench_accounts_pkey |        224641024

 2017-02-04 05:00:09.606412+01 | 1486180809.60641 | pgbench_branches_pkey |            57344
 2017-02-04 05:00:09.606412+01 | 1486180809.60641 | pgbench_tellers_pkey  |           262144
 2017-02-04 05:00:09.606412+01 | 1486180809.60641 | pgbench_accounts_pkey |        224641024

 2017-02-04 05:00:10.686643+01 | 1486180810.68664 | pgbench_branches_pkey |            57344
 2017-02-04 05:00:10.686643+01 | 1486180810.68664 | pgbench_tellers_pkey  |           262144
 2017-02-04 05:00:10.686643+01 | 1486180810.68664 | pgbench_accounts_pkey |        224641024

 2017-02-04 05:00:11.772405+01 | 1486180811.7724 | pgbench_branches_pkey |            57344
 2017-02-04 05:00:11.772405+01 | 1486180811.7724 | pgbench_tellers_pkey  |           262144
 2017-02-04 05:00:11.772405+01 | 1486180811.7724 | pgbench_accounts_pkey |        224641024

 2017-02-04 05:00:12.863579+01 | 1486180812.86358 | pgbench_branches_pkey |            57344
 2017-02-04 05:00:12.863579+01 | 1486180812.86358 | pgbench_tellers_pkey  |           262144
 2017-02-04 05:00:12.863579+01 | 1486180812.86358 | pgbench_accounts_pkey |        224641024

 2017-02-04 05:00:13.954584+01 | 1486180813.95458 | pgbench_branches_pkey |            57344
 2017-02-04 05:00:13.954584+01 | 1486180813.95458 | pgbench_tellers_pkey  |           262144
 2017-02-04 05:00:13.954584+01 | 1486180813.95458 | pgbench_accounts_pkey |        224641024

 2017-02-04 05:00:15.051006+01 | 1486180815.05101 | pgbench_branches_pkey |            57344
 2017-02-04 05:00:15.051006+01 | 1486180815.05101 | pgbench_tellers_pkey  |           262144
 2017-02-04 05:00:15.051006+01 | 1486180815.05101 | pgbench_accounts_pkey |        224641024

 2017-02-04 05:00:16.140934+01 | 1486180816.14093 | pgbench_branches_pkey |            57344
 2017-02-04 05:00:16.140934+01 | 1486180816.14093 | pgbench_tellers_pkey  |           262144
 2017-02-04 05:00:16.140934+01 | 1486180816.14093 | pgbench_accounts_pkey |        224641024

 2017-02-04 05:00:17.232433+01 | 1486180817.23243 | pgbench_branches_pkey |            57344
 2017-02-04 05:00:17.232433+01 | 1486180817.23243 | pgbench_tellers_pkey  |           262144
 2017-02-04 05:00:17.232433+01 | 1486180817.23243 | pgbench_accounts_pkey |        224641024

 2017-02-04 05:00:18.30835+01 | 1486180818.30835 | pgbench_branches_pkey |            57344
 2017-02-04 05:00:18.30835+01 | 1486180818.30835 | pgbench_tellers_pkey  |           262144
 2017-02-04 05:00:18.30835+01 | 1486180818.30835 | pgbench_accounts_pkey |        224641024

 2017-02-04 05:00:19.390152+01 | 1486180819.39015 | pgbench_branches_pkey |            57344
 2017-02-04 05:00:19.390152+01 | 1486180819.39015 | pgbench_tellers_pkey  |           262144
 2017-02-04 05:00:19.390152+01 | 1486180819.39015 | pgbench_accounts_pkey |        224641024

 2017-02-04 05:00:20.469236+01 | 1486180820.46924 | pgbench_branches_pkey |            57344
 2017-02-04 05:00:20.469236+01 | 1486180820.46924 | pgbench_tellers_pkey  |           262144
 2017-02-04 05:00:20.469236+01 | 1486180820.46924 | pgbench_accounts_pkey |        224641024

 2017-02-04 05:00:21.540495+01 | 1486180821.54049 | pgbench_branches_pkey |            57344
 2017-02-04 05:00:21.540495+01 | 1486180821.54049 | pgbench_tellers_pkey  |           262144
 2017-02-04 05:00:21.540495+01 | 1486180821.54049 | pgbench_accounts_pkey |        224641024

 2017-02-04 05:00:22.603148+01 | 1486180822.60315 | pgbench_branches_pkey |            57344
 2017-02-04 05:00:22.603148+01 | 1486180822.60315 | pgbench_tellers_pkey  |           262144
 2017-02-04 05:00:22.603148+01 | 1486180822.60315 | pgbench_accounts_pkey |        224641024

 2017-02-04 05:00:23.68827+01 | 1486180823.68827 | pgbench_branches_pkey |            57344
 2017-02-04 05:00:23.68827+01 | 1486180823.68827 | pgbench_tellers_pkey  |           262144
 2017-02-04 05:00:23.68827+01 | 1486180823.68827 | pgbench_accounts_pkey |        224641024

 2017-02-04 05:00:24.763478+01 | 1486180824.76348 | pgbench_branches_pkey |            57344
 2017-02-04 05:00:24.763478+01 | 1486180824.76348 | pgbench_tellers_pkey  |           262144
 2017-02-04 05:00:24.763478+01 | 1486180824.76348 | pgbench_accounts_pkey |        224641024

 2017-02-04 05:00:25.848179+01 | 1486180825.84818 | pgbench_branches_pkey |            57344
 2017-02-04 05:00:25.848179+01 | 1486180825.84818 | pgbench_tellers_pkey  |           262144
 2017-02-04 05:00:25.848179+01 | 1486180825.84818 | pgbench_accounts_pkey |        224641024

 2017-02-04 05:00:26.937278+01 | 1486180826.93728 | pgbench_branches_pkey |            57344
 2017-02-04 05:00:26.937278+01 | 1486180826.93728 | pgbench_tellers_pkey  |           262144
 2017-02-04 05:00:26.937278+01 | 1486180826.93728 | pgbench_accounts_pkey |        224641024

 2017-02-04 05:00:28.020015+01 | 1486180828.02002 | pgbench_branches_pkey |            57344
 2017-02-04 05:00:28.020015+01 | 1486180828.02002 | pgbench_tellers_pkey  |           262144
 2017-02-04 05:00:28.020015+01 | 1486180828.02002 | pgbench_accounts_pkey |        224641024

 2017-02-04 05:00:29.109952+01 | 1486180829.10995 | pgbench_branches_pkey |            57344
 2017-02-04 05:00:29.109952+01 | 1486180829.10995 | pgbench_tellers_pkey  |           262144
 2017-02-04 05:00:29.109952+01 | 1486180829.10995 | pgbench_accounts_pkey |        224641024

 2017-02-04 05:00:30.19294+01 | 1486180830.19294 | pgbench_branches_pkey |            57344
 2017-02-04 05:00:30.19294+01 | 1486180830.19294 | pgbench_tellers_pkey  |           262144
 2017-02-04 05:00:30.19294+01 | 1486180830.19294 | pgbench_accounts_pkey |        224641024

 2017-02-04 05:00:31.279356+01 | 1486180831.27936 | pgbench_branches_pkey |            57344
 2017-02-04 05:00:31.279356+01 | 1486180831.27936 | pgbench_tellers_pkey  |           262144
 2017-02-04 05:00:31.279356+01 | 1486180831.27936 | pgbench_accounts_pkey |        224641024

 2017-02-04 05:00:32.359954+01 | 1486180832.35995 | pgbench_branches_pkey |            57344
 2017-02-04 05:00:32.359954+01 | 1486180832.35995 | pgbench_tellers_pkey  |           262144
 2017-02-04 05:00:32.359954+01 | 1486180832.35995 | pgbench_accounts_pkey |        224641024

 2017-02-04 05:00:33.431109+01 | 1486180833.43111 | pgbench_branches_pkey |            57344
 2017-02-04 05:00:33.431109+01 | 1486180833.43111 | pgbench_tellers_pkey  |           262144
 2017-02-04 05:00:33.431109+01 | 1486180833.43111 | pgbench_accounts_pkey |        224641024

 2017-02-04 05:00:34.510584+01 | 1486180834.51058 | pgbench_branches_pkey |            57344
 2017-02-04 05:00:34.510584+01 | 1486180834.51058 | pgbench_tellers_pkey  |           262144
 2017-02-04 05:00:34.510584+01 | 1486180834.51058 | pgbench_accounts_pkey |        224641024

 2017-02-04 05:00:35.587111+01 | 1486180835.58711 | pgbench_branches_pkey |            57344
 2017-02-04 05:00:35.587111+01 | 1486180835.58711 | pgbench_tellers_pkey  |           262144
 2017-02-04 05:00:35.587111+01 | 1486180835.58711 | pgbench_accounts_pkey |        224641024

 2017-02-04 05:00:36.66242+01 | 1486180836.66242 | pgbench_branches_pkey |            57344
 2017-02-04 05:00:36.66242+01 | 1486180836.66242 | pgbench_tellers_pkey  |           262144
 2017-02-04 05:00:36.66242+01 | 1486180836.66242 | pgbench_accounts_pkey |        224641024

 2017-02-04 05:00:37.737116+01 | 1486180837.73712 | pgbench_branches_pkey |            57344
 2017-02-04 05:00:37.737116+01 | 1486180837.73712 | pgbench_tellers_pkey  |           262144
 2017-02-04 05:00:37.737116+01 | 1486180837.73712 | pgbench_accounts_pkey |        224641024

 2017-02-04 05:00:38.815233+01 | 1486180838.81523 | pgbench_branches_pkey |            57344
 2017-02-04 05:00:38.815233+01 | 1486180838.81523 | pgbench_tellers_pkey  |           262144
 2017-02-04 05:00:38.815233+01 | 1486180838.81523 | pgbench_accounts_pkey |        224641024

 2017-02-04 05:00:39.900608+01 | 1486180839.90061 | pgbench_branches_pkey |            57344
 2017-02-04 05:00:39.900608+01 | 1486180839.90061 | pgbench_tellers_pkey  |           262144
 2017-02-04 05:00:39.900608+01 | 1486180839.90061 | pgbench_accounts_pkey |        224641024

 2017-02-04 05:00:40.988937+01 | 1486180840.98894 | pgbench_branches_pkey |            57344
 2017-02-04 05:00:40.988937+01 | 1486180840.98894 | pgbench_tellers_pkey  |           262144
 2017-02-04 05:00:40.988937+01 | 1486180840.98894 | pgbench_accounts_pkey |        224641024

 2017-02-04 05:00:42.066921+01 | 1486180842.06692 | pgbench_branches_pkey |            57344
 2017-02-04 05:00:42.066921+01 | 1486180842.06692 | pgbench_tellers_pkey  |           262144
 2017-02-04 05:00:42.066921+01 | 1486180842.06692 | pgbench_accounts_pkey |        224641024

 2017-02-04 05:00:43.138916+01 | 1486180843.13892 | pgbench_branches_pkey |            57344
 2017-02-04 05:00:43.138916+01 | 1486180843.13892 | pgbench_tellers_pkey  |           262144
 2017-02-04 05:00:43.138916+01 | 1486180843.13892 | pgbench_accounts_pkey |        224641024

 2017-02-04 05:00:44.218246+01 | 1486180844.21825 | pgbench_branches_pkey |            57344
 2017-02-04 05:00:44.218246+01 | 1486180844.21825 | pgbench_tellers_pkey  |           262144
 2017-02-04 05:00:44.218246+01 | 1486180844.21825 | pgbench_accounts_pkey |        224641024

 2017-02-04 05:00:45.303069+01 | 1486180845.30307 | pgbench_branches_pkey |            57344
 2017-02-04 05:00:45.303069+01 | 1486180845.30307 | pgbench_tellers_pkey  |           262144
 2017-02-04 05:00:45.303069+01 | 1486180845.30307 | pgbench_accounts_pkey |        224641024

 2017-02-04 05:00:46.386826+01 | 1486180846.38683 | pgbench_branches_pkey |            57344
 2017-02-04 05:00:46.386826+01 | 1486180846.38683 | pgbench_tellers_pkey  |           262144
 2017-02-04 05:00:46.386826+01 | 1486180846.38683 | pgbench_accounts_pkey |        224641024

 2017-02-04 05:00:47.467402+01 | 1486180847.4674 | pgbench_branches_pkey |            57344
 2017-02-04 05:00:47.467402+01 | 1486180847.4674 | pgbench_tellers_pkey  |           262144
 2017-02-04 05:00:47.467402+01 | 1486180847.4674 | pgbench_accounts_pkey |        224641024

 2017-02-04 05:00:48.545626+01 | 1486180848.54563 | pgbench_branches_pkey |            57344
 2017-02-04 05:00:48.545626+01 | 1486180848.54563 | pgbench_tellers_pkey  |           262144
 2017-02-04 05:00:48.545626+01 | 1486180848.54563 | pgbench_accounts_pkey |        224641024

 2017-02-04 05:00:49.619176+01 | 1486180849.61918 | pgbench_branches_pkey |            57344
 2017-02-04 05:00:49.619176+01 | 1486180849.61918 | pgbench_tellers_pkey  |           262144
 2017-02-04 05:00:49.619176+01 | 1486180849.61918 | pgbench_accounts_pkey |        224641024

 2017-02-04 05:00:50.707324+01 | 1486180850.70732 | pgbench_branches_pkey |            57344
 2017-02-04 05:00:50.707324+01 | 1486180850.70732 | pgbench_tellers_pkey  |           262144
 2017-02-04 05:00:50.707324+01 | 1486180850.70732 | pgbench_accounts_pkey |        224641024

 2017-02-04 05:00:51.786043+01 | 1486180851.78604 | pgbench_branches_pkey |            57344
 2017-02-04 05:00:51.786043+01 | 1486180851.78604 | pgbench_tellers_pkey  |           262144
 2017-02-04 05:00:51.786043+01 | 1486180851.78604 | pgbench_accounts_pkey |        224641024

 2017-02-04 05:00:52.873854+01 | 1486180852.87385 | pgbench_branches_pkey |            57344
 2017-02-04 05:00:52.873854+01 | 1486180852.87385 | pgbench_tellers_pkey  |           262144
 2017-02-04 05:00:52.873854+01 | 1486180852.87385 | pgbench_accounts_pkey |        224641024

 2017-02-04 05:00:53.955581+01 | 1486180853.95558 | pgbench_branches_pkey |            57344
 2017-02-04 05:00:53.955581+01 | 1486180853.95558 | pgbench_tellers_pkey  |           262144
 2017-02-04 05:00:53.955581+01 | 1486180853.95558 | pgbench_accounts_pkey |        224641024

 2017-02-04 05:00:55.033822+01 | 1486180855.03382 | pgbench_branches_pkey |            57344
 2017-02-04 05:00:55.033822+01 | 1486180855.03382 | pgbench_tellers_pkey  |           262144
 2017-02-04 05:00:55.033822+01 | 1486180855.03382 | pgbench_accounts_pkey |        224641024

 2017-02-04 05:00:56.119124+01 | 1486180856.11912 | pgbench_branches_pkey |            57344
 2017-02-04 05:00:56.119124+01 | 1486180856.11912 | pgbench_tellers_pkey  |           262144
 2017-02-04 05:00:56.119124+01 | 1486180856.11912 | pgbench_accounts_pkey |        224641024

 2017-02-04 05:00:57.207501+01 | 1486180857.2075 | pgbench_branches_pkey |            57344
 2017-02-04 05:00:57.207501+01 | 1486180857.2075 | pgbench_tellers_pkey  |           262144
 2017-02-04 05:00:57.207501+01 | 1486180857.2075 | pgbench_accounts_pkey |        224641024

 2017-02-04 05:00:58.290192+01 | 1486180858.29019 | pgbench_branches_pkey |            57344
 2017-02-04 05:00:58.290192+01 | 1486180858.29019 | pgbench_tellers_pkey  |           262144
 2017-02-04 05:00:58.290192+01 | 1486180858.29019 | pgbench_accounts_pkey |        224641024

 2017-02-04 05:00:59.368136+01 | 1486180859.36814 | pgbench_branches_pkey |            57344
 2017-02-04 05:00:59.368136+01 | 1486180859.36814 | pgbench_tellers_pkey  |           262144
 2017-02-04 05:00:59.368136+01 | 1486180859.36814 | pgbench_accounts_pkey |        224641024

 2017-02-04 05:01:00.458688+01 | 1486180860.45869 | pgbench_branches_pkey |            57344
 2017-02-04 05:01:00.458688+01 | 1486180860.45869 | pgbench_tellers_pkey  |           262144
 2017-02-04 05:01:00.458688+01 | 1486180860.45869 | pgbench_accounts_pkey |        224641024

 2017-02-04 05:01:01.531175+01 | 1486180861.53117 | pgbench_branches_pkey |            57344
 2017-02-04 05:01:01.531175+01 | 1486180861.53117 | pgbench_tellers_pkey  |           262144
 2017-02-04 05:01:01.531175+01 | 1486180861.53117 | pgbench_accounts_pkey |        224641024

 2017-02-04 05:01:02.609837+01 | 1486180862.60984 | pgbench_branches_pkey |            57344
 2017-02-04 05:01:02.609837+01 | 1486180862.60984 | pgbench_tellers_pkey  |           262144
 2017-02-04 05:01:02.609837+01 | 1486180862.60984 | pgbench_accounts_pkey |        224641024

 2017-02-04 05:01:03.687932+01 | 1486180863.68793 | pgbench_branches_pkey |            57344
 2017-02-04 05:01:03.687932+01 | 1486180863.68793 | pgbench_tellers_pkey  |           262144
 2017-02-04 05:01:03.687932+01 | 1486180863.68793 | pgbench_accounts_pkey |        224641024

 2017-02-04 05:01:04.768498+01 | 1486180864.7685 | pgbench_branches_pkey |            57344
 2017-02-04 05:01:04.768498+01 | 1486180864.7685 | pgbench_tellers_pkey  |           262144
 2017-02-04 05:01:04.768498+01 | 1486180864.7685 | pgbench_accounts_pkey |        224641024

 2017-02-04 05:01:05.840409+01 | 1486180865.84041 | pgbench_branches_pkey |            57344
 2017-02-04 05:01:05.840409+01 | 1486180865.84041 | pgbench_tellers_pkey  |           262144
 2017-02-04 05:01:05.840409+01 | 1486180865.84041 | pgbench_accounts_pkey |        224641024

 2017-02-04 05:01:06.9254+01 | 1486180866.9254 | pgbench_branches_pkey |            57344
 2017-02-04 05:01:06.9254+01 | 1486180866.9254 | pgbench_tellers_pkey  |           262144
 2017-02-04 05:01:06.9254+01 | 1486180866.9254 | pgbench_accounts_pkey |        224641024

 2017-02-04 05:01:08.005675+01 | 1486180868.00568 | pgbench_branches_pkey |            57344
 2017-02-04 05:01:08.005675+01 | 1486180868.00568 | pgbench_tellers_pkey  |           262144
 2017-02-04 05:01:08.005675+01 | 1486180868.00568 | pgbench_accounts_pkey |        224641024

 2017-02-04 05:01:09.080296+01 | 1486180869.0803 | pgbench_branches_pkey |            57344
 2017-02-04 05:01:09.080296+01 | 1486180869.0803 | pgbench_tellers_pkey  |           262144
 2017-02-04 05:01:09.080296+01 | 1486180869.0803 | pgbench_accounts_pkey |        224641024

 2017-02-04 05:01:10.1679+01 | 1486180870.1679 | pgbench_branches_pkey |            57344
 2017-02-04 05:01:10.1679+01 | 1486180870.1679 | pgbench_tellers_pkey  |           262144
 2017-02-04 05:01:10.1679+01 | 1486180870.1679 | pgbench_accounts_pkey |        224641024

 2017-02-04 05:01:11.256424+01 | 1486180871.25642 | pgbench_branches_pkey |            57344
 2017-02-04 05:01:11.256424+01 | 1486180871.25642 | pgbench_tellers_pkey  |           262144
 2017-02-04 05:01:11.256424+01 | 1486180871.25642 | pgbench_accounts_pkey |        224641024

 2017-02-04 05:01:12.335985+01 | 1486180872.33598 | pgbench_branches_pkey |            57344
 2017-02-04 05:01:12.335985+01 | 1486180872.33598 | pgbench_tellers_pkey  |           262144
 2017-02-04 05:01:12.335985+01 | 1486180872.33598 | pgbench_accounts_pkey |        224641024

