 2017-02-06 15:53:34.389624+01 | 1486392814.38962 | pgbench_branches_pkey |            40960
 2017-02-06 15:53:34.389624+01 | 1486392814.38962 | pgbench_tellers_pkey  |           180224
 2017-02-06 15:53:34.389624+01 | 1486392814.38962 | pgbench_accounts_pkey |        224641024

 2017-02-06 15:53:35.475202+01 | 1486392815.4752 | pgbench_branches_pkey |            40960
 2017-02-06 15:53:35.475202+01 | 1486392815.4752 | pgbench_tellers_pkey  |           180224
 2017-02-06 15:53:35.475202+01 | 1486392815.4752 | pgbench_accounts_pkey |        224641024

 2017-02-06 15:53:36.566711+01 | 1486392816.56671 | pgbench_branches_pkey |            40960
 2017-02-06 15:53:36.566711+01 | 1486392816.56671 | pgbench_tellers_pkey  |           180224
 2017-02-06 15:53:36.566711+01 | 1486392816.56671 | pgbench_accounts_pkey |        224641024

 2017-02-06 15:53:37.658546+01 | 1486392817.65855 | pgbench_branches_pkey |            40960
 2017-02-06 15:53:37.658546+01 | 1486392817.65855 | pgbench_tellers_pkey  |           180224
 2017-02-06 15:53:37.658546+01 | 1486392817.65855 | pgbench_accounts_pkey |        224641024

 2017-02-06 15:53:38.756799+01 | 1486392818.7568 | pgbench_branches_pkey |            40960
 2017-02-06 15:53:38.756799+01 | 1486392818.7568 | pgbench_tellers_pkey  |           180224
 2017-02-06 15:53:38.756799+01 | 1486392818.7568 | pgbench_accounts_pkey |        224641024

 2017-02-06 15:53:39.848588+01 | 1486392819.84859 | pgbench_branches_pkey |            40960
 2017-02-06 15:53:39.848588+01 | 1486392819.84859 | pgbench_tellers_pkey  |           180224
 2017-02-06 15:53:39.848588+01 | 1486392819.84859 | pgbench_accounts_pkey |        224641024

 2017-02-06 15:53:40.941505+01 | 1486392820.9415 | pgbench_branches_pkey |            40960
 2017-02-06 15:53:40.941505+01 | 1486392820.9415 | pgbench_tellers_pkey  |           180224
 2017-02-06 15:53:40.941505+01 | 1486392820.9415 | pgbench_accounts_pkey |        224641024

 2017-02-06 15:53:42.037133+01 | 1486392822.03713 | pgbench_branches_pkey |            40960
 2017-02-06 15:53:42.037133+01 | 1486392822.03713 | pgbench_tellers_pkey  |           180224
 2017-02-06 15:53:42.037133+01 | 1486392822.03713 | pgbench_accounts_pkey |        224641024

 2017-02-06 15:53:43.126967+01 | 1486392823.12697 | pgbench_branches_pkey |            40960
 2017-02-06 15:53:43.126967+01 | 1486392823.12697 | pgbench_tellers_pkey  |           180224
 2017-02-06 15:53:43.126967+01 | 1486392823.12697 | pgbench_accounts_pkey |        224641024

 2017-02-06 15:53:44.218117+01 | 1486392824.21812 | pgbench_branches_pkey |            40960
 2017-02-06 15:53:44.218117+01 | 1486392824.21812 | pgbench_tellers_pkey  |           180224
 2017-02-06 15:53:44.218117+01 | 1486392824.21812 | pgbench_accounts_pkey |        224641024

 2017-02-06 15:53:45.296349+01 | 1486392825.29635 | pgbench_branches_pkey |            40960
 2017-02-06 15:53:45.296349+01 | 1486392825.29635 | pgbench_tellers_pkey  |           180224
 2017-02-06 15:53:45.296349+01 | 1486392825.29635 | pgbench_accounts_pkey |        224641024

 2017-02-06 15:53:46.401623+01 | 1486392826.40162 | pgbench_branches_pkey |            40960
 2017-02-06 15:53:46.401623+01 | 1486392826.40162 | pgbench_tellers_pkey  |           180224
 2017-02-06 15:53:46.401623+01 | 1486392826.40162 | pgbench_accounts_pkey |        224641024

 2017-02-06 15:53:47.493761+01 | 1486392827.49376 | pgbench_branches_pkey |            40960
 2017-02-06 15:53:47.493761+01 | 1486392827.49376 | pgbench_tellers_pkey  |           180224
 2017-02-06 15:53:47.493761+01 | 1486392827.49376 | pgbench_accounts_pkey |        224641024

 2017-02-06 15:53:48.591995+01 | 1486392828.592 | pgbench_branches_pkey |            40960
 2017-02-06 15:53:48.591995+01 | 1486392828.592 | pgbench_tellers_pkey  |           180224
 2017-02-06 15:53:48.591995+01 | 1486392828.592 | pgbench_accounts_pkey |        224641024

 2017-02-06 15:53:49.688271+01 | 1486392829.68827 | pgbench_branches_pkey |            40960
 2017-02-06 15:53:49.688271+01 | 1486392829.68827 | pgbench_tellers_pkey  |           180224
 2017-02-06 15:53:49.688271+01 | 1486392829.68827 | pgbench_accounts_pkey |        224641024

 2017-02-06 15:53:50.796983+01 | 1486392830.79698 | pgbench_branches_pkey |            40960
 2017-02-06 15:53:50.796983+01 | 1486392830.79698 | pgbench_tellers_pkey  |           180224
 2017-02-06 15:53:50.796983+01 | 1486392830.79698 | pgbench_accounts_pkey |        224641024

 2017-02-06 15:53:51.90017+01 | 1486392831.90017 | pgbench_branches_pkey |            40960
 2017-02-06 15:53:51.90017+01 | 1486392831.90017 | pgbench_tellers_pkey  |           180224
 2017-02-06 15:53:51.90017+01 | 1486392831.90017 | pgbench_accounts_pkey |        224641024

 2017-02-06 15:53:52.990335+01 | 1486392832.99033 | pgbench_branches_pkey |            40960
 2017-02-06 15:53:52.990335+01 | 1486392832.99033 | pgbench_tellers_pkey  |           180224
 2017-02-06 15:53:52.990335+01 | 1486392832.99033 | pgbench_accounts_pkey |        224641024

 2017-02-06 15:53:54.080237+01 | 1486392834.08024 | pgbench_branches_pkey |            40960
 2017-02-06 15:53:54.080237+01 | 1486392834.08024 | pgbench_tellers_pkey  |           180224
 2017-02-06 15:53:54.080237+01 | 1486392834.08024 | pgbench_accounts_pkey |        224641024

 2017-02-06 15:53:55.188746+01 | 1486392835.18875 | pgbench_branches_pkey |            40960
 2017-02-06 15:53:55.188746+01 | 1486392835.18875 | pgbench_tellers_pkey  |           180224
 2017-02-06 15:53:55.188746+01 | 1486392835.18875 | pgbench_accounts_pkey |        224641024

 2017-02-06 15:53:56.268444+01 | 1486392836.26844 | pgbench_branches_pkey |            40960
 2017-02-06 15:53:56.268444+01 | 1486392836.26844 | pgbench_tellers_pkey  |           180224
 2017-02-06 15:53:56.268444+01 | 1486392836.26844 | pgbench_accounts_pkey |        224641024

 2017-02-06 15:53:57.349618+01 | 1486392837.34962 | pgbench_branches_pkey |            40960
 2017-02-06 15:53:57.349618+01 | 1486392837.34962 | pgbench_tellers_pkey  |           180224
 2017-02-06 15:53:57.349618+01 | 1486392837.34962 | pgbench_accounts_pkey |        224641024

 2017-02-06 15:53:58.443274+01 | 1486392838.44327 | pgbench_branches_pkey |            40960
 2017-02-06 15:53:58.443274+01 | 1486392838.44327 | pgbench_tellers_pkey  |           180224
 2017-02-06 15:53:58.443274+01 | 1486392838.44327 | pgbench_accounts_pkey |        224641024

 2017-02-06 15:53:59.543105+01 | 1486392839.5431 | pgbench_branches_pkey |            40960
 2017-02-06 15:53:59.543105+01 | 1486392839.5431 | pgbench_tellers_pkey  |           180224
 2017-02-06 15:53:59.543105+01 | 1486392839.5431 | pgbench_accounts_pkey |        224641024

 2017-02-06 15:54:00.633473+01 | 1486392840.63347 | pgbench_branches_pkey |            40960
 2017-02-06 15:54:00.633473+01 | 1486392840.63347 | pgbench_tellers_pkey  |           180224
 2017-02-06 15:54:00.633473+01 | 1486392840.63347 | pgbench_accounts_pkey |        224641024

 2017-02-06 15:54:01.737996+01 | 1486392841.738 | pgbench_branches_pkey |            40960
 2017-02-06 15:54:01.737996+01 | 1486392841.738 | pgbench_tellers_pkey  |           180224
 2017-02-06 15:54:01.737996+01 | 1486392841.738 | pgbench_accounts_pkey |        224641024

 2017-02-06 15:54:02.830201+01 | 1486392842.8302 | pgbench_branches_pkey |            40960
 2017-02-06 15:54:02.830201+01 | 1486392842.8302 | pgbench_tellers_pkey  |           180224
 2017-02-06 15:54:02.830201+01 | 1486392842.8302 | pgbench_accounts_pkey |        224641024

 2017-02-06 15:54:03.926893+01 | 1486392843.92689 | pgbench_branches_pkey |            40960
 2017-02-06 15:54:03.926893+01 | 1486392843.92689 | pgbench_tellers_pkey  |           180224
 2017-02-06 15:54:03.926893+01 | 1486392843.92689 | pgbench_accounts_pkey |        224641024

 2017-02-06 15:54:05.018663+01 | 1486392845.01866 | pgbench_branches_pkey |            40960
 2017-02-06 15:54:05.018663+01 | 1486392845.01866 | pgbench_tellers_pkey  |           180224
 2017-02-06 15:54:05.018663+01 | 1486392845.01866 | pgbench_accounts_pkey |        224641024

 2017-02-06 15:54:06.106192+01 | 1486392846.10619 | pgbench_branches_pkey |            40960
 2017-02-06 15:54:06.106192+01 | 1486392846.10619 | pgbench_tellers_pkey  |           180224
 2017-02-06 15:54:06.106192+01 | 1486392846.10619 | pgbench_accounts_pkey |        224641024

 2017-02-06 15:54:07.204323+01 | 1486392847.20432 | pgbench_branches_pkey |            40960
 2017-02-06 15:54:07.204323+01 | 1486392847.20432 | pgbench_tellers_pkey  |           180224
 2017-02-06 15:54:07.204323+01 | 1486392847.20432 | pgbench_accounts_pkey |        224641024

 2017-02-06 15:54:08.28692+01 | 1486392848.28692 | pgbench_branches_pkey |            40960
 2017-02-06 15:54:08.28692+01 | 1486392848.28692 | pgbench_tellers_pkey  |           180224
 2017-02-06 15:54:08.28692+01 | 1486392848.28692 | pgbench_accounts_pkey |        224641024

 2017-02-06 15:54:09.365135+01 | 1486392849.36513 | pgbench_branches_pkey |            40960
 2017-02-06 15:54:09.365135+01 | 1486392849.36513 | pgbench_tellers_pkey  |           180224
 2017-02-06 15:54:09.365135+01 | 1486392849.36513 | pgbench_accounts_pkey |        224641024

 2017-02-06 15:54:10.455306+01 | 1486392850.45531 | pgbench_branches_pkey |            40960
 2017-02-06 15:54:10.455306+01 | 1486392850.45531 | pgbench_tellers_pkey  |           180224
 2017-02-06 15:54:10.455306+01 | 1486392850.45531 | pgbench_accounts_pkey |        224641024

 2017-02-06 15:54:11.559725+01 | 1486392851.55973 | pgbench_branches_pkey |            40960
 2017-02-06 15:54:11.559725+01 | 1486392851.55973 | pgbench_tellers_pkey  |           180224
 2017-02-06 15:54:11.559725+01 | 1486392851.55973 | pgbench_accounts_pkey |        224641024

 2017-02-06 15:54:12.654123+01 | 1486392852.65412 | pgbench_branches_pkey |            40960
 2017-02-06 15:54:12.654123+01 | 1486392852.65412 | pgbench_tellers_pkey  |           180224
 2017-02-06 15:54:12.654123+01 | 1486392852.65412 | pgbench_accounts_pkey |        224641024

 2017-02-06 15:54:13.759635+01 | 1486392853.75963 | pgbench_branches_pkey |            40960
 2017-02-06 15:54:13.759635+01 | 1486392853.75963 | pgbench_tellers_pkey  |           180224
 2017-02-06 15:54:13.759635+01 | 1486392853.75963 | pgbench_accounts_pkey |        224641024

 2017-02-06 15:54:14.854871+01 | 1486392854.85487 | pgbench_branches_pkey |            40960
 2017-02-06 15:54:14.854871+01 | 1486392854.85487 | pgbench_tellers_pkey  |           180224
 2017-02-06 15:54:14.854871+01 | 1486392854.85487 | pgbench_accounts_pkey |        224641024

 2017-02-06 15:54:15.942001+01 | 1486392855.942 | pgbench_branches_pkey |            40960
 2017-02-06 15:54:15.942001+01 | 1486392855.942 | pgbench_tellers_pkey  |           180224
 2017-02-06 15:54:15.942001+01 | 1486392855.942 | pgbench_accounts_pkey |        224641024

 2017-02-06 15:54:17.044904+01 | 1486392857.0449 | pgbench_branches_pkey |            40960
 2017-02-06 15:54:17.044904+01 | 1486392857.0449 | pgbench_tellers_pkey  |           180224
 2017-02-06 15:54:17.044904+01 | 1486392857.0449 | pgbench_accounts_pkey |        224641024

 2017-02-06 15:54:18.139627+01 | 1486392858.13963 | pgbench_branches_pkey |            40960
 2017-02-06 15:54:18.139627+01 | 1486392858.13963 | pgbench_tellers_pkey  |           180224
 2017-02-06 15:54:18.139627+01 | 1486392858.13963 | pgbench_accounts_pkey |        224641024

 2017-02-06 15:54:19.227958+01 | 1486392859.22796 | pgbench_branches_pkey |            40960
 2017-02-06 15:54:19.227958+01 | 1486392859.22796 | pgbench_tellers_pkey  |           180224
 2017-02-06 15:54:19.227958+01 | 1486392859.22796 | pgbench_accounts_pkey |        224641024

 2017-02-06 15:54:20.311491+01 | 1486392860.31149 | pgbench_branches_pkey |            40960
 2017-02-06 15:54:20.311491+01 | 1486392860.31149 | pgbench_tellers_pkey  |           180224
 2017-02-06 15:54:20.311491+01 | 1486392860.31149 | pgbench_accounts_pkey |        224641024

 2017-02-06 15:54:21.391849+01 | 1486392861.39185 | pgbench_branches_pkey |            40960
 2017-02-06 15:54:21.391849+01 | 1486392861.39185 | pgbench_tellers_pkey  |           180224
 2017-02-06 15:54:21.391849+01 | 1486392861.39185 | pgbench_accounts_pkey |        224641024

 2017-02-06 15:54:22.48436+01 | 1486392862.48436 | pgbench_branches_pkey |            40960
 2017-02-06 15:54:22.48436+01 | 1486392862.48436 | pgbench_tellers_pkey  |           180224
 2017-02-06 15:54:22.48436+01 | 1486392862.48436 | pgbench_accounts_pkey |        224641024

 2017-02-06 15:54:23.597453+01 | 1486392863.59745 | pgbench_branches_pkey |            40960
 2017-02-06 15:54:23.597453+01 | 1486392863.59745 | pgbench_tellers_pkey  |           180224
 2017-02-06 15:54:23.597453+01 | 1486392863.59745 | pgbench_accounts_pkey |        224641024

 2017-02-06 15:54:24.699455+01 | 1486392864.69946 | pgbench_branches_pkey |            40960
 2017-02-06 15:54:24.699455+01 | 1486392864.69946 | pgbench_tellers_pkey  |           180224
 2017-02-06 15:54:24.699455+01 | 1486392864.69946 | pgbench_accounts_pkey |        224641024

 2017-02-06 15:54:25.810464+01 | 1486392865.81046 | pgbench_branches_pkey |            40960
 2017-02-06 15:54:25.810464+01 | 1486392865.81046 | pgbench_tellers_pkey  |           180224
 2017-02-06 15:54:25.810464+01 | 1486392865.81046 | pgbench_accounts_pkey |        224641024

 2017-02-06 15:54:26.90802+01 | 1486392866.90802 | pgbench_branches_pkey |            40960
 2017-02-06 15:54:26.90802+01 | 1486392866.90802 | pgbench_tellers_pkey  |           180224
 2017-02-06 15:54:26.90802+01 | 1486392866.90802 | pgbench_accounts_pkey |        224641024

 2017-02-06 15:54:28.003608+01 | 1486392868.00361 | pgbench_branches_pkey |            40960
 2017-02-06 15:54:28.003608+01 | 1486392868.00361 | pgbench_tellers_pkey  |           180224
 2017-02-06 15:54:28.003608+01 | 1486392868.00361 | pgbench_accounts_pkey |        224641024

 2017-02-06 15:54:29.097571+01 | 1486392869.09757 | pgbench_branches_pkey |            40960
 2017-02-06 15:54:29.097571+01 | 1486392869.09757 | pgbench_tellers_pkey  |           180224
 2017-02-06 15:54:29.097571+01 | 1486392869.09757 | pgbench_accounts_pkey |        224641024

 2017-02-06 15:54:30.188649+01 | 1486392870.18865 | pgbench_branches_pkey |            40960
 2017-02-06 15:54:30.188649+01 | 1486392870.18865 | pgbench_tellers_pkey  |           180224
 2017-02-06 15:54:30.188649+01 | 1486392870.18865 | pgbench_accounts_pkey |        224641024

 2017-02-06 15:54:31.296812+01 | 1486392871.29681 | pgbench_branches_pkey |            40960
 2017-02-06 15:54:31.296812+01 | 1486392871.29681 | pgbench_tellers_pkey  |           180224
 2017-02-06 15:54:31.296812+01 | 1486392871.29681 | pgbench_accounts_pkey |        224641024

 2017-02-06 15:54:32.379554+01 | 1486392872.37955 | pgbench_branches_pkey |            40960
 2017-02-06 15:54:32.379554+01 | 1486392872.37955 | pgbench_tellers_pkey  |           180224
 2017-02-06 15:54:32.379554+01 | 1486392872.37955 | pgbench_accounts_pkey |        224641024

 2017-02-06 15:54:33.465968+01 | 1486392873.46597 | pgbench_branches_pkey |            40960
 2017-02-06 15:54:33.465968+01 | 1486392873.46597 | pgbench_tellers_pkey  |           180224
 2017-02-06 15:54:33.465968+01 | 1486392873.46597 | pgbench_accounts_pkey |        224641024

 2017-02-06 15:54:34.56741+01 | 1486392874.56741 | pgbench_branches_pkey |            40960
 2017-02-06 15:54:34.56741+01 | 1486392874.56741 | pgbench_tellers_pkey  |           180224
 2017-02-06 15:54:34.56741+01 | 1486392874.56741 | pgbench_accounts_pkey |        224641024

 2017-02-06 15:54:35.661924+01 | 1486392875.66192 | pgbench_branches_pkey |            40960
 2017-02-06 15:54:35.661924+01 | 1486392875.66192 | pgbench_tellers_pkey  |           180224
 2017-02-06 15:54:35.661924+01 | 1486392875.66192 | pgbench_accounts_pkey |        224641024

 2017-02-06 15:54:36.755343+01 | 1486392876.75534 | pgbench_branches_pkey |            40960
 2017-02-06 15:54:36.755343+01 | 1486392876.75534 | pgbench_tellers_pkey  |           180224
 2017-02-06 15:54:36.755343+01 | 1486392876.75534 | pgbench_accounts_pkey |        224641024

 2017-02-06 15:54:37.852005+01 | 1486392877.85201 | pgbench_branches_pkey |            40960
 2017-02-06 15:54:37.852005+01 | 1486392877.85201 | pgbench_tellers_pkey  |           180224
 2017-02-06 15:54:37.852005+01 | 1486392877.85201 | pgbench_accounts_pkey |        224641024

 2017-02-06 15:54:38.952558+01 | 1486392878.95256 | pgbench_branches_pkey |            40960
 2017-02-06 15:54:38.952558+01 | 1486392878.95256 | pgbench_tellers_pkey  |           180224
 2017-02-06 15:54:38.952558+01 | 1486392878.95256 | pgbench_accounts_pkey |        224641024

 2017-02-06 15:54:40.048301+01 | 1486392880.0483 | pgbench_branches_pkey |            40960
 2017-02-06 15:54:40.048301+01 | 1486392880.0483 | pgbench_tellers_pkey  |           180224
 2017-02-06 15:54:40.048301+01 | 1486392880.0483 | pgbench_accounts_pkey |        224641024

 2017-02-06 15:54:41.145084+01 | 1486392881.14508 | pgbench_branches_pkey |            40960
 2017-02-06 15:54:41.145084+01 | 1486392881.14508 | pgbench_tellers_pkey  |           180224
 2017-02-06 15:54:41.145084+01 | 1486392881.14508 | pgbench_accounts_pkey |        224641024

 2017-02-06 15:54:42.243852+01 | 1486392882.24385 | pgbench_branches_pkey |            40960
 2017-02-06 15:54:42.243852+01 | 1486392882.24385 | pgbench_tellers_pkey  |           180224
 2017-02-06 15:54:42.243852+01 | 1486392882.24385 | pgbench_accounts_pkey |        224641024

 2017-02-06 15:54:43.331896+01 | 1486392883.3319 | pgbench_branches_pkey |            40960
 2017-02-06 15:54:43.331896+01 | 1486392883.3319 | pgbench_tellers_pkey  |           180224
 2017-02-06 15:54:43.331896+01 | 1486392883.3319 | pgbench_accounts_pkey |        224641024

 2017-02-06 15:54:44.410423+01 | 1486392884.41042 | pgbench_branches_pkey |            40960
 2017-02-06 15:54:44.410423+01 | 1486392884.41042 | pgbench_tellers_pkey  |           180224
 2017-02-06 15:54:44.410423+01 | 1486392884.41042 | pgbench_accounts_pkey |        224641024

 2017-02-06 15:54:45.499606+01 | 1486392885.49961 | pgbench_branches_pkey |            40960
 2017-02-06 15:54:45.499606+01 | 1486392885.49961 | pgbench_tellers_pkey  |           180224
 2017-02-06 15:54:45.499606+01 | 1486392885.49961 | pgbench_accounts_pkey |        224641024

 2017-02-06 15:54:46.591945+01 | 1486392886.59194 | pgbench_branches_pkey |            40960
 2017-02-06 15:54:46.591945+01 | 1486392886.59194 | pgbench_tellers_pkey  |           180224
 2017-02-06 15:54:46.591945+01 | 1486392886.59194 | pgbench_accounts_pkey |        224641024

 2017-02-06 15:54:47.689303+01 | 1486392887.6893 | pgbench_branches_pkey |            40960
 2017-02-06 15:54:47.689303+01 | 1486392887.6893 | pgbench_tellers_pkey  |           180224
 2017-02-06 15:54:47.689303+01 | 1486392887.6893 | pgbench_accounts_pkey |        224641024

 2017-02-06 15:54:48.791513+01 | 1486392888.79151 | pgbench_branches_pkey |            40960
 2017-02-06 15:54:48.791513+01 | 1486392888.79151 | pgbench_tellers_pkey  |           180224
 2017-02-06 15:54:48.791513+01 | 1486392888.79151 | pgbench_accounts_pkey |        224641024

 2017-02-06 15:54:49.893698+01 | 1486392889.8937 | pgbench_branches_pkey |            40960
 2017-02-06 15:54:49.893698+01 | 1486392889.8937 | pgbench_tellers_pkey  |           180224
 2017-02-06 15:54:49.893698+01 | 1486392889.8937 | pgbench_accounts_pkey |        224641024

 2017-02-06 15:54:50.985424+01 | 1486392890.98542 | pgbench_branches_pkey |            40960
 2017-02-06 15:54:50.985424+01 | 1486392890.98542 | pgbench_tellers_pkey  |           180224
 2017-02-06 15:54:50.985424+01 | 1486392890.98542 | pgbench_accounts_pkey |        224641024

 2017-02-06 15:54:52.083722+01 | 1486392892.08372 | pgbench_branches_pkey |            40960
 2017-02-06 15:54:52.083722+01 | 1486392892.08372 | pgbench_tellers_pkey  |           180224
 2017-02-06 15:54:52.083722+01 | 1486392892.08372 | pgbench_accounts_pkey |        224641024

 2017-02-06 15:54:53.185979+01 | 1486392893.18598 | pgbench_branches_pkey |            40960
 2017-02-06 15:54:53.185979+01 | 1486392893.18598 | pgbench_tellers_pkey  |           180224
 2017-02-06 15:54:53.185979+01 | 1486392893.18598 | pgbench_accounts_pkey |        224641024

 2017-02-06 15:54:54.27742+01 | 1486392894.27742 | pgbench_branches_pkey |            40960
 2017-02-06 15:54:54.27742+01 | 1486392894.27742 | pgbench_tellers_pkey  |           180224
 2017-02-06 15:54:54.27742+01 | 1486392894.27742 | pgbench_accounts_pkey |        224641024

 2017-02-06 15:54:55.363305+01 | 1486392895.36331 | pgbench_branches_pkey |            40960
 2017-02-06 15:54:55.363305+01 | 1486392895.36331 | pgbench_tellers_pkey  |           180224
 2017-02-06 15:54:55.363305+01 | 1486392895.36331 | pgbench_accounts_pkey |        224641024

 2017-02-06 15:54:56.448526+01 | 1486392896.44853 | pgbench_branches_pkey |            40960
 2017-02-06 15:54:56.448526+01 | 1486392896.44853 | pgbench_tellers_pkey  |           180224
 2017-02-06 15:54:56.448526+01 | 1486392896.44853 | pgbench_accounts_pkey |        224641024

 2017-02-06 15:54:57.545589+01 | 1486392897.54559 | pgbench_branches_pkey |            40960
 2017-02-06 15:54:57.545589+01 | 1486392897.54559 | pgbench_tellers_pkey  |           180224
 2017-02-06 15:54:57.545589+01 | 1486392897.54559 | pgbench_accounts_pkey |        224641024

 2017-02-06 15:54:58.645888+01 | 1486392898.64589 | pgbench_branches_pkey |            40960
 2017-02-06 15:54:58.645888+01 | 1486392898.64589 | pgbench_tellers_pkey  |           180224
 2017-02-06 15:54:58.645888+01 | 1486392898.64589 | pgbench_accounts_pkey |        224641024

 2017-02-06 15:54:59.740984+01 | 1486392899.74098 | pgbench_branches_pkey |            40960
 2017-02-06 15:54:59.740984+01 | 1486392899.74098 | pgbench_tellers_pkey  |           180224
 2017-02-06 15:54:59.740984+01 | 1486392899.74098 | pgbench_accounts_pkey |        224641024

 2017-02-06 15:55:00.831674+01 | 1486392900.83167 | pgbench_branches_pkey |            40960
 2017-02-06 15:55:00.831674+01 | 1486392900.83167 | pgbench_tellers_pkey  |           180224
 2017-02-06 15:55:00.831674+01 | 1486392900.83167 | pgbench_accounts_pkey |        224641024

 2017-02-06 15:55:01.941983+01 | 1486392901.94198 | pgbench_branches_pkey |            40960
 2017-02-06 15:55:01.941983+01 | 1486392901.94198 | pgbench_tellers_pkey  |           180224
 2017-02-06 15:55:01.941983+01 | 1486392901.94198 | pgbench_accounts_pkey |        224641024

 2017-02-06 15:55:03.037037+01 | 1486392903.03704 | pgbench_branches_pkey |            40960
 2017-02-06 15:55:03.037037+01 | 1486392903.03704 | pgbench_tellers_pkey  |           180224
 2017-02-06 15:55:03.037037+01 | 1486392903.03704 | pgbench_accounts_pkey |        224641024

 2017-02-06 15:55:04.131778+01 | 1486392904.13178 | pgbench_branches_pkey |            40960
 2017-02-06 15:55:04.131778+01 | 1486392904.13178 | pgbench_tellers_pkey  |           180224
 2017-02-06 15:55:04.131778+01 | 1486392904.13178 | pgbench_accounts_pkey |        224641024

 2017-02-06 15:55:05.229286+01 | 1486392905.22929 | pgbench_branches_pkey |            40960
 2017-02-06 15:55:05.229286+01 | 1486392905.22929 | pgbench_tellers_pkey  |           180224
 2017-02-06 15:55:05.229286+01 | 1486392905.22929 | pgbench_accounts_pkey |        224641024

 2017-02-06 15:55:06.315406+01 | 1486392906.31541 | pgbench_branches_pkey |            40960
 2017-02-06 15:55:06.315406+01 | 1486392906.31541 | pgbench_tellers_pkey  |           180224
 2017-02-06 15:55:06.315406+01 | 1486392906.31541 | pgbench_accounts_pkey |        224641024

 2017-02-06 15:55:07.397705+01 | 1486392907.39771 | pgbench_branches_pkey |            40960
 2017-02-06 15:55:07.397705+01 | 1486392907.39771 | pgbench_tellers_pkey  |           180224
 2017-02-06 15:55:07.397705+01 | 1486392907.39771 | pgbench_accounts_pkey |        224641024

 2017-02-06 15:55:08.478783+01 | 1486392908.47878 | pgbench_branches_pkey |            40960
 2017-02-06 15:55:08.478783+01 | 1486392908.47878 | pgbench_tellers_pkey  |           180224
 2017-02-06 15:55:08.478783+01 | 1486392908.47878 | pgbench_accounts_pkey |        224641024

 2017-02-06 15:55:09.563641+01 | 1486392909.56364 | pgbench_branches_pkey |            40960
 2017-02-06 15:55:09.563641+01 | 1486392909.56364 | pgbench_tellers_pkey  |           180224
 2017-02-06 15:55:09.563641+01 | 1486392909.56364 | pgbench_accounts_pkey |        224641024

 2017-02-06 15:55:10.632499+01 | 1486392910.6325 | pgbench_branches_pkey |            40960
 2017-02-06 15:55:10.632499+01 | 1486392910.6325 | pgbench_tellers_pkey  |           180224
 2017-02-06 15:55:10.632499+01 | 1486392910.6325 | pgbench_accounts_pkey |        224641024

 2017-02-06 15:55:11.713977+01 | 1486392911.71398 | pgbench_branches_pkey |            40960
 2017-02-06 15:55:11.713977+01 | 1486392911.71398 | pgbench_tellers_pkey  |           180224
 2017-02-06 15:55:11.713977+01 | 1486392911.71398 | pgbench_accounts_pkey |        224641024

 2017-02-06 15:55:12.816876+01 | 1486392912.81688 | pgbench_branches_pkey |            40960
 2017-02-06 15:55:12.816876+01 | 1486392912.81688 | pgbench_tellers_pkey  |           180224
 2017-02-06 15:55:12.816876+01 | 1486392912.81688 | pgbench_accounts_pkey |        224641024

 2017-02-06 15:55:13.908485+01 | 1486392913.90848 | pgbench_branches_pkey |            40960
 2017-02-06 15:55:13.908485+01 | 1486392913.90848 | pgbench_tellers_pkey  |           180224
 2017-02-06 15:55:13.908485+01 | 1486392913.90848 | pgbench_accounts_pkey |        224641024

 2017-02-06 15:55:15.012764+01 | 1486392915.01276 | pgbench_branches_pkey |            40960
 2017-02-06 15:55:15.012764+01 | 1486392915.01276 | pgbench_tellers_pkey  |           180224
 2017-02-06 15:55:15.012764+01 | 1486392915.01276 | pgbench_accounts_pkey |        224641024

 2017-02-06 15:55:16.111167+01 | 1486392916.11117 | pgbench_branches_pkey |            40960
 2017-02-06 15:55:16.111167+01 | 1486392916.11117 | pgbench_tellers_pkey  |           180224
 2017-02-06 15:55:16.111167+01 | 1486392916.11117 | pgbench_accounts_pkey |        224641024

 2017-02-06 15:55:17.214331+01 | 1486392917.21433 | pgbench_branches_pkey |            40960
 2017-02-06 15:55:17.214331+01 | 1486392917.21433 | pgbench_tellers_pkey  |           180224
 2017-02-06 15:55:17.214331+01 | 1486392917.21433 | pgbench_accounts_pkey |        224641024

 2017-02-06 15:55:18.311527+01 | 1486392918.31153 | pgbench_branches_pkey |            40960
 2017-02-06 15:55:18.311527+01 | 1486392918.31153 | pgbench_tellers_pkey  |           180224
 2017-02-06 15:55:18.311527+01 | 1486392918.31153 | pgbench_accounts_pkey |        224641024

 2017-02-06 15:55:19.397815+01 | 1486392919.39781 | pgbench_branches_pkey |            40960
 2017-02-06 15:55:19.397815+01 | 1486392919.39781 | pgbench_tellers_pkey  |           180224
 2017-02-06 15:55:19.397815+01 | 1486392919.39781 | pgbench_accounts_pkey |        224641024

 2017-02-06 15:55:20.476455+01 | 1486392920.47645 | pgbench_branches_pkey |            40960
 2017-02-06 15:55:20.476455+01 | 1486392920.47645 | pgbench_tellers_pkey  |           180224
 2017-02-06 15:55:20.476455+01 | 1486392920.47645 | pgbench_accounts_pkey |        224641024

 2017-02-06 15:55:21.563255+01 | 1486392921.56326 | pgbench_branches_pkey |            40960
 2017-02-06 15:55:21.563255+01 | 1486392921.56326 | pgbench_tellers_pkey  |           180224
 2017-02-06 15:55:21.563255+01 | 1486392921.56326 | pgbench_accounts_pkey |        224641024

 2017-02-06 15:55:22.664352+01 | 1486392922.66435 | pgbench_branches_pkey |            40960
 2017-02-06 15:55:22.664352+01 | 1486392922.66435 | pgbench_tellers_pkey  |           180224
 2017-02-06 15:55:22.664352+01 | 1486392922.66435 | pgbench_accounts_pkey |        224641024

 2017-02-06 15:55:23.767532+01 | 1486392923.76753 | pgbench_branches_pkey |            40960
 2017-02-06 15:55:23.767532+01 | 1486392923.76753 | pgbench_tellers_pkey  |           180224
 2017-02-06 15:55:23.767532+01 | 1486392923.76753 | pgbench_accounts_pkey |        224641024

 2017-02-06 15:55:24.853418+01 | 1486392924.85342 | pgbench_branches_pkey |            40960
 2017-02-06 15:55:24.853418+01 | 1486392924.85342 | pgbench_tellers_pkey  |           180224
 2017-02-06 15:55:24.853418+01 | 1486392924.85342 | pgbench_accounts_pkey |        224641024

 2017-02-06 15:55:25.946472+01 | 1486392925.94647 | pgbench_branches_pkey |            40960
 2017-02-06 15:55:25.946472+01 | 1486392925.94647 | pgbench_tellers_pkey  |           180224
 2017-02-06 15:55:25.946472+01 | 1486392925.94647 | pgbench_accounts_pkey |        224641024

 2017-02-06 15:55:27.038037+01 | 1486392927.03804 | pgbench_branches_pkey |            40960
 2017-02-06 15:55:27.038037+01 | 1486392927.03804 | pgbench_tellers_pkey  |           180224
 2017-02-06 15:55:27.038037+01 | 1486392927.03804 | pgbench_accounts_pkey |        224641024

 2017-02-06 15:55:28.1327+01 | 1486392928.1327 | pgbench_branches_pkey |            40960
 2017-02-06 15:55:28.1327+01 | 1486392928.1327 | pgbench_tellers_pkey  |           180224
 2017-02-06 15:55:28.1327+01 | 1486392928.1327 | pgbench_accounts_pkey |        224641024

 2017-02-06 15:55:29.226609+01 | 1486392929.22661 | pgbench_branches_pkey |            40960
 2017-02-06 15:55:29.226609+01 | 1486392929.22661 | pgbench_tellers_pkey  |           180224
 2017-02-06 15:55:29.226609+01 | 1486392929.22661 | pgbench_accounts_pkey |        224641024

 2017-02-06 15:55:30.321921+01 | 1486392930.32192 | pgbench_branches_pkey |            40960
 2017-02-06 15:55:30.321921+01 | 1486392930.32192 | pgbench_tellers_pkey  |           180224
 2017-02-06 15:55:30.321921+01 | 1486392930.32192 | pgbench_accounts_pkey |        224641024

 2017-02-06 15:55:31.411226+01 | 1486392931.41123 | pgbench_branches_pkey |            40960
 2017-02-06 15:55:31.411226+01 | 1486392931.41123 | pgbench_tellers_pkey  |           180224
 2017-02-06 15:55:31.411226+01 | 1486392931.41123 | pgbench_accounts_pkey |        224641024

 2017-02-06 15:55:32.494335+01 | 1486392932.49433 | pgbench_branches_pkey |            40960
 2017-02-06 15:55:32.494335+01 | 1486392932.49433 | pgbench_tellers_pkey  |           180224
 2017-02-06 15:55:32.494335+01 | 1486392932.49433 | pgbench_accounts_pkey |        224641024

 2017-02-06 15:55:33.572548+01 | 1486392933.57255 | pgbench_branches_pkey |            40960
 2017-02-06 15:55:33.572548+01 | 1486392933.57255 | pgbench_tellers_pkey  |           180224
 2017-02-06 15:55:33.572548+01 | 1486392933.57255 | pgbench_accounts_pkey |        224641024

 2017-02-06 15:55:34.657991+01 | 1486392934.65799 | pgbench_branches_pkey |            40960
 2017-02-06 15:55:34.657991+01 | 1486392934.65799 | pgbench_tellers_pkey  |           180224
 2017-02-06 15:55:34.657991+01 | 1486392934.65799 | pgbench_accounts_pkey |        224641024

 2017-02-06 15:55:35.755667+01 | 1486392935.75567 | pgbench_branches_pkey |            40960
 2017-02-06 15:55:35.755667+01 | 1486392935.75567 | pgbench_tellers_pkey  |           180224
 2017-02-06 15:55:35.755667+01 | 1486392935.75567 | pgbench_accounts_pkey |        224641024

 2017-02-06 15:55:36.849921+01 | 1486392936.84992 | pgbench_branches_pkey |            40960
 2017-02-06 15:55:36.849921+01 | 1486392936.84992 | pgbench_tellers_pkey  |           180224
 2017-02-06 15:55:36.849921+01 | 1486392936.84992 | pgbench_accounts_pkey |        224641024

 2017-02-06 15:55:37.940076+01 | 1486392937.94008 | pgbench_branches_pkey |            40960
 2017-02-06 15:55:37.940076+01 | 1486392937.94008 | pgbench_tellers_pkey  |           180224
 2017-02-06 15:55:37.940076+01 | 1486392937.94008 | pgbench_accounts_pkey |        224641024

 2017-02-06 15:55:39.036781+01 | 1486392939.03678 | pgbench_branches_pkey |            40960
 2017-02-06 15:55:39.036781+01 | 1486392939.03678 | pgbench_tellers_pkey  |           180224
 2017-02-06 15:55:39.036781+01 | 1486392939.03678 | pgbench_accounts_pkey |        224641024

 2017-02-06 15:55:40.12941+01 | 1486392940.12941 | pgbench_branches_pkey |            40960
 2017-02-06 15:55:40.12941+01 | 1486392940.12941 | pgbench_tellers_pkey  |           180224
 2017-02-06 15:55:40.12941+01 | 1486392940.12941 | pgbench_accounts_pkey |        224641024

 2017-02-06 15:55:41.215983+01 | 1486392941.21598 | pgbench_branches_pkey |            40960
 2017-02-06 15:55:41.215983+01 | 1486392941.21598 | pgbench_tellers_pkey  |           180224
 2017-02-06 15:55:41.215983+01 | 1486392941.21598 | pgbench_accounts_pkey |        224641024

 2017-02-06 15:55:42.312267+01 | 1486392942.31227 | pgbench_branches_pkey |            40960
 2017-02-06 15:55:42.312267+01 | 1486392942.31227 | pgbench_tellers_pkey  |           180224
 2017-02-06 15:55:42.312267+01 | 1486392942.31227 | pgbench_accounts_pkey |        224641024

 2017-02-06 15:55:43.394695+01 | 1486392943.3947 | pgbench_branches_pkey |            40960
 2017-02-06 15:55:43.394695+01 | 1486392943.3947 | pgbench_tellers_pkey  |           180224
 2017-02-06 15:55:43.394695+01 | 1486392943.3947 | pgbench_accounts_pkey |        224641024

 2017-02-06 15:55:44.482164+01 | 1486392944.48216 | pgbench_branches_pkey |            40960
 2017-02-06 15:55:44.482164+01 | 1486392944.48216 | pgbench_tellers_pkey  |           180224
 2017-02-06 15:55:44.482164+01 | 1486392944.48216 | pgbench_accounts_pkey |        224641024

 2017-02-06 15:55:45.562283+01 | 1486392945.56228 | pgbench_branches_pkey |            40960
 2017-02-06 15:55:45.562283+01 | 1486392945.56228 | pgbench_tellers_pkey  |           180224
 2017-02-06 15:55:45.562283+01 | 1486392945.56228 | pgbench_accounts_pkey |        224641024

 2017-02-06 15:55:46.647143+01 | 1486392946.64714 | pgbench_branches_pkey |            40960
 2017-02-06 15:55:46.647143+01 | 1486392946.64714 | pgbench_tellers_pkey  |           180224
 2017-02-06 15:55:46.647143+01 | 1486392946.64714 | pgbench_accounts_pkey |        224641024

 2017-02-06 15:55:47.748414+01 | 1486392947.74841 | pgbench_branches_pkey |            40960
 2017-02-06 15:55:47.748414+01 | 1486392947.74841 | pgbench_tellers_pkey  |           180224
 2017-02-06 15:55:47.748414+01 | 1486392947.74841 | pgbench_accounts_pkey |        224641024

 2017-02-06 15:55:48.855217+01 | 1486392948.85522 | pgbench_branches_pkey |            40960
 2017-02-06 15:55:48.855217+01 | 1486392948.85522 | pgbench_tellers_pkey  |           180224
 2017-02-06 15:55:48.855217+01 | 1486392948.85522 | pgbench_accounts_pkey |        224641024

 2017-02-06 15:55:49.947713+01 | 1486392949.94771 | pgbench_branches_pkey |            40960
 2017-02-06 15:55:49.947713+01 | 1486392949.94771 | pgbench_tellers_pkey  |           180224
 2017-02-06 15:55:49.947713+01 | 1486392949.94771 | pgbench_accounts_pkey |        224641024

 2017-02-06 15:55:51.05686+01 | 1486392951.05686 | pgbench_branches_pkey |            40960
 2017-02-06 15:55:51.05686+01 | 1486392951.05686 | pgbench_tellers_pkey  |           180224
 2017-02-06 15:55:51.05686+01 | 1486392951.05686 | pgbench_accounts_pkey |        224641024

 2017-02-06 15:55:52.15596+01 | 1486392952.15596 | pgbench_branches_pkey |            40960
 2017-02-06 15:55:52.15596+01 | 1486392952.15596 | pgbench_tellers_pkey  |           180224
 2017-02-06 15:55:52.15596+01 | 1486392952.15596 | pgbench_accounts_pkey |        224641024

 2017-02-06 15:55:53.250811+01 | 1486392953.25081 | pgbench_branches_pkey |            40960
 2017-02-06 15:55:53.250811+01 | 1486392953.25081 | pgbench_tellers_pkey  |           180224
 2017-02-06 15:55:53.250811+01 | 1486392953.25081 | pgbench_accounts_pkey |        224641024

 2017-02-06 15:55:54.346835+01 | 1486392954.34683 | pgbench_branches_pkey |            40960
 2017-02-06 15:55:54.346835+01 | 1486392954.34683 | pgbench_tellers_pkey  |           180224
 2017-02-06 15:55:54.346835+01 | 1486392954.34683 | pgbench_accounts_pkey |        224641024

 2017-02-06 15:55:55.428089+01 | 1486392955.42809 | pgbench_branches_pkey |            40960
 2017-02-06 15:55:55.428089+01 | 1486392955.42809 | pgbench_tellers_pkey  |           180224
 2017-02-06 15:55:55.428089+01 | 1486392955.42809 | pgbench_accounts_pkey |        224641024

 2017-02-06 15:55:56.510339+01 | 1486392956.51034 | pgbench_branches_pkey |            40960
 2017-02-06 15:55:56.510339+01 | 1486392956.51034 | pgbench_tellers_pkey  |           180224
 2017-02-06 15:55:56.510339+01 | 1486392956.51034 | pgbench_accounts_pkey |        224641024

 2017-02-06 15:55:57.594907+01 | 1486392957.59491 | pgbench_branches_pkey |            40960
 2017-02-06 15:55:57.594907+01 | 1486392957.59491 | pgbench_tellers_pkey  |           180224
 2017-02-06 15:55:57.594907+01 | 1486392957.59491 | pgbench_accounts_pkey |        224641024

 2017-02-06 15:55:58.683195+01 | 1486392958.6832 | pgbench_branches_pkey |            40960
 2017-02-06 15:55:58.683195+01 | 1486392958.6832 | pgbench_tellers_pkey  |           180224
 2017-02-06 15:55:58.683195+01 | 1486392958.6832 | pgbench_accounts_pkey |        224641024

 2017-02-06 15:55:59.776017+01 | 1486392959.77602 | pgbench_branches_pkey |            40960
 2017-02-06 15:55:59.776017+01 | 1486392959.77602 | pgbench_tellers_pkey  |           180224
 2017-02-06 15:55:59.776017+01 | 1486392959.77602 | pgbench_accounts_pkey |        224641024

 2017-02-06 15:56:00.886588+01 | 1486392960.88659 | pgbench_branches_pkey |            40960
 2017-02-06 15:56:00.886588+01 | 1486392960.88659 | pgbench_tellers_pkey  |           180224
 2017-02-06 15:56:00.886588+01 | 1486392960.88659 | pgbench_accounts_pkey |        224641024

 2017-02-06 15:56:01.985423+01 | 1486392961.98542 | pgbench_branches_pkey |            40960
 2017-02-06 15:56:01.985423+01 | 1486392961.98542 | pgbench_tellers_pkey  |           180224
 2017-02-06 15:56:01.985423+01 | 1486392961.98542 | pgbench_accounts_pkey |        224641024

 2017-02-06 15:56:03.086319+01 | 1486392963.08632 | pgbench_branches_pkey |            40960
 2017-02-06 15:56:03.086319+01 | 1486392963.08632 | pgbench_tellers_pkey  |           180224
 2017-02-06 15:56:03.086319+01 | 1486392963.08632 | pgbench_accounts_pkey |        224641024

 2017-02-06 15:56:04.175093+01 | 1486392964.17509 | pgbench_branches_pkey |            40960
 2017-02-06 15:56:04.175093+01 | 1486392964.17509 | pgbench_tellers_pkey  |           180224
 2017-02-06 15:56:04.175093+01 | 1486392964.17509 | pgbench_accounts_pkey |        224641024

 2017-02-06 15:56:05.272302+01 | 1486392965.2723 | pgbench_branches_pkey |            40960
 2017-02-06 15:56:05.272302+01 | 1486392965.2723 | pgbench_tellers_pkey  |           180224
 2017-02-06 15:56:05.272302+01 | 1486392965.2723 | pgbench_accounts_pkey |        224641024

 2017-02-06 15:56:06.36937+01 | 1486392966.36937 | pgbench_branches_pkey |            40960
 2017-02-06 15:56:06.36937+01 | 1486392966.36937 | pgbench_tellers_pkey  |           180224
 2017-02-06 15:56:06.36937+01 | 1486392966.36937 | pgbench_accounts_pkey |        224641024

 2017-02-06 15:56:07.456784+01 | 1486392967.45678 | pgbench_branches_pkey |            40960
 2017-02-06 15:56:07.456784+01 | 1486392967.45678 | pgbench_tellers_pkey  |           180224
 2017-02-06 15:56:07.456784+01 | 1486392967.45678 | pgbench_accounts_pkey |        224641024

 2017-02-06 15:56:08.537935+01 | 1486392968.53794 | pgbench_branches_pkey |            40960
 2017-02-06 15:56:08.537935+01 | 1486392968.53794 | pgbench_tellers_pkey  |           180224
 2017-02-06 15:56:08.537935+01 | 1486392968.53794 | pgbench_accounts_pkey |        224641024

 2017-02-06 15:56:09.624225+01 | 1486392969.62422 | pgbench_branches_pkey |            40960
 2017-02-06 15:56:09.624225+01 | 1486392969.62422 | pgbench_tellers_pkey  |           180224
 2017-02-06 15:56:09.624225+01 | 1486392969.62422 | pgbench_accounts_pkey |        224641024

 2017-02-06 15:56:10.717249+01 | 1486392970.71725 | pgbench_branches_pkey |            40960
 2017-02-06 15:56:10.717249+01 | 1486392970.71725 | pgbench_tellers_pkey  |           180224
 2017-02-06 15:56:10.717249+01 | 1486392970.71725 | pgbench_accounts_pkey |        224641024

 2017-02-06 15:56:11.806949+01 | 1486392971.80695 | pgbench_branches_pkey |            40960
 2017-02-06 15:56:11.806949+01 | 1486392971.80695 | pgbench_tellers_pkey  |           180224
 2017-02-06 15:56:11.806949+01 | 1486392971.80695 | pgbench_accounts_pkey |        224641024

 2017-02-06 15:56:12.904138+01 | 1486392972.90414 | pgbench_branches_pkey |            40960
 2017-02-06 15:56:12.904138+01 | 1486392972.90414 | pgbench_tellers_pkey  |           180224
 2017-02-06 15:56:12.904138+01 | 1486392972.90414 | pgbench_accounts_pkey |        224641024

 2017-02-06 15:56:13.998586+01 | 1486392973.99859 | pgbench_branches_pkey |            40960
 2017-02-06 15:56:13.998586+01 | 1486392973.99859 | pgbench_tellers_pkey  |           180224
 2017-02-06 15:56:13.998586+01 | 1486392973.99859 | pgbench_accounts_pkey |        224641024

 2017-02-06 15:56:15.090524+01 | 1486392975.09052 | pgbench_branches_pkey |            40960
 2017-02-06 15:56:15.090524+01 | 1486392975.09052 | pgbench_tellers_pkey  |           180224
 2017-02-06 15:56:15.090524+01 | 1486392975.09052 | pgbench_accounts_pkey |        224641024

 2017-02-06 15:56:16.178416+01 | 1486392976.17842 | pgbench_branches_pkey |            40960
 2017-02-06 15:56:16.178416+01 | 1486392976.17842 | pgbench_tellers_pkey  |           180224
 2017-02-06 15:56:16.178416+01 | 1486392976.17842 | pgbench_accounts_pkey |        224641024

 2017-02-06 15:56:17.266069+01 | 1486392977.26607 | pgbench_branches_pkey |            40960
 2017-02-06 15:56:17.266069+01 | 1486392977.26607 | pgbench_tellers_pkey  |           180224
 2017-02-06 15:56:17.266069+01 | 1486392977.26607 | pgbench_accounts_pkey |        224641024

 2017-02-06 15:56:18.35672+01 | 1486392978.35672 | pgbench_branches_pkey |            40960
 2017-02-06 15:56:18.35672+01 | 1486392978.35672 | pgbench_tellers_pkey  |           180224
 2017-02-06 15:56:18.35672+01 | 1486392978.35672 | pgbench_accounts_pkey |        224641024

 2017-02-06 15:56:19.444919+01 | 1486392979.44492 | pgbench_branches_pkey |            40960
 2017-02-06 15:56:19.444919+01 | 1486392979.44492 | pgbench_tellers_pkey  |           180224
 2017-02-06 15:56:19.444919+01 | 1486392979.44492 | pgbench_accounts_pkey |        224641024

 2017-02-06 15:56:20.529582+01 | 1486392980.52958 | pgbench_branches_pkey |            40960
 2017-02-06 15:56:20.529582+01 | 1486392980.52958 | pgbench_tellers_pkey  |           180224
 2017-02-06 15:56:20.529582+01 | 1486392980.52958 | pgbench_accounts_pkey |        224641024

 2017-02-06 15:56:21.613787+01 | 1486392981.61379 | pgbench_branches_pkey |            40960
 2017-02-06 15:56:21.613787+01 | 1486392981.61379 | pgbench_tellers_pkey  |           180224
 2017-02-06 15:56:21.613787+01 | 1486392981.61379 | pgbench_accounts_pkey |        224641024

 2017-02-06 15:56:22.692426+01 | 1486392982.69243 | pgbench_branches_pkey |            40960
 2017-02-06 15:56:22.692426+01 | 1486392982.69243 | pgbench_tellers_pkey  |           180224
 2017-02-06 15:56:22.692426+01 | 1486392982.69243 | pgbench_accounts_pkey |        224641024

 2017-02-06 15:56:23.779331+01 | 1486392983.77933 | pgbench_branches_pkey |            40960
 2017-02-06 15:56:23.779331+01 | 1486392983.77933 | pgbench_tellers_pkey  |           180224
 2017-02-06 15:56:23.779331+01 | 1486392983.77933 | pgbench_accounts_pkey |        224641024

 2017-02-06 15:56:24.872049+01 | 1486392984.87205 | pgbench_branches_pkey |            40960
 2017-02-06 15:56:24.872049+01 | 1486392984.87205 | pgbench_tellers_pkey  |           180224
 2017-02-06 15:56:24.872049+01 | 1486392984.87205 | pgbench_accounts_pkey |        224641024

 2017-02-06 15:56:25.97416+01 | 1486392985.97416 | pgbench_branches_pkey |            40960
 2017-02-06 15:56:25.97416+01 | 1486392985.97416 | pgbench_tellers_pkey  |           180224
 2017-02-06 15:56:25.97416+01 | 1486392985.97416 | pgbench_accounts_pkey |        224641024

 2017-02-06 15:56:27.067273+01 | 1486392987.06727 | pgbench_branches_pkey |            40960
 2017-02-06 15:56:27.067273+01 | 1486392987.06727 | pgbench_tellers_pkey  |           180224
 2017-02-06 15:56:27.067273+01 | 1486392987.06727 | pgbench_accounts_pkey |        224641024

 2017-02-06 15:56:28.17835+01 | 1486392988.17835 | pgbench_branches_pkey |            40960
 2017-02-06 15:56:28.17835+01 | 1486392988.17835 | pgbench_tellers_pkey  |           180224
 2017-02-06 15:56:28.17835+01 | 1486392988.17835 | pgbench_accounts_pkey |        224641024

 2017-02-06 15:56:29.267026+01 | 1486392989.26703 | pgbench_branches_pkey |            40960
 2017-02-06 15:56:29.267026+01 | 1486392989.26703 | pgbench_tellers_pkey  |           180224
 2017-02-06 15:56:29.267026+01 | 1486392989.26703 | pgbench_accounts_pkey |        224641024

 2017-02-06 15:56:30.354981+01 | 1486392990.35498 | pgbench_branches_pkey |            40960
 2017-02-06 15:56:30.354981+01 | 1486392990.35498 | pgbench_tellers_pkey  |           180224
 2017-02-06 15:56:30.354981+01 | 1486392990.35498 | pgbench_accounts_pkey |        224641024

 2017-02-06 15:56:31.444313+01 | 1486392991.44431 | pgbench_branches_pkey |            40960
 2017-02-06 15:56:31.444313+01 | 1486392991.44431 | pgbench_tellers_pkey  |           180224
 2017-02-06 15:56:31.444313+01 | 1486392991.44431 | pgbench_accounts_pkey |        224641024

 2017-02-06 15:56:32.526092+01 | 1486392992.52609 | pgbench_branches_pkey |            40960
 2017-02-06 15:56:32.526092+01 | 1486392992.52609 | pgbench_tellers_pkey  |           180224
 2017-02-06 15:56:32.526092+01 | 1486392992.52609 | pgbench_accounts_pkey |        224641024

 2017-02-06 15:56:33.608534+01 | 1486392993.60853 | pgbench_branches_pkey |            40960
 2017-02-06 15:56:33.608534+01 | 1486392993.60853 | pgbench_tellers_pkey  |           180224
 2017-02-06 15:56:33.608534+01 | 1486392993.60853 | pgbench_accounts_pkey |        224641024

 2017-02-06 15:56:34.687824+01 | 1486392994.68782 | pgbench_branches_pkey |            40960
 2017-02-06 15:56:34.687824+01 | 1486392994.68782 | pgbench_tellers_pkey  |           180224
 2017-02-06 15:56:34.687824+01 | 1486392994.68782 | pgbench_accounts_pkey |        224641024

 2017-02-06 15:56:35.777108+01 | 1486392995.77711 | pgbench_branches_pkey |            40960
 2017-02-06 15:56:35.777108+01 | 1486392995.77711 | pgbench_tellers_pkey  |           180224
 2017-02-06 15:56:35.777108+01 | 1486392995.77711 | pgbench_accounts_pkey |        224641024

 2017-02-06 15:56:36.885553+01 | 1486392996.88555 | pgbench_branches_pkey |            40960
 2017-02-06 15:56:36.885553+01 | 1486392996.88555 | pgbench_tellers_pkey  |           180224
 2017-02-06 15:56:36.885553+01 | 1486392996.88555 | pgbench_accounts_pkey |        224641024

 2017-02-06 15:56:37.979934+01 | 1486392997.97993 | pgbench_branches_pkey |            40960
 2017-02-06 15:56:37.979934+01 | 1486392997.97993 | pgbench_tellers_pkey  |           180224
 2017-02-06 15:56:37.979934+01 | 1486392997.97993 | pgbench_accounts_pkey |        224641024

 2017-02-06 15:56:39.098394+01 | 1486392999.09839 | pgbench_branches_pkey |            40960
 2017-02-06 15:56:39.098394+01 | 1486392999.09839 | pgbench_tellers_pkey  |           180224
 2017-02-06 15:56:39.098394+01 | 1486392999.09839 | pgbench_accounts_pkey |        224641024

 2017-02-06 15:56:40.206204+01 | 1486393000.2062 | pgbench_branches_pkey |            40960
 2017-02-06 15:56:40.206204+01 | 1486393000.2062 | pgbench_tellers_pkey  |           180224
 2017-02-06 15:56:40.206204+01 | 1486393000.2062 | pgbench_accounts_pkey |        224641024

 2017-02-06 15:56:41.298693+01 | 1486393001.29869 | pgbench_branches_pkey |            40960
 2017-02-06 15:56:41.298693+01 | 1486393001.29869 | pgbench_tellers_pkey  |           180224
 2017-02-06 15:56:41.298693+01 | 1486393001.29869 | pgbench_accounts_pkey |        224641024

 2017-02-06 15:56:42.389664+01 | 1486393002.38966 | pgbench_branches_pkey |            40960
 2017-02-06 15:56:42.389664+01 | 1486393002.38966 | pgbench_tellers_pkey  |           180224
 2017-02-06 15:56:42.389664+01 | 1486393002.38966 | pgbench_accounts_pkey |        224641024

 2017-02-06 15:56:43.476032+01 | 1486393003.47603 | pgbench_branches_pkey |            40960
 2017-02-06 15:56:43.476032+01 | 1486393003.47603 | pgbench_tellers_pkey  |           180224
 2017-02-06 15:56:43.476032+01 | 1486393003.47603 | pgbench_accounts_pkey |        224641024

 2017-02-06 15:56:44.568241+01 | 1486393004.56824 | pgbench_branches_pkey |            40960
 2017-02-06 15:56:44.568241+01 | 1486393004.56824 | pgbench_tellers_pkey  |           180224
 2017-02-06 15:56:44.568241+01 | 1486393004.56824 | pgbench_accounts_pkey |        224641024

 2017-02-06 15:56:45.656782+01 | 1486393005.65678 | pgbench_branches_pkey |            40960
 2017-02-06 15:56:45.656782+01 | 1486393005.65678 | pgbench_tellers_pkey  |           180224
 2017-02-06 15:56:45.656782+01 | 1486393005.65678 | pgbench_accounts_pkey |        224641024

 2017-02-06 15:56:46.742033+01 | 1486393006.74203 | pgbench_branches_pkey |            40960
 2017-02-06 15:56:46.742033+01 | 1486393006.74203 | pgbench_tellers_pkey  |           180224
 2017-02-06 15:56:46.742033+01 | 1486393006.74203 | pgbench_accounts_pkey |        224641024

 2017-02-06 15:56:47.841569+01 | 1486393007.84157 | pgbench_branches_pkey |            40960
 2017-02-06 15:56:47.841569+01 | 1486393007.84157 | pgbench_tellers_pkey  |           180224
 2017-02-06 15:56:47.841569+01 | 1486393007.84157 | pgbench_accounts_pkey |        224641024

 2017-02-06 15:56:48.947274+01 | 1486393008.94727 | pgbench_branches_pkey |            40960
 2017-02-06 15:56:48.947274+01 | 1486393008.94727 | pgbench_tellers_pkey  |           180224
 2017-02-06 15:56:48.947274+01 | 1486393008.94727 | pgbench_accounts_pkey |        224641024

 2017-02-06 15:56:50.045233+01 | 1486393010.04523 | pgbench_branches_pkey |            40960
 2017-02-06 15:56:50.045233+01 | 1486393010.04523 | pgbench_tellers_pkey  |           180224
 2017-02-06 15:56:50.045233+01 | 1486393010.04523 | pgbench_accounts_pkey |        224641024

 2017-02-06 15:56:51.13553+01 | 1486393011.13553 | pgbench_branches_pkey |            40960
 2017-02-06 15:56:51.13553+01 | 1486393011.13553 | pgbench_tellers_pkey  |           180224
 2017-02-06 15:56:51.13553+01 | 1486393011.13553 | pgbench_accounts_pkey |        224641024

 2017-02-06 15:56:52.237138+01 | 1486393012.23714 | pgbench_branches_pkey |            40960
 2017-02-06 15:56:52.237138+01 | 1486393012.23714 | pgbench_tellers_pkey  |           180224
 2017-02-06 15:56:52.237138+01 | 1486393012.23714 | pgbench_accounts_pkey |        224641024

 2017-02-06 15:56:53.333757+01 | 1486393013.33376 | pgbench_branches_pkey |            40960
 2017-02-06 15:56:53.333757+01 | 1486393013.33376 | pgbench_tellers_pkey  |           180224
 2017-02-06 15:56:53.333757+01 | 1486393013.33376 | pgbench_accounts_pkey |        224641024

 2017-02-06 15:56:54.427426+01 | 1486393014.42743 | pgbench_branches_pkey |            40960
 2017-02-06 15:56:54.427426+01 | 1486393014.42743 | pgbench_tellers_pkey  |           180224
 2017-02-06 15:56:54.427426+01 | 1486393014.42743 | pgbench_accounts_pkey |        224641024

 2017-02-06 15:56:55.508578+01 | 1486393015.50858 | pgbench_branches_pkey |            40960
 2017-02-06 15:56:55.508578+01 | 1486393015.50858 | pgbench_tellers_pkey  |           180224
 2017-02-06 15:56:55.508578+01 | 1486393015.50858 | pgbench_accounts_pkey |        224641024

 2017-02-06 15:56:56.596121+01 | 1486393016.59612 | pgbench_branches_pkey |            40960
 2017-02-06 15:56:56.596121+01 | 1486393016.59612 | pgbench_tellers_pkey  |           180224
 2017-02-06 15:56:56.596121+01 | 1486393016.59612 | pgbench_accounts_pkey |        224641024

 2017-02-06 15:56:57.678473+01 | 1486393017.67847 | pgbench_branches_pkey |            40960
 2017-02-06 15:56:57.678473+01 | 1486393017.67847 | pgbench_tellers_pkey  |           180224
 2017-02-06 15:56:57.678473+01 | 1486393017.67847 | pgbench_accounts_pkey |        224641024

 2017-02-06 15:56:58.76247+01 | 1486393018.76247 | pgbench_branches_pkey |            40960
 2017-02-06 15:56:58.76247+01 | 1486393018.76247 | pgbench_tellers_pkey  |           180224
 2017-02-06 15:56:58.76247+01 | 1486393018.76247 | pgbench_accounts_pkey |        224641024

 2017-02-06 15:56:59.846039+01 | 1486393019.84604 | pgbench_branches_pkey |            40960
 2017-02-06 15:56:59.846039+01 | 1486393019.84604 | pgbench_tellers_pkey  |           180224
 2017-02-06 15:56:59.846039+01 | 1486393019.84604 | pgbench_accounts_pkey |        224641024

 2017-02-06 15:57:00.945413+01 | 1486393020.94541 | pgbench_branches_pkey |            40960
 2017-02-06 15:57:00.945413+01 | 1486393020.94541 | pgbench_tellers_pkey  |           180224
 2017-02-06 15:57:00.945413+01 | 1486393020.94541 | pgbench_accounts_pkey |        224641024

 2017-02-06 15:57:02.037658+01 | 1486393022.03766 | pgbench_branches_pkey |            40960
 2017-02-06 15:57:02.037658+01 | 1486393022.03766 | pgbench_tellers_pkey  |           180224
 2017-02-06 15:57:02.037658+01 | 1486393022.03766 | pgbench_accounts_pkey |        224641024

 2017-02-06 15:57:03.13593+01 | 1486393023.13593 | pgbench_branches_pkey |            40960
 2017-02-06 15:57:03.13593+01 | 1486393023.13593 | pgbench_tellers_pkey  |           180224
 2017-02-06 15:57:03.13593+01 | 1486393023.13593 | pgbench_accounts_pkey |        224641024

 2017-02-06 15:57:04.239574+01 | 1486393024.23957 | pgbench_branches_pkey |            40960
 2017-02-06 15:57:04.239574+01 | 1486393024.23957 | pgbench_tellers_pkey  |           180224
 2017-02-06 15:57:04.239574+01 | 1486393024.23957 | pgbench_accounts_pkey |        224641024

 2017-02-06 15:57:05.338906+01 | 1486393025.33891 | pgbench_branches_pkey |            40960
 2017-02-06 15:57:05.338906+01 | 1486393025.33891 | pgbench_tellers_pkey  |           180224
 2017-02-06 15:57:05.338906+01 | 1486393025.33891 | pgbench_accounts_pkey |        224641024

 2017-02-06 15:57:06.436122+01 | 1486393026.43612 | pgbench_branches_pkey |            40960
 2017-02-06 15:57:06.436122+01 | 1486393026.43612 | pgbench_tellers_pkey  |           180224
 2017-02-06 15:57:06.436122+01 | 1486393026.43612 | pgbench_accounts_pkey |        224641024

 2017-02-06 15:57:07.513782+01 | 1486393027.51378 | pgbench_branches_pkey |            40960
 2017-02-06 15:57:07.513782+01 | 1486393027.51378 | pgbench_tellers_pkey  |           180224
 2017-02-06 15:57:07.513782+01 | 1486393027.51378 | pgbench_accounts_pkey |        224641024

 2017-02-06 15:57:08.599994+01 | 1486393028.59999 | pgbench_branches_pkey |            40960
 2017-02-06 15:57:08.599994+01 | 1486393028.59999 | pgbench_tellers_pkey  |           180224
 2017-02-06 15:57:08.599994+01 | 1486393028.59999 | pgbench_accounts_pkey |        224641024

 2017-02-06 15:57:09.688874+01 | 1486393029.68887 | pgbench_branches_pkey |            40960
 2017-02-06 15:57:09.688874+01 | 1486393029.68887 | pgbench_tellers_pkey  |           180224
 2017-02-06 15:57:09.688874+01 | 1486393029.68887 | pgbench_accounts_pkey |        224641024

 2017-02-06 15:57:10.77022+01 | 1486393030.77022 | pgbench_branches_pkey |            40960
 2017-02-06 15:57:10.77022+01 | 1486393030.77022 | pgbench_tellers_pkey  |           180224
 2017-02-06 15:57:10.77022+01 | 1486393030.77022 | pgbench_accounts_pkey |        224641024

 2017-02-06 15:57:11.851559+01 | 1486393031.85156 | pgbench_branches_pkey |            40960
 2017-02-06 15:57:11.851559+01 | 1486393031.85156 | pgbench_tellers_pkey  |           180224
 2017-02-06 15:57:11.851559+01 | 1486393031.85156 | pgbench_accounts_pkey |        224641024

 2017-02-06 15:57:12.954611+01 | 1486393032.95461 | pgbench_branches_pkey |            40960
 2017-02-06 15:57:12.954611+01 | 1486393032.95461 | pgbench_tellers_pkey  |           180224
 2017-02-06 15:57:12.954611+01 | 1486393032.95461 | pgbench_accounts_pkey |        224641024

 2017-02-06 15:57:14.04364+01 | 1486393034.04364 | pgbench_branches_pkey |            40960
 2017-02-06 15:57:14.04364+01 | 1486393034.04364 | pgbench_tellers_pkey  |           180224
 2017-02-06 15:57:14.04364+01 | 1486393034.04364 | pgbench_accounts_pkey |        224641024

 2017-02-06 15:57:15.157153+01 | 1486393035.15715 | pgbench_branches_pkey |            40960
 2017-02-06 15:57:15.157153+01 | 1486393035.15715 | pgbench_tellers_pkey  |           180224
 2017-02-06 15:57:15.157153+01 | 1486393035.15715 | pgbench_accounts_pkey |        224641024

 2017-02-06 15:57:16.258526+01 | 1486393036.25853 | pgbench_branches_pkey |            40960
 2017-02-06 15:57:16.258526+01 | 1486393036.25853 | pgbench_tellers_pkey  |           180224
 2017-02-06 15:57:16.258526+01 | 1486393036.25853 | pgbench_accounts_pkey |        224641024

 2017-02-06 15:57:17.365212+01 | 1486393037.36521 | pgbench_branches_pkey |            40960
 2017-02-06 15:57:17.365212+01 | 1486393037.36521 | pgbench_tellers_pkey  |           180224
 2017-02-06 15:57:17.365212+01 | 1486393037.36521 | pgbench_accounts_pkey |        224641024

 2017-02-06 15:57:18.454613+01 | 1486393038.45461 | pgbench_branches_pkey |            40960
 2017-02-06 15:57:18.454613+01 | 1486393038.45461 | pgbench_tellers_pkey  |           180224
 2017-02-06 15:57:18.454613+01 | 1486393038.45461 | pgbench_accounts_pkey |        224641024

 2017-02-06 15:57:19.543465+01 | 1486393039.54346 | pgbench_branches_pkey |            40960
 2017-02-06 15:57:19.543465+01 | 1486393039.54346 | pgbench_tellers_pkey  |           180224
 2017-02-06 15:57:19.543465+01 | 1486393039.54346 | pgbench_accounts_pkey |        224641024

 2017-02-06 15:57:20.624443+01 | 1486393040.62444 | pgbench_branches_pkey |            40960
 2017-02-06 15:57:20.624443+01 | 1486393040.62444 | pgbench_tellers_pkey  |           180224
 2017-02-06 15:57:20.624443+01 | 1486393040.62444 | pgbench_accounts_pkey |        224641024

 2017-02-06 15:57:21.710744+01 | 1486393041.71074 | pgbench_branches_pkey |            40960
 2017-02-06 15:57:21.710744+01 | 1486393041.71074 | pgbench_tellers_pkey  |           180224
 2017-02-06 15:57:21.710744+01 | 1486393041.71074 | pgbench_accounts_pkey |        224641024

 2017-02-06 15:57:22.794672+01 | 1486393042.79467 | pgbench_branches_pkey |            40960
 2017-02-06 15:57:22.794672+01 | 1486393042.79467 | pgbench_tellers_pkey  |           180224
 2017-02-06 15:57:22.794672+01 | 1486393042.79467 | pgbench_accounts_pkey |        224641024

 2017-02-06 15:57:23.87746+01 | 1486393043.87746 | pgbench_branches_pkey |            40960
 2017-02-06 15:57:23.87746+01 | 1486393043.87746 | pgbench_tellers_pkey  |           180224
 2017-02-06 15:57:23.87746+01 | 1486393043.87746 | pgbench_accounts_pkey |        224641024

 2017-02-06 15:57:24.961797+01 | 1486393044.9618 | pgbench_branches_pkey |            40960
 2017-02-06 15:57:24.961797+01 | 1486393044.9618 | pgbench_tellers_pkey  |           180224
 2017-02-06 15:57:24.961797+01 | 1486393044.9618 | pgbench_accounts_pkey |        224641024

 2017-02-06 15:57:26.070426+01 | 1486393046.07043 | pgbench_branches_pkey |            40960
 2017-02-06 15:57:26.070426+01 | 1486393046.07043 | pgbench_tellers_pkey  |           180224
 2017-02-06 15:57:26.070426+01 | 1486393046.07043 | pgbench_accounts_pkey |        224641024

 2017-02-06 15:57:27.16885+01 | 1486393047.16885 | pgbench_branches_pkey |            40960
 2017-02-06 15:57:27.16885+01 | 1486393047.16885 | pgbench_tellers_pkey  |           180224
 2017-02-06 15:57:27.16885+01 | 1486393047.16885 | pgbench_accounts_pkey |        224641024

 2017-02-06 15:57:28.268826+01 | 1486393048.26883 | pgbench_branches_pkey |            40960
 2017-02-06 15:57:28.268826+01 | 1486393048.26883 | pgbench_tellers_pkey  |           180224
 2017-02-06 15:57:28.268826+01 | 1486393048.26883 | pgbench_accounts_pkey |        224641024

 2017-02-06 15:57:29.370051+01 | 1486393049.37005 | pgbench_branches_pkey |            40960
 2017-02-06 15:57:29.370051+01 | 1486393049.37005 | pgbench_tellers_pkey  |           180224
 2017-02-06 15:57:29.370051+01 | 1486393049.37005 | pgbench_accounts_pkey |        224641024

 2017-02-06 15:57:30.47218+01 | 1486393050.47218 | pgbench_branches_pkey |            40960
 2017-02-06 15:57:30.47218+01 | 1486393050.47218 | pgbench_tellers_pkey  |           180224
 2017-02-06 15:57:30.47218+01 | 1486393050.47218 | pgbench_accounts_pkey |        224641024

 2017-02-06 15:57:31.548624+01 | 1486393051.54862 | pgbench_branches_pkey |            40960
 2017-02-06 15:57:31.548624+01 | 1486393051.54862 | pgbench_tellers_pkey  |           180224
 2017-02-06 15:57:31.548624+01 | 1486393051.54862 | pgbench_accounts_pkey |        224641024

 2017-02-06 15:57:32.631835+01 | 1486393052.63183 | pgbench_branches_pkey |            40960
 2017-02-06 15:57:32.631835+01 | 1486393052.63183 | pgbench_tellers_pkey  |           180224
 2017-02-06 15:57:32.631835+01 | 1486393052.63183 | pgbench_accounts_pkey |        224641024

 2017-02-06 15:57:33.710034+01 | 1486393053.71003 | pgbench_branches_pkey |            40960
 2017-02-06 15:57:33.710034+01 | 1486393053.71003 | pgbench_tellers_pkey  |           180224
 2017-02-06 15:57:33.710034+01 | 1486393053.71003 | pgbench_accounts_pkey |        224641024

 2017-02-06 15:57:34.791673+01 | 1486393054.79167 | pgbench_branches_pkey |            40960
 2017-02-06 15:57:34.791673+01 | 1486393054.79167 | pgbench_tellers_pkey  |           180224
 2017-02-06 15:57:34.791673+01 | 1486393054.79167 | pgbench_accounts_pkey |        224641024

 2017-02-06 15:57:35.878111+01 | 1486393055.87811 | pgbench_branches_pkey |            40960
 2017-02-06 15:57:35.878111+01 | 1486393055.87811 | pgbench_tellers_pkey  |           180224
 2017-02-06 15:57:35.878111+01 | 1486393055.87811 | pgbench_accounts_pkey |        224641024

 2017-02-06 15:57:36.968874+01 | 1486393056.96887 | pgbench_branches_pkey |            40960
 2017-02-06 15:57:36.968874+01 | 1486393056.96887 | pgbench_tellers_pkey  |           180224
 2017-02-06 15:57:36.968874+01 | 1486393056.96887 | pgbench_accounts_pkey |        224641024

 2017-02-06 15:57:38.052798+01 | 1486393058.0528 | pgbench_branches_pkey |            40960
 2017-02-06 15:57:38.052798+01 | 1486393058.0528 | pgbench_tellers_pkey  |           180224
 2017-02-06 15:57:38.052798+01 | 1486393058.0528 | pgbench_accounts_pkey |        224641024

 2017-02-06 15:57:39.151107+01 | 1486393059.15111 | pgbench_branches_pkey |            40960
 2017-02-06 15:57:39.151107+01 | 1486393059.15111 | pgbench_tellers_pkey  |           180224
 2017-02-06 15:57:39.151107+01 | 1486393059.15111 | pgbench_accounts_pkey |        224641024

 2017-02-06 15:57:40.246435+01 | 1486393060.24643 | pgbench_branches_pkey |            40960
 2017-02-06 15:57:40.246435+01 | 1486393060.24643 | pgbench_tellers_pkey  |           180224
 2017-02-06 15:57:40.246435+01 | 1486393060.24643 | pgbench_accounts_pkey |        224641024

 2017-02-06 15:57:41.344667+01 | 1486393061.34467 | pgbench_branches_pkey |            40960
 2017-02-06 15:57:41.344667+01 | 1486393061.34467 | pgbench_tellers_pkey  |           180224
 2017-02-06 15:57:41.344667+01 | 1486393061.34467 | pgbench_accounts_pkey |        224641024

 2017-02-06 15:57:42.438776+01 | 1486393062.43878 | pgbench_branches_pkey |            40960
 2017-02-06 15:57:42.438776+01 | 1486393062.43878 | pgbench_tellers_pkey  |           180224
 2017-02-06 15:57:42.438776+01 | 1486393062.43878 | pgbench_accounts_pkey |        224641024

 2017-02-06 15:57:43.532637+01 | 1486393063.53264 | pgbench_branches_pkey |            40960
 2017-02-06 15:57:43.532637+01 | 1486393063.53264 | pgbench_tellers_pkey  |           180224
 2017-02-06 15:57:43.532637+01 | 1486393063.53264 | pgbench_accounts_pkey |        224641024

 2017-02-06 15:57:44.618068+01 | 1486393064.61807 | pgbench_branches_pkey |            40960
 2017-02-06 15:57:44.618068+01 | 1486393064.61807 | pgbench_tellers_pkey  |           180224
 2017-02-06 15:57:44.618068+01 | 1486393064.61807 | pgbench_accounts_pkey |        224641024

 2017-02-06 15:57:45.706992+01 | 1486393065.70699 | pgbench_branches_pkey |            40960
 2017-02-06 15:57:45.706992+01 | 1486393065.70699 | pgbench_tellers_pkey  |           180224
 2017-02-06 15:57:45.706992+01 | 1486393065.70699 | pgbench_accounts_pkey |        224641024

 2017-02-06 15:57:46.787483+01 | 1486393066.78748 | pgbench_branches_pkey |            40960
 2017-02-06 15:57:46.787483+01 | 1486393066.78748 | pgbench_tellers_pkey  |           180224
 2017-02-06 15:57:46.787483+01 | 1486393066.78748 | pgbench_accounts_pkey |        224641024

 2017-02-06 15:57:47.872083+01 | 1486393067.87208 | pgbench_branches_pkey |            40960
 2017-02-06 15:57:47.872083+01 | 1486393067.87208 | pgbench_tellers_pkey  |           180224
 2017-02-06 15:57:47.872083+01 | 1486393067.87208 | pgbench_accounts_pkey |        224641024

 2017-02-06 15:57:48.963053+01 | 1486393068.96305 | pgbench_branches_pkey |            40960
 2017-02-06 15:57:48.963053+01 | 1486393068.96305 | pgbench_tellers_pkey  |           180224
 2017-02-06 15:57:48.963053+01 | 1486393068.96305 | pgbench_accounts_pkey |        224641024

 2017-02-06 15:57:50.059447+01 | 1486393070.05945 | pgbench_branches_pkey |            40960
 2017-02-06 15:57:50.059447+01 | 1486393070.05945 | pgbench_tellers_pkey  |           180224
 2017-02-06 15:57:50.059447+01 | 1486393070.05945 | pgbench_accounts_pkey |        224641024

 2017-02-06 15:57:51.156635+01 | 1486393071.15664 | pgbench_branches_pkey |            40960
 2017-02-06 15:57:51.156635+01 | 1486393071.15664 | pgbench_tellers_pkey  |           180224
 2017-02-06 15:57:51.156635+01 | 1486393071.15664 | pgbench_accounts_pkey |        224641024

 2017-02-06 15:57:52.259275+01 | 1486393072.25927 | pgbench_branches_pkey |            40960
 2017-02-06 15:57:52.259275+01 | 1486393072.25927 | pgbench_tellers_pkey  |           180224
 2017-02-06 15:57:52.259275+01 | 1486393072.25927 | pgbench_accounts_pkey |        224641024

 2017-02-06 15:57:53.353837+01 | 1486393073.35384 | pgbench_branches_pkey |            40960
 2017-02-06 15:57:53.353837+01 | 1486393073.35384 | pgbench_tellers_pkey  |           180224
 2017-02-06 15:57:53.353837+01 | 1486393073.35384 | pgbench_accounts_pkey |        224641024

 2017-02-06 15:57:54.460944+01 | 1486393074.46094 | pgbench_branches_pkey |            40960
 2017-02-06 15:57:54.460944+01 | 1486393074.46094 | pgbench_tellers_pkey  |           180224
 2017-02-06 15:57:54.460944+01 | 1486393074.46094 | pgbench_accounts_pkey |        224641024

 2017-02-06 15:57:55.552889+01 | 1486393075.55289 | pgbench_branches_pkey |            40960
 2017-02-06 15:57:55.552889+01 | 1486393075.55289 | pgbench_tellers_pkey  |           180224
 2017-02-06 15:57:55.552889+01 | 1486393075.55289 | pgbench_accounts_pkey |        224641024

 2017-02-06 15:57:56.634849+01 | 1486393076.63485 | pgbench_branches_pkey |            40960
 2017-02-06 15:57:56.634849+01 | 1486393076.63485 | pgbench_tellers_pkey  |           180224
 2017-02-06 15:57:56.634849+01 | 1486393076.63485 | pgbench_accounts_pkey |        224641024

 2017-02-06 15:57:57.71684+01 | 1486393077.71684 | pgbench_branches_pkey |            40960
 2017-02-06 15:57:57.71684+01 | 1486393077.71684 | pgbench_tellers_pkey  |           180224
 2017-02-06 15:57:57.71684+01 | 1486393077.71684 | pgbench_accounts_pkey |        224641024

 2017-02-06 15:57:58.798261+01 | 1486393078.79826 | pgbench_branches_pkey |            40960
 2017-02-06 15:57:58.798261+01 | 1486393078.79826 | pgbench_tellers_pkey  |           180224
 2017-02-06 15:57:58.798261+01 | 1486393078.79826 | pgbench_accounts_pkey |        224641024

 2017-02-06 15:57:59.884053+01 | 1486393079.88405 | pgbench_branches_pkey |            40960
 2017-02-06 15:57:59.884053+01 | 1486393079.88405 | pgbench_tellers_pkey  |           180224
 2017-02-06 15:57:59.884053+01 | 1486393079.88405 | pgbench_accounts_pkey |        224641024

 2017-02-06 15:58:00.964045+01 | 1486393080.96405 | pgbench_branches_pkey |            40960
 2017-02-06 15:58:00.964045+01 | 1486393080.96405 | pgbench_tellers_pkey  |           180224
 2017-02-06 15:58:00.964045+01 | 1486393080.96405 | pgbench_accounts_pkey |        224641024

 2017-02-06 15:58:02.050967+01 | 1486393082.05097 | pgbench_branches_pkey |            40960
 2017-02-06 15:58:02.050967+01 | 1486393082.05097 | pgbench_tellers_pkey  |           180224
 2017-02-06 15:58:02.050967+01 | 1486393082.05097 | pgbench_accounts_pkey |        224641024

 2017-02-06 15:58:03.151569+01 | 1486393083.15157 | pgbench_branches_pkey |            40960
 2017-02-06 15:58:03.151569+01 | 1486393083.15157 | pgbench_tellers_pkey  |           180224
 2017-02-06 15:58:03.151569+01 | 1486393083.15157 | pgbench_accounts_pkey |        224641024

 2017-02-06 15:58:04.249253+01 | 1486393084.24925 | pgbench_branches_pkey |            40960
 2017-02-06 15:58:04.249253+01 | 1486393084.24925 | pgbench_tellers_pkey  |           180224
 2017-02-06 15:58:04.249253+01 | 1486393084.24925 | pgbench_accounts_pkey |        224641024

 2017-02-06 15:58:05.347088+01 | 1486393085.34709 | pgbench_branches_pkey |            40960
 2017-02-06 15:58:05.347088+01 | 1486393085.34709 | pgbench_tellers_pkey  |           180224
 2017-02-06 15:58:05.347088+01 | 1486393085.34709 | pgbench_accounts_pkey |        224641024

 2017-02-06 15:58:06.460963+01 | 1486393086.46096 | pgbench_branches_pkey |            40960
 2017-02-06 15:58:06.460963+01 | 1486393086.46096 | pgbench_tellers_pkey  |           180224
 2017-02-06 15:58:06.460963+01 | 1486393086.46096 | pgbench_accounts_pkey |        224641024

 2017-02-06 15:58:07.54573+01 | 1486393087.54573 | pgbench_branches_pkey |            40960
 2017-02-06 15:58:07.54573+01 | 1486393087.54573 | pgbench_tellers_pkey  |           180224
 2017-02-06 15:58:07.54573+01 | 1486393087.54573 | pgbench_accounts_pkey |        224641024

 2017-02-06 15:58:08.633067+01 | 1486393088.63307 | pgbench_branches_pkey |            40960
 2017-02-06 15:58:08.633067+01 | 1486393088.63307 | pgbench_tellers_pkey  |           180224
 2017-02-06 15:58:08.633067+01 | 1486393088.63307 | pgbench_accounts_pkey |        224641024

 2017-02-06 15:58:09.718258+01 | 1486393089.71826 | pgbench_branches_pkey |            40960
 2017-02-06 15:58:09.718258+01 | 1486393089.71826 | pgbench_tellers_pkey  |           180224
 2017-02-06 15:58:09.718258+01 | 1486393089.71826 | pgbench_accounts_pkey |        224641024

 2017-02-06 15:58:10.808213+01 | 1486393090.80821 | pgbench_branches_pkey |            40960
 2017-02-06 15:58:10.808213+01 | 1486393090.80821 | pgbench_tellers_pkey  |           180224
 2017-02-06 15:58:10.808213+01 | 1486393090.80821 | pgbench_accounts_pkey |        224641024

 2017-02-06 15:58:11.897652+01 | 1486393091.89765 | pgbench_branches_pkey |            40960
 2017-02-06 15:58:11.897652+01 | 1486393091.89765 | pgbench_tellers_pkey  |           180224
 2017-02-06 15:58:11.897652+01 | 1486393091.89765 | pgbench_accounts_pkey |        224641024

 2017-02-06 15:58:12.985093+01 | 1486393092.98509 | pgbench_branches_pkey |            40960
 2017-02-06 15:58:12.985093+01 | 1486393092.98509 | pgbench_tellers_pkey  |           180224
 2017-02-06 15:58:12.985093+01 | 1486393092.98509 | pgbench_accounts_pkey |        224641024

 2017-02-06 15:58:14.069915+01 | 1486393094.06992 | pgbench_branches_pkey |            40960
 2017-02-06 15:58:14.069915+01 | 1486393094.06992 | pgbench_tellers_pkey  |           180224
 2017-02-06 15:58:14.069915+01 | 1486393094.06992 | pgbench_accounts_pkey |        224641024

 2017-02-06 15:58:15.172278+01 | 1486393095.17228 | pgbench_branches_pkey |            40960
 2017-02-06 15:58:15.172278+01 | 1486393095.17228 | pgbench_tellers_pkey  |           180224
 2017-02-06 15:58:15.172278+01 | 1486393095.17228 | pgbench_accounts_pkey |        224641024

 2017-02-06 15:58:16.272542+01 | 1486393096.27254 | pgbench_branches_pkey |            40960
 2017-02-06 15:58:16.272542+01 | 1486393096.27254 | pgbench_tellers_pkey  |           180224
 2017-02-06 15:58:16.272542+01 | 1486393096.27254 | pgbench_accounts_pkey |        224641024

 2017-02-06 15:58:17.36489+01 | 1486393097.36489 | pgbench_branches_pkey |            40960
 2017-02-06 15:58:17.36489+01 | 1486393097.36489 | pgbench_tellers_pkey  |           180224
 2017-02-06 15:58:17.36489+01 | 1486393097.36489 | pgbench_accounts_pkey |        224641024

 2017-02-06 15:58:18.463711+01 | 1486393098.46371 | pgbench_branches_pkey |            40960
 2017-02-06 15:58:18.463711+01 | 1486393098.46371 | pgbench_tellers_pkey  |           180224
 2017-02-06 15:58:18.463711+01 | 1486393098.46371 | pgbench_accounts_pkey |        224641024

 2017-02-06 15:58:19.544247+01 | 1486393099.54425 | pgbench_branches_pkey |            40960
 2017-02-06 15:58:19.544247+01 | 1486393099.54425 | pgbench_tellers_pkey  |           180224
 2017-02-06 15:58:19.544247+01 | 1486393099.54425 | pgbench_accounts_pkey |        224641024

 2017-02-06 15:58:20.626264+01 | 1486393100.62626 | pgbench_branches_pkey |            40960
 2017-02-06 15:58:20.626264+01 | 1486393100.62626 | pgbench_tellers_pkey  |           180224
 2017-02-06 15:58:20.626264+01 | 1486393100.62626 | pgbench_accounts_pkey |        224641024

 2017-02-06 15:58:21.707871+01 | 1486393101.70787 | pgbench_branches_pkey |            40960
 2017-02-06 15:58:21.707871+01 | 1486393101.70787 | pgbench_tellers_pkey  |           180224
 2017-02-06 15:58:21.707871+01 | 1486393101.70787 | pgbench_accounts_pkey |        224641024

 2017-02-06 15:58:22.800098+01 | 1486393102.8001 | pgbench_branches_pkey |            40960
 2017-02-06 15:58:22.800098+01 | 1486393102.8001 | pgbench_tellers_pkey  |           180224
 2017-02-06 15:58:22.800098+01 | 1486393102.8001 | pgbench_accounts_pkey |        224641024

 2017-02-06 15:58:23.883921+01 | 1486393103.88392 | pgbench_branches_pkey |            40960
 2017-02-06 15:58:23.883921+01 | 1486393103.88392 | pgbench_tellers_pkey  |           180224
 2017-02-06 15:58:23.883921+01 | 1486393103.88392 | pgbench_accounts_pkey |        224641024

 2017-02-06 15:58:24.956407+01 | 1486393104.95641 | pgbench_branches_pkey |            40960
 2017-02-06 15:58:24.956407+01 | 1486393104.95641 | pgbench_tellers_pkey  |           180224
 2017-02-06 15:58:24.956407+01 | 1486393104.95641 | pgbench_accounts_pkey |        224641024

 2017-02-06 15:58:26.040194+01 | 1486393106.04019 | pgbench_branches_pkey |            40960
 2017-02-06 15:58:26.040194+01 | 1486393106.04019 | pgbench_tellers_pkey  |           180224
 2017-02-06 15:58:26.040194+01 | 1486393106.04019 | pgbench_accounts_pkey |        224641024

 2017-02-06 15:58:27.142423+01 | 1486393107.14242 | pgbench_branches_pkey |            40960
 2017-02-06 15:58:27.142423+01 | 1486393107.14242 | pgbench_tellers_pkey  |           180224
 2017-02-06 15:58:27.142423+01 | 1486393107.14242 | pgbench_accounts_pkey |        224641024

 2017-02-06 15:58:28.243993+01 | 1486393108.24399 | pgbench_branches_pkey |            40960
 2017-02-06 15:58:28.243993+01 | 1486393108.24399 | pgbench_tellers_pkey  |           180224
 2017-02-06 15:58:28.243993+01 | 1486393108.24399 | pgbench_accounts_pkey |        224641024

 2017-02-06 15:58:29.345578+01 | 1486393109.34558 | pgbench_branches_pkey |            40960
 2017-02-06 15:58:29.345578+01 | 1486393109.34558 | pgbench_tellers_pkey  |           180224
 2017-02-06 15:58:29.345578+01 | 1486393109.34558 | pgbench_accounts_pkey |        224641024

 2017-02-06 15:58:30.43818+01 | 1486393110.43818 | pgbench_branches_pkey |            40960
 2017-02-06 15:58:30.43818+01 | 1486393110.43818 | pgbench_tellers_pkey  |           180224
 2017-02-06 15:58:30.43818+01 | 1486393110.43818 | pgbench_accounts_pkey |        224641024

 2017-02-06 15:58:31.535177+01 | 1486393111.53518 | pgbench_branches_pkey |            40960
 2017-02-06 15:58:31.535177+01 | 1486393111.53518 | pgbench_tellers_pkey  |           180224
 2017-02-06 15:58:31.535177+01 | 1486393111.53518 | pgbench_accounts_pkey |        224641024

 2017-02-06 15:58:32.628217+01 | 1486393112.62822 | pgbench_branches_pkey |            40960
 2017-02-06 15:58:32.628217+01 | 1486393112.62822 | pgbench_tellers_pkey  |           180224
 2017-02-06 15:58:32.628217+01 | 1486393112.62822 | pgbench_accounts_pkey |        224641024

 2017-02-06 15:58:33.714207+01 | 1486393113.71421 | pgbench_branches_pkey |            40960
 2017-02-06 15:58:33.714207+01 | 1486393113.71421 | pgbench_tellers_pkey  |           180224
 2017-02-06 15:58:33.714207+01 | 1486393113.71421 | pgbench_accounts_pkey |        224641024

