 2017-02-04 01:27:38.956776+01 | 1486168058.95678 | pgbench_accounts |      13838073856
 2017-02-04 01:27:38.956776+01 | 1486168058.95678 | pgbench_tellers  |         27975680
 2017-02-04 01:27:38.956776+01 | 1486168058.95678 | pgbench_history  |        429072384
 2017-02-04 01:27:38.956776+01 | 1486168058.95678 | pgbench_branches |         10657792

 2017-02-04 01:27:40.040897+01 | 1486168060.0409 | pgbench_accounts |      13838376960
 2017-02-04 01:27:40.040897+01 | 1486168060.0409 | pgbench_tellers  |         27975680
 2017-02-04 01:27:40.040897+01 | 1486168060.0409 | pgbench_history  |          1826816
 2017-02-04 01:27:40.040897+01 | 1486168060.0409 | pgbench_branches |         10657792

 2017-02-04 01:27:41.113867+01 | 1486168061.11387 | pgbench_accounts |      13838630912
 2017-02-04 01:27:41.113867+01 | 1486168061.11387 | pgbench_tellers  |         27975680
 2017-02-04 01:27:41.113867+01 | 1486168061.11387 | pgbench_history  |          3194880
 2017-02-04 01:27:41.113867+01 | 1486168061.11387 | pgbench_branches |         10657792

 2017-02-04 01:27:42.201589+01 | 1486168062.20159 | pgbench_accounts |      13838745600
 2017-02-04 01:27:42.201589+01 | 1486168062.20159 | pgbench_tellers  |         27975680
 2017-02-04 01:27:42.201589+01 | 1486168062.20159 | pgbench_history  |          4587520
 2017-02-04 01:27:42.201589+01 | 1486168062.20159 | pgbench_branches |         10657792

 2017-02-04 01:27:43.271941+01 | 1486168063.27194 | pgbench_accounts |      13838934016
 2017-02-04 01:27:43.271941+01 | 1486168063.27194 | pgbench_tellers  |         27975680
 2017-02-04 01:27:43.271941+01 | 1486168063.27194 | pgbench_history  |          6602752
 2017-02-04 01:27:43.271941+01 | 1486168063.27194 | pgbench_branches |         10657792

 2017-02-04 01:27:44.359475+01 | 1486168064.35947 | pgbench_accounts |      13839179776
 2017-02-04 01:27:44.359475+01 | 1486168064.35947 | pgbench_tellers  |         27975680
 2017-02-04 01:27:44.359475+01 | 1486168064.35947 | pgbench_history  |          8978432
 2017-02-04 01:27:44.359475+01 | 1486168064.35947 | pgbench_branches |         10657792

 2017-02-04 01:27:45.444563+01 | 1486168065.44456 | pgbench_accounts |      13839294464
 2017-02-04 01:27:45.444563+01 | 1486168065.44456 | pgbench_tellers  |         27975680
 2017-02-04 01:27:45.444563+01 | 1486168065.44456 | pgbench_history  |         10895360
 2017-02-04 01:27:45.444563+01 | 1486168065.44456 | pgbench_branches |         10657792

 2017-02-04 01:27:46.528569+01 | 1486168066.52857 | pgbench_accounts |      13839466496
 2017-02-04 01:27:46.528569+01 | 1486168066.52857 | pgbench_tellers  |         27975680
 2017-02-04 01:27:46.528569+01 | 1486168066.52857 | pgbench_history  |         13869056
 2017-02-04 01:27:46.528569+01 | 1486168066.52857 | pgbench_branches |         10657792

 2017-02-04 01:27:47.615218+01 | 1486168067.61522 | pgbench_accounts |      13839687680
 2017-02-04 01:27:47.615218+01 | 1486168067.61522 | pgbench_tellers  |         27975680
 2017-02-04 01:27:47.615218+01 | 1486168067.61522 | pgbench_history  |         13869056
 2017-02-04 01:27:47.615218+01 | 1486168067.61522 | pgbench_branches |         10657792

 2017-02-04 01:27:48.707034+01 | 1486168068.70703 | pgbench_accounts |      13839843328
 2017-02-04 01:27:48.707034+01 | 1486168068.70703 | pgbench_tellers  |         27975680
 2017-02-04 01:27:48.707034+01 | 1486168068.70703 | pgbench_history  |         16097280
 2017-02-04 01:27:48.707034+01 | 1486168068.70703 | pgbench_branches |         10657792

 2017-02-04 01:27:49.794681+01 | 1486168069.79468 | pgbench_accounts |      13840007168
 2017-02-04 01:27:49.794681+01 | 1486168069.79468 | pgbench_tellers  |         27975680
 2017-02-04 01:27:49.794681+01 | 1486168069.79468 | pgbench_history  |         17956864
 2017-02-04 01:27:49.794681+01 | 1486168069.79468 | pgbench_branches |         10657792

 2017-02-04 01:27:50.879061+01 | 1486168070.87906 | pgbench_accounts |      13840261120
 2017-02-04 01:27:50.879061+01 | 1486168070.87906 | pgbench_tellers  |         27975680
 2017-02-04 01:27:50.879061+01 | 1486168070.87906 | pgbench_history  |         19480576
 2017-02-04 01:27:50.879061+01 | 1486168070.87906 | pgbench_branches |         10657792

 2017-02-04 01:27:51.962747+01 | 1486168071.96275 | pgbench_accounts |      13840351232
 2017-02-04 01:27:51.962747+01 | 1486168071.96275 | pgbench_tellers  |         27975680
 2017-02-04 01:27:51.962747+01 | 1486168071.96275 | pgbench_history  |         22528000
 2017-02-04 01:27:51.962747+01 | 1486168071.96275 | pgbench_branches |         10657792

 2017-02-04 01:27:53.045944+01 | 1486168073.04594 | pgbench_accounts |      13840547840
 2017-02-04 01:27:53.045944+01 | 1486168073.04594 | pgbench_tellers  |         27975680
 2017-02-04 01:27:53.045944+01 | 1486168073.04594 | pgbench_history  |         24379392
 2017-02-04 01:27:53.045944+01 | 1486168073.04594 | pgbench_branches |         10657792

 2017-02-04 01:27:54.134839+01 | 1486168074.13484 | pgbench_accounts |      13840769024
 2017-02-04 01:27:54.134839+01 | 1486168074.13484 | pgbench_tellers  |         27975680
 2017-02-04 01:27:54.134839+01 | 1486168074.13484 | pgbench_history  |         25059328
 2017-02-04 01:27:54.134839+01 | 1486168074.13484 | pgbench_branches |         10657792

 2017-02-04 01:27:55.22285+01 | 1486168075.22285 | pgbench_accounts |      13840883712
 2017-02-04 01:27:55.22285+01 | 1486168075.22285 | pgbench_tellers  |         27975680
 2017-02-04 01:27:55.22285+01 | 1486168075.22285 | pgbench_history  |         26910720
 2017-02-04 01:27:55.22285+01 | 1486168075.22285 | pgbench_branches |         10657792

 2017-02-04 01:27:56.308908+01 | 1486168076.30891 | pgbench_accounts |      13841113088
 2017-02-04 01:27:56.308908+01 | 1486168076.30891 | pgbench_tellers  |         27975680
 2017-02-04 01:27:56.308908+01 | 1486168076.30891 | pgbench_history  |         29450240
 2017-02-04 01:27:56.308908+01 | 1486168076.30891 | pgbench_branches |         10657792

 2017-02-04 01:27:57.395318+01 | 1486168077.39532 | pgbench_accounts |      13841309696
 2017-02-04 01:27:57.395318+01 | 1486168077.39532 | pgbench_tellers  |         27975680
 2017-02-04 01:27:57.395318+01 | 1486168077.39532 | pgbench_history  |         30785536
 2017-02-04 01:27:57.395318+01 | 1486168077.39532 | pgbench_branches |         10657792

 2017-02-04 01:27:58.480976+01 | 1486168078.48098 | pgbench_accounts |      13841448960
 2017-02-04 01:27:58.480976+01 | 1486168078.48098 | pgbench_tellers  |         27975680
 2017-02-04 01:27:58.480976+01 | 1486168078.48098 | pgbench_history  |         32825344
 2017-02-04 01:27:58.480976+01 | 1486168078.48098 | pgbench_branches |         10657792

 2017-02-04 01:27:59.56864+01 | 1486168079.56864 | pgbench_accounts |      13841661952
 2017-02-04 01:27:59.56864+01 | 1486168079.56864 | pgbench_tellers  |         27975680
 2017-02-04 01:27:59.56864+01 | 1486168079.56864 | pgbench_history  |         35053568
 2017-02-04 01:27:59.56864+01 | 1486168079.56864 | pgbench_branches |         10657792

 2017-02-04 01:28:00.650914+01 | 1486168080.65091 | pgbench_accounts |      13841866752
 2017-02-04 01:28:00.650914+01 | 1486168080.65091 | pgbench_tellers  |         27975680
 2017-02-04 01:28:00.650914+01 | 1486168080.65091 | pgbench_history  |         36749312
 2017-02-04 01:28:00.650914+01 | 1486168080.65091 | pgbench_branches |         10657792

 2017-02-04 01:28:01.736051+01 | 1486168081.73605 | pgbench_accounts |      13842038784
 2017-02-04 01:28:01.736051+01 | 1486168081.73605 | pgbench_tellers  |         27975680
 2017-02-04 01:28:01.736051+01 | 1486168081.73605 | pgbench_history  |         39305216
 2017-02-04 01:28:01.736051+01 | 1486168081.73605 | pgbench_branches |         10657792

 2017-02-04 01:28:02.827426+01 | 1486168082.82743 | pgbench_accounts |      13842219008
 2017-02-04 01:28:02.827426+01 | 1486168082.82743 | pgbench_tellers  |         27975680
 2017-02-04 01:28:02.827426+01 | 1486168082.82743 | pgbench_history  |         40476672
 2017-02-04 01:28:02.827426+01 | 1486168082.82743 | pgbench_branches |         10657792

 2017-02-04 01:28:03.909305+01 | 1486168083.90931 | pgbench_accounts |      13842391040
 2017-02-04 01:28:03.909305+01 | 1486168083.90931 | pgbench_tellers  |         27975680
 2017-02-04 01:28:03.909305+01 | 1486168083.90931 | pgbench_history  |         42516480
 2017-02-04 01:28:03.909305+01 | 1486168083.90931 | pgbench_branches |         10657792

 2017-02-04 01:28:04.98666+01 | 1486168084.98666 | pgbench_accounts |      13842628608
 2017-02-04 01:28:04.98666+01 | 1486168084.98666 | pgbench_tellers  |         27975680
 2017-02-04 01:28:04.98666+01 | 1486168084.98666 | pgbench_history  |         46686208
 2017-02-04 01:28:04.98666+01 | 1486168084.98666 | pgbench_branches |         10657792

 2017-02-04 01:28:06.064406+01 | 1486168086.06441 | pgbench_accounts |      13842825216
 2017-02-04 01:28:06.064406+01 | 1486168086.06441 | pgbench_tellers  |         27975680
 2017-02-04 01:28:06.064406+01 | 1486168086.06441 | pgbench_history  |         46686208
 2017-02-04 01:28:06.064406+01 | 1486168086.06441 | pgbench_branches |         10657792

 2017-02-04 01:28:07.137307+01 | 1486168087.13731 | pgbench_accounts |      13842997248
 2017-02-04 01:28:07.137307+01 | 1486168087.13731 | pgbench_tellers  |         27975680
 2017-02-04 01:28:07.137307+01 | 1486168087.13731 | pgbench_history  |         48889856
 2017-02-04 01:28:07.137307+01 | 1486168087.13731 | pgbench_branches |         10657792

 2017-02-04 01:28:08.210472+01 | 1486168088.21047 | pgbench_accounts |      13843161088
 2017-02-04 01:28:08.210472+01 | 1486168088.21047 | pgbench_tellers  |         27975680
 2017-02-04 01:28:08.210472+01 | 1486168088.21047 | pgbench_history  |         50438144
 2017-02-04 01:28:08.210472+01 | 1486168088.21047 | pgbench_branches |         10657792

 2017-02-04 01:28:09.300636+01 | 1486168089.30064 | pgbench_accounts |      13843324928
 2017-02-04 01:28:09.300636+01 | 1486168089.30064 | pgbench_tellers  |         27975680
 2017-02-04 01:28:09.300636+01 | 1486168089.30064 | pgbench_history  |         52477952
 2017-02-04 01:28:09.300636+01 | 1486168089.30064 | pgbench_branches |         10657792

 2017-02-04 01:28:10.383688+01 | 1486168090.38369 | pgbench_accounts |      13843488768
 2017-02-04 01:28:10.383688+01 | 1486168090.38369 | pgbench_tellers  |         27975680
 2017-02-04 01:28:10.383688+01 | 1486168090.38369 | pgbench_history  |         54378496
 2017-02-04 01:28:10.383688+01 | 1486168090.38369 | pgbench_branches |         10657792

 2017-02-04 01:28:11.466448+01 | 1486168091.46645 | pgbench_accounts |      13843644416
 2017-02-04 01:28:11.466448+01 | 1486168091.46645 | pgbench_tellers  |         27975680
 2017-02-04 01:28:11.466448+01 | 1486168091.46645 | pgbench_history  |         55549952
 2017-02-04 01:28:11.466448+01 | 1486168091.46645 | pgbench_branches |         10657792

 2017-02-04 01:28:12.552953+01 | 1486168092.55295 | pgbench_accounts |      13843759104
 2017-02-04 01:28:12.552953+01 | 1486168092.55295 | pgbench_tellers  |         27975680
 2017-02-04 01:28:12.552953+01 | 1486168092.55295 | pgbench_history  |         57262080
 2017-02-04 01:28:12.552953+01 | 1486168092.55295 | pgbench_branches |         10657792

 2017-02-04 01:28:13.645513+01 | 1486168093.64551 | pgbench_accounts |      13843963904
 2017-02-04 01:28:13.645513+01 | 1486168093.64551 | pgbench_tellers  |         27975680
 2017-02-04 01:28:13.645513+01 | 1486168093.64551 | pgbench_history  |         59138048
 2017-02-04 01:28:13.645513+01 | 1486168093.64551 | pgbench_branches |         10657792

 2017-02-04 01:28:14.739706+01 | 1486168094.73971 | pgbench_accounts |      13844103168
 2017-02-04 01:28:14.739706+01 | 1486168094.73971 | pgbench_tellers  |         27975680
 2017-02-04 01:28:14.739706+01 | 1486168094.73971 | pgbench_history  |         61644800
 2017-02-04 01:28:14.739706+01 | 1486168094.73971 | pgbench_branches |         10657792

 2017-02-04 01:28:15.827528+01 | 1486168095.82753 | pgbench_accounts |      13844242432
 2017-02-04 01:28:15.827528+01 | 1486168095.82753 | pgbench_tellers  |         27975680
 2017-02-04 01:28:15.827528+01 | 1486168095.82753 | pgbench_history  |         63332352
 2017-02-04 01:28:15.827528+01 | 1486168095.82753 | pgbench_branches |         10657792

 2017-02-04 01:28:16.90505+01 | 1486168096.90505 | pgbench_accounts |      13844406272
 2017-02-04 01:28:16.90505+01 | 1486168096.90505 | pgbench_tellers  |         27975680
 2017-02-04 01:28:16.90505+01 | 1486168096.90505 | pgbench_history  |         64208896
 2017-02-04 01:28:16.90505+01 | 1486168096.90505 | pgbench_branches |         10657792

 2017-02-04 01:28:17.989828+01 | 1486168097.98983 | pgbench_accounts |      13844561920
 2017-02-04 01:28:17.989828+01 | 1486168097.98983 | pgbench_tellers  |         27975680
 2017-02-04 01:28:17.989828+01 | 1486168097.98983 | pgbench_history  |         65921024
 2017-02-04 01:28:17.989828+01 | 1486168097.98983 | pgbench_branches |         10657792

 2017-02-04 01:28:19.06649+01 | 1486168099.06649 | pgbench_accounts |      13844750336
 2017-02-04 01:28:19.06649+01 | 1486168099.06649 | pgbench_tellers  |         27975680
 2017-02-04 01:28:19.06649+01 | 1486168099.06649 | pgbench_history  |         68648960
 2017-02-04 01:28:19.06649+01 | 1486168099.06649 | pgbench_branches |         10657792

 2017-02-04 01:28:20.140031+01 | 1486168100.14003 | pgbench_accounts |      13844914176
 2017-02-04 01:28:20.140031+01 | 1486168100.14003 | pgbench_tellers  |         27975680
 2017-02-04 01:28:20.140031+01 | 1486168100.14003 | pgbench_history  |         69517312
 2017-02-04 01:28:20.140031+01 | 1486168100.14003 | pgbench_branches |         10657792

 2017-02-04 01:28:21.225793+01 | 1486168101.22579 | pgbench_accounts |      13845069824
 2017-02-04 01:28:21.225793+01 | 1486168101.22579 | pgbench_tellers  |         27975680
 2017-02-04 01:28:21.225793+01 | 1486168101.22579 | pgbench_history  |         71393280
 2017-02-04 01:28:21.225793+01 | 1486168101.22579 | pgbench_branches |         10657792

 2017-02-04 01:28:22.303384+01 | 1486168102.30338 | pgbench_accounts |      13845209088
 2017-02-04 01:28:22.303384+01 | 1486168102.30338 | pgbench_tellers  |         27975680
 2017-02-04 01:28:22.303384+01 | 1486168102.30338 | pgbench_history  |         74088448
 2017-02-04 01:28:22.303384+01 | 1486168102.30338 | pgbench_branches |         10657792

 2017-02-04 01:28:23.380776+01 | 1486168103.38078 | pgbench_accounts |      13845397504
 2017-02-04 01:28:23.380776+01 | 1486168103.38078 | pgbench_tellers  |         27975680
 2017-02-04 01:28:23.380776+01 | 1486168103.38078 | pgbench_history  |         74792960
 2017-02-04 01:28:23.380776+01 | 1486168103.38078 | pgbench_branches |         10657792

 2017-02-04 01:28:24.471229+01 | 1486168104.47123 | pgbench_accounts |      13845561344
 2017-02-04 01:28:24.471229+01 | 1486168104.47123 | pgbench_tellers  |         27975680
 2017-02-04 01:28:24.471229+01 | 1486168104.47123 | pgbench_history  |         77209600
 2017-02-04 01:28:24.471229+01 | 1486168104.47123 | pgbench_branches |         10657792

 2017-02-04 01:28:25.561182+01 | 1486168105.56118 | pgbench_accounts |      13845676032
 2017-02-04 01:28:25.561182+01 | 1486168105.56118 | pgbench_tellers  |         27975680
 2017-02-04 01:28:25.561182+01 | 1486168105.56118 | pgbench_history  |         78217216
 2017-02-04 01:28:25.561182+01 | 1486168105.56118 | pgbench_branches |         10657792

 2017-02-04 01:28:26.65277+01 | 1486168106.65277 | pgbench_accounts |      13845831680
 2017-02-04 01:28:26.65277+01 | 1486168106.65277 | pgbench_tellers  |         27975680
 2017-02-04 01:28:26.65277+01 | 1486168106.65277 | pgbench_history  |         80093184
 2017-02-04 01:28:26.65277+01 | 1486168106.65277 | pgbench_branches |         10657792

 2017-02-04 01:28:27.726522+01 | 1486168107.72652 | pgbench_accounts |      13846003712
 2017-02-04 01:28:27.726522+01 | 1486168107.72652 | pgbench_tellers  |         27975680
 2017-02-04 01:28:27.726522+01 | 1486168107.72652 | pgbench_history  |         81666048
 2017-02-04 01:28:27.726522+01 | 1486168107.72652 | pgbench_branches |         10657792

 2017-02-04 01:28:28.802717+01 | 1486168108.80272 | pgbench_accounts |      13846093824
 2017-02-04 01:28:28.802717+01 | 1486168108.80272 | pgbench_tellers  |         27975680
 2017-02-04 01:28:28.802717+01 | 1486168108.80272 | pgbench_history  |         83197952
 2017-02-04 01:28:28.802717+01 | 1486168108.80272 | pgbench_branches |         10657792

 2017-02-04 01:28:29.887418+01 | 1486168109.88742 | pgbench_accounts |      13846192128
 2017-02-04 01:28:29.887418+01 | 1486168109.88742 | pgbench_tellers  |         27975680
 2017-02-04 01:28:29.887418+01 | 1486168109.88742 | pgbench_history  |         85049344
 2017-02-04 01:28:29.887418+01 | 1486168109.88742 | pgbench_branches |         10657792

 2017-02-04 01:28:30.971233+01 | 1486168110.97123 | pgbench_accounts |      13846347776
 2017-02-04 01:28:30.971233+01 | 1486168110.97123 | pgbench_tellers  |         27975680
 2017-02-04 01:28:30.971233+01 | 1486168110.97123 | pgbench_history  |         85753856
 2017-02-04 01:28:30.971233+01 | 1486168110.97123 | pgbench_branches |         10657792

 2017-02-04 01:28:32.043529+01 | 1486168112.04353 | pgbench_accounts |      13846528000
 2017-02-04 01:28:32.043529+01 | 1486168112.04353 | pgbench_tellers  |         27975680
 2017-02-04 01:28:32.043529+01 | 1486168112.04353 | pgbench_history  |         87441408
 2017-02-04 01:28:32.043529+01 | 1486168112.04353 | pgbench_branches |         10657792

 2017-02-04 01:28:33.122446+01 | 1486168113.12245 | pgbench_accounts |      13846659072
 2017-02-04 01:28:33.122446+01 | 1486168113.12245 | pgbench_tellers  |         27975680
 2017-02-04 01:28:33.122446+01 | 1486168113.12245 | pgbench_history  |         89645056
 2017-02-04 01:28:33.122446+01 | 1486168113.12245 | pgbench_branches |         10657792

 2017-02-04 01:28:34.20018+01 | 1486168114.20018 | pgbench_accounts |      13846749184
 2017-02-04 01:28:34.20018+01 | 1486168114.20018 | pgbench_tellers  |         27975680
 2017-02-04 01:28:34.20018+01 | 1486168114.20018 | pgbench_history  |         91037696
 2017-02-04 01:28:34.20018+01 | 1486168114.20018 | pgbench_branches |         10657792

 2017-02-04 01:28:35.280486+01 | 1486168115.28049 | pgbench_accounts |      13846978560
 2017-02-04 01:28:35.280486+01 | 1486168115.28049 | pgbench_tellers  |         27975680
 2017-02-04 01:28:35.280486+01 | 1486168115.28049 | pgbench_history  |         93569024
 2017-02-04 01:28:35.280486+01 | 1486168115.28049 | pgbench_branches |         10657792

 2017-02-04 01:28:36.358239+01 | 1486168116.35824 | pgbench_accounts |      13847142400
 2017-02-04 01:28:36.358239+01 | 1486168116.35824 | pgbench_tellers  |         27975680
 2017-02-04 01:28:36.358239+01 | 1486168116.35824 | pgbench_history  |         95232000
 2017-02-04 01:28:36.358239+01 | 1486168116.35824 | pgbench_branches |         10657792

 2017-02-04 01:28:37.435802+01 | 1486168117.4358 | pgbench_accounts |      13847248896
 2017-02-04 01:28:37.435802+01 | 1486168117.4358 | pgbench_tellers  |         27975680
 2017-02-04 01:28:37.435802+01 | 1486168117.4358 | pgbench_history  |         96616448
 2017-02-04 01:28:37.435802+01 | 1486168117.4358 | pgbench_branches |         10657792

 2017-02-04 01:28:38.512351+01 | 1486168118.51235 | pgbench_accounts |      13847445504
 2017-02-04 01:28:38.512351+01 | 1486168118.51235 | pgbench_tellers  |         27975680
 2017-02-04 01:28:38.512351+01 | 1486168118.51235 | pgbench_history  |         99000320
 2017-02-04 01:28:38.512351+01 | 1486168118.51235 | pgbench_branches |         10657792

 2017-02-04 01:28:39.599467+01 | 1486168119.59947 | pgbench_accounts |      13847633920
 2017-02-04 01:28:39.599467+01 | 1486168119.59947 | pgbench_tellers  |         27975680
 2017-02-04 01:28:39.599467+01 | 1486168119.59947 | pgbench_history  |        100360192
 2017-02-04 01:28:39.599467+01 | 1486168119.59947 | pgbench_branches |         10657792

 2017-02-04 01:28:40.683447+01 | 1486168120.68345 | pgbench_accounts |      13847764992
 2017-02-04 01:28:40.683447+01 | 1486168120.68345 | pgbench_tellers  |         27975680
 2017-02-04 01:28:40.683447+01 | 1486168120.68345 | pgbench_history  |        101916672
 2017-02-04 01:28:40.683447+01 | 1486168120.68345 | pgbench_branches |         10657792

 2017-02-04 01:28:41.779351+01 | 1486168121.77935 | pgbench_accounts |      13847855104
 2017-02-04 01:28:41.779351+01 | 1486168121.77935 | pgbench_tellers  |         27975680
 2017-02-04 01:28:41.779351+01 | 1486168121.77935 | pgbench_history  |        103956480
 2017-02-04 01:28:41.779351+01 | 1486168121.77935 | pgbench_branches |         10657792

 2017-02-04 01:28:42.868832+01 | 1486168122.86883 | pgbench_accounts |      13848027136
 2017-02-04 01:28:42.868832+01 | 1486168122.86883 | pgbench_tellers  |         27975680
 2017-02-04 01:28:42.868832+01 | 1486168122.86883 | pgbench_history  |        105349120
 2017-02-04 01:28:42.868832+01 | 1486168122.86883 | pgbench_branches |         10657792

 2017-02-04 01:28:43.939236+01 | 1486168123.93924 | pgbench_accounts |      13848215552
 2017-02-04 01:28:43.939236+01 | 1486168123.93924 | pgbench_tellers  |         27975680
 2017-02-04 01:28:43.939236+01 | 1486168123.93924 | pgbench_history  |        106954752
 2017-02-04 01:28:43.939236+01 | 1486168123.93924 | pgbench_branches |         10657792

 2017-02-04 01:28:45.009261+01 | 1486168125.00926 | pgbench_accounts |      13848354816
 2017-02-04 01:28:45.009261+01 | 1486168125.00926 | pgbench_tellers  |         27975680
 2017-02-04 01:28:45.009261+01 | 1486168125.00926 | pgbench_history  |        108978176
 2017-02-04 01:28:45.009261+01 | 1486168125.00926 | pgbench_branches |         10657792

 2017-02-04 01:28:46.082397+01 | 1486168126.0824 | pgbench_accounts |      13848608768
 2017-02-04 01:28:46.082397+01 | 1486168126.0824 | pgbench_tellers  |         27975680
 2017-02-04 01:28:46.082397+01 | 1486168126.0824 | pgbench_history  |        111427584
 2017-02-04 01:28:46.082397+01 | 1486168126.0824 | pgbench_branches |         10657792

 2017-02-04 01:28:47.168029+01 | 1486168127.16803 | pgbench_accounts |      13848936448
 2017-02-04 01:28:47.168029+01 | 1486168127.16803 | pgbench_tellers  |         27975680
 2017-02-04 01:28:47.168029+01 | 1486168127.16803 | pgbench_history  |        111976448
 2017-02-04 01:28:47.168029+01 | 1486168127.16803 | pgbench_branches |         10657792

 2017-02-04 01:28:48.240101+01 | 1486168128.2401 | pgbench_accounts |      13849157632
 2017-02-04 01:28:48.240101+01 | 1486168128.2401 | pgbench_tellers  |         27975680
 2017-02-04 01:28:48.240101+01 | 1486168128.2401 | pgbench_history  |        113934336
 2017-02-04 01:28:48.240101+01 | 1486168128.2401 | pgbench_branches |         10657792

 2017-02-04 01:28:49.321235+01 | 1486168129.32123 | pgbench_accounts |      13849296896
 2017-02-04 01:28:49.321235+01 | 1486168129.32123 | pgbench_tellers  |         27975680
 2017-02-04 01:28:49.321235+01 | 1486168129.32123 | pgbench_history  |        117751808
 2017-02-04 01:28:49.321235+01 | 1486168129.32123 | pgbench_branches |         10657792

 2017-02-04 01:28:50.414304+01 | 1486168130.4143 | pgbench_accounts |      13849468928
 2017-02-04 01:28:50.414304+01 | 1486168130.4143 | pgbench_tellers  |         27975680
 2017-02-04 01:28:50.414304+01 | 1486168130.4143 | pgbench_history  |        117751808
 2017-02-04 01:28:50.414304+01 | 1486168130.4143 | pgbench_branches |         10657792

 2017-02-04 01:28:51.495783+01 | 1486168131.49578 | pgbench_accounts |      13849616384
 2017-02-04 01:28:51.495783+01 | 1486168131.49578 | pgbench_tellers  |         27975680
 2017-02-04 01:28:51.495783+01 | 1486168131.49578 | pgbench_history  |        119439360
 2017-02-04 01:28:51.495783+01 | 1486168131.49578 | pgbench_branches |         10657792

 2017-02-04 01:28:52.582016+01 | 1486168132.58202 | pgbench_accounts |      13849747456
 2017-02-04 01:28:52.582016+01 | 1486168132.58202 | pgbench_tellers  |         27975680
 2017-02-04 01:28:52.582016+01 | 1486168132.58202 | pgbench_history  |        120471552
 2017-02-04 01:28:52.582016+01 | 1486168132.58202 | pgbench_branches |         10657792

 2017-02-04 01:28:53.676763+01 | 1486168133.67676 | pgbench_accounts |      13849821184
 2017-02-04 01:28:53.676763+01 | 1486168133.67676 | pgbench_tellers  |         27975680
 2017-02-04 01:28:53.676763+01 | 1486168133.67676 | pgbench_history  |        122978304
 2017-02-04 01:28:53.676763+01 | 1486168133.67676 | pgbench_branches |         10657792

 2017-02-04 01:28:54.76242+01 | 1486168134.76242 | pgbench_accounts |      13849976832
 2017-02-04 01:28:54.76242+01 | 1486168134.76242 | pgbench_tellers  |         27975680
 2017-02-04 01:28:54.76242+01 | 1486168134.76242 | pgbench_history  |        123985920
 2017-02-04 01:28:54.76242+01 | 1486168134.76242 | pgbench_branches |         10657792

 2017-02-04 01:28:55.849331+01 | 1486168135.84933 | pgbench_accounts |      13850140672
 2017-02-04 01:28:55.849331+01 | 1486168135.84933 | pgbench_tellers  |         27975680
 2017-02-04 01:28:55.849331+01 | 1486168135.84933 | pgbench_history  |        125566976
 2017-02-04 01:28:55.849331+01 | 1486168135.84933 | pgbench_branches |         10657792

 2017-02-04 01:28:56.92647+01 | 1486168136.92647 | pgbench_accounts |      13850312704
 2017-02-04 01:28:56.92647+01 | 1486168136.92647 | pgbench_tellers  |         27975680
 2017-02-04 01:28:56.92647+01 | 1486168136.92647 | pgbench_history  |        127467520
 2017-02-04 01:28:56.92647+01 | 1486168136.92647 | pgbench_branches |         10657792

 2017-02-04 01:28:58.001695+01 | 1486168138.00169 | pgbench_accounts |      13850451968
 2017-02-04 01:28:58.001695+01 | 1486168138.00169 | pgbench_tellers  |         27975680
 2017-02-04 01:28:58.001695+01 | 1486168138.00169 | pgbench_history  |        129835008
 2017-02-04 01:28:58.001695+01 | 1486168138.00169 | pgbench_branches |         10657792

 2017-02-04 01:28:59.087635+01 | 1486168139.08764 | pgbench_accounts |      13850599424
 2017-02-04 01:28:59.087635+01 | 1486168139.08764 | pgbench_tellers  |         27975680
 2017-02-04 01:28:59.087635+01 | 1486168139.08764 | pgbench_history  |        131203072
 2017-02-04 01:28:59.087635+01 | 1486168139.08764 | pgbench_branches |         10657792

 2017-02-04 01:29:00.167313+01 | 1486168140.16731 | pgbench_accounts |      13850787840
 2017-02-04 01:29:00.167313+01 | 1486168140.16731 | pgbench_tellers  |         27975680
 2017-02-04 01:29:00.167313+01 | 1486168140.16731 | pgbench_history  |        132915200
 2017-02-04 01:29:00.167313+01 | 1486168140.16731 | pgbench_branches |         10657792

 2017-02-04 01:29:01.256916+01 | 1486168141.25692 | pgbench_accounts |      13850918912
 2017-02-04 01:29:01.256916+01 | 1486168141.25692 | pgbench_tellers  |         27975680
 2017-02-04 01:29:01.256916+01 | 1486168141.25692 | pgbench_history  |        134463488
 2017-02-04 01:29:01.256916+01 | 1486168141.25692 | pgbench_branches |         10657792

 2017-02-04 01:29:02.336002+01 | 1486168142.336 | pgbench_accounts |      13851066368
 2017-02-04 01:29:02.336002+01 | 1486168142.336 | pgbench_tellers  |         27975680
 2017-02-04 01:29:02.336002+01 | 1486168142.336 | pgbench_history  |        136339456
 2017-02-04 01:29:02.336002+01 | 1486168142.336 | pgbench_branches |         10657792

 2017-02-04 01:29:03.424747+01 | 1486168143.42475 | pgbench_accounts |      13851181056
 2017-02-04 01:29:03.424747+01 | 1486168143.42475 | pgbench_tellers  |         27975680
 2017-02-04 01:29:03.424747+01 | 1486168143.42475 | pgbench_history  |        138354688
 2017-02-04 01:29:03.424747+01 | 1486168143.42475 | pgbench_branches |         10657792

 2017-02-04 01:29:04.509964+01 | 1486168144.50996 | pgbench_accounts |      13851369472
 2017-02-04 01:29:04.509964+01 | 1486168144.50996 | pgbench_tellers  |         27975680
 2017-02-04 01:29:04.509964+01 | 1486168144.50996 | pgbench_history  |        140279808
 2017-02-04 01:29:04.509964+01 | 1486168144.50996 | pgbench_branches |         10657792

 2017-02-04 01:29:05.598615+01 | 1486168145.59861 | pgbench_accounts |      13851525120
 2017-02-04 01:29:05.598615+01 | 1486168145.59861 | pgbench_tellers  |         27975680
 2017-02-04 01:29:05.598615+01 | 1486168145.59861 | pgbench_history  |        141828096
 2017-02-04 01:29:05.598615+01 | 1486168145.59861 | pgbench_branches |         10657792

 2017-02-04 01:29:06.686278+01 | 1486168146.68628 | pgbench_accounts |      13851656192
 2017-02-04 01:29:06.686278+01 | 1486168146.68628 | pgbench_tellers  |         27975680
 2017-02-04 01:29:06.686278+01 | 1486168146.68628 | pgbench_history  |        143704064
 2017-02-04 01:29:06.686278+01 | 1486168146.68628 | pgbench_branches |         10657792

 2017-02-04 01:29:07.765705+01 | 1486168147.76571 | pgbench_accounts |      13851770880
 2017-02-04 01:29:07.765705+01 | 1486168147.76571 | pgbench_tellers  |         27975680
 2017-02-04 01:29:07.765705+01 | 1486168147.76571 | pgbench_history  |        145440768
 2017-02-04 01:29:07.765705+01 | 1486168147.76571 | pgbench_branches |         10657792

 2017-02-04 01:29:08.835874+01 | 1486168148.83587 | pgbench_accounts |      13851959296
 2017-02-04 01:29:08.835874+01 | 1486168148.83587 | pgbench_tellers  |         27975680
 2017-02-04 01:29:08.835874+01 | 1486168148.83587 | pgbench_history  |        148627456
 2017-02-04 01:29:08.835874+01 | 1486168148.83587 | pgbench_branches |         10657792

 2017-02-04 01:29:09.915472+01 | 1486168149.91547 | pgbench_accounts |      13852123136
 2017-02-04 01:29:09.915472+01 | 1486168149.91547 | pgbench_tellers  |         27975680
 2017-02-04 01:29:09.915472+01 | 1486168149.91547 | pgbench_history  |        149659648
 2017-02-04 01:29:09.915472+01 | 1486168149.91547 | pgbench_branches |         10657792

 2017-02-04 01:29:11.001046+01 | 1486168151.00105 | pgbench_accounts |      13852221440
 2017-02-04 01:29:11.001046+01 | 1486168151.00105 | pgbench_tellers  |         27975680
 2017-02-04 01:29:11.001046+01 | 1486168151.00105 | pgbench_history  |        151207936
 2017-02-04 01:29:11.001046+01 | 1486168151.00105 | pgbench_branches |         10657792

 2017-02-04 01:29:12.081594+01 | 1486168152.08159 | pgbench_accounts |      13852377088
 2017-02-04 01:29:12.081594+01 | 1486168152.08159 | pgbench_tellers  |         27975680
 2017-02-04 01:29:12.081594+01 | 1486168152.08159 | pgbench_history  |        152600576
 2017-02-04 01:29:12.081594+01 | 1486168152.08159 | pgbench_branches |         10657792

 2017-02-04 01:29:13.165033+01 | 1486168153.16503 | pgbench_accounts |      13852524544
 2017-02-04 01:29:13.165033+01 | 1486168153.16503 | pgbench_tellers  |         27975680
 2017-02-04 01:29:13.165033+01 | 1486168153.16503 | pgbench_history  |        157925376
 2017-02-04 01:29:13.165033+01 | 1486168153.16503 | pgbench_branches |         10657792

 2017-02-04 01:29:14.250546+01 | 1486168154.25055 | pgbench_accounts |      13852639232
 2017-02-04 01:29:14.250546+01 | 1486168154.25055 | pgbench_tellers  |         27975680
 2017-02-04 01:29:14.250546+01 | 1486168154.25055 | pgbench_history  |        157925376
 2017-02-04 01:29:14.250546+01 | 1486168154.25055 | pgbench_branches |         10657792

 2017-02-04 01:29:15.320157+01 | 1486168155.32016 | pgbench_accounts |      13852770304
 2017-02-04 01:29:15.320157+01 | 1486168155.32016 | pgbench_tellers  |         27975680
 2017-02-04 01:29:15.320157+01 | 1486168155.32016 | pgbench_history  |        157925376
 2017-02-04 01:29:15.320157+01 | 1486168155.32016 | pgbench_branches |         10657792

 2017-02-04 01:29:16.389139+01 | 1486168156.38914 | pgbench_accounts |      13852909568
 2017-02-04 01:29:16.389139+01 | 1486168156.38914 | pgbench_tellers  |         27975680
 2017-02-04 01:29:16.389139+01 | 1486168156.38914 | pgbench_history  |        159334400
 2017-02-04 01:29:16.389139+01 | 1486168156.38914 | pgbench_branches |         10657792

 2017-02-04 01:29:17.461088+01 | 1486168157.46109 | pgbench_accounts |      13852991488
 2017-02-04 01:29:17.461088+01 | 1486168157.46109 | pgbench_tellers  |         27975680
 2017-02-04 01:29:17.461088+01 | 1486168157.46109 | pgbench_history  |        160038912
 2017-02-04 01:29:17.461088+01 | 1486168157.46109 | pgbench_branches |         10657792

 2017-02-04 01:29:18.53929+01 | 1486168158.53929 | pgbench_accounts |      13853089792
 2017-02-04 01:29:18.53929+01 | 1486168158.53929 | pgbench_tellers  |         27975680
 2017-02-04 01:29:18.53929+01 | 1486168158.53929 | pgbench_history  |        161439744
 2017-02-04 01:29:18.53929+01 | 1486168158.53929 | pgbench_branches |         10657792

 2017-02-04 01:29:19.642255+01 | 1486168159.64226 | pgbench_accounts |      13853220864
 2017-02-04 01:29:19.642255+01 | 1486168159.64226 | pgbench_tellers  |         27975680
 2017-02-04 01:29:19.642255+01 | 1486168159.64226 | pgbench_history  |        163127296
 2017-02-04 01:29:19.642255+01 | 1486168159.64226 | pgbench_branches |         10657792

 2017-02-04 01:29:20.731873+01 | 1486168160.73187 | pgbench_accounts |      13853335552
 2017-02-04 01:29:20.731873+01 | 1486168160.73187 | pgbench_tellers  |         27975680
 2017-02-04 01:29:20.731873+01 | 1486168160.73187 | pgbench_history  |        164323328
 2017-02-04 01:29:20.731873+01 | 1486168160.73187 | pgbench_branches |         10657792

 2017-02-04 01:29:21.807084+01 | 1486168161.80708 | pgbench_accounts |      13853442048
 2017-02-04 01:29:21.807084+01 | 1486168161.80708 | pgbench_tellers  |         27975680
 2017-02-04 01:29:21.807084+01 | 1486168161.80708 | pgbench_history  |        165519360
 2017-02-04 01:29:21.807084+01 | 1486168161.80708 | pgbench_branches |         10657792

 2017-02-04 01:29:22.87957+01 | 1486168162.87957 | pgbench_accounts |      13853573120
 2017-02-04 01:29:22.87957+01 | 1486168162.87957 | pgbench_tellers  |         27975680
 2017-02-04 01:29:22.87957+01 | 1486168162.87957 | pgbench_history  |        167428096
 2017-02-04 01:29:22.87957+01 | 1486168162.87957 | pgbench_branches |         10657792

 2017-02-04 01:29:23.949823+01 | 1486168163.94982 | pgbench_accounts |      13853679616
 2017-02-04 01:29:23.949823+01 | 1486168163.94982 | pgbench_tellers  |         27975680
 2017-02-04 01:29:23.949823+01 | 1486168163.94982 | pgbench_history  |        168787968
 2017-02-04 01:29:23.949823+01 | 1486168163.94982 | pgbench_branches |         10657792

 2017-02-04 01:29:25.021554+01 | 1486168165.02155 | pgbench_accounts |      13853835264
 2017-02-04 01:29:25.021554+01 | 1486168165.02155 | pgbench_tellers  |         27975680
 2017-02-04 01:29:25.021554+01 | 1486168165.02155 | pgbench_history  |        170123264
 2017-02-04 01:29:25.021554+01 | 1486168165.02155 | pgbench_branches |         10657792

 2017-02-04 01:29:26.097486+01 | 1486168166.09749 | pgbench_accounts |      13853917184
 2017-02-04 01:29:26.097486+01 | 1486168166.09749 | pgbench_tellers  |         27975680
 2017-02-04 01:29:26.097486+01 | 1486168166.09749 | pgbench_history  |        171999232
 2017-02-04 01:29:26.097486+01 | 1486168166.09749 | pgbench_branches |         10657792

 2017-02-04 01:29:27.175261+01 | 1486168167.17526 | pgbench_accounts |      13854097408
 2017-02-04 01:29:27.175261+01 | 1486168167.17526 | pgbench_tellers  |         27975680
 2017-02-04 01:29:27.175261+01 | 1486168167.17526 | pgbench_history  |        174342144
 2017-02-04 01:29:27.175261+01 | 1486168167.17526 | pgbench_branches |         10657792

 2017-02-04 01:29:28.253975+01 | 1486168168.25397 | pgbench_accounts |      13854179328
 2017-02-04 01:29:28.253975+01 | 1486168168.25397 | pgbench_tellers  |         27975680
 2017-02-04 01:29:28.253975+01 | 1486168168.25397 | pgbench_history  |        175046656
 2017-02-04 01:29:28.253975+01 | 1486168168.25397 | pgbench_branches |         10657792

 2017-02-04 01:29:29.329833+01 | 1486168169.32983 | pgbench_accounts |      13854326784
 2017-02-04 01:29:29.329833+01 | 1486168169.32983 | pgbench_tellers  |         27975680
 2017-02-04 01:29:29.329833+01 | 1486168169.32983 | pgbench_history  |        176922624
 2017-02-04 01:29:29.329833+01 | 1486168169.32983 | pgbench_branches |         10657792

 2017-02-04 01:29:30.406809+01 | 1486168170.40681 | pgbench_accounts |      13854441472
 2017-02-04 01:29:30.406809+01 | 1486168170.40681 | pgbench_tellers  |         27975680
 2017-02-04 01:29:30.406809+01 | 1486168170.40681 | pgbench_history  |        178823168
 2017-02-04 01:29:30.406809+01 | 1486168170.40681 | pgbench_branches |         10657792

 2017-02-04 01:29:31.48023+01 | 1486168171.48023 | pgbench_accounts |      13854613504
 2017-02-04 01:29:31.48023+01 | 1486168171.48023 | pgbench_tellers  |         27975680
 2017-02-04 01:29:31.48023+01 | 1486168171.48023 | pgbench_history  |        180060160
 2017-02-04 01:29:31.48023+01 | 1486168171.48023 | pgbench_branches |         10657792

 2017-02-04 01:29:32.568322+01 | 1486168172.56832 | pgbench_accounts |      13854711808
 2017-02-04 01:29:32.568322+01 | 1486168172.56832 | pgbench_tellers  |         27975680
 2017-02-04 01:29:32.568322+01 | 1486168172.56832 | pgbench_history  |        181747712
 2017-02-04 01:29:32.568322+01 | 1486168172.56832 | pgbench_branches |         10657792

 2017-02-04 01:29:33.650414+01 | 1486168173.65041 | pgbench_accounts |      13854842880
 2017-02-04 01:29:33.650414+01 | 1486168173.65041 | pgbench_tellers  |         27975680
 2017-02-04 01:29:33.650414+01 | 1486168173.65041 | pgbench_history  |        183648256
 2017-02-04 01:29:33.650414+01 | 1486168173.65041 | pgbench_branches |         10657792

 2017-02-04 01:29:34.739178+01 | 1486168174.73918 | pgbench_accounts |      13855047680
 2017-02-04 01:29:34.739178+01 | 1486168174.73918 | pgbench_tellers  |         27975680
 2017-02-04 01:29:34.739178+01 | 1486168174.73918 | pgbench_history  |        186187776
 2017-02-04 01:29:34.739178+01 | 1486168174.73918 | pgbench_branches |         10657792

 2017-02-04 01:29:35.820831+01 | 1486168175.82083 | pgbench_accounts |      13855137792
 2017-02-04 01:29:35.820831+01 | 1486168175.82083 | pgbench_tellers  |         27975680
 2017-02-04 01:29:35.820831+01 | 1486168175.82083 | pgbench_history  |        187219968
 2017-02-04 01:29:35.820831+01 | 1486168175.82083 | pgbench_branches |         10657792

 2017-02-04 01:29:36.914701+01 | 1486168176.9147 | pgbench_accounts |      13855227904
 2017-02-04 01:29:36.914701+01 | 1486168176.9147 | pgbench_tellers  |         27975680
 2017-02-04 01:29:36.914701+01 | 1486168176.9147 | pgbench_history  |        188456960
 2017-02-04 01:29:36.914701+01 | 1486168176.9147 | pgbench_branches |         10657792

 2017-02-04 01:29:37.994639+01 | 1486168177.99464 | pgbench_accounts |      13855309824
 2017-02-04 01:29:37.994639+01 | 1486168177.99464 | pgbench_tellers  |         27975680
 2017-02-04 01:29:37.994639+01 | 1486168177.99464 | pgbench_history  |        190308352
 2017-02-04 01:29:37.994639+01 | 1486168177.99464 | pgbench_branches |         10657792

 2017-02-04 01:29:39.074004+01 | 1486168179.074 | pgbench_accounts |      13855408128
 2017-02-04 01:29:39.074004+01 | 1486168179.074 | pgbench_tellers  |         27975680
 2017-02-04 01:29:39.074004+01 | 1486168179.074 | pgbench_history  |        191209472
 2017-02-04 01:29:39.074004+01 | 1486168179.074 | pgbench_branches |         10657792

 2017-02-04 01:29:40.137313+01 | 1486168180.13731 | pgbench_accounts |      13855539200
 2017-02-04 01:29:40.137313+01 | 1486168180.13731 | pgbench_tellers  |         27975680
 2017-02-04 01:29:40.137313+01 | 1486168180.13731 | pgbench_history  |        192430080
 2017-02-04 01:29:40.137313+01 | 1486168180.13731 | pgbench_branches |         10657792

 2017-02-04 01:29:41.228964+01 | 1486168181.22896 | pgbench_accounts |      13855662080
 2017-02-04 01:29:41.228964+01 | 1486168181.22896 | pgbench_tellers  |         27975680
 2017-02-04 01:29:41.228964+01 | 1486168181.22896 | pgbench_history  |        193363968
 2017-02-04 01:29:41.228964+01 | 1486168181.22896 | pgbench_branches |         10657792

 2017-02-04 01:29:42.296488+01 | 1486168182.29649 | pgbench_accounts |      13855760384
 2017-02-04 01:29:42.296488+01 | 1486168182.29649 | pgbench_tellers  |         27975680
 2017-02-04 01:29:42.296488+01 | 1486168182.29649 | pgbench_history  |        195305472
 2017-02-04 01:29:42.296488+01 | 1486168182.29649 | pgbench_branches |         10657792

 2017-02-04 01:29:43.372146+01 | 1486168183.37215 | pgbench_accounts |      13855891456
 2017-02-04 01:29:43.372146+01 | 1486168183.37215 | pgbench_tellers  |         27975680
 2017-02-04 01:29:43.372146+01 | 1486168183.37215 | pgbench_history  |        197050368
 2017-02-04 01:29:43.372146+01 | 1486168183.37215 | pgbench_branches |         10657792

 2017-02-04 01:29:44.436452+01 | 1486168184.43645 | pgbench_accounts |      13856104448
 2017-02-04 01:29:44.436452+01 | 1486168184.43645 | pgbench_tellers  |         27975680
 2017-02-04 01:29:44.436452+01 | 1486168184.43645 | pgbench_history  |        199696384
 2017-02-04 01:29:44.436452+01 | 1486168184.43645 | pgbench_branches |         10657792

 2017-02-04 01:29:45.515508+01 | 1486168185.51551 | pgbench_accounts |      13856194560
 2017-02-04 01:29:45.515508+01 | 1486168185.51551 | pgbench_tellers  |         27975680
 2017-02-04 01:29:45.515508+01 | 1486168185.51551 | pgbench_history  |        199696384
 2017-02-04 01:29:45.515508+01 | 1486168185.51551 | pgbench_branches |         10657792

 2017-02-04 01:29:46.596598+01 | 1486168186.5966 | pgbench_accounts |      13856317440
 2017-02-04 01:29:46.596598+01 | 1486168186.5966 | pgbench_tellers  |         27975680
 2017-02-04 01:29:46.596598+01 | 1486168186.5966 | pgbench_history  |        201080832
 2017-02-04 01:29:46.596598+01 | 1486168186.5966 | pgbench_branches |         10657792

 2017-02-04 01:29:47.676792+01 | 1486168187.67679 | pgbench_accounts |      13856735232
 2017-02-04 01:29:47.676792+01 | 1486168187.67679 | pgbench_tellers  |         27975680
 2017-02-04 01:29:47.676792+01 | 1486168187.67679 | pgbench_history  |        202293248
 2017-02-04 01:29:47.676792+01 | 1486168187.67679 | pgbench_branches |         10657792

 2017-02-04 01:29:48.759+01 | 1486168188.759 | pgbench_accounts |      13856735232
 2017-02-04 01:29:48.759+01 | 1486168188.759 | pgbench_tellers  |         27975680
 2017-02-04 01:29:48.759+01 | 1486168188.759 | pgbench_history  |        203489280
 2017-02-04 01:29:48.759+01 | 1486168188.759 | pgbench_branches |         10657792

 2017-02-04 01:29:49.839308+01 | 1486168189.83931 | pgbench_accounts |      13857095680
 2017-02-04 01:29:49.839308+01 | 1486168189.83931 | pgbench_tellers  |         27975680
 2017-02-04 01:29:49.839308+01 | 1486168189.83931 | pgbench_history  |        204603392
 2017-02-04 01:29:49.839308+01 | 1486168189.83931 | pgbench_branches |         10657792

 2017-02-04 01:29:50.940307+01 | 1486168190.94031 | pgbench_accounts |      13858127872
 2017-02-04 01:29:50.940307+01 | 1486168190.94031 | pgbench_tellers  |         27975680
 2017-02-04 01:29:50.940307+01 | 1486168190.94031 | pgbench_history  |        206290944
 2017-02-04 01:29:50.940307+01 | 1486168190.94031 | pgbench_branches |         10657792

 2017-02-04 01:29:52.031022+01 | 1486168192.03102 | pgbench_accounts |      13858127872
 2017-02-04 01:29:52.031022+01 | 1486168192.03102 | pgbench_tellers  |         27975680
 2017-02-04 01:29:52.031022+01 | 1486168192.03102 | pgbench_history  |        207364096
 2017-02-04 01:29:52.031022+01 | 1486168192.03102 | pgbench_branches |         10657792

 2017-02-04 01:29:53.104421+01 | 1486168193.10442 | pgbench_accounts |      13858127872
 2017-02-04 01:29:53.104421+01 | 1486168193.10442 | pgbench_tellers  |         27975680
 2017-02-04 01:29:53.104421+01 | 1486168193.10442 | pgbench_history  |        208961536
 2017-02-04 01:29:53.104421+01 | 1486168193.10442 | pgbench_branches |         10657792

 2017-02-04 01:29:54.185292+01 | 1486168194.18529 | pgbench_accounts |      13858127872
 2017-02-04 01:29:54.185292+01 | 1486168194.18529 | pgbench_tellers  |         27975680
 2017-02-04 01:29:54.185292+01 | 1486168194.18529 | pgbench_history  |        211329024
 2017-02-04 01:29:54.185292+01 | 1486168194.18529 | pgbench_branches |         10657792

 2017-02-04 01:29:55.26023+01 | 1486168195.26023 | pgbench_accounts |      13858127872
 2017-02-04 01:29:55.26023+01 | 1486168195.26023 | pgbench_tellers  |         27975680
 2017-02-04 01:29:55.26023+01 | 1486168195.26023 | pgbench_history  |        212172800
 2017-02-04 01:29:55.26023+01 | 1486168195.26023 | pgbench_branches |         10657792

 2017-02-04 01:29:56.328883+01 | 1486168196.32888 | pgbench_accounts |      13858127872
 2017-02-04 01:29:56.328883+01 | 1486168196.32888 | pgbench_tellers  |         27975680
 2017-02-04 01:29:56.328883+01 | 1486168196.32888 | pgbench_history  |        213753856
 2017-02-04 01:29:56.328883+01 | 1486168196.32888 | pgbench_branches |         10657792

 2017-02-04 01:29:57.400858+01 | 1486168197.40086 | pgbench_accounts |      13858127872
 2017-02-04 01:29:57.400858+01 | 1486168197.40086 | pgbench_tellers  |         27975680
 2017-02-04 01:29:57.400858+01 | 1486168197.40086 | pgbench_history  |        215465984
 2017-02-04 01:29:57.400858+01 | 1486168197.40086 | pgbench_branches |         10657792

 2017-02-04 01:29:58.46783+01 | 1486168198.46783 | pgbench_accounts |      13858127872
 2017-02-04 01:29:58.46783+01 | 1486168198.46783 | pgbench_tellers  |         27975680
 2017-02-04 01:29:58.46783+01 | 1486168198.46783 | pgbench_history  |        220758016
 2017-02-04 01:29:58.46783+01 | 1486168198.46783 | pgbench_branches |         10657792

 2017-02-04 01:29:59.539772+01 | 1486168199.53977 | pgbench_accounts |      13858414592
 2017-02-04 01:29:59.539772+01 | 1486168199.53977 | pgbench_tellers  |         27975680
 2017-02-04 01:29:59.539772+01 | 1486168199.53977 | pgbench_history  |        220758016
 2017-02-04 01:29:59.539772+01 | 1486168199.53977 | pgbench_branches |         10657792

 2017-02-04 01:30:00.618586+01 | 1486168200.61859 | pgbench_accounts |      13858414592
 2017-02-04 01:30:00.618586+01 | 1486168200.61859 | pgbench_tellers  |         27975680
 2017-02-04 01:30:00.618586+01 | 1486168200.61859 | pgbench_history  |        220758016
 2017-02-04 01:30:00.618586+01 | 1486168200.61859 | pgbench_branches |         10657792

 2017-02-04 01:30:01.694255+01 | 1486168201.69426 | pgbench_accounts |      13858889728
 2017-02-04 01:30:01.694255+01 | 1486168201.69426 | pgbench_tellers  |         27975680
 2017-02-04 01:30:01.694255+01 | 1486168201.69426 | pgbench_history  |        222633984
 2017-02-04 01:30:01.694255+01 | 1486168201.69426 | pgbench_branches |         10657792

 2017-02-04 01:30:02.768943+01 | 1486168202.76894 | pgbench_accounts |      13858889728
 2017-02-04 01:30:02.768943+01 | 1486168202.76894 | pgbench_tellers  |         27975680
 2017-02-04 01:30:02.768943+01 | 1486168202.76894 | pgbench_history  |        224518144
 2017-02-04 01:30:02.768943+01 | 1486168202.76894 | pgbench_branches |         10657792

 2017-02-04 01:30:03.84853+01 | 1486168203.84853 | pgbench_accounts |      13858889728
 2017-02-04 01:30:03.84853+01 | 1486168203.84853 | pgbench_tellers  |         27975680
 2017-02-04 01:30:03.84853+01 | 1486168203.84853 | pgbench_history  |        225714176
 2017-02-04 01:30:03.84853+01 | 1486168203.84853 | pgbench_branches |         10657792

 2017-02-04 01:30:04.934164+01 | 1486168204.93416 | pgbench_accounts |      13858889728
 2017-02-04 01:30:04.934164+01 | 1486168204.93416 | pgbench_tellers  |         27975680
 2017-02-04 01:30:04.934164+01 | 1486168204.93416 | pgbench_history  |        227786752
 2017-02-04 01:30:04.934164+01 | 1486168204.93416 | pgbench_branches |         10657792

 2017-02-04 01:30:06.02135+01 | 1486168206.02135 | pgbench_accounts |      13859110912
 2017-02-04 01:30:06.02135+01 | 1486168206.02135 | pgbench_tellers  |         27975680
 2017-02-04 01:30:06.02135+01 | 1486168206.02135 | pgbench_history  |        229310464
 2017-02-04 01:30:06.02135+01 | 1486168206.02135 | pgbench_branches |         10657792

 2017-02-04 01:30:07.102425+01 | 1486168207.10243 | pgbench_accounts |      13859430400
 2017-02-04 01:30:07.102425+01 | 1486168207.10243 | pgbench_tellers  |         27975680
 2017-02-04 01:30:07.102425+01 | 1486168207.10243 | pgbench_history  |        230998016
 2017-02-04 01:30:07.102425+01 | 1486168207.10243 | pgbench_branches |         10657792

 2017-02-04 01:30:08.182019+01 | 1486168208.18202 | pgbench_accounts |      13859430400
 2017-02-04 01:30:08.182019+01 | 1486168208.18202 | pgbench_tellers  |         27975680
 2017-02-04 01:30:08.182019+01 | 1486168208.18202 | pgbench_history  |        232546304
 2017-02-04 01:30:08.182019+01 | 1486168208.18202 | pgbench_branches |         10657792

 2017-02-04 01:30:09.257367+01 | 1486168209.25737 | pgbench_accounts |      13859430400
 2017-02-04 01:30:09.257367+01 | 1486168209.25737 | pgbench_tellers  |         27975680
 2017-02-04 01:30:09.257367+01 | 1486168209.25737 | pgbench_history  |        233742336
 2017-02-04 01:30:09.257367+01 | 1486168209.25737 | pgbench_branches |         10657792

 2017-02-04 01:30:10.334905+01 | 1486168210.3349 | pgbench_accounts |      13859684352
 2017-02-04 01:30:10.334905+01 | 1486168210.3349 | pgbench_tellers  |         27975680
 2017-02-04 01:30:10.334905+01 | 1486168210.3349 | pgbench_history  |        235454464
 2017-02-04 01:30:10.334905+01 | 1486168210.3349 | pgbench_branches |         10657792

 2017-02-04 01:30:11.412475+01 | 1486168211.41248 | pgbench_accounts |      13859684352
 2017-02-04 01:30:11.412475+01 | 1486168211.41248 | pgbench_tellers  |         27975680
 2017-02-04 01:30:11.412475+01 | 1486168211.41248 | pgbench_history  |        236486656
 2017-02-04 01:30:11.412475+01 | 1486168211.41248 | pgbench_branches |         10657792

 2017-02-04 01:30:12.493646+01 | 1486168212.49365 | pgbench_accounts |      13859684352
 2017-02-04 01:30:12.493646+01 | 1486168212.49365 | pgbench_tellers  |         27975680
 2017-02-04 01:30:12.493646+01 | 1486168212.49365 | pgbench_history  |        237543424
 2017-02-04 01:30:12.493646+01 | 1486168212.49365 | pgbench_branches |         10657792

 2017-02-04 01:30:13.57247+01 | 1486168213.57247 | pgbench_accounts |      13859700736
 2017-02-04 01:30:13.57247+01 | 1486168213.57247 | pgbench_tellers  |         27975680
 2017-02-04 01:30:13.57247+01 | 1486168213.57247 | pgbench_history  |        238903296
 2017-02-04 01:30:13.57247+01 | 1486168213.57247 | pgbench_branches |         10657792

 2017-02-04 01:30:14.663933+01 | 1486168214.66393 | pgbench_accounts |      13859897344
 2017-02-04 01:30:14.663933+01 | 1486168214.66393 | pgbench_tellers  |         27975680
 2017-02-04 01:30:14.663933+01 | 1486168214.66393 | pgbench_history  |        240427008
 2017-02-04 01:30:14.663933+01 | 1486168214.66393 | pgbench_branches |         10657792

 2017-02-04 01:30:15.744673+01 | 1486168215.74467 | pgbench_accounts |      13859897344
 2017-02-04 01:30:15.744673+01 | 1486168215.74467 | pgbench_tellers  |         27975680
 2017-02-04 01:30:15.744673+01 | 1486168215.74467 | pgbench_history  |        241926144
 2017-02-04 01:30:15.744673+01 | 1486168215.74467 | pgbench_branches |         10657792

 2017-02-04 01:30:16.830148+01 | 1486168216.83015 | pgbench_accounts |      13860380672
 2017-02-04 01:30:16.830148+01 | 1486168216.83015 | pgbench_tellers  |         27975680
 2017-02-04 01:30:16.830148+01 | 1486168216.83015 | pgbench_history  |        244105216
 2017-02-04 01:30:16.830148+01 | 1486168216.83015 | pgbench_branches |         10657792

 2017-02-04 01:30:17.900759+01 | 1486168217.90076 | pgbench_accounts |      13860380672
 2017-02-04 01:30:17.900759+01 | 1486168217.90076 | pgbench_tellers  |         27975680
 2017-02-04 01:30:17.900759+01 | 1486168217.90076 | pgbench_history  |        246259712
 2017-02-04 01:30:17.900759+01 | 1486168217.90076 | pgbench_branches |         10657792

 2017-02-04 01:30:18.971731+01 | 1486168218.97173 | pgbench_accounts |      13860405248
 2017-02-04 01:30:18.971731+01 | 1486168218.97173 | pgbench_tellers  |         27975680
 2017-02-04 01:30:18.971731+01 | 1486168218.97173 | pgbench_history  |        247128064
 2017-02-04 01:30:18.971731+01 | 1486168218.97173 | pgbench_branches |         10657792

 2017-02-04 01:30:20.053513+01 | 1486168220.05351 | pgbench_accounts |      13860495360
 2017-02-04 01:30:20.053513+01 | 1486168220.05351 | pgbench_tellers  |         27975680
 2017-02-04 01:30:20.053513+01 | 1486168220.05351 | pgbench_history  |        248881152
 2017-02-04 01:30:20.053513+01 | 1486168220.05351 | pgbench_branches |         10657792

 2017-02-04 01:30:21.142783+01 | 1486168221.14278 | pgbench_accounts |      13860798464
 2017-02-04 01:30:21.142783+01 | 1486168221.14278 | pgbench_tellers  |         27975680
 2017-02-04 01:30:21.142783+01 | 1486168221.14278 | pgbench_history  |        250404864
 2017-02-04 01:30:21.142783+01 | 1486168221.14278 | pgbench_branches |         10657792

 2017-02-04 01:30:22.215412+01 | 1486168222.21541 | pgbench_accounts |      13860896768
 2017-02-04 01:30:22.215412+01 | 1486168222.21541 | pgbench_tellers  |         27975680
 2017-02-04 01:30:22.215412+01 | 1486168222.21541 | pgbench_history  |        253566976
 2017-02-04 01:30:22.215412+01 | 1486168222.21541 | pgbench_branches |         10657792

 2017-02-04 01:30:23.295562+01 | 1486168223.29556 | pgbench_accounts |      13860937728
 2017-02-04 01:30:23.295562+01 | 1486168223.29556 | pgbench_tellers  |         27975680
 2017-02-04 01:30:23.295562+01 | 1486168223.29556 | pgbench_history  |        253566976
 2017-02-04 01:30:23.295562+01 | 1486168223.29556 | pgbench_branches |         10657792

 2017-02-04 01:30:24.37059+01 | 1486168224.37059 | pgbench_accounts |      13861068800
 2017-02-04 01:30:24.37059+01 | 1486168224.37059 | pgbench_tellers  |         27975680
 2017-02-04 01:30:24.37059+01 | 1486168224.37059 | pgbench_history  |        256131072
 2017-02-04 01:30:24.37059+01 | 1486168224.37059 | pgbench_branches |         10657792

 2017-02-04 01:30:25.445219+01 | 1486168225.44522 | pgbench_accounts |      13861273600
 2017-02-04 01:30:25.445219+01 | 1486168225.44522 | pgbench_tellers  |         27975680
 2017-02-04 01:30:25.445219+01 | 1486168225.44522 | pgbench_history  |        256999424
 2017-02-04 01:30:25.445219+01 | 1486168225.44522 | pgbench_branches |         10657792

 2017-02-04 01:30:26.524661+01 | 1486168226.52466 | pgbench_accounts |      13861380096
 2017-02-04 01:30:26.524661+01 | 1486168226.52466 | pgbench_tellers  |         27975680
 2017-02-04 01:30:26.524661+01 | 1486168226.52466 | pgbench_history  |        258523136
 2017-02-04 01:30:26.524661+01 | 1486168226.52466 | pgbench_branches |         10657792

 2017-02-04 01:30:27.613711+01 | 1486168227.61371 | pgbench_accounts |      13861429248
 2017-02-04 01:30:27.613711+01 | 1486168227.61371 | pgbench_tellers  |         27975680
 2017-02-04 01:30:27.613711+01 | 1486168227.61371 | pgbench_history  |        259751936
 2017-02-04 01:30:27.613711+01 | 1486168227.61371 | pgbench_branches |         10657792

 2017-02-04 01:30:28.69062+01 | 1486168228.69062 | pgbench_accounts |      13861486592
 2017-02-04 01:30:28.69062+01 | 1486168228.69062 | pgbench_tellers  |         27975680
 2017-02-04 01:30:28.69062+01 | 1486168228.69062 | pgbench_history  |        261136384
 2017-02-04 01:30:28.69062+01 | 1486168228.69062 | pgbench_branches |         10657792

 2017-02-04 01:30:29.774456+01 | 1486168229.77446 | pgbench_accounts |      13861568512
 2017-02-04 01:30:29.774456+01 | 1486168229.77446 | pgbench_tellers  |         27975680
 2017-02-04 01:30:29.774456+01 | 1486168229.77446 | pgbench_history  |        262504448
 2017-02-04 01:30:29.774456+01 | 1486168229.77446 | pgbench_branches |         10657792

 2017-02-04 01:30:30.854487+01 | 1486168230.85449 | pgbench_accounts |      13861748736
 2017-02-04 01:30:30.854487+01 | 1486168230.85449 | pgbench_tellers  |         27975680
 2017-02-04 01:30:30.854487+01 | 1486168230.85449 | pgbench_history  |        264355840
 2017-02-04 01:30:30.854487+01 | 1486168230.85449 | pgbench_branches |         10657792

 2017-02-04 01:30:31.927413+01 | 1486168231.92741 | pgbench_accounts |      13861855232
 2017-02-04 01:30:31.927413+01 | 1486168231.92741 | pgbench_tellers  |         27975680
 2017-02-04 01:30:31.927413+01 | 1486168231.92741 | pgbench_history  |        265412608
 2017-02-04 01:30:31.927413+01 | 1486168231.92741 | pgbench_branches |         10657792

 2017-02-04 01:30:33.002339+01 | 1486168233.00234 | pgbench_accounts |      13861912576
 2017-02-04 01:30:33.002339+01 | 1486168233.00234 | pgbench_tellers  |         27975680
 2017-02-04 01:30:33.002339+01 | 1486168233.00234 | pgbench_history  |        267264000
 2017-02-04 01:30:33.002339+01 | 1486168233.00234 | pgbench_branches |         10657792

 2017-02-04 01:30:34.080494+01 | 1486168234.08049 | pgbench_accounts |      13862027264
 2017-02-04 01:30:34.080494+01 | 1486168234.08049 | pgbench_tellers  |         27975680
 2017-02-04 01:30:34.080494+01 | 1486168234.08049 | pgbench_history  |        269279232
 2017-02-04 01:30:34.080494+01 | 1486168234.08049 | pgbench_branches |         10657792

 2017-02-04 01:30:35.166536+01 | 1486168235.16654 | pgbench_accounts |      13862158336
 2017-02-04 01:30:35.166536+01 | 1486168235.16654 | pgbench_tellers  |         27975680
 2017-02-04 01:30:35.166536+01 | 1486168235.16654 | pgbench_history  |        271319040
 2017-02-04 01:30:35.166536+01 | 1486168235.16654 | pgbench_branches |         10657792

 2017-02-04 01:30:36.257986+01 | 1486168236.25799 | pgbench_accounts |      13862289408
 2017-02-04 01:30:36.257986+01 | 1486168236.25799 | pgbench_tellers  |         27975680
 2017-02-04 01:30:36.257986+01 | 1486168236.25799 | pgbench_history  |        272326656
 2017-02-04 01:30:36.257986+01 | 1486168236.25799 | pgbench_branches |         10657792

 2017-02-04 01:30:37.342719+01 | 1486168237.34272 | pgbench_accounts |      13862412288
 2017-02-04 01:30:37.342719+01 | 1486168237.34272 | pgbench_tellers  |         27975680
 2017-02-04 01:30:37.342719+01 | 1486168237.34272 | pgbench_history  |        274202624
 2017-02-04 01:30:37.342719+01 | 1486168237.34272 | pgbench_branches |         10657792

 2017-02-04 01:30:38.411673+01 | 1486168238.41167 | pgbench_accounts |      13862526976
 2017-02-04 01:30:38.411673+01 | 1486168238.41167 | pgbench_tellers  |         27975680
 2017-02-04 01:30:38.411673+01 | 1486168238.41167 | pgbench_history  |        276570112
 2017-02-04 01:30:38.411673+01 | 1486168238.41167 | pgbench_branches |         10657792

 2017-02-04 01:30:39.486464+01 | 1486168239.48646 | pgbench_accounts |      13862674432
 2017-02-04 01:30:39.486464+01 | 1486168239.48646 | pgbench_tellers  |         27975680
 2017-02-04 01:30:39.486464+01 | 1486168239.48646 | pgbench_history  |        277938176
 2017-02-04 01:30:39.486464+01 | 1486168239.48646 | pgbench_branches |         10657792

 2017-02-04 01:30:40.562074+01 | 1486168240.56207 | pgbench_accounts |      13862789120
 2017-02-04 01:30:40.562074+01 | 1486168240.56207 | pgbench_tellers  |         27975680
 2017-02-04 01:30:40.562074+01 | 1486168240.56207 | pgbench_history  |        280018944
 2017-02-04 01:30:40.562074+01 | 1486168240.56207 | pgbench_branches |         10657792

 2017-02-04 01:30:41.643262+01 | 1486168241.64326 | pgbench_accounts |      13862920192
 2017-02-04 01:30:41.643262+01 | 1486168241.64326 | pgbench_tellers  |         27975680
 2017-02-04 01:30:41.643262+01 | 1486168241.64326 | pgbench_history  |        281894912
 2017-02-04 01:30:41.643262+01 | 1486168241.64326 | pgbench_branches |         10657792

 2017-02-04 01:30:42.715906+01 | 1486168242.71591 | pgbench_accounts |      13863043072
 2017-02-04 01:30:42.715906+01 | 1486168242.71591 | pgbench_tellers  |         27975680
 2017-02-04 01:30:42.715906+01 | 1486168242.71591 | pgbench_history  |        284131328
 2017-02-04 01:30:42.715906+01 | 1486168242.71591 | pgbench_branches |         10657792

 2017-02-04 01:30:43.786962+01 | 1486168243.78696 | pgbench_accounts |      13863190528
 2017-02-04 01:30:43.786962+01 | 1486168243.78696 | pgbench_tellers  |         27975680
 2017-02-04 01:30:43.786962+01 | 1486168243.78696 | pgbench_history  |        285302784
 2017-02-04 01:30:43.786962+01 | 1486168243.78696 | pgbench_branches |         10657792

 2017-02-04 01:30:44.880883+01 | 1486168244.88088 | pgbench_accounts |      13863288832
 2017-02-04 01:30:44.880883+01 | 1486168244.88088 | pgbench_tellers  |         27975680
 2017-02-04 01:30:44.880883+01 | 1486168244.88088 | pgbench_history  |        287014912
 2017-02-04 01:30:44.880883+01 | 1486168244.88088 | pgbench_branches |         10657792

 2017-02-04 01:30:45.952243+01 | 1486168245.95224 | pgbench_accounts |      13863575552
 2017-02-04 01:30:45.952243+01 | 1486168245.95224 | pgbench_tellers  |         27975680
 2017-02-04 01:30:45.952243+01 | 1486168245.95224 | pgbench_history  |        291045376
 2017-02-04 01:30:45.952243+01 | 1486168245.95224 | pgbench_branches |         10657792

 2017-02-04 01:30:47.034222+01 | 1486168247.03422 | pgbench_accounts |      13863845888
 2017-02-04 01:30:47.034222+01 | 1486168247.03422 | pgbench_tellers  |         27975680
 2017-02-04 01:30:47.034222+01 | 1486168247.03422 | pgbench_history  |        291045376
 2017-02-04 01:30:47.034222+01 | 1486168247.03422 | pgbench_branches |         10657792

 2017-02-04 01:30:48.114941+01 | 1486168248.11494 | pgbench_accounts |      13864108032
 2017-02-04 01:30:48.114941+01 | 1486168248.11494 | pgbench_tellers  |         27975680
 2017-02-04 01:30:48.114941+01 | 1486168248.11494 | pgbench_history  |        292241408
 2017-02-04 01:30:48.114941+01 | 1486168248.11494 | pgbench_branches |         10657792

 2017-02-04 01:30:49.183166+01 | 1486168249.18317 | pgbench_accounts |      13864501248
 2017-02-04 01:30:49.183166+01 | 1486168249.18317 | pgbench_tellers  |         27975680
 2017-02-04 01:30:49.183166+01 | 1486168249.18317 | pgbench_history  |        293814272
 2017-02-04 01:30:49.183166+01 | 1486168249.18317 | pgbench_branches |         10657792

 2017-02-04 01:30:50.243936+01 | 1486168250.24394 | pgbench_accounts |      13864886272
 2017-02-04 01:30:50.243936+01 | 1486168250.24394 | pgbench_tellers  |         27975680
 2017-02-04 01:30:50.243936+01 | 1486168250.24394 | pgbench_history  |        295337984
 2017-02-04 01:30:50.243936+01 | 1486168250.24394 | pgbench_branches |         10657792

 2017-02-04 01:30:51.310234+01 | 1486168251.31023 | pgbench_accounts |      13865263104
 2017-02-04 01:30:51.310234+01 | 1486168251.31023 | pgbench_tellers  |         27975680
 2017-02-04 01:30:51.310234+01 | 1486168251.31023 | pgbench_history  |        296067072
 2017-02-04 01:30:51.310234+01 | 1486168251.31023 | pgbench_branches |         10657792

 2017-02-04 01:30:52.386384+01 | 1486168252.38638 | pgbench_accounts |      13865795584
 2017-02-04 01:30:52.386384+01 | 1486168252.38638 | pgbench_tellers  |         27975680
 2017-02-04 01:30:52.386384+01 | 1486168252.38638 | pgbench_history  |        297754624
 2017-02-04 01:30:52.386384+01 | 1486168252.38638 | pgbench_branches |         10657792

 2017-02-04 01:30:53.471685+01 | 1486168253.47168 | pgbench_accounts |      13866409984
 2017-02-04 01:30:53.471685+01 | 1486168253.47168 | pgbench_tellers  |         27975680
 2017-02-04 01:30:53.471685+01 | 1486168253.47168 | pgbench_history  |        299524096
 2017-02-04 01:30:53.471685+01 | 1486168253.47168 | pgbench_branches |         10657792

 2017-02-04 01:30:54.542224+01 | 1486168254.54222 | pgbench_accounts |      13866958848
 2017-02-04 01:30:54.542224+01 | 1486168254.54222 | pgbench_tellers  |         27975680
 2017-02-04 01:30:54.542224+01 | 1486168254.54222 | pgbench_history  |        301252608
 2017-02-04 01:30:54.542224+01 | 1486168254.54222 | pgbench_branches |         12320768

 2017-02-04 01:30:55.622713+01 | 1486168255.62271 | pgbench_accounts |      13867360256
 2017-02-04 01:30:55.622713+01 | 1486168255.62271 | pgbench_tellers  |         27975680
 2017-02-04 01:30:55.622713+01 | 1486168255.62271 | pgbench_history  |        302800896
 2017-02-04 01:30:55.622713+01 | 1486168255.62271 | pgbench_branches |         12320768

 2017-02-04 01:30:56.702056+01 | 1486168256.70206 | pgbench_accounts |      13867458560
 2017-02-04 01:30:56.702056+01 | 1486168256.70206 | pgbench_tellers  |         27975680
 2017-02-04 01:30:56.702056+01 | 1486168256.70206 | pgbench_history  |        304979968
 2017-02-04 01:30:56.702056+01 | 1486168256.70206 | pgbench_branches |         12320768

 2017-02-04 01:30:57.784825+01 | 1486168257.78483 | pgbench_accounts |      13867474944
 2017-02-04 01:30:57.784825+01 | 1486168257.78483 | pgbench_tellers  |         27975680
 2017-02-04 01:30:57.784825+01 | 1486168257.78483 | pgbench_history  |        307544064
 2017-02-04 01:30:57.784825+01 | 1486168257.78483 | pgbench_branches |         12320768

 2017-02-04 01:30:58.864419+01 | 1486168258.86442 | pgbench_accounts |      13867483136
 2017-02-04 01:30:58.864419+01 | 1486168258.86442 | pgbench_tellers  |         27975680
 2017-02-04 01:30:58.864419+01 | 1486168258.86442 | pgbench_history  |        308879360
 2017-02-04 01:30:58.864419+01 | 1486168258.86442 | pgbench_branches |         12320768

 2017-02-04 01:30:59.95452+01 | 1486168259.95452 | pgbench_accounts |      13867597824
 2017-02-04 01:30:59.95452+01 | 1486168259.95452 | pgbench_tellers  |         27975680
 2017-02-04 01:30:59.95452+01 | 1486168259.95452 | pgbench_history  |        310255616
 2017-02-04 01:30:59.95452+01 | 1486168259.95452 | pgbench_branches |         12320768

 2017-02-04 01:31:01.038815+01 | 1486168261.03882 | pgbench_accounts |      13867851776
 2017-02-04 01:31:01.038815+01 | 1486168261.03882 | pgbench_tellers  |         27975680
 2017-02-04 01:31:01.038815+01 | 1486168261.03882 | pgbench_history  |        311975936
 2017-02-04 01:31:01.038815+01 | 1486168261.03882 | pgbench_branches |         12320768

 2017-02-04 01:31:02.103973+01 | 1486168262.10397 | pgbench_accounts |      13867982848
 2017-02-04 01:31:02.103973+01 | 1486168262.10397 | pgbench_tellers  |         27975680
 2017-02-04 01:31:02.103973+01 | 1486168262.10397 | pgbench_history  |        313712640
 2017-02-04 01:31:02.103973+01 | 1486168262.10397 | pgbench_branches |         12320768

 2017-02-04 01:31:03.182268+01 | 1486168263.18227 | pgbench_accounts |      13868015616
 2017-02-04 01:31:03.182268+01 | 1486168263.18227 | pgbench_tellers  |         27975680
 2017-02-04 01:31:03.182268+01 | 1486168263.18227 | pgbench_history  |        315432960
 2017-02-04 01:31:03.182268+01 | 1486168263.18227 | pgbench_branches |         12320768

 2017-02-04 01:31:04.270004+01 | 1486168264.27 | pgbench_accounts |      13868105728
 2017-02-04 01:31:04.270004+01 | 1486168264.27 | pgbench_tellers  |         27975680
 2017-02-04 01:31:04.270004+01 | 1486168264.27 | pgbench_history  |        317308928
 2017-02-04 01:31:04.270004+01 | 1486168264.27 | pgbench_branches |         12320768

 2017-02-04 01:31:05.352923+01 | 1486168265.35292 | pgbench_accounts |      13868244992
 2017-02-04 01:31:05.352923+01 | 1486168265.35292 | pgbench_tellers  |         27975680
 2017-02-04 01:31:05.352923+01 | 1486168265.35292 | pgbench_history  |        319021056
 2017-02-04 01:31:05.352923+01 | 1486168265.35292 | pgbench_branches |         12320768

 2017-02-04 01:31:06.435752+01 | 1486168266.43575 | pgbench_accounts |      13868376064
 2017-02-04 01:31:06.435752+01 | 1486168266.43575 | pgbench_tellers  |         27975680
 2017-02-04 01:31:06.435752+01 | 1486168266.43575 | pgbench_history  |        321069056
 2017-02-04 01:31:06.435752+01 | 1486168266.43575 | pgbench_branches |         12320768

 2017-02-04 01:31:07.514508+01 | 1486168267.51451 | pgbench_accounts |      13868507136
 2017-02-04 01:31:07.514508+01 | 1486168267.51451 | pgbench_tellers  |         27975680
 2017-02-04 01:31:07.514508+01 | 1486168267.51451 | pgbench_history  |        322781184
 2017-02-04 01:31:07.514508+01 | 1486168267.51451 | pgbench_branches |         12320768

 2017-02-04 01:31:08.594604+01 | 1486168268.5946 | pgbench_accounts |      13868621824
 2017-02-04 01:31:08.594604+01 | 1486168268.5946 | pgbench_tellers  |         27975680
 2017-02-04 01:31:08.594604+01 | 1486168268.5946 | pgbench_history  |        324657152
 2017-02-04 01:31:08.594604+01 | 1486168268.5946 | pgbench_branches |         12320768

 2017-02-04 01:31:09.678398+01 | 1486168269.6784 | pgbench_accounts |      13868687360
 2017-02-04 01:31:09.678398+01 | 1486168269.6784 | pgbench_tellers  |         27975680
 2017-02-04 01:31:09.678398+01 | 1486168269.6784 | pgbench_history  |        326565888
 2017-02-04 01:31:09.678398+01 | 1486168269.6784 | pgbench_branches |         12320768

 2017-02-04 01:31:10.762649+01 | 1486168270.76265 | pgbench_accounts |      13868867584
 2017-02-04 01:31:10.762649+01 | 1486168270.76265 | pgbench_tellers  |         27975680
 2017-02-04 01:31:10.762649+01 | 1486168270.76265 | pgbench_history  |        329129984
 2017-02-04 01:31:10.762649+01 | 1486168270.76265 | pgbench_branches |         12320768

 2017-02-04 01:31:11.835644+01 | 1486168271.83564 | pgbench_accounts |      13868933120
 2017-02-04 01:31:11.835644+01 | 1486168271.83564 | pgbench_tellers  |         27975680
 2017-02-04 01:31:11.835644+01 | 1486168271.83564 | pgbench_history  |        330465280
 2017-02-04 01:31:11.835644+01 | 1486168271.83564 | pgbench_branches |         12320768

 2017-02-04 01:31:12.912328+01 | 1486168272.91233 | pgbench_accounts |      13869072384
 2017-02-04 01:31:12.912328+01 | 1486168272.91233 | pgbench_tellers  |         27975680
 2017-02-04 01:31:12.912328+01 | 1486168272.91233 | pgbench_history  |        332324864
 2017-02-04 01:31:12.912328+01 | 1486168272.91233 | pgbench_branches |         12320768

 2017-02-04 01:31:13.987826+01 | 1486168273.98783 | pgbench_accounts |      13869154304
 2017-02-04 01:31:13.987826+01 | 1486168273.98783 | pgbench_tellers  |         27975680
 2017-02-04 01:31:13.987826+01 | 1486168273.98783 | pgbench_history  |        333725696
 2017-02-04 01:31:13.987826+01 | 1486168273.98783 | pgbench_branches |         12320768

 2017-02-04 01:31:15.071348+01 | 1486168275.07135 | pgbench_accounts |      13869244416
 2017-02-04 01:31:15.071348+01 | 1486168275.07135 | pgbench_tellers  |         27975680
 2017-02-04 01:31:15.071348+01 | 1486168275.07135 | pgbench_history  |        336961536
 2017-02-04 01:31:15.071348+01 | 1486168275.07135 | pgbench_branches |         12320768

 2017-02-04 01:31:16.157943+01 | 1486168276.15794 | pgbench_accounts |      13869383680
 2017-02-04 01:31:16.157943+01 | 1486168276.15794 | pgbench_tellers  |         27975680
 2017-02-04 01:31:16.157943+01 | 1486168276.15794 | pgbench_history  |        337477632
 2017-02-04 01:31:16.157943+01 | 1486168276.15794 | pgbench_branches |         12320768

 2017-02-04 01:31:17.246074+01 | 1486168277.24607 | pgbench_accounts |      13869539328
 2017-02-04 01:31:17.246074+01 | 1486168277.24607 | pgbench_tellers  |         27975680
 2017-02-04 01:31:17.246074+01 | 1486168277.24607 | pgbench_history  |        339378176
 2017-02-04 01:31:17.246074+01 | 1486168277.24607 | pgbench_branches |         12320768

 2017-02-04 01:31:18.330358+01 | 1486168278.33036 | pgbench_accounts |      13869596672
 2017-02-04 01:31:18.330358+01 | 1486168278.33036 | pgbench_tellers  |         27975680
 2017-02-04 01:31:18.330358+01 | 1486168278.33036 | pgbench_history  |        341065728
 2017-02-04 01:31:18.330358+01 | 1486168278.33036 | pgbench_branches |         12320768

 2017-02-04 01:31:19.416503+01 | 1486168279.4165 | pgbench_accounts |      13869719552
 2017-02-04 01:31:19.416503+01 | 1486168279.4165 | pgbench_tellers  |         27975680
 2017-02-04 01:31:19.416503+01 | 1486168279.4165 | pgbench_history  |        343293952
 2017-02-04 01:31:19.416503+01 | 1486168279.4165 | pgbench_branches |         12320768

 2017-02-04 01:31:20.500142+01 | 1486168280.50014 | pgbench_accounts |      13869850624
 2017-02-04 01:31:20.500142+01 | 1486168280.50014 | pgbench_tellers  |         27975680
 2017-02-04 01:31:20.500142+01 | 1486168280.50014 | pgbench_history  |        346013696
 2017-02-04 01:31:20.500142+01 | 1486168280.50014 | pgbench_branches |         12320768

 2017-02-04 01:31:21.58356+01 | 1486168281.58356 | pgbench_accounts |      13869965312
 2017-02-04 01:31:21.58356+01 | 1486168281.58356 | pgbench_tellers  |         27975680
 2017-02-04 01:31:21.58356+01 | 1486168281.58356 | pgbench_history  |        347021312
 2017-02-04 01:31:21.58356+01 | 1486168281.58356 | pgbench_branches |         12320768

 2017-02-04 01:31:22.660464+01 | 1486168282.66046 | pgbench_accounts |      13870096384
 2017-02-04 01:31:22.660464+01 | 1486168282.66046 | pgbench_tellers  |         27975680
 2017-02-04 01:31:22.660464+01 | 1486168282.66046 | pgbench_history  |        348708864
 2017-02-04 01:31:22.660464+01 | 1486168282.66046 | pgbench_branches |         12320768

 2017-02-04 01:31:23.748034+01 | 1486168283.74803 | pgbench_accounts |      13870161920
 2017-02-04 01:31:23.748034+01 | 1486168283.74803 | pgbench_tellers  |         27975680
 2017-02-04 01:31:23.748034+01 | 1486168283.74803 | pgbench_history  |        350781440
 2017-02-04 01:31:23.748034+01 | 1486168283.74803 | pgbench_branches |         12320768

 2017-02-04 01:31:24.833461+01 | 1486168284.83346 | pgbench_accounts |      13870284800
 2017-02-04 01:31:24.833461+01 | 1486168284.83346 | pgbench_tellers  |         27975680
 2017-02-04 01:31:24.833461+01 | 1486168284.83346 | pgbench_history  |        352673792
 2017-02-04 01:31:24.833461+01 | 1486168284.83346 | pgbench_branches |         12320768

 2017-02-04 01:31:25.917611+01 | 1486168285.91761 | pgbench_accounts |      13870432256
 2017-02-04 01:31:25.917611+01 | 1486168285.91761 | pgbench_tellers  |         27975680
 2017-02-04 01:31:25.917611+01 | 1486168285.91761 | pgbench_history  |        354689024
 2017-02-04 01:31:25.917611+01 | 1486168285.91761 | pgbench_branches |         12320768

 2017-02-04 01:31:26.994817+01 | 1486168286.99482 | pgbench_accounts |      13870530560
 2017-02-04 01:31:26.994817+01 | 1486168286.99482 | pgbench_tellers  |         27975680
 2017-02-04 01:31:26.994817+01 | 1486168286.99482 | pgbench_history  |        356048896
 2017-02-04 01:31:26.994817+01 | 1486168286.99482 | pgbench_branches |         12320768

 2017-02-04 01:31:28.075267+01 | 1486168288.07527 | pgbench_accounts |      13870604288
 2017-02-04 01:31:28.075267+01 | 1486168288.07527 | pgbench_tellers  |         27975680
 2017-02-04 01:31:28.075267+01 | 1486168288.07527 | pgbench_history  |        359538688
 2017-02-04 01:31:28.075267+01 | 1486168288.07527 | pgbench_branches |         12320768

 2017-02-04 01:31:29.169871+01 | 1486168289.16987 | pgbench_accounts |      13870727168
 2017-02-04 01:31:29.169871+01 | 1486168289.16987 | pgbench_tellers  |         27975680
 2017-02-04 01:31:29.169871+01 | 1486168289.16987 | pgbench_history  |        359538688
 2017-02-04 01:31:29.169871+01 | 1486168289.16987 | pgbench_branches |         12320768

 2017-02-04 01:31:30.248493+01 | 1486168290.24849 | pgbench_accounts |      13870858240
 2017-02-04 01:31:30.248493+01 | 1486168290.24849 | pgbench_tellers  |         27975680
 2017-02-04 01:31:30.248493+01 | 1486168290.24849 | pgbench_history  |        361742336
 2017-02-04 01:31:30.248493+01 | 1486168290.24849 | pgbench_branches |         12320768

 2017-02-04 01:31:31.342588+01 | 1486168291.34259 | pgbench_accounts |      13870964736
 2017-02-04 01:31:31.342588+01 | 1486168291.34259 | pgbench_tellers  |         27975680
 2017-02-04 01:31:31.342588+01 | 1486168291.34259 | pgbench_history  |        363290624
 2017-02-04 01:31:31.342588+01 | 1486168291.34259 | pgbench_branches |         12320768

 2017-02-04 01:31:32.422137+01 | 1486168292.42214 | pgbench_accounts |      13871013888
 2017-02-04 01:31:32.422137+01 | 1486168292.42214 | pgbench_tellers  |         27975680
 2017-02-04 01:31:32.422137+01 | 1486168292.42214 | pgbench_history  |        364978176
 2017-02-04 01:31:32.422137+01 | 1486168292.42214 | pgbench_branches |         12320768

 2017-02-04 01:31:33.499451+01 | 1486168293.49945 | pgbench_accounts |      13871177728
 2017-02-04 01:31:33.499451+01 | 1486168293.49945 | pgbench_tellers  |         27975680
 2017-02-04 01:31:33.499451+01 | 1486168293.49945 | pgbench_history  |        368631808
 2017-02-04 01:31:33.499451+01 | 1486168293.49945 | pgbench_branches |         12320768

 2017-02-04 01:31:34.577778+01 | 1486168294.57778 | pgbench_accounts |      13871267840
 2017-02-04 01:31:34.577778+01 | 1486168294.57778 | pgbench_tellers  |         27975680
 2017-02-04 01:31:34.577778+01 | 1486168294.57778 | pgbench_history  |        368631808
 2017-02-04 01:31:34.577778+01 | 1486168294.57778 | pgbench_branches |         12320768

 2017-02-04 01:31:35.656219+01 | 1486168295.65622 | pgbench_accounts |      13871374336
 2017-02-04 01:31:35.656219+01 | 1486168295.65622 | pgbench_tellers  |         27975680
 2017-02-04 01:31:35.656219+01 | 1486168295.65622 | pgbench_history  |        370860032
 2017-02-04 01:31:35.656219+01 | 1486168295.65622 | pgbench_branches |         12320768

 2017-02-04 01:31:36.733807+01 | 1486168296.73381 | pgbench_accounts |      13871456256
 2017-02-04 01:31:36.733807+01 | 1486168296.73381 | pgbench_tellers  |         27975680
 2017-02-04 01:31:36.733807+01 | 1486168296.73381 | pgbench_history  |        372924416
 2017-02-04 01:31:36.733807+01 | 1486168296.73381 | pgbench_branches |         12320768

 2017-02-04 01:31:37.814932+01 | 1486168297.81493 | pgbench_accounts |      13871587328
 2017-02-04 01:31:37.814932+01 | 1486168297.81493 | pgbench_tellers  |         27975680
 2017-02-04 01:31:37.814932+01 | 1486168297.81493 | pgbench_history  |        374480896
 2017-02-04 01:31:37.814932+01 | 1486168297.81493 | pgbench_branches |         12320768

 2017-02-04 01:31:38.8931+01 | 1486168298.8931 | pgbench_accounts |      13871734784
 2017-02-04 01:31:38.8931+01 | 1486168298.8931 | pgbench_tellers  |         27975680
 2017-02-04 01:31:38.8931+01 | 1486168298.8931 | pgbench_history  |        376332288
 2017-02-04 01:31:38.8931+01 | 1486168298.8931 | pgbench_branches |         12320768

 2017-02-04 01:31:39.972048+01 | 1486168299.97205 | pgbench_accounts |      13871800320
 2017-02-04 01:31:39.972048+01 | 1486168299.97205 | pgbench_tellers  |         27975680
 2017-02-04 01:31:39.972048+01 | 1486168299.97205 | pgbench_history  |        377929728
 2017-02-04 01:31:39.972048+01 | 1486168299.97205 | pgbench_branches |         12320768

 2017-02-04 01:31:41.057417+01 | 1486168301.05742 | pgbench_accounts |      13871898624
 2017-02-04 01:31:41.057417+01 | 1486168301.05742 | pgbench_tellers  |         27975680
 2017-02-04 01:31:41.057417+01 | 1486168301.05742 | pgbench_history  |        379641856
 2017-02-04 01:31:41.057417+01 | 1486168301.05742 | pgbench_branches |         12320768

 2017-02-04 01:31:42.141733+01 | 1486168302.14173 | pgbench_accounts |      13871964160
 2017-02-04 01:31:42.141733+01 | 1486168302.14173 | pgbench_tellers  |         27975680
 2017-02-04 01:31:42.141733+01 | 1486168302.14173 | pgbench_history  |        381353984
 2017-02-04 01:31:42.141733+01 | 1486168302.14173 | pgbench_branches |         12320768

 2017-02-04 01:31:43.224739+01 | 1486168303.22474 | pgbench_accounts |      13872095232
 2017-02-04 01:31:43.224739+01 | 1486168303.22474 | pgbench_tellers  |         27975680
 2017-02-04 01:31:43.224739+01 | 1486168303.22474 | pgbench_history  |        383205376
 2017-02-04 01:31:43.224739+01 | 1486168303.22474 | pgbench_branches |         12320768

 2017-02-04 01:31:44.304905+01 | 1486168304.3049 | pgbench_accounts |      13872275456
 2017-02-04 01:31:44.304905+01 | 1486168304.3049 | pgbench_tellers  |         27975680
 2017-02-04 01:31:44.304905+01 | 1486168304.3049 | pgbench_history  |        385548288
 2017-02-04 01:31:44.304905+01 | 1486168304.3049 | pgbench_branches |         12320768

 2017-02-04 01:31:45.393257+01 | 1486168305.39326 | pgbench_accounts |      13872365568
 2017-02-04 01:31:45.393257+01 | 1486168305.39326 | pgbench_tellers  |         27975680
 2017-02-04 01:31:45.393257+01 | 1486168305.39326 | pgbench_history  |        387284992
 2017-02-04 01:31:45.393257+01 | 1486168305.39326 | pgbench_branches |         12320768

 2017-02-04 01:31:46.482168+01 | 1486168306.48217 | pgbench_accounts |      13872504832
 2017-02-04 01:31:46.482168+01 | 1486168306.48217 | pgbench_tellers  |         27975680
 2017-02-04 01:31:46.482168+01 | 1486168306.48217 | pgbench_history  |        389005312
 2017-02-04 01:31:46.482168+01 | 1486168306.48217 | pgbench_branches |         12320768

 2017-02-04 01:31:47.571371+01 | 1486168307.57137 | pgbench_accounts |      13872873472
 2017-02-04 01:31:47.571371+01 | 1486168307.57137 | pgbench_tellers  |         27975680
 2017-02-04 01:31:47.571371+01 | 1486168307.57137 | pgbench_history  |        391577600
 2017-02-04 01:31:47.571371+01 | 1486168307.57137 | pgbench_branches |         12320768

 2017-02-04 01:31:48.651421+01 | 1486168308.65142 | pgbench_accounts |      13873225728
 2017-02-04 01:31:48.651421+01 | 1486168308.65142 | pgbench_tellers  |         27975680
 2017-02-04 01:31:48.651421+01 | 1486168308.65142 | pgbench_history  |        392306688
 2017-02-04 01:31:48.651421+01 | 1486168308.65142 | pgbench_branches |         12320768

 2017-02-04 01:31:49.738684+01 | 1486168309.73868 | pgbench_accounts |      13873610752
 2017-02-04 01:31:49.738684+01 | 1486168309.73868 | pgbench_tellers  |         27975680
 2017-02-04 01:31:49.738684+01 | 1486168309.73868 | pgbench_history  |        394051584
 2017-02-04 01:31:49.738684+01 | 1486168309.73868 | pgbench_branches |         12320768

 2017-02-04 01:31:50.825804+01 | 1486168310.8258 | pgbench_accounts |      13874216960
 2017-02-04 01:31:50.825804+01 | 1486168310.8258 | pgbench_tellers  |         27975680
 2017-02-04 01:31:50.825804+01 | 1486168310.8258 | pgbench_history  |        395927552
 2017-02-04 01:31:50.825804+01 | 1486168310.8258 | pgbench_branches |         12320768

 2017-02-04 01:31:51.910287+01 | 1486168311.91029 | pgbench_accounts |      13874733056
 2017-02-04 01:31:51.910287+01 | 1486168311.91029 | pgbench_tellers  |         27975680
 2017-02-04 01:31:51.910287+01 | 1486168311.91029 | pgbench_history  |        397287424
 2017-02-04 01:31:51.910287+01 | 1486168311.91029 | pgbench_branches |         12320768

 2017-02-04 01:31:52.9986+01 | 1486168312.9986 | pgbench_accounts |      13875363840
 2017-02-04 01:31:52.9986+01 | 1486168312.9986 | pgbench_tellers  |         27975680
 2017-02-04 01:31:52.9986+01 | 1486168312.9986 | pgbench_history  |        399163392
 2017-02-04 01:31:52.9986+01 | 1486168312.9986 | pgbench_branches |         12320768

 2017-02-04 01:31:54.080568+01 | 1486168314.08057 | pgbench_accounts |      13875937280
 2017-02-04 01:31:54.080568+01 | 1486168314.08057 | pgbench_tellers  |         27975680
 2017-02-04 01:31:54.080568+01 | 1486168314.08057 | pgbench_history  |        401014784
 2017-02-04 01:31:54.080568+01 | 1486168314.08057 | pgbench_branches |         12320768

 2017-02-04 01:31:55.152443+01 | 1486168315.15244 | pgbench_accounts |      13876510720
 2017-02-04 01:31:55.152443+01 | 1486168315.15244 | pgbench_tellers  |         27975680
 2017-02-04 01:31:55.152443+01 | 1486168315.15244 | pgbench_history  |        402374656
 2017-02-04 01:31:55.152443+01 | 1486168315.15244 | pgbench_branches |         12320768

 2017-02-04 01:31:56.230529+01 | 1486168316.23053 | pgbench_accounts |      13877280768
 2017-02-04 01:31:56.230529+01 | 1486168316.23053 | pgbench_tellers  |         27975680
 2017-02-04 01:31:56.230529+01 | 1486168316.23053 | pgbench_history  |        403570688
 2017-02-04 01:31:56.230529+01 | 1486168316.23053 | pgbench_branches |         12836864

 2017-02-04 01:31:57.302611+01 | 1486168317.30261 | pgbench_accounts |      13877911552
 2017-02-04 01:31:57.302611+01 | 1486168317.30261 | pgbench_tellers  |         27975680
 2017-02-04 01:31:57.302611+01 | 1486168317.30261 | pgbench_history  |        405397504
 2017-02-04 01:31:57.302611+01 | 1486168317.30261 | pgbench_branches |         14032896

 2017-02-04 01:31:58.384079+01 | 1486168318.38408 | pgbench_accounts |      13878353920
 2017-02-04 01:31:58.384079+01 | 1486168318.38408 | pgbench_tellers  |         27975680
 2017-02-04 01:31:58.384079+01 | 1486168318.38408 | pgbench_history  |        407248896
 2017-02-04 01:31:58.384079+01 | 1486168318.38408 | pgbench_branches |         14409728

 2017-02-04 01:31:59.467633+01 | 1486168319.46763 | pgbench_accounts |      13878353920
 2017-02-04 01:31:59.467633+01 | 1486168319.46763 | pgbench_tellers  |         27975680
 2017-02-04 01:31:59.467633+01 | 1486168319.46763 | pgbench_history  |        408936448
 2017-02-04 01:31:59.467633+01 | 1486168319.46763 | pgbench_branches |         14409728

 2017-02-04 01:32:00.553187+01 | 1486168320.55319 | pgbench_accounts |      13878353920
 2017-02-04 01:32:00.553187+01 | 1486168320.55319 | pgbench_tellers  |         27975680
 2017-02-04 01:32:00.553187+01 | 1486168320.55319 | pgbench_history  |        410001408
 2017-02-04 01:32:00.553187+01 | 1486168320.55319 | pgbench_branches |         14409728

 2017-02-04 01:32:01.64367+01 | 1486168321.64367 | pgbench_accounts |      13878771712
 2017-02-04 01:32:01.64367+01 | 1486168321.64367 | pgbench_tellers  |         27975680
 2017-02-04 01:32:01.64367+01 | 1486168321.64367 | pgbench_history  |        411566080
 2017-02-04 01:32:01.64367+01 | 1486168321.64367 | pgbench_branches |         14409728

 2017-02-04 01:32:02.726637+01 | 1486168322.72664 | pgbench_accounts |      13878779904
 2017-02-04 01:32:02.726637+01 | 1486168322.72664 | pgbench_tellers  |         27975680
 2017-02-04 01:32:02.726637+01 | 1486168322.72664 | pgbench_history  |        412483584
 2017-02-04 01:32:02.726637+01 | 1486168322.72664 | pgbench_branches |         14409728

 2017-02-04 01:32:03.811143+01 | 1486168323.81114 | pgbench_accounts |      13878779904
 2017-02-04 01:32:03.811143+01 | 1486168323.81114 | pgbench_tellers  |         27975680
 2017-02-04 01:32:03.811143+01 | 1486168323.81114 | pgbench_history  |        414171136
 2017-02-04 01:32:03.811143+01 | 1486168323.81114 | pgbench_branches |         14409728

 2017-02-04 01:32:04.895894+01 | 1486168324.89589 | pgbench_accounts |      13878804480
 2017-02-04 01:32:04.895894+01 | 1486168324.89589 | pgbench_tellers  |         27975680
 2017-02-04 01:32:04.895894+01 | 1486168324.89589 | pgbench_history  |        416186368
 2017-02-04 01:32:04.895894+01 | 1486168324.89589 | pgbench_branches |         14409728

 2017-02-04 01:32:05.989785+01 | 1486168325.98978 | pgbench_accounts |      13878829056
 2017-02-04 01:32:05.989785+01 | 1486168325.98978 | pgbench_tellers  |         27975680
 2017-02-04 01:32:05.989785+01 | 1486168325.98978 | pgbench_history  |        416186368
 2017-02-04 01:32:05.989785+01 | 1486168325.98978 | pgbench_branches |         14409728

 2017-02-04 01:32:07.071788+01 | 1486168327.07179 | pgbench_accounts |      13878878208
 2017-02-04 01:32:07.071788+01 | 1486168327.07179 | pgbench_tellers  |         27975680
 2017-02-04 01:32:07.071788+01 | 1486168327.07179 | pgbench_history  |        417873920
 2017-02-04 01:32:07.071788+01 | 1486168327.07179 | pgbench_branches |         14409728

 2017-02-04 01:32:08.154495+01 | 1486168328.1545 | pgbench_accounts |      13878968320
 2017-02-04 01:32:08.154495+01 | 1486168328.1545 | pgbench_tellers  |         27975680
 2017-02-04 01:32:08.154495+01 | 1486168328.1545 | pgbench_history  |        419069952
 2017-02-04 01:32:08.154495+01 | 1486168328.1545 | pgbench_branches |         14409728

 2017-02-04 01:32:09.253706+01 | 1486168329.25371 | pgbench_accounts |      13879107584
 2017-02-04 01:32:09.253706+01 | 1486168329.25371 | pgbench_tellers  |         27975680
 2017-02-04 01:32:09.253706+01 | 1486168329.25371 | pgbench_history  |        421109760
 2017-02-04 01:32:09.253706+01 | 1486168329.25371 | pgbench_branches |         14409728

 2017-02-04 01:32:10.348494+01 | 1486168330.34849 | pgbench_accounts |      13879255040
 2017-02-04 01:32:10.348494+01 | 1486168330.34849 | pgbench_tellers  |         27975680
 2017-02-04 01:32:10.348494+01 | 1486168330.34849 | pgbench_history  |        422641664
 2017-02-04 01:32:10.348494+01 | 1486168330.34849 | pgbench_branches |         14409728

 2017-02-04 01:32:11.425658+01 | 1486168331.42566 | pgbench_accounts |      13879328768
 2017-02-04 01:32:11.425658+01 | 1486168331.42566 | pgbench_tellers  |         27975680
 2017-02-04 01:32:11.425658+01 | 1486168331.42566 | pgbench_history  |        424681472
 2017-02-04 01:32:11.425658+01 | 1486168331.42566 | pgbench_branches |         14409728

 2017-02-04 01:32:12.505835+01 | 1486168332.50584 | pgbench_accounts |      13879328768
 2017-02-04 01:32:12.505835+01 | 1486168332.50584 | pgbench_tellers  |         27975680
 2017-02-04 01:32:12.505835+01 | 1486168332.50584 | pgbench_history  |        425689088
 2017-02-04 01:32:12.505835+01 | 1486168332.50584 | pgbench_branches |         14409728

 2017-02-04 01:32:13.58958+01 | 1486168333.58958 | pgbench_accounts |      13879361536
 2017-02-04 01:32:13.58958+01 | 1486168333.58958 | pgbench_tellers  |         27975680
 2017-02-04 01:32:13.58958+01 | 1486168333.58958 | pgbench_history  |        426860544
 2017-02-04 01:32:13.58958+01 | 1486168333.58958 | pgbench_branches |         14409728

 2017-02-04 01:32:14.676778+01 | 1486168334.67678 | pgbench_accounts |      13879451648
 2017-02-04 01:32:14.676778+01 | 1486168334.67678 | pgbench_tellers  |         27975680
 2017-02-04 01:32:14.676778+01 | 1486168334.67678 | pgbench_history  |        428392448
 2017-02-04 01:32:14.676778+01 | 1486168334.67678 | pgbench_branches |         14409728

 2017-02-04 01:32:15.760745+01 | 1486168335.76075 | pgbench_accounts |      13879533568
 2017-02-04 01:32:15.760745+01 | 1486168335.76075 | pgbench_tellers  |         27975680
 2017-02-04 01:32:15.760745+01 | 1486168335.76075 | pgbench_history  |        432611328
 2017-02-04 01:32:15.760745+01 | 1486168335.76075 | pgbench_branches |         14409728

 2017-02-04 01:32:16.842649+01 | 1486168336.84265 | pgbench_accounts |      13879648256
 2017-02-04 01:32:16.842649+01 | 1486168336.84265 | pgbench_tellers  |         27975680
 2017-02-04 01:32:16.842649+01 | 1486168336.84265 | pgbench_history  |        432611328
 2017-02-04 01:32:16.842649+01 | 1486168336.84265 | pgbench_branches |         14409728

 2017-02-04 01:32:17.924086+01 | 1486168337.92409 | pgbench_accounts |      13879754752
 2017-02-04 01:32:17.924086+01 | 1486168337.92409 | pgbench_tellers  |         27975680
 2017-02-04 01:32:17.924086+01 | 1486168337.92409 | pgbench_history  |        432611328
 2017-02-04 01:32:17.924086+01 | 1486168337.92409 | pgbench_branches |         14409728

 2017-02-04 01:32:19.007669+01 | 1486168339.00767 | pgbench_accounts |      13879795712
 2017-02-04 01:32:19.007669+01 | 1486168339.00767 | pgbench_tellers  |         27975680
 2017-02-04 01:32:19.007669+01 | 1486168339.00767 | pgbench_history  |        433807360
 2017-02-04 01:32:19.007669+01 | 1486168339.00767 | pgbench_branches |         14409728

 2017-02-04 01:32:20.086427+01 | 1486168340.08643 | pgbench_accounts |      13879844864
 2017-02-04 01:32:20.086427+01 | 1486168340.08643 | pgbench_tellers  |         27975680
 2017-02-04 01:32:20.086427+01 | 1486168340.08643 | pgbench_history  |        435355648
 2017-02-04 01:32:20.086427+01 | 1486168340.08643 | pgbench_branches |         14409728

 2017-02-04 01:32:21.16377+01 | 1486168341.16377 | pgbench_accounts |      13879910400
 2017-02-04 01:32:21.16377+01 | 1486168341.16377 | pgbench_tellers  |         27975680
 2017-02-04 01:32:21.16377+01 | 1486168341.16377 | pgbench_history  |        437018624
 2017-02-04 01:32:21.16377+01 | 1486168341.16377 | pgbench_branches |         14409728

 2017-02-04 01:32:22.251357+01 | 1486168342.25136 | pgbench_accounts |      13880164352
 2017-02-04 01:32:22.251357+01 | 1486168342.25136 | pgbench_tellers  |         27975680
 2017-02-04 01:32:22.251357+01 | 1486168342.25136 | pgbench_history  |        439197696
 2017-02-04 01:32:22.251357+01 | 1486168342.25136 | pgbench_branches |         14409728

 2017-02-04 01:32:23.327127+01 | 1486168343.32713 | pgbench_accounts |      13880164352
 2017-02-04 01:32:23.327127+01 | 1486168343.32713 | pgbench_tellers  |         27975680
 2017-02-04 01:32:23.327127+01 | 1486168343.32713 | pgbench_history  |        440205312
 2017-02-04 01:32:23.327127+01 | 1486168343.32713 | pgbench_branches |         14409728

 2017-02-04 01:32:24.405207+01 | 1486168344.40521 | pgbench_accounts |      13880164352
 2017-02-04 01:32:24.405207+01 | 1486168344.40521 | pgbench_tellers  |         27975680
 2017-02-04 01:32:24.405207+01 | 1486168344.40521 | pgbench_history  |        441401344
 2017-02-04 01:32:24.405207+01 | 1486168344.40521 | pgbench_branches |         14409728

 2017-02-04 01:32:25.485542+01 | 1486168345.48554 | pgbench_accounts |      13880164352
 2017-02-04 01:32:25.485542+01 | 1486168345.48554 | pgbench_tellers  |         27975680
 2017-02-04 01:32:25.485542+01 | 1486168345.48554 | pgbench_history  |        442785792
 2017-02-04 01:32:25.485542+01 | 1486168345.48554 | pgbench_branches |         14409728

 2017-02-04 01:32:26.563864+01 | 1486168346.56386 | pgbench_accounts |      13880164352
 2017-02-04 01:32:26.563864+01 | 1486168346.56386 | pgbench_tellers  |         27975680
 2017-02-04 01:32:26.563864+01 | 1486168346.56386 | pgbench_history  |        443793408
 2017-02-04 01:32:26.563864+01 | 1486168346.56386 | pgbench_branches |         14409728

 2017-02-04 01:32:27.643107+01 | 1486168347.64311 | pgbench_accounts |      13880164352
 2017-02-04 01:32:27.643107+01 | 1486168347.64311 | pgbench_tellers  |         27975680
 2017-02-04 01:32:27.643107+01 | 1486168347.64311 | pgbench_history  |        445808640
 2017-02-04 01:32:27.643107+01 | 1486168347.64311 | pgbench_branches |         14409728

 2017-02-04 01:32:28.723748+01 | 1486168348.72375 | pgbench_accounts |      13880508416
 2017-02-04 01:32:28.723748+01 | 1486168348.72375 | pgbench_tellers  |         27975680
 2017-02-04 01:32:28.723748+01 | 1486168348.72375 | pgbench_history  |        445997056
 2017-02-04 01:32:28.723748+01 | 1486168348.72375 | pgbench_branches |         14409728

 2017-02-04 01:32:29.785884+01 | 1486168349.78588 | pgbench_accounts |      13880647680
 2017-02-04 01:32:29.785884+01 | 1486168349.78588 | pgbench_tellers  |         27975680
 2017-02-04 01:32:29.785884+01 | 1486168349.78588 | pgbench_history  |        448364544
 2017-02-04 01:32:29.785884+01 | 1486168349.78588 | pgbench_branches |         14409728

 2017-02-04 01:32:30.862207+01 | 1486168350.86221 | pgbench_accounts |      13880688640
 2017-02-04 01:32:30.862207+01 | 1486168350.86221 | pgbench_tellers  |         27975680
 2017-02-04 01:32:30.862207+01 | 1486168350.86221 | pgbench_history  |        449044480
 2017-02-04 01:32:30.862207+01 | 1486168350.86221 | pgbench_branches |         14409728

 2017-02-04 01:32:31.952613+01 | 1486168351.95261 | pgbench_accounts |      13880688640
 2017-02-04 01:32:31.952613+01 | 1486168351.95261 | pgbench_tellers  |         27975680
 2017-02-04 01:32:31.952613+01 | 1486168351.95261 | pgbench_history  |        451690496
 2017-02-04 01:32:31.952613+01 | 1486168351.95261 | pgbench_branches |         14409728

 2017-02-04 01:32:33.031658+01 | 1486168353.03166 | pgbench_accounts |      13880696832
 2017-02-04 01:32:33.031658+01 | 1486168353.03166 | pgbench_tellers  |         27975680
 2017-02-04 01:32:33.031658+01 | 1486168353.03166 | pgbench_history  |        452886528
 2017-02-04 01:32:33.031658+01 | 1486168353.03166 | pgbench_branches |         14409728

 2017-02-04 01:32:34.123558+01 | 1486168354.12356 | pgbench_accounts |      13880729600
 2017-02-04 01:32:34.123558+01 | 1486168354.12356 | pgbench_tellers  |         27975680
 2017-02-04 01:32:34.123558+01 | 1486168354.12356 | pgbench_history  |        454467584
 2017-02-04 01:32:34.123558+01 | 1486168354.12356 | pgbench_branches |         14409728

 2017-02-04 01:32:35.203919+01 | 1486168355.20392 | pgbench_accounts |      13880852480
 2017-02-04 01:32:35.203919+01 | 1486168355.20392 | pgbench_tellers  |         27975680
 2017-02-04 01:32:35.203919+01 | 1486168355.20392 | pgbench_history  |        455868416
 2017-02-04 01:32:35.203919+01 | 1486168355.20392 | pgbench_branches |         14409728

 2017-02-04 01:32:36.292892+01 | 1486168356.29289 | pgbench_accounts |      13881073664
 2017-02-04 01:32:36.292892+01 | 1486168356.29289 | pgbench_tellers  |         27975680
 2017-02-04 01:32:36.292892+01 | 1486168356.29289 | pgbench_history  |        457474048
 2017-02-04 01:32:36.292892+01 | 1486168356.29289 | pgbench_branches |         14409728

 2017-02-04 01:32:37.376536+01 | 1486168357.37654 | pgbench_accounts |      13881171968
 2017-02-04 01:32:37.376536+01 | 1486168357.37654 | pgbench_tellers  |         27975680
 2017-02-04 01:32:37.376536+01 | 1486168357.37654 | pgbench_history  |        459497472
 2017-02-04 01:32:37.376536+01 | 1486168357.37654 | pgbench_branches |         14409728

 2017-02-04 01:32:38.448555+01 | 1486168358.44855 | pgbench_accounts |      13881212928
 2017-02-04 01:32:38.448555+01 | 1486168358.44855 | pgbench_tellers  |         27975680
 2017-02-04 01:32:38.448555+01 | 1486168358.44855 | pgbench_history  |        461045760
 2017-02-04 01:32:38.448555+01 | 1486168358.44855 | pgbench_branches |         14409728

