 2017-02-05 10:16:06.18463+01 | 1486286166.18463 |                 0 |               5 |                  7412 |                  303 |             693759 |             0 |                0 |          730751 |                     0 |        434051 | 2017-02-05 09:55:31.750407+01

 2017-02-05 10:16:07.262735+01 | 1486286167.26273 |                 0 |               5 |                  7412 |                  303 |             693759 |             0 |                0 |          730751 |                     0 |        434327 | 2017-02-05 09:55:31.750407+01

 2017-02-05 10:16:08.334454+01 | 1486286168.33445 |                 0 |               5 |                  7412 |                  303 |             693759 |             0 |                0 |          730751 |                     0 |        434656 | 2017-02-05 09:55:31.750407+01

 2017-02-05 10:16:09.410391+01 | 1486286169.41039 |                 0 |               5 |                  7412 |                  303 |             693759 |             0 |                0 |          730751 |                     0 |        434824 | 2017-02-05 09:55:31.750407+01

 2017-02-05 10:16:10.489508+01 | 1486286170.48951 |                 0 |               5 |                  7412 |                  303 |             693759 |             0 |                0 |          730751 |                     0 |        435219 | 2017-02-05 09:55:31.750407+01

 2017-02-05 10:16:11.572128+01 | 1486286171.57213 |                 0 |               5 |                  7412 |                  303 |             693759 |             0 |                0 |          730751 |                     0 |        435592 | 2017-02-05 09:55:31.750407+01

 2017-02-05 10:16:12.65218+01 | 1486286172.65218 |                 0 |               5 |                  7412 |                  303 |             693759 |             0 |                0 |          730751 |                     0 |        435741 | 2017-02-05 09:55:31.750407+01

 2017-02-05 10:16:13.726091+01 | 1486286173.72609 |                 0 |               5 |                  7412 |                  303 |             693759 |             0 |                0 |          730751 |                     0 |        436034 | 2017-02-05 09:55:31.750407+01

 2017-02-05 10:16:14.799192+01 | 1486286174.79919 |                 0 |               5 |                  7412 |                  303 |             693759 |             0 |                0 |          730751 |                     0 |        436322 | 2017-02-05 09:55:31.750407+01

 2017-02-05 10:16:15.878188+01 | 1486286175.87819 |                 0 |               5 |                  7412 |                  303 |             693759 |             0 |                0 |          730751 |                     0 |        436633 | 2017-02-05 09:55:31.750407+01

 2017-02-05 10:16:16.953374+01 | 1486286176.95337 |                 0 |               5 |                  7412 |                  303 |             693759 |             0 |                0 |          730751 |                     0 |        436926 | 2017-02-05 09:55:31.750407+01

 2017-02-05 10:16:18.028543+01 | 1486286178.02854 |                 0 |               5 |                  7412 |                  303 |             693759 |             0 |                0 |          730751 |                     0 |        437256 | 2017-02-05 09:55:31.750407+01

 2017-02-05 10:16:19.102716+01 | 1486286179.10272 |                 0 |               5 |                  7412 |                  303 |             693759 |             0 |                0 |          730751 |                     0 |        437626 | 2017-02-05 09:55:31.750407+01

 2017-02-05 10:16:20.179311+01 | 1486286180.17931 |                 0 |               5 |                  7412 |                  303 |             693759 |             0 |                0 |          730751 |                     0 |        437773 | 2017-02-05 09:55:31.750407+01

 2017-02-05 10:16:21.256144+01 | 1486286181.25614 |                 0 |               5 |                  7412 |                  303 |             693759 |             0 |                0 |          730751 |                     0 |        438149 | 2017-02-05 09:55:31.750407+01

 2017-02-05 10:16:22.335548+01 | 1486286182.33555 |                 0 |               5 |                  7412 |                  303 |             693759 |             0 |                0 |          730751 |                     0 |        438538 | 2017-02-05 09:55:31.750407+01

 2017-02-05 10:16:23.41685+01 | 1486286183.41685 |                 0 |               5 |                  7412 |                  303 |             693759 |             0 |                0 |          730751 |                     0 |        438681 | 2017-02-05 09:55:31.750407+01

 2017-02-05 10:16:24.499003+01 | 1486286184.499 |                 0 |               5 |                  7412 |                  303 |             693759 |             0 |                0 |          730751 |                     0 |        438970 | 2017-02-05 09:55:31.750407+01

 2017-02-05 10:16:25.576285+01 | 1486286185.57628 |                 0 |               5 |                  7412 |                  303 |             693759 |             0 |                0 |          730751 |                     0 |        439263 | 2017-02-05 09:55:31.750407+01

 2017-02-05 10:16:26.657096+01 | 1486286186.6571 |                 0 |               5 |                  7412 |                  303 |             693759 |             0 |                0 |          730751 |                     0 |        439468 | 2017-02-05 09:55:31.750407+01

 2017-02-05 10:16:27.739045+01 | 1486286187.73904 |                 0 |               5 |                  7412 |                  303 |             693759 |             0 |                0 |          730751 |                     0 |        439938 | 2017-02-05 09:55:31.750407+01

 2017-02-05 10:16:28.828344+01 | 1486286188.82834 |                 0 |               5 |                  7412 |                  303 |             693759 |             0 |                0 |          730751 |                     0 |        440086 | 2017-02-05 09:55:31.750407+01

 2017-02-05 10:16:29.900166+01 | 1486286189.90017 |                 0 |               5 |                  7412 |                  303 |             693759 |             0 |                0 |          730751 |                     0 |        440369 | 2017-02-05 09:55:31.750407+01

 2017-02-05 10:16:30.978671+01 | 1486286190.97867 |                 0 |               5 |                  7412 |                  303 |             693759 |             0 |                0 |          730751 |                     0 |        440575 | 2017-02-05 09:55:31.750407+01

 2017-02-05 10:16:32.063359+01 | 1486286192.06336 |                 0 |               5 |                  7412 |                  303 |             693759 |             0 |                0 |          730751 |                     0 |        440933 | 2017-02-05 09:55:31.750407+01

 2017-02-05 10:16:33.142869+01 | 1486286193.14287 |                 0 |               5 |                  7412 |                  303 |             693759 |             0 |                0 |          730751 |                     0 |        441223 | 2017-02-05 09:55:31.750407+01

 2017-02-05 10:16:34.21577+01 | 1486286194.21577 |                 0 |               5 |                  7412 |                  303 |             693759 |             0 |                0 |          730751 |                     0 |        441478 | 2017-02-05 09:55:31.750407+01

 2017-02-05 10:16:35.294641+01 | 1486286195.29464 |                 0 |               5 |                  7412 |                  303 |             693759 |             0 |                0 |          730751 |                     0 |        441831 | 2017-02-05 09:55:31.750407+01

 2017-02-05 10:16:36.369658+01 | 1486286196.36966 |                 0 |               5 |                  7412 |                  303 |             693759 |             0 |                0 |          730751 |                     0 |        442080 | 2017-02-05 09:55:31.750407+01

 2017-02-05 10:16:37.451916+01 | 1486286197.45192 |                 0 |               5 |                  7412 |                  303 |             693759 |             0 |                0 |          730751 |                     0 |        442474 | 2017-02-05 09:55:31.750407+01

 2017-02-05 10:16:38.530148+01 | 1486286198.53015 |                 0 |               5 |                  7412 |                  303 |             693759 |             0 |                0 |          730751 |                     0 |        442701 | 2017-02-05 09:55:31.750407+01

 2017-02-05 10:16:39.603346+01 | 1486286199.60335 |                 0 |               5 |                  7412 |                  303 |             693759 |             0 |                0 |          730751 |                     0 |        442872 | 2017-02-05 09:55:31.750407+01

 2017-02-05 10:16:40.677208+01 | 1486286200.67721 |                 0 |               5 |                  7412 |                  303 |             693759 |             0 |                0 |          730751 |                     0 |        443228 | 2017-02-05 09:55:31.750407+01

 2017-02-05 10:16:41.762532+01 | 1486286201.76253 |                 0 |               5 |                  7412 |                  303 |             693759 |             0 |                0 |          730751 |                     0 |        443460 | 2017-02-05 09:55:31.750407+01

 2017-02-05 10:16:42.84701+01 | 1486286202.84701 |                 0 |               5 |                  7412 |                  303 |             693759 |             0 |                0 |          730751 |                     0 |        443649 | 2017-02-05 09:55:31.750407+01

 2017-02-05 10:16:43.936408+01 | 1486286203.93641 |                 0 |               5 |                  7412 |                  303 |             693759 |             0 |                0 |          730751 |                     0 |        443967 | 2017-02-05 09:55:31.750407+01

 2017-02-05 10:16:45.012658+01 | 1486286205.01266 |                 0 |               5 |                  7412 |                  303 |             693759 |             0 |                0 |          730751 |                     0 |        444218 | 2017-02-05 09:55:31.750407+01

 2017-02-05 10:16:46.090818+01 | 1486286206.09082 |                 0 |               5 |                  7412 |                  303 |             693759 |             0 |                0 |          730751 |                     0 |        444588 | 2017-02-05 09:55:31.750407+01

 2017-02-05 10:16:47.17188+01 | 1486286207.17188 |                 0 |               5 |                  7412 |                  303 |             693759 |             0 |                0 |          730751 |                     0 |        444712 | 2017-02-05 09:55:31.750407+01

 2017-02-05 10:16:48.251728+01 | 1486286208.25173 |                 0 |               5 |                  7412 |                  303 |             693759 |             0 |                0 |          730751 |                     0 |        444987 | 2017-02-05 09:55:31.750407+01

 2017-02-05 10:16:49.329732+01 | 1486286209.32973 |                 0 |               5 |                  7412 |                  303 |             693759 |             0 |                0 |          730751 |                     0 |        445173 | 2017-02-05 09:55:31.750407+01

 2017-02-05 10:16:50.405874+01 | 1486286210.40587 |                 0 |               5 |                  7412 |                  303 |             693759 |             0 |                0 |          730751 |                     0 |        445465 | 2017-02-05 09:55:31.750407+01

 2017-02-05 10:16:51.485328+01 | 1486286211.48533 |                 0 |               5 |                  7412 |                  303 |             693759 |             0 |                0 |          730751 |                     0 |        445733 | 2017-02-05 09:55:31.750407+01

 2017-02-05 10:16:52.562029+01 | 1486286212.56203 |                 0 |               5 |                  7412 |                  303 |             693759 |             0 |                0 |          730751 |                     0 |        445987 | 2017-02-05 09:55:31.750407+01

 2017-02-05 10:16:53.632259+01 | 1486286213.63226 |                 0 |               5 |                  7412 |                  303 |             693759 |             0 |                0 |          730751 |                     0 |        445987 | 2017-02-05 09:55:31.750407+01

 2017-02-05 10:16:54.708294+01 | 1486286214.70829 |                 0 |               5 |                  7412 |                  303 |             693759 |             0 |                0 |          730751 |                     0 |        446725 | 2017-02-05 09:55:31.750407+01

 2017-02-05 10:16:55.786221+01 | 1486286215.78622 |                 0 |               5 |                  7412 |                  303 |             693759 |             0 |                0 |          730751 |                     0 |        446892 | 2017-02-05 09:55:31.750407+01

 2017-02-05 10:16:56.860993+01 | 1486286216.86099 |                 0 |               5 |                  7412 |                  303 |             693759 |             0 |                0 |          730751 |                     0 |        447144 | 2017-02-05 09:55:31.750407+01

 2017-02-05 10:16:57.934928+01 | 1486286217.93493 |                 0 |               5 |                  7412 |                  303 |             693759 |             0 |                0 |          730751 |                     0 |        447331 | 2017-02-05 09:55:31.750407+01

 2017-02-05 10:16:59.013522+01 | 1486286219.01352 |                 0 |               5 |                  7412 |                  303 |             693759 |             0 |                0 |          730751 |                     0 |        447666 | 2017-02-05 09:55:31.750407+01

 2017-02-05 10:17:00.097438+01 | 1486286220.09744 |                 0 |               5 |                  7412 |                  303 |             693759 |             0 |                0 |          730751 |                     0 |        447914 | 2017-02-05 09:55:31.750407+01

 2017-02-05 10:17:01.174442+01 | 1486286221.17444 |                 0 |               5 |                  7412 |                  303 |             693759 |             0 |                0 |          730751 |                     0 |        448211 | 2017-02-05 09:55:31.750407+01

 2017-02-05 10:17:02.2463+01 | 1486286222.2463 |                 0 |               5 |                  7412 |                  303 |             693759 |             0 |                0 |          730751 |                     0 |        448500 | 2017-02-05 09:55:31.750407+01

 2017-02-05 10:17:03.322374+01 | 1486286223.32237 |                 0 |               5 |                  7412 |                  303 |             693759 |             0 |                0 |          730751 |                     0 |        448705 | 2017-02-05 09:55:31.750407+01

 2017-02-05 10:17:04.392415+01 | 1486286224.39242 |                 0 |               5 |                  7412 |                  303 |             693759 |             0 |                0 |          730751 |                     0 |        449202 | 2017-02-05 09:55:31.750407+01

 2017-02-05 10:17:05.472227+01 | 1486286225.47223 |                 0 |               5 |                  7412 |                  303 |             693759 |             0 |                0 |          730751 |                     0 |        449327 | 2017-02-05 09:55:31.750407+01

 2017-02-05 10:17:06.548924+01 | 1486286226.54892 |                 0 |               5 |                  7412 |                  303 |             693759 |             0 |                0 |          730751 |                     0 |        449517 | 2017-02-05 09:55:31.750407+01

 2017-02-05 10:17:07.628325+01 | 1486286227.62832 |                 0 |               5 |                  7412 |                  303 |             693759 |             0 |                0 |          730751 |                     0 |        449833 | 2017-02-05 09:55:31.750407+01

 2017-02-05 10:17:08.718522+01 | 1486286228.71852 |                 0 |               5 |                  7412 |                  303 |             693759 |             0 |                0 |          730751 |                     0 |        450039 | 2017-02-05 09:55:31.750407+01

 2017-02-05 10:17:09.797034+01 | 1486286229.79703 |                 0 |               5 |                  7412 |                  303 |             693759 |             0 |                0 |          730751 |                     0 |        450288 | 2017-02-05 09:55:31.750407+01

 2017-02-05 10:17:10.884557+01 | 1486286230.88456 |                 0 |               5 |                  7412 |                  303 |             693759 |             0 |                0 |          730751 |                     0 |        450560 | 2017-02-05 09:55:31.750407+01

 2017-02-05 10:17:11.966406+01 | 1486286231.96641 |                 0 |               5 |                  7412 |                  303 |             693759 |             0 |                0 |          730751 |                     0 |        450847 | 2017-02-05 09:55:31.750407+01

 2017-02-05 10:17:13.041687+01 | 1486286233.04169 |                 0 |               5 |                  7412 |                  303 |             693759 |             0 |                0 |          730751 |                     0 |        451186 | 2017-02-05 09:55:31.750407+01

 2017-02-05 10:17:14.10797+01 | 1486286234.10797 |                 0 |               5 |                  7412 |                  303 |             693759 |             0 |                0 |          730751 |                     0 |        451376 | 2017-02-05 09:55:31.750407+01

 2017-02-05 10:17:15.178193+01 | 1486286235.17819 |                 0 |               5 |                  7412 |                  303 |             693759 |             0 |                0 |          730751 |                     0 |        451568 | 2017-02-05 09:55:31.750407+01

 2017-02-05 10:17:16.252111+01 | 1486286236.25211 |                 0 |               5 |                  7412 |                  303 |             693759 |             0 |                0 |          730751 |                     0 |        451753 | 2017-02-05 09:55:31.750407+01

 2017-02-05 10:17:17.322737+01 | 1486286237.32274 |                 0 |               5 |                  7412 |                  303 |             693759 |             0 |                0 |          730751 |                     0 |        452090 | 2017-02-05 09:55:31.750407+01

 2017-02-05 10:17:18.405426+01 | 1486286238.40543 |                 0 |               5 |                  7412 |                  303 |             693759 |             0 |                0 |          730751 |                     0 |        452337 | 2017-02-05 09:55:31.750407+01

 2017-02-05 10:17:19.483624+01 | 1486286239.48362 |                 0 |               5 |                  7412 |                  303 |             693759 |             0 |                0 |          730751 |                     0 |        452543 | 2017-02-05 09:55:31.750407+01

 2017-02-05 10:17:20.561922+01 | 1486286240.56192 |                 0 |               5 |                  7412 |                  303 |             693759 |             0 |                0 |          730751 |                     0 |        452833 | 2017-02-05 09:55:31.750407+01

 2017-02-05 10:17:21.647631+01 | 1486286241.64763 |                 0 |               5 |                  7412 |                  303 |             693759 |             0 |                0 |          730751 |                     0 |        453123 | 2017-02-05 09:55:31.750407+01

 2017-02-05 10:17:22.738302+01 | 1486286242.7383 |                 0 |               5 |                  7412 |                  303 |             693759 |             0 |                0 |          730751 |                     0 |        453290 | 2017-02-05 09:55:31.750407+01

 2017-02-05 10:17:23.818088+01 | 1486286243.81809 |                 0 |               5 |                  7412 |                  303 |             693759 |             0 |                0 |          730751 |                     0 |        453646 | 2017-02-05 09:55:31.750407+01

 2017-02-05 10:17:24.901632+01 | 1486286244.90163 |                 0 |               5 |                  7412 |                  303 |             693759 |             0 |                0 |          730751 |                     0 |        453935 | 2017-02-05 09:55:31.750407+01

 2017-02-05 10:17:25.98694+01 | 1486286245.98694 |                 0 |               5 |                  7412 |                  303 |             693759 |             0 |                0 |          730751 |                     0 |        454140 | 2017-02-05 09:55:31.750407+01

 2017-02-05 10:17:27.062341+01 | 1486286247.06234 |                 0 |               5 |                  7412 |                  303 |             693759 |             0 |                0 |          730751 |                     0 |        454423 | 2017-02-05 09:55:31.750407+01

 2017-02-05 10:17:28.132848+01 | 1486286248.13285 |                 0 |               5 |                  7412 |                  303 |             693759 |             0 |                0 |          730751 |                     0 |        454689 | 2017-02-05 09:55:31.750407+01

 2017-02-05 10:17:29.207901+01 | 1486286249.2079 |                 0 |               5 |                  7412 |                  303 |             693759 |             0 |                0 |          730751 |                     0 |        455000 | 2017-02-05 09:55:31.750407+01

 2017-02-05 10:17:30.289386+01 | 1486286250.28939 |                 0 |               5 |                  7412 |                  303 |             693759 |             0 |                0 |          730751 |                     0 |        455320 | 2017-02-05 09:55:31.750407+01

 2017-02-05 10:17:31.369652+01 | 1486286251.36965 |                 0 |               5 |                  7412 |                  303 |             693759 |             0 |                0 |          730751 |                     0 |        455650 | 2017-02-05 09:55:31.750407+01

 2017-02-05 10:17:32.456704+01 | 1486286252.4567 |                 0 |               5 |                  7412 |                  303 |             693759 |             0 |                0 |          730751 |                     0 |        455942 | 2017-02-05 09:55:31.750407+01

 2017-02-05 10:17:33.534664+01 | 1486286253.53466 |                 0 |               5 |                  7412 |                  303 |             693759 |             0 |                0 |          730751 |                     0 |        456168 | 2017-02-05 09:55:31.750407+01

 2017-02-05 10:17:34.617048+01 | 1486286254.61705 |                 0 |               5 |                  7412 |                  303 |             693759 |             0 |                0 |          730751 |                     0 |        456467 | 2017-02-05 09:55:31.750407+01

 2017-02-05 10:17:35.692001+01 | 1486286255.692 |                 0 |               5 |                  7412 |                  303 |             693759 |             0 |                0 |          730751 |                     0 |        456762 | 2017-02-05 09:55:31.750407+01

 2017-02-05 10:17:36.773818+01 | 1486286256.77382 |                 0 |               5 |                  7412 |                  303 |             693759 |             0 |                0 |          730751 |                     0 |        457196 | 2017-02-05 09:55:31.750407+01

 2017-02-05 10:17:37.857038+01 | 1486286257.85704 |                 0 |               5 |                  7412 |                  303 |             693759 |             0 |                0 |          730751 |                     0 |        457485 | 2017-02-05 09:55:31.750407+01

 2017-02-05 10:17:38.939684+01 | 1486286258.93968 |                 0 |               5 |                  7412 |                  303 |             693759 |             0 |                0 |          730751 |                     0 |        457529 | 2017-02-05 09:55:31.750407+01

 2017-02-05 10:17:40.014691+01 | 1486286260.01469 |                 0 |               5 |                  7412 |                  303 |             693759 |             0 |                0 |          730751 |                     0 |        457906 | 2017-02-05 09:55:31.750407+01

 2017-02-05 10:17:41.089682+01 | 1486286261.08968 |                 0 |               5 |                  7412 |                  303 |             693759 |             0 |                0 |          730751 |                     0 |        458100 | 2017-02-05 09:55:31.750407+01

 2017-02-05 10:17:42.163419+01 | 1486286262.16342 |                 0 |               5 |                  7412 |                  303 |             693759 |             0 |                0 |          730751 |                     0 |        458390 | 2017-02-05 09:55:31.750407+01

 2017-02-05 10:17:43.23371+01 | 1486286263.23371 |                 0 |               5 |                  7412 |                  303 |             693759 |             0 |                0 |          730751 |                     0 |        458701 | 2017-02-05 09:55:31.750407+01

 2017-02-05 10:17:44.309959+01 | 1486286264.30996 |                 0 |               5 |                  7412 |                  303 |             693759 |             0 |                0 |          730751 |                     0 |        458999 | 2017-02-05 09:55:31.750407+01

 2017-02-05 10:17:45.387924+01 | 1486286265.38792 |                 0 |               5 |                  7412 |                  303 |             693759 |             0 |                0 |          730751 |                     0 |        459351 | 2017-02-05 09:55:31.750407+01

 2017-02-05 10:17:46.47038+01 | 1486286266.47038 |                 0 |               5 |                  7412 |                  303 |             693759 |             0 |                0 |          730751 |                     0 |        459555 | 2017-02-05 09:55:31.750407+01

 2017-02-05 10:17:47.543695+01 | 1486286267.54369 |                 0 |               5 |                  7412 |                  303 |             693759 |             0 |                0 |          730751 |                     0 |        459874 | 2017-02-05 09:55:31.750407+01

 2017-02-05 10:17:48.630026+01 | 1486286268.63003 |                 0 |               5 |                  7412 |                  303 |             693759 |             0 |                0 |          730751 |                     0 |        460284 | 2017-02-05 09:55:31.750407+01

 2017-02-05 10:17:49.705161+01 | 1486286269.70516 |                 0 |               5 |                  7412 |                  303 |             693759 |             0 |                0 |          730751 |                     0 |        460491 | 2017-02-05 09:55:31.750407+01

 2017-02-05 10:17:50.784414+01 | 1486286270.78441 |                 0 |               5 |                  7412 |                  303 |             693759 |             0 |                0 |          730751 |                     0 |        460717 | 2017-02-05 09:55:31.750407+01

 2017-02-05 10:17:51.86309+01 | 1486286271.86309 |                 0 |               5 |                  7412 |                  303 |             693759 |             0 |                0 |          730751 |                     0 |        460944 | 2017-02-05 09:55:31.750407+01

 2017-02-05 10:17:52.940616+01 | 1486286272.94062 |                 0 |               5 |                  7412 |                  303 |             693759 |             0 |                0 |          730751 |                     0 |        461401 | 2017-02-05 09:55:31.750407+01

 2017-02-05 10:17:54.019973+01 | 1486286274.01997 |                 0 |               5 |                  7412 |                  303 |             693759 |             0 |                0 |          730751 |                     0 |        461565 | 2017-02-05 09:55:31.750407+01

 2017-02-05 10:17:55.099019+01 | 1486286275.09902 |                 0 |               5 |                  7412 |                  303 |             693759 |             0 |                0 |          730751 |                     0 |        461874 | 2017-02-05 09:55:31.750407+01

 2017-02-05 10:17:56.17775+01 | 1486286276.17775 |                 0 |               5 |                  7412 |                  303 |             693759 |             0 |                0 |          730751 |                     0 |        462147 | 2017-02-05 09:55:31.750407+01

 2017-02-05 10:17:57.259346+01 | 1486286277.25935 |                 0 |               5 |                  7412 |                  303 |             693759 |             0 |                0 |          730751 |                     0 |        462462 | 2017-02-05 09:55:31.750407+01

 2017-02-05 10:17:58.345806+01 | 1486286278.34581 |                 0 |               5 |                  7412 |                  303 |             693759 |             0 |                0 |          730751 |                     0 |        462753 | 2017-02-05 09:55:31.750407+01

 2017-02-05 10:17:59.426304+01 | 1486286279.4263 |                 0 |               5 |                  7412 |                  303 |             693759 |             0 |                0 |          730751 |                     0 |        463005 | 2017-02-05 09:55:31.750407+01

 2017-02-05 10:18:00.496168+01 | 1486286280.49617 |                 0 |               5 |                  7412 |                  303 |             693759 |             0 |                0 |          730751 |                     0 |        463238 | 2017-02-05 09:55:31.750407+01

 2017-02-05 10:18:01.572355+01 | 1486286281.57236 |                 0 |               5 |                  7412 |                  303 |             693759 |             0 |                0 |          730751 |                     0 |        463628 | 2017-02-05 09:55:31.750407+01

 2017-02-05 10:18:02.64514+01 | 1486286282.64514 |                 0 |               5 |                  7412 |                  303 |             693759 |             0 |                0 |          730751 |                     0 |        463797 | 2017-02-05 09:55:31.750407+01

 2017-02-05 10:18:03.716467+01 | 1486286283.71647 |                 0 |               5 |                  7412 |                  303 |             693759 |             0 |                0 |          730751 |                     0 |        464215 | 2017-02-05 09:55:31.750407+01

 2017-02-05 10:18:04.790083+01 | 1486286284.79008 |                 0 |               5 |                  7412 |                  303 |             693759 |             0 |                0 |          730751 |                     0 |        464407 | 2017-02-05 09:55:31.750407+01

 2017-02-05 10:18:05.875314+01 | 1486286285.87531 |                 0 |               5 |                  7412 |                  303 |             693759 |             0 |                0 |          730751 |                     0 |        464602 | 2017-02-05 09:55:31.750407+01

 2017-02-05 10:18:06.956393+01 | 1486286286.95639 |                 0 |               5 |                  7412 |                  303 |             693759 |             0 |                0 |          730751 |                     0 |        464992 | 2017-02-05 09:55:31.750407+01

 2017-02-05 10:18:08.049354+01 | 1486286288.04935 |                 0 |               5 |                  7412 |                  303 |             693759 |             0 |                0 |          730751 |                     0 |        465342 | 2017-02-05 09:55:31.750407+01

 2017-02-05 10:18:09.132995+01 | 1486286289.13299 |                 0 |               5 |                  7412 |                  303 |             693759 |             0 |                0 |          730751 |                     0 |        465509 | 2017-02-05 09:55:31.750407+01

 2017-02-05 10:18:10.213547+01 | 1486286290.21355 |                 0 |               5 |                  7412 |                  303 |             693759 |             0 |                0 |          730751 |                     0 |        465822 | 2017-02-05 09:55:31.750407+01

 2017-02-05 10:18:11.285776+01 | 1486286291.28578 |                 0 |               5 |                  7412 |                  303 |             693759 |             0 |                0 |          730751 |                     0 |        466108 | 2017-02-05 09:55:31.750407+01

 2017-02-05 10:18:12.363615+01 | 1486286292.36362 |                 0 |               5 |                  7412 |                  303 |             693759 |             0 |                0 |          730751 |                     0 |        466500 | 2017-02-05 09:55:31.750407+01

 2017-02-05 10:18:13.431235+01 | 1486286293.43124 |                 0 |               5 |                  7412 |                  303 |             693759 |             0 |                0 |          730751 |                     0 |        466605 | 2017-02-05 09:55:31.750407+01

 2017-02-05 10:18:14.514998+01 | 1486286294.515 |                 0 |               5 |                  7412 |                  303 |             693759 |             0 |                0 |          730751 |                     0 |        466943 | 2017-02-05 09:55:31.750407+01

 2017-02-05 10:18:15.593578+01 | 1486286295.59358 |                 0 |               5 |                  7412 |                  303 |             693759 |             0 |                0 |          730751 |                     0 |        467321 | 2017-02-05 09:55:31.750407+01

 2017-02-05 10:18:16.669898+01 | 1486286296.6699 |                 0 |               5 |                  7412 |                  303 |             693759 |             0 |                0 |          730751 |                     0 |        467527 | 2017-02-05 09:55:31.750407+01

 2017-02-05 10:18:17.751016+01 | 1486286297.75102 |                 0 |               5 |                  7412 |                  303 |             693759 |             0 |                0 |          730751 |                     0 |        467819 | 2017-02-05 09:55:31.750407+01

 2017-02-05 10:18:18.8309+01 | 1486286298.8309 |                 0 |               5 |                  7412 |                  303 |             693759 |             0 |                0 |          730751 |                     0 |        468128 | 2017-02-05 09:55:31.750407+01

 2017-02-05 10:18:19.903453+01 | 1486286299.90345 |                 0 |               5 |                  7412 |                  303 |             693759 |             0 |                0 |          730751 |                     0 |        468379 | 2017-02-05 09:55:31.750407+01

 2017-02-05 10:18:20.989182+01 | 1486286300.98918 |                 0 |               5 |                  7412 |                  303 |             693759 |             0 |                0 |          730751 |                     0 |        468752 | 2017-02-05 09:55:31.750407+01

 2017-02-05 10:18:22.077053+01 | 1486286302.07705 |                 0 |               5 |                  7412 |                  303 |             693759 |             0 |                0 |          730751 |                     0 |        468937 | 2017-02-05 09:55:31.750407+01

 2017-02-05 10:18:23.150646+01 | 1486286303.15065 |                 0 |               5 |                  7412 |                  303 |             693759 |             0 |                0 |          730751 |                     0 |        469225 | 2017-02-05 09:55:31.750407+01

 2017-02-05 10:18:24.222686+01 | 1486286304.22269 |                 0 |               5 |                  7412 |                  303 |             693759 |             0 |                0 |          730751 |                     0 |        469493 | 2017-02-05 09:55:31.750407+01

 2017-02-05 10:18:25.303046+01 | 1486286305.30305 |                 0 |               5 |                  7412 |                  303 |             693759 |             0 |                0 |          730751 |                     0 |        469850 | 2017-02-05 09:55:31.750407+01

 2017-02-05 10:18:26.380138+01 | 1486286306.38014 |                 0 |               5 |                  7412 |                  303 |             693759 |             0 |                0 |          730751 |                     0 |        470099 | 2017-02-05 09:55:31.750407+01

 2017-02-05 10:18:27.460221+01 | 1486286307.46022 |                 0 |               5 |                  7412 |                  303 |             693759 |             0 |                0 |          730751 |                     0 |        470376 | 2017-02-05 09:55:31.750407+01

 2017-02-05 10:18:28.549984+01 | 1486286308.54998 |                 0 |               5 |                  7412 |                  303 |             693759 |             0 |                0 |          730751 |                     0 |        470606 | 2017-02-05 09:55:31.750407+01

 2017-02-05 10:18:29.628413+01 | 1486286309.62841 |                 0 |               5 |                  7412 |                  303 |             693759 |             0 |                0 |          730751 |                     0 |        470983 | 2017-02-05 09:55:31.750407+01

 2017-02-05 10:18:30.706468+01 | 1486286310.70647 |                 0 |               5 |                  7412 |                  303 |             693759 |             0 |                0 |          730751 |                     0 |        471189 | 2017-02-05 09:55:31.750407+01

 2017-02-05 10:18:31.782774+01 | 1486286311.78277 |                 0 |               5 |                  7412 |                  303 |             693759 |             0 |                0 |          730751 |                     0 |        471482 | 2017-02-05 09:55:31.750407+01

 2017-02-05 10:18:32.866701+01 | 1486286312.8667 |                 0 |               5 |                  7412 |                  303 |             693759 |             0 |                0 |          730751 |                     0 |        471755 | 2017-02-05 09:55:31.750407+01

 2017-02-05 10:18:33.946397+01 | 1486286313.9464 |                 0 |               5 |                  7412 |                  303 |             693759 |             0 |                0 |          730751 |                     0 |        472086 | 2017-02-05 09:55:31.750407+01

 2017-02-05 10:18:35.026801+01 | 1486286315.0268 |                 0 |               5 |                  7412 |                  303 |             693759 |             0 |                0 |          730751 |                     0 |        472294 | 2017-02-05 09:55:31.750407+01

 2017-02-05 10:18:36.109548+01 | 1486286316.10955 |                 0 |               5 |                  7412 |                  303 |             693759 |             0 |                0 |          730751 |                     0 |        472538 | 2017-02-05 09:55:31.750407+01

 2017-02-05 10:18:37.183955+01 | 1486286317.18395 |                 0 |               5 |                  7412 |                  303 |             693759 |             0 |                0 |          730751 |                     0 |        472917 | 2017-02-05 09:55:31.750407+01

 2017-02-05 10:18:38.267773+01 | 1486286318.26777 |                 0 |               5 |                  7412 |                  303 |             693759 |             0 |                0 |          730751 |                     0 |        473169 | 2017-02-05 09:55:31.750407+01

 2017-02-05 10:18:39.347254+01 | 1486286319.34725 |                 0 |               5 |                  7412 |                  303 |             693759 |             0 |                0 |          730751 |                     0 |        473464 | 2017-02-05 09:55:31.750407+01

 2017-02-05 10:18:40.418721+01 | 1486286320.41872 |                 0 |               5 |                  7412 |                  303 |             693759 |             0 |                0 |          730751 |                     0 |        473774 | 2017-02-05 09:55:31.750407+01

 2017-02-05 10:18:41.500555+01 | 1486286321.50056 |                 0 |               5 |                  7412 |                  303 |             693759 |             0 |                0 |          730751 |                     0 |        474004 | 2017-02-05 09:55:31.750407+01

 2017-02-05 10:18:42.591344+01 | 1486286322.59134 |                 0 |               5 |                  7412 |                  303 |             693759 |             0 |                0 |          730751 |                     0 |        474296 | 2017-02-05 09:55:31.750407+01

 2017-02-05 10:18:43.666375+01 | 1486286323.66637 |                 0 |               5 |                  7412 |                  303 |             693759 |             0 |                0 |          730751 |                     0 |        474588 | 2017-02-05 09:55:31.750407+01

 2017-02-05 10:18:44.745098+01 | 1486286324.7451 |                 0 |               5 |                  7412 |                  303 |             693759 |             0 |                0 |          730751 |                     0 |        474795 | 2017-02-05 09:55:31.750407+01

 2017-02-05 10:18:45.826746+01 | 1486286325.82675 |                 0 |               5 |                  7412 |                  303 |             693759 |             0 |                0 |          730751 |                     0 |        475175 | 2017-02-05 09:55:31.750407+01

 2017-02-05 10:18:46.906383+01 | 1486286326.90638 |                 0 |               5 |                  7412 |                  303 |             693759 |             0 |                0 |          730751 |                     0 |        475525 | 2017-02-05 09:55:31.750407+01

 2017-02-05 10:18:47.987237+01 | 1486286327.98724 |                 0 |               5 |                  7412 |                  303 |             693759 |             0 |                0 |          730751 |                     0 |        475732 | 2017-02-05 09:55:31.750407+01

 2017-02-05 10:18:49.062261+01 | 1486286329.06226 |                 0 |               5 |                  7412 |                  303 |             693759 |             0 |                0 |          730751 |                     0 |        476008 | 2017-02-05 09:55:31.750407+01

 2017-02-05 10:18:50.140015+01 | 1486286330.14001 |                 0 |               5 |                  7412 |                  303 |             693759 |             0 |                0 |          730751 |                     0 |        476298 | 2017-02-05 09:55:31.750407+01

 2017-02-05 10:18:51.21406+01 | 1486286331.21406 |                 0 |               5 |                  7412 |                  303 |             693759 |             0 |                0 |          730751 |                     0 |        476575 | 2017-02-05 09:55:31.750407+01

 2017-02-05 10:18:52.300472+01 | 1486286332.30047 |                 0 |               5 |                  7412 |                  303 |             693759 |             0 |                0 |          730751 |                     0 |        476888 | 2017-02-05 09:55:31.750407+01

 2017-02-05 10:18:53.383541+01 | 1486286333.38354 |                 0 |               5 |                  7412 |                  303 |             693759 |             0 |                0 |          730751 |                     0 |        477195 | 2017-02-05 09:55:31.750407+01

 2017-02-05 10:18:54.469098+01 | 1486286334.4691 |                 0 |               5 |                  7412 |                  303 |             693759 |             0 |                0 |          730751 |                     0 |        477498 | 2017-02-05 09:55:31.750407+01

 2017-02-05 10:18:55.550896+01 | 1486286335.5509 |                 0 |               5 |                  7412 |                  303 |             693759 |             0 |                0 |          730751 |                     0 |        477730 | 2017-02-05 09:55:31.750407+01

 2017-02-05 10:18:56.630859+01 | 1486286336.63086 |                 0 |               5 |                  7412 |                  303 |             693759 |             0 |                0 |          730751 |                     0 |        477980 | 2017-02-05 09:55:31.750407+01

 2017-02-05 10:18:57.705655+01 | 1486286337.70566 |                 0 |               5 |                  7412 |                  303 |             693759 |             0 |                0 |          730751 |                     0 |        478331 | 2017-02-05 09:55:31.750407+01

 2017-02-05 10:18:58.780757+01 | 1486286338.78076 |                 0 |               5 |                  7412 |                  303 |             693759 |             0 |                0 |          730751 |                     0 |        478523 | 2017-02-05 09:55:31.750407+01

 2017-02-05 10:18:59.861307+01 | 1486286339.86131 |                 0 |               5 |                  7412 |                  303 |             693759 |             0 |                0 |          730751 |                     0 |        478834 | 2017-02-05 09:55:31.750407+01

 2017-02-05 10:19:00.943223+01 | 1486286340.94322 |                 0 |               5 |                  7412 |                  303 |             693759 |             0 |                0 |          730751 |                     0 |        479149 | 2017-02-05 09:55:31.750407+01

 2017-02-05 10:19:02.014676+01 | 1486286342.01468 |                 0 |               5 |                  7412 |                  303 |             693759 |             0 |                0 |          730751 |                     0 |        479401 | 2017-02-05 09:55:31.750407+01

 2017-02-05 10:19:03.091532+01 | 1486286343.09153 |                 0 |               5 |                  7412 |                  303 |             693759 |             0 |                0 |          730751 |                     0 |        479673 | 2017-02-05 09:55:31.750407+01

 2017-02-05 10:19:04.168745+01 | 1486286344.16875 |                 0 |               5 |                  7412 |                  303 |             693759 |             0 |                0 |          730751 |                     0 |        479951 | 2017-02-05 09:55:31.750407+01

 2017-02-05 10:19:05.245502+01 | 1486286345.2455 |                 0 |               5 |                  7412 |                  303 |             693759 |             0 |                0 |          730751 |                     0 |        480303 | 2017-02-05 09:55:31.750407+01

 2017-02-05 10:19:06.327191+01 | 1486286346.32719 |                 0 |               5 |                  7412 |                  303 |             693759 |             0 |                0 |          730751 |                     0 |        480531 | 2017-02-05 09:55:31.750407+01

 2017-02-05 10:19:07.405166+01 | 1486286347.40517 |                 0 |               5 |                  7412 |                  303 |             693759 |             0 |                0 |          730751 |                     0 |        480870 | 2017-02-05 09:55:31.750407+01

 2017-02-05 10:19:08.484555+01 | 1486286348.48456 |                 0 |               5 |                  7412 |                  303 |             693759 |             0 |                0 |          730751 |                     0 |        481075 | 2017-02-05 09:55:31.750407+01

 2017-02-05 10:19:09.561476+01 | 1486286349.56148 |                 0 |               5 |                  7412 |                  303 |             693759 |             0 |                0 |          730751 |                     0 |        481464 | 2017-02-05 09:55:31.750407+01

 2017-02-05 10:19:10.642998+01 | 1486286350.643 |                 0 |               5 |                  7412 |                  303 |             693759 |             0 |                0 |          730751 |                     0 |        481733 | 2017-02-05 09:55:31.750407+01

 2017-02-05 10:19:11.720565+01 | 1486286351.72057 |                 0 |               5 |                  7412 |                  303 |             693759 |             0 |                0 |          730751 |                     0 |        482012 | 2017-02-05 09:55:31.750407+01

 2017-02-05 10:19:12.796819+01 | 1486286352.79682 |                 0 |               5 |                  7412 |                  303 |             693759 |             0 |                0 |          730751 |                     0 |        482218 | 2017-02-05 09:55:31.750407+01

 2017-02-05 10:19:13.873546+01 | 1486286353.87355 |                 0 |               5 |                  7412 |                  303 |             693759 |             0 |                0 |          730751 |                     0 |        482527 | 2017-02-05 09:55:31.750407+01

 2017-02-05 10:19:14.960343+01 | 1486286354.96034 |                 0 |               5 |                  7412 |                  303 |             693759 |             0 |                0 |          730751 |                     0 |        482527 | 2017-02-05 09:55:31.750407+01

 2017-02-05 10:19:16.042801+01 | 1486286356.0428 |                 0 |               5 |                  7412 |                  303 |             693759 |             0 |                0 |          730751 |                     0 |        483076 | 2017-02-05 09:55:31.750407+01

 2017-02-05 10:19:17.126121+01 | 1486286357.12612 |                 0 |               5 |                  7412 |                  303 |             693759 |             0 |                0 |          730751 |                     0 |        483328 | 2017-02-05 09:55:31.750407+01

 2017-02-05 10:19:18.203431+01 | 1486286358.20343 |                 0 |               5 |                  7412 |                  303 |             693759 |             0 |                0 |          730751 |                     0 |        483717 | 2017-02-05 09:55:31.750407+01

 2017-02-05 10:19:19.293254+01 | 1486286359.29325 |                 0 |               5 |                  7412 |                  303 |             693759 |             0 |                0 |          730751 |                     0 |        484027 | 2017-02-05 09:55:31.750407+01

 2017-02-05 10:19:20.361951+01 | 1486286360.36195 |                 0 |               5 |                  7412 |                  303 |             693759 |             0 |                0 |          730751 |                     0 |        484231 | 2017-02-05 09:55:31.750407+01

 2017-02-05 10:19:21.434701+01 | 1486286361.4347 |                 0 |               5 |                  7412 |                  303 |             693759 |             0 |                0 |          730751 |                     0 |        484461 | 2017-02-05 09:55:31.750407+01

 2017-02-05 10:19:22.510797+01 | 1486286362.5108 |                 0 |               5 |                  7412 |                  303 |             693759 |             0 |                0 |          730751 |                     0 |        484711 | 2017-02-05 09:55:31.750407+01

 2017-02-05 10:19:23.606139+01 | 1486286363.60614 |                 0 |               5 |                  7412 |                  303 |             693759 |             0 |                0 |          730751 |                     0 |        485023 | 2017-02-05 09:55:31.750407+01

 2017-02-05 10:19:24.687521+01 | 1486286364.68752 |                 0 |               5 |                  7412 |                  303 |             693759 |             0 |                0 |          730751 |                     0 |        485334 | 2017-02-05 09:55:31.750407+01

 2017-02-05 10:19:25.764953+01 | 1486286365.76495 |                 0 |               5 |                  7412 |                  303 |             693759 |             0 |                0 |          730751 |                     0 |        485564 | 2017-02-05 09:55:31.750407+01

 2017-02-05 10:19:26.85157+01 | 1486286366.85157 |                 0 |               5 |                  7412 |                  303 |             693759 |             0 |                0 |          730751 |                     0 |        485814 | 2017-02-05 09:55:31.750407+01

 2017-02-05 10:19:27.928789+01 | 1486286367.92879 |                 0 |               5 |                  7412 |                  303 |             693759 |             0 |                0 |          730751 |                     0 |        486170 | 2017-02-05 09:55:31.750407+01

 2017-02-05 10:19:29.002538+01 | 1486286369.00254 |                 0 |               5 |                  7412 |                  303 |             693759 |             0 |                0 |          730751 |                     0 |        486442 | 2017-02-05 09:55:31.750407+01

 2017-02-05 10:19:30.071346+01 | 1486286370.07135 |                 0 |               5 |                  7412 |                  303 |             693759 |             0 |                0 |          730751 |                     0 |        486800 | 2017-02-05 09:55:31.750407+01

 2017-02-05 10:19:31.153235+01 | 1486286371.15323 |                 0 |               5 |                  7412 |                  303 |             693759 |             0 |                0 |          730751 |                     0 |        487009 | 2017-02-05 09:55:31.750407+01

 2017-02-05 10:19:32.242762+01 | 1486286372.24276 |                 0 |               5 |                  7412 |                  303 |             693759 |             0 |                0 |          730751 |                     0 |        487316 | 2017-02-05 09:55:31.750407+01

 2017-02-05 10:19:33.313567+01 | 1486286373.31357 |                 0 |               5 |                  7412 |                  303 |             693759 |             0 |                0 |          730751 |                     0 |        487439 | 2017-02-05 09:55:31.750407+01

 2017-02-05 10:19:34.388377+01 | 1486286374.38838 |                 0 |               5 |                  7412 |                  303 |             693759 |             0 |                0 |          730751 |                     0 |        487921 | 2017-02-05 09:55:31.750407+01

 2017-02-05 10:19:35.464806+01 | 1486286375.46481 |                 0 |               5 |                  7412 |                  303 |             693759 |             0 |                0 |          730751 |                     0 |        488112 | 2017-02-05 09:55:31.750407+01

 2017-02-05 10:19:36.543762+01 | 1486286376.54376 |                 0 |               5 |                  7412 |                  303 |             693759 |             0 |                0 |          730751 |                     0 |        488276 | 2017-02-05 09:55:31.750407+01

 2017-02-05 10:19:37.620651+01 | 1486286377.62065 |                 0 |               5 |                  7412 |                  303 |             693759 |             0 |                0 |          730751 |                     0 |        488689 | 2017-02-05 09:55:31.750407+01

 2017-02-05 10:19:38.698129+01 | 1486286378.69813 |                 0 |               5 |                  7412 |                  303 |             693759 |             0 |                0 |          730751 |                     0 |        488916 | 2017-02-05 09:55:31.750407+01

 2017-02-05 10:19:39.778115+01 | 1486286379.77812 |                 0 |               5 |                  7412 |                  303 |             693759 |             0 |                0 |          730751 |                     0 |        489190 | 2017-02-05 09:55:31.750407+01

 2017-02-05 10:19:40.851142+01 | 1486286380.85114 |                 0 |               5 |                  7412 |                  303 |             693759 |             0 |                0 |          730751 |                     0 |        489524 | 2017-02-05 09:55:31.750407+01

 2017-02-05 10:19:41.927697+01 | 1486286381.9277 |                 0 |               5 |                  7412 |                  303 |             693759 |             0 |                0 |          730751 |                     0 |        489670 | 2017-02-05 09:55:31.750407+01

 2017-02-05 10:19:43.000691+01 | 1486286383.00069 |                 0 |               5 |                  7412 |                  303 |             693759 |             0 |                0 |          730751 |                     0 |        490005 | 2017-02-05 09:55:31.750407+01

 2017-02-05 10:19:44.079437+01 | 1486286384.07944 |                 0 |               5 |                  7412 |                  303 |             693759 |             0 |                0 |          730751 |                     0 |        490302 | 2017-02-05 09:55:31.750407+01

 2017-02-05 10:19:45.15358+01 | 1486286385.15358 |                 0 |               5 |                  7412 |                  303 |             693759 |             0 |                0 |          730751 |                     0 |        490579 | 2017-02-05 09:55:31.750407+01

 2017-02-05 10:19:46.229008+01 | 1486286386.22901 |                 0 |               5 |                  7412 |                  303 |             693759 |             0 |                0 |          730751 |                     0 |        490807 | 2017-02-05 09:55:31.750407+01

 2017-02-05 10:19:47.314149+01 | 1486286387.31415 |                 0 |               5 |                  7412 |                  303 |             693759 |             0 |                0 |          730751 |                     0 |        491053 | 2017-02-05 09:55:31.750407+01

 2017-02-05 10:19:48.396623+01 | 1486286388.39662 |                 0 |               5 |                  7412 |                  303 |             693759 |             0 |                0 |          730751 |                     0 |        491504 | 2017-02-05 09:55:31.750407+01

 2017-02-05 10:19:49.485116+01 | 1486286389.48512 |                 0 |               5 |                  7412 |                  303 |             693759 |             0 |                0 |          730751 |                     0 |        491615 | 2017-02-05 09:55:31.750407+01

 2017-02-05 10:19:50.561161+01 | 1486286390.56116 |                 0 |               5 |                  7412 |                  303 |             693759 |             0 |                0 |          730751 |                     0 |        491926 | 2017-02-05 09:55:31.750407+01

 2017-02-05 10:19:51.636674+01 | 1486286391.63667 |                 0 |               5 |                  7412 |                  303 |             693759 |             0 |                0 |          730751 |                     0 |        492199 | 2017-02-05 09:55:31.750407+01

 2017-02-05 10:19:52.715683+01 | 1486286392.71568 |                 0 |               5 |                  7412 |                  303 |             693759 |             0 |                0 |          730751 |                     0 |        492598 | 2017-02-05 09:55:31.750407+01

 2017-02-05 10:19:53.802938+01 | 1486286393.80294 |                 0 |               5 |                  7412 |                  303 |             693759 |             0 |                0 |          730751 |                     0 |        492768 | 2017-02-05 09:55:31.750407+01

 2017-02-05 10:19:54.885098+01 | 1486286394.8851 |                 0 |               5 |                  7412 |                  303 |             693759 |             0 |                0 |          730751 |                     0 |        493000 | 2017-02-05 09:55:31.750407+01

 2017-02-05 10:19:55.95735+01 | 1486286395.95735 |                 0 |               5 |                  7412 |                  303 |             693759 |             0 |                0 |          730751 |                     0 |        493413 | 2017-02-05 09:55:31.750407+01

 2017-02-05 10:19:57.027191+01 | 1486286397.02719 |                 0 |               5 |                  7412 |                  303 |             693759 |             0 |                0 |          730751 |                     0 |        493682 | 2017-02-05 09:55:31.750407+01

 2017-02-05 10:19:58.105829+01 | 1486286398.10583 |                 0 |               5 |                  7412 |                  303 |             693759 |             0 |                0 |          730751 |                     0 |        493889 | 2017-02-05 09:55:31.750407+01

 2017-02-05 10:19:59.179099+01 | 1486286399.1791 |                 0 |               5 |                  7412 |                  303 |             693759 |             0 |                0 |          730751 |                     0 |        494123 | 2017-02-05 09:55:31.750407+01

 2017-02-05 10:20:00.254804+01 | 1486286400.2548 |                 0 |               5 |                  7412 |                  303 |             693759 |             0 |                0 |          730751 |                     0 |        494393 | 2017-02-05 09:55:31.750407+01

 2017-02-05 10:20:01.330867+01 | 1486286401.33087 |                 0 |               5 |                  7412 |                  303 |             693759 |             0 |                0 |          730751 |                     0 |        494603 | 2017-02-05 09:55:31.750407+01

 2017-02-05 10:20:02.408733+01 | 1486286402.40873 |                 0 |               5 |                  7412 |                  303 |             693759 |             0 |                0 |          730751 |                     0 |        494789 | 2017-02-05 09:55:31.750407+01

 2017-02-05 10:20:03.487754+01 | 1486286403.48775 |                 0 |               5 |                  7412 |                  303 |             693759 |             0 |                0 |          730751 |                     0 |        495142 | 2017-02-05 09:55:31.750407+01

 2017-02-05 10:20:04.565106+01 | 1486286404.56511 |                 0 |               5 |                  7412 |                  303 |             693759 |             0 |                0 |          730751 |                     0 |        495369 | 2017-02-05 09:55:31.750407+01

 2017-02-05 10:20:05.652276+01 | 1486286405.65228 |                 0 |               5 |                  7412 |                  303 |             693759 |             0 |                0 |          730751 |                     0 |        495659 | 2017-02-05 09:55:31.750407+01

 2017-02-05 10:20:06.735085+01 | 1486286406.73509 |                 0 |               5 |                  7412 |                  303 |             693759 |             0 |                0 |          730751 |                     0 |        495868 | 2017-02-05 09:55:31.750407+01

 2017-02-05 10:20:07.827794+01 | 1486286407.82779 |                 0 |               5 |                  7412 |                  303 |             693759 |             0 |                0 |          730751 |                     0 |        496160 | 2017-02-05 09:55:31.750407+01

 2017-02-05 10:20:08.905145+01 | 1486286408.90514 |                 0 |               5 |                  7412 |                  303 |             693759 |             0 |                0 |          730751 |                     0 |        496446 | 2017-02-05 09:55:31.750407+01

 2017-02-05 10:20:09.996487+01 | 1486286409.99649 |                 0 |               5 |                  7412 |                  303 |             693759 |             0 |                0 |          730751 |                     0 |        496597 | 2017-02-05 09:55:31.750407+01

 2017-02-05 10:20:11.073815+01 | 1486286411.07382 |                 0 |               5 |                  7412 |                  303 |             693759 |             0 |                0 |          730751 |                     0 |        496950 | 2017-02-05 09:55:31.750407+01

 2017-02-05 10:20:12.154185+01 | 1486286412.15419 |                 0 |               5 |                  7412 |                  303 |             693759 |             0 |                0 |          730751 |                     0 |        497188 | 2017-02-05 09:55:31.750407+01

 2017-02-05 10:20:13.231683+01 | 1486286413.23168 |                 0 |               5 |                  7412 |                  303 |             693759 |             0 |                0 |          730751 |                     0 |        497332 | 2017-02-05 09:55:31.750407+01

 2017-02-05 10:20:14.31228+01 | 1486286414.31228 |                 0 |               5 |                  7412 |                  303 |             693759 |             0 |                0 |          730751 |                     0 |        497649 | 2017-02-05 09:55:31.750407+01

 2017-02-05 10:20:15.391184+01 | 1486286415.39118 |                 0 |               5 |                  7412 |                  303 |             693759 |             0 |                0 |          730751 |                     0 |        497929 | 2017-02-05 09:55:31.750407+01

 2017-02-05 10:20:16.468667+01 | 1486286416.46867 |                 0 |               5 |                  7412 |                  303 |             693759 |             0 |                0 |          730751 |                     0 |        498259 | 2017-02-05 09:55:31.750407+01

 2017-02-05 10:20:17.54545+01 | 1486286417.54545 |                 0 |               5 |                  7412 |                  303 |             693759 |             0 |                0 |          730751 |                     0 |        498407 | 2017-02-05 09:55:31.750407+01

 2017-02-05 10:20:18.623748+01 | 1486286418.62375 |                 0 |               5 |                  7412 |                  303 |             693759 |             0 |                0 |          730751 |                     0 |        498698 | 2017-02-05 09:55:31.750407+01

 2017-02-05 10:20:19.698273+01 | 1486286419.69827 |                 0 |               5 |                  7412 |                  303 |             693759 |             0 |                0 |          730751 |                     0 |        498907 | 2017-02-05 09:55:31.750407+01

 2017-02-05 10:20:20.775232+01 | 1486286420.77523 |                 0 |               5 |                  7412 |                  303 |             693759 |             0 |                0 |          730751 |                     0 |        499136 | 2017-02-05 09:55:31.750407+01

 2017-02-05 10:20:21.856778+01 | 1486286421.85678 |                 0 |               5 |                  7412 |                  303 |             693759 |             0 |                0 |          730751 |                     0 |        499342 | 2017-02-05 09:55:31.750407+01

 2017-02-05 10:20:22.940427+01 | 1486286422.94043 |                 0 |               5 |                  7412 |                  303 |             693759 |             0 |                0 |          730751 |                     0 |        499655 | 2017-02-05 09:55:31.750407+01

 2017-02-05 10:20:24.018712+01 | 1486286424.01871 |                 0 |               5 |                  7412 |                  303 |             693759 |             0 |                0 |          730751 |                     0 |        499926 | 2017-02-05 09:55:31.750407+01

 2017-02-05 10:20:25.110062+01 | 1486286425.11006 |                 0 |               5 |                  7412 |                  303 |             693759 |             0 |                0 |          730751 |                     0 |        500195 | 2017-02-05 09:55:31.750407+01

 2017-02-05 10:20:26.185816+01 | 1486286426.18582 |                 0 |               5 |                  7412 |                  303 |             693759 |             0 |                0 |          730751 |                     0 |        500528 | 2017-02-05 09:55:31.750407+01

 2017-02-05 10:20:27.262833+01 | 1486286427.26283 |                 0 |               5 |                  7412 |                  303 |             693759 |             0 |                0 |          730751 |                     0 |        500815 | 2017-02-05 09:55:31.750407+01

 2017-02-05 10:20:28.34182+01 | 1486286428.34182 |                 0 |               5 |                  7412 |                  303 |             693759 |             0 |                0 |          730751 |                     0 |        501065 | 2017-02-05 09:55:31.750407+01

 2017-02-05 10:20:29.429248+01 | 1486286429.42925 |                 0 |               5 |                  7412 |                  303 |             693759 |             0 |                0 |          730751 |                     0 |        501363 | 2017-02-05 09:55:31.750407+01

 2017-02-05 10:20:30.507042+01 | 1486286430.50704 |                 0 |               5 |                  7412 |                  303 |             693759 |             0 |                0 |          730751 |                     0 |        501683 | 2017-02-05 09:55:31.750407+01

 2017-02-05 10:20:31.585882+01 | 1486286431.58588 |                 0 |               5 |                  7412 |                  303 |             693759 |             0 |                0 |          730751 |                     0 |        501826 | 2017-02-05 09:55:31.750407+01

 2017-02-05 10:20:32.663791+01 | 1486286432.66379 |                 0 |               5 |                  7412 |                  303 |             693759 |             0 |                0 |          730751 |                     0 |        502241 | 2017-02-05 09:55:31.750407+01

 2017-02-05 10:20:33.750368+01 | 1486286433.75037 |                 0 |               5 |                  7412 |                  303 |             693759 |             0 |                0 |          730751 |                     0 |        502471 | 2017-02-05 09:55:31.750407+01

 2017-02-05 10:20:34.827352+01 | 1486286434.82735 |                 0 |               5 |                  7412 |                  303 |             693759 |             0 |                0 |          730751 |                     0 |        502761 | 2017-02-05 09:55:31.750407+01

 2017-02-05 10:20:35.903992+01 | 1486286435.90399 |                 0 |               5 |                  7412 |                  303 |             693759 |             0 |                0 |          730751 |                     0 |        502973 | 2017-02-05 09:55:31.750407+01

 2017-02-05 10:20:36.979044+01 | 1486286436.97904 |                 0 |               5 |                  7412 |                  303 |             693759 |             0 |                0 |          730751 |                     0 |        503307 | 2017-02-05 09:55:31.750407+01

 2017-02-05 10:20:38.062312+01 | 1486286438.06231 |                 0 |               5 |                  7412 |                  303 |             693759 |             0 |                0 |          730751 |                     0 |        503603 | 2017-02-05 09:55:31.750407+01

 2017-02-05 10:20:39.144235+01 | 1486286439.14423 |                 0 |               5 |                  7412 |                  303 |             693759 |             0 |                0 |          730751 |                     0 |        503877 | 2017-02-05 09:55:31.750407+01

 2017-02-05 10:20:40.225916+01 | 1486286440.22592 |                 0 |               5 |                  7412 |                  303 |             693759 |             0 |                0 |          730751 |                     0 |        504251 | 2017-02-05 09:55:31.750407+01

 2017-02-05 10:20:41.299544+01 | 1486286441.29954 |                 0 |               5 |                  7412 |                  303 |             693759 |             0 |                0 |          730751 |                     0 |        504398 | 2017-02-05 09:55:31.750407+01

 2017-02-05 10:20:42.375892+01 | 1486286442.37589 |                 0 |               5 |                  7412 |                  303 |             693759 |             0 |                0 |          730751 |                     0 |        504734 | 2017-02-05 09:55:31.750407+01

 2017-02-05 10:20:43.456756+01 | 1486286443.45676 |                 0 |               5 |                  7412 |                  303 |             693759 |             0 |                0 |          730751 |                     0 |        505020 | 2017-02-05 09:55:31.750407+01

 2017-02-05 10:20:44.53481+01 | 1486286444.53481 |                 0 |               5 |                  7412 |                  303 |             693759 |             0 |                0 |          730751 |                     0 |        505246 | 2017-02-05 09:55:31.750407+01

 2017-02-05 10:20:45.609851+01 | 1486286445.60985 |                 0 |               5 |                  7412 |                  303 |             693759 |             0 |                0 |          730751 |                     0 |        505513 | 2017-02-05 09:55:31.750407+01

 2017-02-05 10:20:46.689216+01 | 1486286446.68922 |                 0 |               5 |                  7412 |                  303 |             693759 |             0 |                0 |          730751 |                     0 |        505773 | 2017-02-05 09:55:31.750407+01

 2017-02-05 10:20:47.775335+01 | 1486286447.77534 |                 0 |               5 |                  7412 |                  303 |             693759 |             0 |                0 |          730751 |                     0 |        506040 | 2017-02-05 09:55:31.750407+01

 2017-02-05 10:20:48.853644+01 | 1486286448.85364 |                 0 |               5 |                  7412 |                  303 |             693759 |             0 |                0 |          730751 |                     0 |        506550 | 2017-02-05 09:55:31.750407+01

 2017-02-05 10:20:49.928671+01 | 1486286449.92867 |                 0 |               5 |                  7412 |                  303 |             693759 |             0 |                0 |          730751 |                     0 |        506616 | 2017-02-05 09:55:31.750407+01

 2017-02-05 10:20:51.002717+01 | 1486286451.00272 |                 0 |               5 |                  7412 |                  303 |             693759 |             0 |                0 |          730751 |                     0 |        506946 | 2017-02-05 09:55:31.750407+01

 2017-02-05 10:20:52.084006+01 | 1486286452.08401 |                 0 |               5 |                  7412 |                  303 |             693759 |             0 |                0 |          730751 |                     0 |        507378 | 2017-02-05 09:55:31.750407+01

 2017-02-05 10:20:53.157989+01 | 1486286453.15799 |                 0 |               5 |                  7412 |                  303 |             693759 |             0 |                0 |          730751 |                     0 |        507546 | 2017-02-05 09:55:31.750407+01

 2017-02-05 10:20:54.232802+01 | 1486286454.2328 |                 0 |               5 |                  7412 |                  303 |             693759 |             0 |                0 |          730751 |                     0 |        507764 | 2017-02-05 09:55:31.750407+01

 2017-02-05 10:20:55.305954+01 | 1486286455.30595 |                 0 |               5 |                  7412 |                  303 |             693759 |             0 |                0 |          730751 |                     0 |        508099 | 2017-02-05 09:55:31.750407+01

 2017-02-05 10:20:56.378329+01 | 1486286456.37833 |                 0 |               5 |                  7412 |                  303 |             693759 |             0 |                0 |          730751 |                     0 |        508375 | 2017-02-05 09:55:31.750407+01

 2017-02-05 10:20:57.45906+01 | 1486286457.45906 |                 0 |               5 |                  7412 |                  303 |             693759 |             0 |                0 |          730751 |                     0 |        508727 | 2017-02-05 09:55:31.750407+01

 2017-02-05 10:20:58.532529+01 | 1486286458.53253 |                 0 |               5 |                  7412 |                  303 |             693759 |             0 |                0 |          730751 |                     0 |        508954 | 2017-02-05 09:55:31.750407+01

 2017-02-05 10:20:59.605317+01 | 1486286459.60532 |                 0 |               5 |                  7412 |                  303 |             693759 |             0 |                0 |          730751 |                     0 |        509203 | 2017-02-05 09:55:31.750407+01

 2017-02-05 10:21:00.674239+01 | 1486286460.67424 |                 0 |               5 |                  7412 |                  303 |             693759 |             0 |                0 |          730751 |                     0 |        509516 | 2017-02-05 09:55:31.750407+01

 2017-02-05 10:21:01.746424+01 | 1486286461.74642 |                 0 |               5 |                  7412 |                  303 |             693759 |             0 |                0 |          730751 |                     0 |        509849 | 2017-02-05 09:55:31.750407+01

 2017-02-05 10:21:02.820566+01 | 1486286462.82057 |                 0 |               5 |                  7412 |                  303 |             693759 |             0 |                0 |          730751 |                     0 |        510039 | 2017-02-05 09:55:31.750407+01

 2017-02-05 10:21:03.892317+01 | 1486286463.89232 |                 0 |               5 |                  7412 |                  303 |             693759 |             0 |                0 |          730751 |                     0 |        510412 | 2017-02-05 09:55:31.750407+01

 2017-02-05 10:21:04.985235+01 | 1486286464.98523 |                 0 |               5 |                  7412 |                  303 |             693759 |             0 |                0 |          730751 |                     0 |        510645 | 2017-02-05 09:55:31.750407+01

 2017-02-05 10:21:06.062054+01 | 1486286466.06205 |                 0 |               5 |                  7412 |                  303 |             693759 |             0 |                0 |          730751 |                     0 |        510956 | 2017-02-05 09:55:31.750407+01

