 2017-02-05 10:16:06.164547+01 | 1486286166.16455 | pgbench_accounts |       1379270656
 2017-02-05 10:16:06.164547+01 | 1486286166.16455 | pgbench_tellers  |            49152
 2017-02-05 10:16:06.164547+01 | 1486286166.16455 | pgbench_history  |           352256
 2017-02-05 10:16:06.164547+01 | 1486286166.16455 | pgbench_branches |             8192

 2017-02-05 10:16:07.249447+01 | 1486286167.24945 | pgbench_accounts |       1379270656
 2017-02-05 10:16:07.249447+01 | 1486286167.24945 | pgbench_tellers  |            49152
 2017-02-05 10:16:07.249447+01 | 1486286167.24945 | pgbench_history  |          2228224
 2017-02-05 10:16:07.249447+01 | 1486286167.24945 | pgbench_branches |             8192

 2017-02-05 10:16:08.322005+01 | 1486286168.32201 | pgbench_accounts |       1379270656
 2017-02-05 10:16:08.322005+01 | 1486286168.32201 | pgbench_tellers  |            49152
 2017-02-05 10:16:08.322005+01 | 1486286168.32201 | pgbench_history  |          4923392
 2017-02-05 10:16:08.322005+01 | 1486286168.32201 | pgbench_branches |             8192

 2017-02-05 10:16:09.397909+01 | 1486286169.39791 | pgbench_accounts |       1379270656
 2017-02-05 10:16:09.397909+01 | 1486286169.39791 | pgbench_tellers  |            49152
 2017-02-05 10:16:09.397909+01 | 1486286169.39791 | pgbench_history  |          6799360
 2017-02-05 10:16:09.397909+01 | 1486286169.39791 | pgbench_branches |             8192

 2017-02-05 10:16:10.472557+01 | 1486286170.47256 | pgbench_accounts |       1379270656
 2017-02-05 10:16:10.472557+01 | 1486286170.47256 | pgbench_tellers  |            49152
 2017-02-05 10:16:10.472557+01 | 1486286170.47256 | pgbench_history  |          9502720
 2017-02-05 10:16:10.472557+01 | 1486286170.47256 | pgbench_branches |             8192

 2017-02-05 10:16:11.557752+01 | 1486286171.55775 | pgbench_accounts |       1379270656
 2017-02-05 10:16:11.557752+01 | 1486286171.55775 | pgbench_tellers  |            49152
 2017-02-05 10:16:11.557752+01 | 1486286171.55775 | pgbench_history  |         12550144
 2017-02-05 10:16:11.557752+01 | 1486286171.55775 | pgbench_branches |             8192

 2017-02-05 10:16:12.636688+01 | 1486286172.63669 | pgbench_accounts |       1379270656
 2017-02-05 10:16:12.636688+01 | 1486286172.63669 | pgbench_tellers  |            49152
 2017-02-05 10:16:12.636688+01 | 1486286172.63669 | pgbench_history  |         14434304
 2017-02-05 10:16:12.636688+01 | 1486286172.63669 | pgbench_branches |             8192

 2017-02-05 10:16:13.711092+01 | 1486286173.71109 | pgbench_accounts |       1379270656
 2017-02-05 10:16:13.711092+01 | 1486286173.71109 | pgbench_tellers  |            49152
 2017-02-05 10:16:13.711092+01 | 1486286173.71109 | pgbench_history  |         17784832
 2017-02-05 10:16:13.711092+01 | 1486286173.71109 | pgbench_branches |             8192

 2017-02-05 10:16:14.784929+01 | 1486286174.78493 | pgbench_accounts |       1379270656
 2017-02-05 10:16:14.784929+01 | 1486286174.78493 | pgbench_tellers  |            49152
 2017-02-05 10:16:14.784929+01 | 1486286174.78493 | pgbench_history  |         19316736
 2017-02-05 10:16:14.784929+01 | 1486286174.78493 | pgbench_branches |             8192

 2017-02-05 10:16:15.861096+01 | 1486286175.8611 | pgbench_accounts |       1379270656
 2017-02-05 10:16:15.861096+01 | 1486286175.8611 | pgbench_tellers  |            49152
 2017-02-05 10:16:15.861096+01 | 1486286175.8611 | pgbench_history  |         22200320
 2017-02-05 10:16:15.861096+01 | 1486286175.8611 | pgbench_branches |             8192

 2017-02-05 10:16:16.936515+01 | 1486286176.93652 | pgbench_accounts |       1379270656
 2017-02-05 10:16:16.936515+01 | 1486286176.93652 | pgbench_tellers  |            49152
 2017-02-05 10:16:16.936515+01 | 1486286176.93652 | pgbench_history  |         24240128
 2017-02-05 10:16:16.936515+01 | 1486286176.93652 | pgbench_branches |             8192

 2017-02-05 10:16:18.015791+01 | 1486286178.01579 | pgbench_accounts |       1379270656
 2017-02-05 10:16:18.015791+01 | 1486286178.01579 | pgbench_tellers  |            49152
 2017-02-05 10:16:18.015791+01 | 1486286178.01579 | pgbench_history  |         26091520
 2017-02-05 10:16:18.015791+01 | 1486286178.01579 | pgbench_branches |             8192

 2017-02-05 10:16:19.08945+01 | 1486286179.08945 | pgbench_accounts |       1379270656
 2017-02-05 10:16:19.08945+01 | 1486286179.08945 | pgbench_tellers  |            49152
 2017-02-05 10:16:19.08945+01 | 1486286179.08945 | pgbench_history  |         29114368
 2017-02-05 10:16:19.08945+01 | 1486286179.08945 | pgbench_branches |             8192

 2017-02-05 10:16:20.164201+01 | 1486286180.1642 | pgbench_accounts |       1379270656
 2017-02-05 10:16:20.164201+01 | 1486286180.1642 | pgbench_tellers  |            49152
 2017-02-05 10:16:20.164201+01 | 1486286180.1642 | pgbench_history  |         31645696
 2017-02-05 10:16:20.164201+01 | 1486286180.1642 | pgbench_branches |             8192

 2017-02-05 10:16:21.242006+01 | 1486286181.24201 | pgbench_accounts |       1379270656
 2017-02-05 10:16:21.242006+01 | 1486286181.24201 | pgbench_tellers  |            49152
 2017-02-05 10:16:21.242006+01 | 1486286181.24201 | pgbench_history  |         33357824
 2017-02-05 10:16:21.242006+01 | 1486286181.24201 | pgbench_branches |             8192

 2017-02-05 10:16:22.321246+01 | 1486286182.32125 | pgbench_accounts |       1379270656
 2017-02-05 10:16:22.321246+01 | 1486286182.32125 | pgbench_tellers  |            49152
 2017-02-05 10:16:22.321246+01 | 1486286182.32125 | pgbench_history  |         36519936
 2017-02-05 10:16:22.321246+01 | 1486286182.32125 | pgbench_branches |             8192

 2017-02-05 10:16:23.400555+01 | 1486286183.40055 | pgbench_accounts |       1379270656
 2017-02-05 10:16:23.400555+01 | 1486286183.40055 | pgbench_tellers  |            49152
 2017-02-05 10:16:23.400555+01 | 1486286183.40055 | pgbench_history  |         37691392
 2017-02-05 10:16:23.400555+01 | 1486286183.40055 | pgbench_branches |             8192

 2017-02-05 10:16:24.480176+01 | 1486286184.48018 | pgbench_accounts |       1379270656
 2017-02-05 10:16:24.480176+01 | 1486286184.48018 | pgbench_tellers  |            49152
 2017-02-05 10:16:24.480176+01 | 1486286184.48018 | pgbench_history  |         40034304
 2017-02-05 10:16:24.480176+01 | 1486286184.48018 | pgbench_branches |             8192

 2017-02-05 10:16:25.563194+01 | 1486286185.56319 | pgbench_accounts |       1379270656
 2017-02-05 10:16:25.563194+01 | 1486286185.56319 | pgbench_tellers  |            49152
 2017-02-05 10:16:25.563194+01 | 1486286185.56319 | pgbench_history  |         42426368
 2017-02-05 10:16:25.563194+01 | 1486286185.56319 | pgbench_branches |             8192

 2017-02-05 10:16:26.643567+01 | 1486286186.64357 | pgbench_accounts |       1379270656
 2017-02-05 10:16:26.643567+01 | 1486286186.64357 | pgbench_tellers  |            49152
 2017-02-05 10:16:26.643567+01 | 1486286186.64357 | pgbench_history  |         45096960
 2017-02-05 10:16:26.643567+01 | 1486286186.64357 | pgbench_branches |             8192

 2017-02-05 10:16:27.724367+01 | 1486286187.72437 | pgbench_accounts |       1379270656
 2017-02-05 10:16:27.724367+01 | 1486286187.72437 | pgbench_tellers  |            49152
 2017-02-05 10:16:27.724367+01 | 1486286187.72437 | pgbench_history  |         47939584
 2017-02-05 10:16:27.724367+01 | 1486286187.72437 | pgbench_branches |             8192

 2017-02-05 10:16:28.813716+01 | 1486286188.81372 | pgbench_accounts |       1379270656
 2017-02-05 10:16:28.813716+01 | 1486286188.81372 | pgbench_tellers  |            49152
 2017-02-05 10:16:28.813716+01 | 1486286188.81372 | pgbench_history  |         49135616
 2017-02-05 10:16:28.813716+01 | 1486286188.81372 | pgbench_branches |             8192

 2017-02-05 10:16:29.88574+01 | 1486286189.88574 | pgbench_accounts |       1379270656
 2017-02-05 10:16:29.88574+01 | 1486286189.88574 | pgbench_tellers  |            49152
 2017-02-05 10:16:29.88574+01 | 1486286189.88574 | pgbench_history  |         51691520
 2017-02-05 10:16:29.88574+01 | 1486286189.88574 | pgbench_branches |             8192

 2017-02-05 10:16:30.964988+01 | 1486286190.96499 | pgbench_accounts |       1379270656
 2017-02-05 10:16:30.964988+01 | 1486286190.96499 | pgbench_tellers  |            49152
 2017-02-05 10:16:30.964988+01 | 1486286190.96499 | pgbench_history  |         54550528
 2017-02-05 10:16:30.964988+01 | 1486286190.96499 | pgbench_branches |             8192

 2017-02-05 10:16:32.048206+01 | 1486286192.04821 | pgbench_accounts |       1379270656
 2017-02-05 10:16:32.048206+01 | 1486286192.04821 | pgbench_tellers  |            49152
 2017-02-05 10:16:32.048206+01 | 1486286192.04821 | pgbench_history  |         56614912
 2017-02-05 10:16:32.048206+01 | 1486286192.04821 | pgbench_branches |             8192

 2017-02-05 10:16:33.129205+01 | 1486286193.1292 | pgbench_accounts |       1379270656
 2017-02-05 10:16:33.129205+01 | 1486286193.1292 | pgbench_tellers  |            49152
 2017-02-05 10:16:33.129205+01 | 1486286193.1292 | pgbench_history  |         58138624
 2017-02-05 10:16:33.129205+01 | 1486286193.1292 | pgbench_branches |             8192

 2017-02-05 10:16:34.20146+01 | 1486286194.20146 | pgbench_accounts |       1379270656
 2017-02-05 10:16:34.20146+01 | 1486286194.20146 | pgbench_tellers  |            49152
 2017-02-05 10:16:34.20146+01 | 1486286194.20146 | pgbench_history  |         60727296
 2017-02-05 10:16:34.20146+01 | 1486286194.20146 | pgbench_branches |             8192

 2017-02-05 10:16:35.278852+01 | 1486286195.27885 | pgbench_accounts |       1379270656
 2017-02-05 10:16:35.278852+01 | 1486286195.27885 | pgbench_tellers  |            49152
 2017-02-05 10:16:35.278852+01 | 1486286195.27885 | pgbench_history  |         63094784
 2017-02-05 10:16:35.278852+01 | 1486286195.27885 | pgbench_branches |             8192

 2017-02-05 10:16:36.354642+01 | 1486286196.35464 | pgbench_accounts |       1379270656
 2017-02-05 10:16:36.354642+01 | 1486286196.35464 | pgbench_tellers  |            49152
 2017-02-05 10:16:36.354642+01 | 1486286196.35464 | pgbench_history  |         65110016
 2017-02-05 10:16:36.354642+01 | 1486286196.35464 | pgbench_branches |             8192

 2017-02-05 10:16:37.435646+01 | 1486286197.43565 | pgbench_accounts |       1379270656
 2017-02-05 10:16:37.435646+01 | 1486286197.43565 | pgbench_tellers  |            49152
 2017-02-05 10:16:37.435646+01 | 1486286197.43565 | pgbench_history  |         68321280
 2017-02-05 10:16:37.435646+01 | 1486286197.43565 | pgbench_branches |             8192

 2017-02-05 10:16:38.516434+01 | 1486286198.51643 | pgbench_accounts |       1379270656
 2017-02-05 10:16:38.516434+01 | 1486286198.51643 | pgbench_tellers  |            49152
 2017-02-05 10:16:38.516434+01 | 1486286198.51643 | pgbench_history  |         70172672
 2017-02-05 10:16:38.516434+01 | 1486286198.51643 | pgbench_branches |             8192

 2017-02-05 10:16:39.587259+01 | 1486286199.58726 | pgbench_accounts |       1379270656
 2017-02-05 10:16:39.587259+01 | 1486286199.58726 | pgbench_tellers  |            49152
 2017-02-05 10:16:39.587259+01 | 1486286199.58726 | pgbench_history  |         72253440
 2017-02-05 10:16:39.587259+01 | 1486286199.58726 | pgbench_branches |             8192

 2017-02-05 10:16:40.663387+01 | 1486286200.66339 | pgbench_accounts |       1379270656
 2017-02-05 10:16:40.663387+01 | 1486286200.66339 | pgbench_tellers  |            49152
 2017-02-05 10:16:40.663387+01 | 1486286200.66339 | pgbench_history  |         74465280
 2017-02-05 10:16:40.663387+01 | 1486286200.66339 | pgbench_branches |             8192

 2017-02-05 10:16:41.747544+01 | 1486286201.74754 | pgbench_accounts |       1379270656
 2017-02-05 10:16:41.747544+01 | 1486286201.74754 | pgbench_tellers  |            49152
 2017-02-05 10:16:41.747544+01 | 1486286201.74754 | pgbench_history  |         76341248
 2017-02-05 10:16:41.747544+01 | 1486286201.74754 | pgbench_branches |             8192

 2017-02-05 10:16:42.830853+01 | 1486286202.83085 | pgbench_accounts |       1379270656
 2017-02-05 10:16:42.830853+01 | 1486286202.83085 | pgbench_tellers  |            49152
 2017-02-05 10:16:42.830853+01 | 1486286202.83085 | pgbench_history  |         78716928
 2017-02-05 10:16:42.830853+01 | 1486286202.83085 | pgbench_branches |             8192

 2017-02-05 10:16:43.917457+01 | 1486286203.91746 | pgbench_accounts |       1379270656
 2017-02-05 10:16:43.917457+01 | 1486286203.91746 | pgbench_tellers  |            49152
 2017-02-05 10:16:43.917457+01 | 1486286203.91746 | pgbench_history  |         81141760
 2017-02-05 10:16:43.917457+01 | 1486286203.91746 | pgbench_branches |             8192

 2017-02-05 10:16:44.99808+01 | 1486286204.99808 | pgbench_accounts |       1379270656
 2017-02-05 10:16:44.99808+01 | 1486286204.99808 | pgbench_tellers  |            49152
 2017-02-05 10:16:44.99808+01 | 1486286204.99808 | pgbench_history  |         83025920
 2017-02-05 10:16:44.99808+01 | 1486286204.99808 | pgbench_branches |             8192

 2017-02-05 10:16:46.075916+01 | 1486286206.07592 | pgbench_accounts |       1379270656
 2017-02-05 10:16:46.075916+01 | 1486286206.07592 | pgbench_tellers  |            49152
 2017-02-05 10:16:46.075916+01 | 1486286206.07592 | pgbench_history  |         85532672
 2017-02-05 10:16:46.075916+01 | 1486286206.07592 | pgbench_branches |             8192

 2017-02-05 10:16:47.157429+01 | 1486286207.15743 | pgbench_accounts |       1379270656
 2017-02-05 10:16:47.157429+01 | 1486286207.15743 | pgbench_tellers  |            49152
 2017-02-05 10:16:47.157429+01 | 1486286207.15743 | pgbench_history  |         86925312
 2017-02-05 10:16:47.157429+01 | 1486286207.15743 | pgbench_branches |             8192

 2017-02-05 10:16:48.236745+01 | 1486286208.23675 | pgbench_accounts |       1379270656
 2017-02-05 10:16:48.236745+01 | 1486286208.23675 | pgbench_tellers  |            49152
 2017-02-05 10:16:48.236745+01 | 1486286208.23675 | pgbench_history  |         88801280
 2017-02-05 10:16:48.236745+01 | 1486286208.23675 | pgbench_branches |             8192

 2017-02-05 10:16:49.311696+01 | 1486286209.3117 | pgbench_accounts |       1379270656
 2017-02-05 10:16:49.311696+01 | 1486286209.3117 | pgbench_tellers  |            49152
 2017-02-05 10:16:49.311696+01 | 1486286209.3117 | pgbench_history  |         91496448
 2017-02-05 10:16:49.311696+01 | 1486286209.3117 | pgbench_branches |             8192

 2017-02-05 10:16:50.391933+01 | 1486286210.39193 | pgbench_accounts |       1379270656
 2017-02-05 10:16:50.391933+01 | 1486286210.39193 | pgbench_tellers  |            49152
 2017-02-05 10:16:50.391933+01 | 1486286210.39193 | pgbench_history  |         92700672
 2017-02-05 10:16:50.391933+01 | 1486286210.39193 | pgbench_branches |             8192

 2017-02-05 10:16:51.470682+01 | 1486286211.47068 | pgbench_accounts |       1379270656
 2017-02-05 10:16:51.470682+01 | 1486286211.47068 | pgbench_tellers  |            49152
 2017-02-05 10:16:51.470682+01 | 1486286211.47068 | pgbench_history  |         94879744
 2017-02-05 10:16:51.470682+01 | 1486286211.47068 | pgbench_branches |             8192

 2017-02-05 10:16:52.547037+01 | 1486286212.54704 | pgbench_accounts |       1379270656
 2017-02-05 10:16:52.547037+01 | 1486286212.54704 | pgbench_tellers  |            49152
 2017-02-05 10:16:52.547037+01 | 1486286212.54704 | pgbench_history  |         96960512
 2017-02-05 10:16:52.547037+01 | 1486286212.54704 | pgbench_branches |             8192

 2017-02-05 10:16:53.618259+01 | 1486286213.61826 | pgbench_accounts |       1379270656
 2017-02-05 10:16:53.618259+01 | 1486286213.61826 | pgbench_tellers  |            49152
 2017-02-05 10:16:53.618259+01 | 1486286213.61826 | pgbench_history  |         99631104
 2017-02-05 10:16:53.618259+01 | 1486286213.61826 | pgbench_branches |             8192

 2017-02-05 10:16:54.693336+01 | 1486286214.69334 | pgbench_accounts |       1379270656
 2017-02-05 10:16:54.693336+01 | 1486286214.69334 | pgbench_tellers  |            49152
 2017-02-05 10:16:54.693336+01 | 1486286214.69334 | pgbench_history  |        102989824
 2017-02-05 10:16:54.693336+01 | 1486286214.69334 | pgbench_branches |             8192

 2017-02-05 10:16:55.772012+01 | 1486286215.77201 | pgbench_accounts |       1379270656
 2017-02-05 10:16:55.772012+01 | 1486286215.77201 | pgbench_tellers  |            49152
 2017-02-05 10:16:55.772012+01 | 1486286215.77201 | pgbench_history  |        104349696
 2017-02-05 10:16:55.772012+01 | 1486286215.77201 | pgbench_branches |             8192

 2017-02-05 10:16:56.848524+01 | 1486286216.84852 | pgbench_accounts |       1379270656
 2017-02-05 10:16:56.848524+01 | 1486286216.84852 | pgbench_tellers  |            49152
 2017-02-05 10:16:56.848524+01 | 1486286216.84852 | pgbench_history  |        106405888
 2017-02-05 10:16:56.848524+01 | 1486286216.84852 | pgbench_branches |             8192

 2017-02-05 10:16:57.92128+01 | 1486286217.92128 | pgbench_accounts |       1379270656
 2017-02-05 10:16:57.92128+01 | 1486286217.92128 | pgbench_tellers  |            49152
 2017-02-05 10:16:57.92128+01 | 1486286217.92128 | pgbench_history  |        108281856
 2017-02-05 10:16:57.92128+01 | 1486286217.92128 | pgbench_branches |             8192

 2017-02-05 10:16:58.998024+01 | 1486286218.99802 | pgbench_accounts |       1379270656
 2017-02-05 10:16:58.998024+01 | 1486286218.99802 | pgbench_tellers  |            49152
 2017-02-05 10:16:58.998024+01 | 1486286218.99802 | pgbench_history  |        110682112
 2017-02-05 10:16:58.998024+01 | 1486286218.99802 | pgbench_branches |             8192

 2017-02-05 10:17:00.079023+01 | 1486286220.07902 | pgbench_accounts |       1379270656
 2017-02-05 10:17:00.079023+01 | 1486286220.07902 | pgbench_tellers  |            49152
 2017-02-05 10:17:00.079023+01 | 1486286220.07902 | pgbench_history  |        112697344
 2017-02-05 10:17:00.079023+01 | 1486286220.07902 | pgbench_branches |             8192

 2017-02-05 10:17:01.160698+01 | 1486286221.1607 | pgbench_accounts |       1379270656
 2017-02-05 10:17:01.160698+01 | 1486286221.1607 | pgbench_tellers  |            49152
 2017-02-05 10:17:01.160698+01 | 1486286221.1607 | pgbench_history  |        115130368
 2017-02-05 10:17:01.160698+01 | 1486286221.1607 | pgbench_branches |             8192

 2017-02-05 10:17:02.233888+01 | 1486286222.23389 | pgbench_accounts |       1379270656
 2017-02-05 10:17:02.233888+01 | 1486286222.23389 | pgbench_tellers  |            49152
 2017-02-05 10:17:02.233888+01 | 1486286222.23389 | pgbench_history  |        117497856
 2017-02-05 10:17:02.233888+01 | 1486286222.23389 | pgbench_branches |             8192

 2017-02-05 10:17:03.305123+01 | 1486286223.30512 | pgbench_accounts |       1379270656
 2017-02-05 10:17:03.305123+01 | 1486286223.30512 | pgbench_tellers  |            49152
 2017-02-05 10:17:03.305123+01 | 1486286223.30512 | pgbench_history  |        119840768
 2017-02-05 10:17:03.305123+01 | 1486286223.30512 | pgbench_branches |             8192

 2017-02-05 10:17:04.378758+01 | 1486286224.37876 | pgbench_accounts |       1379270656
 2017-02-05 10:17:04.378758+01 | 1486286224.37876 | pgbench_tellers  |            49152
 2017-02-05 10:17:04.378758+01 | 1486286224.37876 | pgbench_history  |        123215872
 2017-02-05 10:17:04.378758+01 | 1486286224.37876 | pgbench_branches |             8192

 2017-02-05 10:17:05.458113+01 | 1486286225.45811 | pgbench_accounts |       1379270656
 2017-02-05 10:17:05.458113+01 | 1486286225.45811 | pgbench_tellers  |            49152
 2017-02-05 10:17:05.458113+01 | 1486286225.45811 | pgbench_history  |        124223488
 2017-02-05 10:17:05.458113+01 | 1486286225.45811 | pgbench_branches |             8192

 2017-02-05 10:17:06.533352+01 | 1486286226.53335 | pgbench_accounts |       1379270656
 2017-02-05 10:17:06.533352+01 | 1486286226.53335 | pgbench_tellers  |            49152
 2017-02-05 10:17:06.533352+01 | 1486286226.53335 | pgbench_history  |        126287872
 2017-02-05 10:17:06.533352+01 | 1486286226.53335 | pgbench_branches |             8192

 2017-02-05 10:17:07.613863+01 | 1486286227.61386 | pgbench_accounts |       1379270656
 2017-02-05 10:17:07.613863+01 | 1486286227.61386 | pgbench_tellers  |            49152
 2017-02-05 10:17:07.613863+01 | 1486286227.61386 | pgbench_history  |        128344064
 2017-02-05 10:17:07.613863+01 | 1486286227.61386 | pgbench_branches |             8192

 2017-02-05 10:17:08.698774+01 | 1486286228.69877 | pgbench_accounts |       1379270656
 2017-02-05 10:17:08.698774+01 | 1486286228.69877 | pgbench_tellers  |            49152
 2017-02-05 10:17:08.698774+01 | 1486286228.69877 | pgbench_history  |        130031616
 2017-02-05 10:17:08.698774+01 | 1486286228.69877 | pgbench_branches |             8192

 2017-02-05 10:17:09.780692+01 | 1486286229.78069 | pgbench_accounts |       1379270656
 2017-02-05 10:17:09.780692+01 | 1486286229.78069 | pgbench_tellers  |            49152
 2017-02-05 10:17:09.780692+01 | 1486286229.78069 | pgbench_history  |        132587520
 2017-02-05 10:17:09.780692+01 | 1486286229.78069 | pgbench_branches |             8192

 2017-02-05 10:17:10.866709+01 | 1486286230.86671 | pgbench_accounts |       1379270656
 2017-02-05 10:17:10.866709+01 | 1486286230.86671 | pgbench_tellers  |            49152
 2017-02-05 10:17:10.866709+01 | 1486286230.86671 | pgbench_history  |        134275072
 2017-02-05 10:17:10.866709+01 | 1486286230.86671 | pgbench_branches |             8192

 2017-02-05 10:17:11.952284+01 | 1486286231.95228 | pgbench_accounts |       1379270656
 2017-02-05 10:17:11.952284+01 | 1486286231.95228 | pgbench_tellers  |            49152
 2017-02-05 10:17:11.952284+01 | 1486286231.95228 | pgbench_history  |        136355840
 2017-02-05 10:17:11.952284+01 | 1486286231.95228 | pgbench_branches |             8192

 2017-02-05 10:17:13.02331+01 | 1486286233.02331 | pgbench_accounts |       1379270656
 2017-02-05 10:17:13.02331+01 | 1486286233.02331 | pgbench_tellers  |            49152
 2017-02-05 10:17:13.02331+01 | 1486286233.02331 | pgbench_history  |        139124736
 2017-02-05 10:17:13.02331+01 | 1486286233.02331 | pgbench_branches |             8192

 2017-02-05 10:17:14.094674+01 | 1486286234.09467 | pgbench_accounts |       1379270656
 2017-02-05 10:17:14.094674+01 | 1486286234.09467 | pgbench_tellers  |            49152
 2017-02-05 10:17:14.094674+01 | 1486286234.09467 | pgbench_history  |        140673024
 2017-02-05 10:17:14.094674+01 | 1486286234.09467 | pgbench_branches |             8192

 2017-02-05 10:17:15.164409+01 | 1486286235.16441 | pgbench_accounts |       1379270656
 2017-02-05 10:17:15.164409+01 | 1486286235.16441 | pgbench_tellers  |            49152
 2017-02-05 10:17:15.164409+01 | 1486286235.16441 | pgbench_history  |        143745024
 2017-02-05 10:17:15.164409+01 | 1486286235.16441 | pgbench_branches |             8192

 2017-02-05 10:17:16.238646+01 | 1486286236.23865 | pgbench_accounts |       1379270656
 2017-02-05 10:17:16.238646+01 | 1486286236.23865 | pgbench_tellers  |            49152
 2017-02-05 10:17:16.238646+01 | 1486286236.23865 | pgbench_history  |        145293312
 2017-02-05 10:17:16.238646+01 | 1486286236.23865 | pgbench_branches |             8192

 2017-02-05 10:17:17.308673+01 | 1486286237.30867 | pgbench_accounts |       1379270656
 2017-02-05 10:17:17.308673+01 | 1486286237.30867 | pgbench_tellers  |            49152
 2017-02-05 10:17:17.308673+01 | 1486286237.30867 | pgbench_history  |        147169280
 2017-02-05 10:17:17.308673+01 | 1486286237.30867 | pgbench_branches |             8192

 2017-02-05 10:17:18.389303+01 | 1486286238.3893 | pgbench_accounts |       1379270656
 2017-02-05 10:17:18.389303+01 | 1486286238.3893 | pgbench_tellers  |            49152
 2017-02-05 10:17:18.389303+01 | 1486286238.3893 | pgbench_history  |        149020672
 2017-02-05 10:17:18.389303+01 | 1486286238.3893 | pgbench_branches |             8192

 2017-02-05 10:17:19.468273+01 | 1486286239.46827 | pgbench_accounts |       1379270656
 2017-02-05 10:17:19.468273+01 | 1486286239.46827 | pgbench_tellers  |            49152
 2017-02-05 10:17:19.468273+01 | 1486286239.46827 | pgbench_history  |        151363584
 2017-02-05 10:17:19.468273+01 | 1486286239.46827 | pgbench_branches |             8192

 2017-02-05 10:17:20.546837+01 | 1486286240.54684 | pgbench_accounts |       1379270656
 2017-02-05 10:17:20.546837+01 | 1486286240.54684 | pgbench_tellers  |            49152
 2017-02-05 10:17:20.546837+01 | 1486286240.54684 | pgbench_history  |        153575424
 2017-02-05 10:17:20.546837+01 | 1486286240.54684 | pgbench_branches |             8192

 2017-02-05 10:17:21.629536+01 | 1486286241.62954 | pgbench_accounts |       1379270656
 2017-02-05 10:17:21.629536+01 | 1486286241.62954 | pgbench_tellers  |            49152
 2017-02-05 10:17:21.629536+01 | 1486286241.62954 | pgbench_history  |        154935296
 2017-02-05 10:17:21.629536+01 | 1486286241.62954 | pgbench_branches |             8192

 2017-02-05 10:17:22.720504+01 | 1486286242.7205 | pgbench_accounts |       1379270656
 2017-02-05 10:17:22.720504+01 | 1486286242.7205 | pgbench_tellers  |            49152
 2017-02-05 10:17:22.720504+01 | 1486286242.7205 | pgbench_history  |        156827648
 2017-02-05 10:17:22.720504+01 | 1486286242.7205 | pgbench_branches |             8192

 2017-02-05 10:17:23.805095+01 | 1486286243.80509 | pgbench_accounts |       1379270656
 2017-02-05 10:17:23.805095+01 | 1486286243.80509 | pgbench_tellers  |            49152
 2017-02-05 10:17:23.805095+01 | 1486286243.80509 | pgbench_history  |        159195136
 2017-02-05 10:17:23.805095+01 | 1486286243.80509 | pgbench_branches |             8192

 2017-02-05 10:17:24.886878+01 | 1486286244.88688 | pgbench_accounts |       1379270656
 2017-02-05 10:17:24.886878+01 | 1486286244.88688 | pgbench_tellers  |            49152
 2017-02-05 10:17:24.886878+01 | 1486286244.88688 | pgbench_history  |        161562624
 2017-02-05 10:17:24.886878+01 | 1486286244.88688 | pgbench_branches |             8192

 2017-02-05 10:17:25.973199+01 | 1486286245.9732 | pgbench_accounts |       1379270656
 2017-02-05 10:17:25.973199+01 | 1486286245.9732 | pgbench_tellers  |            49152
 2017-02-05 10:17:25.973199+01 | 1486286245.9732 | pgbench_history  |        165543936
 2017-02-05 10:17:25.973199+01 | 1486286245.9732 | pgbench_branches |             8192

 2017-02-05 10:17:27.050377+01 | 1486286247.05038 | pgbench_accounts |       1379270656
 2017-02-05 10:17:27.050377+01 | 1486286247.05038 | pgbench_tellers  |            49152
 2017-02-05 10:17:27.050377+01 | 1486286247.05038 | pgbench_history  |        166551552
 2017-02-05 10:17:27.050377+01 | 1486286247.05038 | pgbench_branches |             8192

 2017-02-05 10:17:28.117379+01 | 1486286248.11738 | pgbench_accounts |       1379270656
 2017-02-05 10:17:28.117379+01 | 1486286248.11738 | pgbench_tellers  |            49152
 2017-02-05 10:17:28.117379+01 | 1486286248.11738 | pgbench_history  |        168910848
 2017-02-05 10:17:28.117379+01 | 1486286248.11738 | pgbench_branches |             8192

 2017-02-05 10:17:29.19524+01 | 1486286249.19524 | pgbench_accounts |       1379270656
 2017-02-05 10:17:29.19524+01 | 1486286249.19524 | pgbench_tellers  |            49152
 2017-02-05 10:17:29.19524+01 | 1486286249.19524 | pgbench_history  |        170975232
 2017-02-05 10:17:29.19524+01 | 1486286249.19524 | pgbench_branches |             8192

 2017-02-05 10:17:30.271206+01 | 1486286250.27121 | pgbench_accounts |       1379270656
 2017-02-05 10:17:30.271206+01 | 1486286250.27121 | pgbench_tellers  |            49152
 2017-02-05 10:17:30.271206+01 | 1486286250.27121 | pgbench_history  |        173719552
 2017-02-05 10:17:30.271206+01 | 1486286250.27121 | pgbench_branches |             8192

 2017-02-05 10:17:31.353721+01 | 1486286251.35372 | pgbench_accounts |       1379270656
 2017-02-05 10:17:31.353721+01 | 1486286251.35372 | pgbench_tellers  |            49152
 2017-02-05 10:17:31.353721+01 | 1486286251.35372 | pgbench_history  |        175570944
 2017-02-05 10:17:31.353721+01 | 1486286251.35372 | pgbench_branches |             8192

 2017-02-05 10:17:32.434599+01 | 1486286252.4346 | pgbench_accounts |       1379270656
 2017-02-05 10:17:32.434599+01 | 1486286252.4346 | pgbench_tellers  |            49152
 2017-02-05 10:17:32.434599+01 | 1486286252.4346 | pgbench_history  |        177963008
 2017-02-05 10:17:32.434599+01 | 1486286252.4346 | pgbench_branches |             8192

 2017-02-05 10:17:33.515886+01 | 1486286253.51589 | pgbench_accounts |       1379270656
 2017-02-05 10:17:33.515886+01 | 1486286253.51589 | pgbench_tellers  |            49152
 2017-02-05 10:17:33.515886+01 | 1486286253.51589 | pgbench_history  |        180494336
 2017-02-05 10:17:33.515886+01 | 1486286253.51589 | pgbench_branches |             8192

 2017-02-05 10:17:34.603049+01 | 1486286254.60305 | pgbench_accounts |       1379270656
 2017-02-05 10:17:34.603049+01 | 1486286254.60305 | pgbench_tellers  |            49152
 2017-02-05 10:17:34.603049+01 | 1486286254.60305 | pgbench_history  |        182247424
 2017-02-05 10:17:34.603049+01 | 1486286254.60305 | pgbench_branches |             8192

 2017-02-05 10:17:35.677078+01 | 1486286255.67708 | pgbench_accounts |       1379270656
 2017-02-05 10:17:35.677078+01 | 1486286255.67708 | pgbench_tellers  |            49152
 2017-02-05 10:17:35.677078+01 | 1486286255.67708 | pgbench_history  |        184664064
 2017-02-05 10:17:35.677078+01 | 1486286255.67708 | pgbench_branches |             8192

 2017-02-05 10:17:36.760658+01 | 1486286256.76066 | pgbench_accounts |       1379270656
 2017-02-05 10:17:36.760658+01 | 1486286256.76066 | pgbench_tellers  |            49152
 2017-02-05 10:17:36.760658+01 | 1486286256.76066 | pgbench_history  |        188211200
 2017-02-05 10:17:36.760658+01 | 1486286256.76066 | pgbench_branches |             8192

 2017-02-05 10:17:37.842348+01 | 1486286257.84235 | pgbench_accounts |       1379270656
 2017-02-05 10:17:37.842348+01 | 1486286257.84235 | pgbench_tellers  |            49152
 2017-02-05 10:17:37.842348+01 | 1486286257.84235 | pgbench_history  |        190554112
 2017-02-05 10:17:37.842348+01 | 1486286257.84235 | pgbench_branches |             8192

 2017-02-05 10:17:38.926894+01 | 1486286258.92689 | pgbench_accounts |       1379270656
 2017-02-05 10:17:38.926894+01 | 1486286258.92689 | pgbench_tellers  |            49152
 2017-02-05 10:17:38.926894+01 | 1486286258.92689 | pgbench_history  |        192249856
 2017-02-05 10:17:38.926894+01 | 1486286258.92689 | pgbench_branches |             8192

 2017-02-05 10:17:39.999333+01 | 1486286259.99933 | pgbench_accounts |       1379270656
 2017-02-05 10:17:39.999333+01 | 1486286259.99933 | pgbench_tellers  |            49152
 2017-02-05 10:17:39.999333+01 | 1486286259.99933 | pgbench_history  |        193986560
 2017-02-05 10:17:39.999333+01 | 1486286259.99933 | pgbench_branches |             8192

 2017-02-05 10:17:41.074341+01 | 1486286261.07434 | pgbench_accounts |       1379270656
 2017-02-05 10:17:41.074341+01 | 1486286261.07434 | pgbench_tellers  |            49152
 2017-02-05 10:17:41.074341+01 | 1486286261.07434 | pgbench_history  |        196059136
 2017-02-05 10:17:41.074341+01 | 1486286261.07434 | pgbench_branches |             8192

 2017-02-05 10:17:42.150572+01 | 1486286262.15057 | pgbench_accounts |       1379270656
 2017-02-05 10:17:42.150572+01 | 1486286262.15057 | pgbench_tellers  |            49152
 2017-02-05 10:17:42.150572+01 | 1486286262.15057 | pgbench_history  |        198262784
 2017-02-05 10:17:42.150572+01 | 1486286262.15057 | pgbench_branches |             8192

 2017-02-05 10:17:43.221759+01 | 1486286263.22176 | pgbench_accounts |       1379270656
 2017-02-05 10:17:43.221759+01 | 1486286263.22176 | pgbench_tellers  |            49152
 2017-02-05 10:17:43.221759+01 | 1486286263.22176 | pgbench_history  |        200613888
 2017-02-05 10:17:43.221759+01 | 1486286263.22176 | pgbench_branches |             8192

 2017-02-05 10:17:44.294945+01 | 1486286264.29495 | pgbench_accounts |       1379270656
 2017-02-05 10:17:44.294945+01 | 1486286264.29495 | pgbench_tellers  |            49152
 2017-02-05 10:17:44.294945+01 | 1486286264.29495 | pgbench_history  |        204029952
 2017-02-05 10:17:44.294945+01 | 1486286264.29495 | pgbench_branches |             8192

 2017-02-05 10:17:45.372817+01 | 1486286265.37282 | pgbench_accounts |       1379270656
 2017-02-05 10:17:45.372817+01 | 1486286265.37282 | pgbench_tellers  |            49152
 2017-02-05 10:17:45.372817+01 | 1486286265.37282 | pgbench_history  |        205717504
 2017-02-05 10:17:45.372817+01 | 1486286265.37282 | pgbench_branches |             8192

 2017-02-05 10:17:46.453999+01 | 1486286266.454 | pgbench_accounts |       1379270656
 2017-02-05 10:17:46.453999+01 | 1486286266.454 | pgbench_tellers  |            49152
 2017-02-05 10:17:46.453999+01 | 1486286266.454 | pgbench_history  |        207568896
 2017-02-05 10:17:46.453999+01 | 1486286266.454 | pgbench_branches |             8192

 2017-02-05 10:17:47.529285+01 | 1486286267.52928 | pgbench_accounts |       1379270656
 2017-02-05 10:17:47.529285+01 | 1486286267.52928 | pgbench_tellers  |            49152
 2017-02-05 10:17:47.529285+01 | 1486286267.52928 | pgbench_history  |        209985536
 2017-02-05 10:17:47.529285+01 | 1486286267.52928 | pgbench_branches |             8192

 2017-02-05 10:17:48.616575+01 | 1486286268.61658 | pgbench_accounts |       1379270656
 2017-02-05 10:17:48.616575+01 | 1486286268.61658 | pgbench_tellers  |            49152
 2017-02-05 10:17:48.616575+01 | 1486286268.61658 | pgbench_history  |        213336064
 2017-02-05 10:17:48.616575+01 | 1486286268.61658 | pgbench_branches |             8192

 2017-02-05 10:17:49.692633+01 | 1486286269.69263 | pgbench_accounts |       1379270656
 2017-02-05 10:17:49.692633+01 | 1486286269.69263 | pgbench_tellers  |            49152
 2017-02-05 10:17:49.692633+01 | 1486286269.69263 | pgbench_history  |        215031808
 2017-02-05 10:17:49.692633+01 | 1486286269.69263 | pgbench_branches |             8192

 2017-02-05 10:17:50.768628+01 | 1486286270.76863 | pgbench_accounts |       1379270656
 2017-02-05 10:17:50.768628+01 | 1486286270.76863 | pgbench_tellers  |            49152
 2017-02-05 10:17:50.768628+01 | 1486286270.76863 | pgbench_history  |        216883200
 2017-02-05 10:17:50.768628+01 | 1486286270.76863 | pgbench_branches |             8192

 2017-02-05 10:17:51.847554+01 | 1486286271.84755 | pgbench_accounts |       1379270656
 2017-02-05 10:17:51.847554+01 | 1486286271.84755 | pgbench_tellers  |            49152
 2017-02-05 10:17:51.847554+01 | 1486286271.84755 | pgbench_history  |        219250688
 2017-02-05 10:17:51.847554+01 | 1486286271.84755 | pgbench_branches |             8192

 2017-02-05 10:17:52.92723+01 | 1486286272.92723 | pgbench_accounts |       1379270656
 2017-02-05 10:17:52.92723+01 | 1486286272.92723 | pgbench_tellers  |            49152
 2017-02-05 10:17:52.92723+01 | 1486286272.92723 | pgbench_history  |        222461952
 2017-02-05 10:17:52.92723+01 | 1486286272.92723 | pgbench_branches |             8192

 2017-02-05 10:17:54.004099+01 | 1486286274.0041 | pgbench_accounts |       1379270656
 2017-02-05 10:17:54.004099+01 | 1486286274.0041 | pgbench_tellers  |            49152
 2017-02-05 10:17:54.004099+01 | 1486286274.0041 | pgbench_history  |        223797248
 2017-02-05 10:17:54.004099+01 | 1486286274.0041 | pgbench_branches |             8192

 2017-02-05 10:17:55.085124+01 | 1486286275.08512 | pgbench_accounts |       1379270656
 2017-02-05 10:17:55.085124+01 | 1486286275.08512 | pgbench_tellers  |            49152
 2017-02-05 10:17:55.085124+01 | 1486286275.08512 | pgbench_history  |        226328576
 2017-02-05 10:17:55.085124+01 | 1486286275.08512 | pgbench_branches |             8192

 2017-02-05 10:17:56.163229+01 | 1486286276.16323 | pgbench_accounts |       1379270656
 2017-02-05 10:17:56.163229+01 | 1486286276.16323 | pgbench_tellers  |            49152
 2017-02-05 10:17:56.163229+01 | 1486286276.16323 | pgbench_history  |        228540416
 2017-02-05 10:17:56.163229+01 | 1486286276.16323 | pgbench_branches |             8192

 2017-02-05 10:17:57.240978+01 | 1486286277.24098 | pgbench_accounts |       1379270656
 2017-02-05 10:17:57.240978+01 | 1486286277.24098 | pgbench_tellers  |            49152
 2017-02-05 10:17:57.240978+01 | 1486286277.24098 | pgbench_history  |        231104512
 2017-02-05 10:17:57.240978+01 | 1486286277.24098 | pgbench_branches |             8192

 2017-02-05 10:17:58.329164+01 | 1486286278.32916 | pgbench_accounts |       1379270656
 2017-02-05 10:17:58.329164+01 | 1486286278.32916 | pgbench_tellers  |            49152
 2017-02-05 10:17:58.329164+01 | 1486286278.32916 | pgbench_history  |        233480192
 2017-02-05 10:17:58.329164+01 | 1486286278.32916 | pgbench_branches |             8192

 2017-02-05 10:17:59.412307+01 | 1486286279.41231 | pgbench_accounts |       1379270656
 2017-02-05 10:17:59.412307+01 | 1486286279.41231 | pgbench_tellers  |            49152
 2017-02-05 10:17:59.412307+01 | 1486286279.41231 | pgbench_history  |        235544576
 2017-02-05 10:17:59.412307+01 | 1486286279.41231 | pgbench_branches |             8192

 2017-02-05 10:18:00.483958+01 | 1486286280.48396 | pgbench_accounts |       1379270656
 2017-02-05 10:18:00.483958+01 | 1486286280.48396 | pgbench_tellers  |            49152
 2017-02-05 10:18:00.483958+01 | 1486286280.48396 | pgbench_history  |        237797376
 2017-02-05 10:18:00.483958+01 | 1486286280.48396 | pgbench_branches |             8192

 2017-02-05 10:18:01.55438+01 | 1486286281.55438 | pgbench_accounts |       1379270656
 2017-02-05 10:18:01.55438+01 | 1486286281.55438 | pgbench_tellers  |            49152
 2017-02-05 10:18:01.55438+01 | 1486286281.55438 | pgbench_history  |        240631808
 2017-02-05 10:18:01.55438+01 | 1486286281.55438 | pgbench_branches |             8192

 2017-02-05 10:18:02.630088+01 | 1486286282.63009 | pgbench_accounts |       1379270656
 2017-02-05 10:18:02.630088+01 | 1486286282.63009 | pgbench_tellers  |            49152
 2017-02-05 10:18:02.630088+01 | 1486286282.63009 | pgbench_history  |        242532352
 2017-02-05 10:18:02.630088+01 | 1486286282.63009 | pgbench_branches |             8192

 2017-02-05 10:18:03.70449+01 | 1486286283.70449 | pgbench_accounts |       1379270656
 2017-02-05 10:18:03.70449+01 | 1486286283.70449 | pgbench_tellers  |            49152
 2017-02-05 10:18:03.70449+01 | 1486286283.70449 | pgbench_history  |        245415936
 2017-02-05 10:18:03.70449+01 | 1486286283.70449 | pgbench_branches |             8192

 2017-02-05 10:18:04.775746+01 | 1486286284.77575 | pgbench_accounts |       1379270656
 2017-02-05 10:18:04.775746+01 | 1486286284.77575 | pgbench_tellers  |            49152
 2017-02-05 10:18:04.775746+01 | 1486286284.77575 | pgbench_history  |        246980608
 2017-02-05 10:18:04.775746+01 | 1486286284.77575 | pgbench_branches |             8192

 2017-02-05 10:18:05.858357+01 | 1486286285.85836 | pgbench_accounts |       1379270656
 2017-02-05 10:18:05.858357+01 | 1486286285.85836 | pgbench_tellers  |            49152
 2017-02-05 10:18:05.858357+01 | 1486286285.85836 | pgbench_history  |        249913344
 2017-02-05 10:18:05.858357+01 | 1486286285.85836 | pgbench_branches |             8192

 2017-02-05 10:18:06.941984+01 | 1486286286.94198 | pgbench_accounts |       1379270656
 2017-02-05 10:18:06.941984+01 | 1486286286.94198 | pgbench_tellers  |            49152
 2017-02-05 10:18:06.941984+01 | 1486286286.94198 | pgbench_history  |        251764736
 2017-02-05 10:18:06.941984+01 | 1486286286.94198 | pgbench_branches |             8192

 2017-02-05 10:18:08.03552+01 | 1486286288.03552 | pgbench_accounts |       1379270656
 2017-02-05 10:18:08.03552+01 | 1486286288.03552 | pgbench_tellers  |            49152
 2017-02-05 10:18:08.03552+01 | 1486286288.03552 | pgbench_history  |        254623744
 2017-02-05 10:18:08.03552+01 | 1486286288.03552 | pgbench_branches |             8192

 2017-02-05 10:18:09.114194+01 | 1486286289.11419 | pgbench_accounts |       1379270656
 2017-02-05 10:18:09.114194+01 | 1486286289.11419 | pgbench_tellers  |            49152
 2017-02-05 10:18:09.114194+01 | 1486286289.11419 | pgbench_history  |        256499712
 2017-02-05 10:18:09.114194+01 | 1486286289.11419 | pgbench_branches |             8192

 2017-02-05 10:18:10.198546+01 | 1486286290.19855 | pgbench_accounts |       1379270656
 2017-02-05 10:18:10.198546+01 | 1486286290.19855 | pgbench_tellers  |            49152
 2017-02-05 10:18:10.198546+01 | 1486286290.19855 | pgbench_history  |        258547712
 2017-02-05 10:18:10.198546+01 | 1486286290.19855 | pgbench_branches |             8192

 2017-02-05 10:18:11.270095+01 | 1486286291.2701 | pgbench_accounts |       1379270656
 2017-02-05 10:18:11.270095+01 | 1486286291.2701 | pgbench_tellers  |            49152
 2017-02-05 10:18:11.270095+01 | 1486286291.2701 | pgbench_history  |        261103616
 2017-02-05 10:18:11.270095+01 | 1486286291.2701 | pgbench_branches |             8192

 2017-02-05 10:18:12.348565+01 | 1486286292.34857 | pgbench_accounts |       1379270656
 2017-02-05 10:18:12.348565+01 | 1486286292.34857 | pgbench_tellers  |            49152
 2017-02-05 10:18:12.348565+01 | 1486286292.34857 | pgbench_history  |        263798784
 2017-02-05 10:18:12.348565+01 | 1486286292.34857 | pgbench_branches |             8192

 2017-02-05 10:18:13.416995+01 | 1486286293.417 | pgbench_accounts |       1379270656
 2017-02-05 10:18:13.416995+01 | 1486286293.417 | pgbench_tellers  |            49152
 2017-02-05 10:18:13.416995+01 | 1486286293.417 | pgbench_history  |        265674752
 2017-02-05 10:18:13.416995+01 | 1486286293.417 | pgbench_branches |             8192

 2017-02-05 10:18:14.497789+01 | 1486286294.49779 | pgbench_accounts |       1379270656
 2017-02-05 10:18:14.497789+01 | 1486286294.49779 | pgbench_tellers  |            49152
 2017-02-05 10:18:14.497789+01 | 1486286294.49779 | pgbench_history  |        268107776
 2017-02-05 10:18:14.497789+01 | 1486286294.49779 | pgbench_branches |             8192

 2017-02-05 10:18:15.579945+01 | 1486286295.57995 | pgbench_accounts |       1379270656
 2017-02-05 10:18:15.579945+01 | 1486286295.57995 | pgbench_tellers  |            49152
 2017-02-05 10:18:15.579945+01 | 1486286295.57995 | pgbench_history  |        270483456
 2017-02-05 10:18:15.579945+01 | 1486286295.57995 | pgbench_branches |             8192

 2017-02-05 10:18:16.655377+01 | 1486286296.65538 | pgbench_accounts |       1379270656
 2017-02-05 10:18:16.655377+01 | 1486286296.65538 | pgbench_tellers  |            49152
 2017-02-05 10:18:16.655377+01 | 1486286296.65538 | pgbench_history  |        273350656
 2017-02-05 10:18:16.655377+01 | 1486286296.65538 | pgbench_branches |             8192

 2017-02-05 10:18:17.735769+01 | 1486286297.73577 | pgbench_accounts |       1379270656
 2017-02-05 10:18:17.735769+01 | 1486286297.73577 | pgbench_tellers  |            49152
 2017-02-05 10:18:17.735769+01 | 1486286297.73577 | pgbench_history  |        275226624
 2017-02-05 10:18:17.735769+01 | 1486286297.73577 | pgbench_branches |             8192

 2017-02-05 10:18:18.816507+01 | 1486286298.81651 | pgbench_accounts |       1379270656
 2017-02-05 10:18:18.816507+01 | 1486286298.81651 | pgbench_tellers  |            49152
 2017-02-05 10:18:18.816507+01 | 1486286298.81651 | pgbench_history  |        277078016
 2017-02-05 10:18:18.816507+01 | 1486286298.81651 | pgbench_branches |             8192

 2017-02-05 10:18:19.889703+01 | 1486286299.8897 | pgbench_accounts |       1379270656
 2017-02-05 10:18:19.889703+01 | 1486286299.8897 | pgbench_tellers  |            49152
 2017-02-05 10:18:19.889703+01 | 1486286299.8897 | pgbench_history  |        280461312
 2017-02-05 10:18:19.889703+01 | 1486286299.8897 | pgbench_branches |             8192

 2017-02-05 10:18:20.968858+01 | 1486286300.96886 | pgbench_accounts |       1379270656
 2017-02-05 10:18:20.968858+01 | 1486286300.96886 | pgbench_tellers  |            49152
 2017-02-05 10:18:20.968858+01 | 1486286300.96886 | pgbench_history  |        282148864
 2017-02-05 10:18:20.968858+01 | 1486286300.96886 | pgbench_branches |             8192

 2017-02-05 10:18:22.062776+01 | 1486286302.06278 | pgbench_accounts |       1379270656
 2017-02-05 10:18:22.062776+01 | 1486286302.06278 | pgbench_tellers  |            49152
 2017-02-05 10:18:22.062776+01 | 1486286302.06278 | pgbench_history  |        284000256
 2017-02-05 10:18:22.062776+01 | 1486286302.06278 | pgbench_branches |             8192

 2017-02-05 10:18:23.136338+01 | 1486286303.13634 | pgbench_accounts |       1379270656
 2017-02-05 10:18:23.136338+01 | 1486286303.13634 | pgbench_tellers  |            49152
 2017-02-05 10:18:23.136338+01 | 1486286303.13634 | pgbench_history  |        287023104
 2017-02-05 10:18:23.136338+01 | 1486286303.13634 | pgbench_branches |             8192

 2017-02-05 10:18:24.208676+01 | 1486286304.20868 | pgbench_accounts |       1379270656
 2017-02-05 10:18:24.208676+01 | 1486286304.20868 | pgbench_tellers  |            49152
 2017-02-05 10:18:24.208676+01 | 1486286304.20868 | pgbench_history  |        288571392
 2017-02-05 10:18:24.208676+01 | 1486286304.20868 | pgbench_branches |             8192

 2017-02-05 10:18:25.286301+01 | 1486286305.2863 | pgbench_accounts |       1379270656
 2017-02-05 10:18:25.286301+01 | 1486286305.2863 | pgbench_tellers  |            49152
 2017-02-05 10:18:25.286301+01 | 1486286305.2863 | pgbench_history  |        291143680
 2017-02-05 10:18:25.286301+01 | 1486286305.2863 | pgbench_branches |             8192

 2017-02-05 10:18:26.365144+01 | 1486286306.36514 | pgbench_accounts |       1379270656
 2017-02-05 10:18:26.365144+01 | 1486286306.36514 | pgbench_tellers  |            49152
 2017-02-05 10:18:26.365144+01 | 1486286306.36514 | pgbench_history  |        293183488
 2017-02-05 10:18:26.365144+01 | 1486286306.36514 | pgbench_branches |             8192

 2017-02-05 10:18:27.444833+01 | 1486286307.44483 | pgbench_accounts |       1379270656
 2017-02-05 10:18:27.444833+01 | 1486286307.44483 | pgbench_tellers  |            49152
 2017-02-05 10:18:27.444833+01 | 1486286307.44483 | pgbench_history  |        295452672
 2017-02-05 10:18:27.444833+01 | 1486286307.44483 | pgbench_branches |             8192

 2017-02-05 10:18:28.532785+01 | 1486286308.53278 | pgbench_accounts |       1379270656
 2017-02-05 10:18:28.532785+01 | 1486286308.53278 | pgbench_tellers  |            49152
 2017-02-05 10:18:28.532785+01 | 1486286308.53278 | pgbench_history  |        297680896
 2017-02-05 10:18:28.532785+01 | 1486286308.53278 | pgbench_branches |             8192

 2017-02-05 10:18:29.614377+01 | 1486286309.61438 | pgbench_accounts |       1379270656
 2017-02-05 10:18:29.614377+01 | 1486286309.61438 | pgbench_tellers  |            49152
 2017-02-05 10:18:29.614377+01 | 1486286309.61438 | pgbench_history  |        300400640
 2017-02-05 10:18:29.614377+01 | 1486286309.61438 | pgbench_branches |             8192

 2017-02-05 10:18:30.692564+01 | 1486286310.69256 | pgbench_accounts |       1379270656
 2017-02-05 10:18:30.692564+01 | 1486286310.69256 | pgbench_tellers  |            49152
 2017-02-05 10:18:30.692564+01 | 1486286310.69256 | pgbench_history  |        302440448
 2017-02-05 10:18:30.692564+01 | 1486286310.69256 | pgbench_branches |             8192

 2017-02-05 10:18:31.768004+01 | 1486286311.768 | pgbench_accounts |       1379270656
 2017-02-05 10:18:31.768004+01 | 1486286311.768 | pgbench_tellers  |            49152
 2017-02-05 10:18:31.768004+01 | 1486286311.768 | pgbench_history  |        305496064
 2017-02-05 10:18:31.768004+01 | 1486286311.768 | pgbench_branches |             8192

 2017-02-05 10:18:32.853757+01 | 1486286312.85376 | pgbench_accounts |       1379270656
 2017-02-05 10:18:32.853757+01 | 1486286312.85376 | pgbench_tellers  |            49152
 2017-02-05 10:18:32.853757+01 | 1486286312.85376 | pgbench_history  |        307724288
 2017-02-05 10:18:32.853757+01 | 1486286312.85376 | pgbench_branches |             8192

 2017-02-05 10:18:33.92843+01 | 1486286313.92843 | pgbench_accounts |       1379270656
 2017-02-05 10:18:33.92843+01 | 1486286313.92843 | pgbench_tellers  |            49152
 2017-02-05 10:18:33.92843+01 | 1486286313.92843 | pgbench_history  |        309411840
 2017-02-05 10:18:33.92843+01 | 1486286313.92843 | pgbench_branches |             8192

 2017-02-05 10:18:35.012174+01 | 1486286315.01217 | pgbench_accounts |       1379270656
 2017-02-05 10:18:35.012174+01 | 1486286315.01217 | pgbench_tellers  |            49152
 2017-02-05 10:18:35.012174+01 | 1486286315.01217 | pgbench_history  |        313098240
 2017-02-05 10:18:35.012174+01 | 1486286315.01217 | pgbench_branches |             8192

 2017-02-05 10:18:36.096454+01 | 1486286316.09645 | pgbench_accounts |       1379270656
 2017-02-05 10:18:36.096454+01 | 1486286316.09645 | pgbench_tellers  |            49152
 2017-02-05 10:18:36.096454+01 | 1486286316.09645 | pgbench_history  |        313622528
 2017-02-05 10:18:36.096454+01 | 1486286316.09645 | pgbench_branches |             8192

 2017-02-05 10:18:37.170412+01 | 1486286317.17041 | pgbench_accounts |       1379270656
 2017-02-05 10:18:37.170412+01 | 1486286317.17041 | pgbench_tellers  |            49152
 2017-02-05 10:18:37.170412+01 | 1486286317.17041 | pgbench_history  |        316203008
 2017-02-05 10:18:37.170412+01 | 1486286317.17041 | pgbench_branches |             8192

 2017-02-05 10:18:38.253935+01 | 1486286318.25394 | pgbench_accounts |       1379270656
 2017-02-05 10:18:38.253935+01 | 1486286318.25394 | pgbench_tellers  |            49152
 2017-02-05 10:18:38.253935+01 | 1486286318.25394 | pgbench_history  |        318267392
 2017-02-05 10:18:38.253935+01 | 1486286318.25394 | pgbench_branches |             8192

 2017-02-05 10:18:39.334951+01 | 1486286319.33495 | pgbench_accounts |       1379270656
 2017-02-05 10:18:39.334951+01 | 1486286319.33495 | pgbench_tellers  |            49152
 2017-02-05 10:18:39.334951+01 | 1486286319.33495 | pgbench_history  |        320675840
 2017-02-05 10:18:39.334951+01 | 1486286319.33495 | pgbench_branches |             8192

 2017-02-05 10:18:40.406072+01 | 1486286320.40607 | pgbench_accounts |       1379270656
 2017-02-05 10:18:40.406072+01 | 1486286320.40607 | pgbench_tellers  |            49152
 2017-02-05 10:18:40.406072+01 | 1486286320.40607 | pgbench_history  |        323207168
 2017-02-05 10:18:40.406072+01 | 1486286320.40607 | pgbench_branches |             8192

 2017-02-05 10:18:41.483172+01 | 1486286321.48317 | pgbench_accounts |       1379270656
 2017-02-05 10:18:41.483172+01 | 1486286321.48317 | pgbench_tellers  |            49152
 2017-02-05 10:18:41.483172+01 | 1486286321.48317 | pgbench_history  |        325271552
 2017-02-05 10:18:41.483172+01 | 1486286321.48317 | pgbench_branches |             8192

 2017-02-05 10:18:42.573369+01 | 1486286322.57337 | pgbench_accounts |       1379270656
 2017-02-05 10:18:42.573369+01 | 1486286322.57337 | pgbench_tellers  |            49152
 2017-02-05 10:18:42.573369+01 | 1486286322.57337 | pgbench_history  |        327827456
 2017-02-05 10:18:42.573369+01 | 1486286322.57337 | pgbench_branches |             8192

 2017-02-05 10:18:43.653108+01 | 1486286323.65311 | pgbench_accounts |       1379270656
 2017-02-05 10:18:43.653108+01 | 1486286323.65311 | pgbench_tellers  |            49152
 2017-02-05 10:18:43.653108+01 | 1486286323.65311 | pgbench_history  |        329867264
 2017-02-05 10:18:43.653108+01 | 1486286323.65311 | pgbench_branches |             8192

 2017-02-05 10:18:44.729707+01 | 1486286324.72971 | pgbench_accounts |       1379270656
 2017-02-05 10:18:44.729707+01 | 1486286324.72971 | pgbench_tellers  |            49152
 2017-02-05 10:18:44.729707+01 | 1486286324.72971 | pgbench_history  |        332562432
 2017-02-05 10:18:44.729707+01 | 1486286324.72971 | pgbench_branches |             8192

 2017-02-05 10:18:45.810534+01 | 1486286325.81053 | pgbench_accounts |       1379270656
 2017-02-05 10:18:45.810534+01 | 1486286325.81053 | pgbench_tellers  |            49152
 2017-02-05 10:18:45.810534+01 | 1486286325.81053 | pgbench_history  |        334651392
 2017-02-05 10:18:45.810534+01 | 1486286325.81053 | pgbench_branches |             8192

 2017-02-05 10:18:46.891049+01 | 1486286326.89105 | pgbench_accounts |       1379270656
 2017-02-05 10:18:46.891049+01 | 1486286326.89105 | pgbench_tellers  |            49152
 2017-02-05 10:18:46.891049+01 | 1486286326.89105 | pgbench_history  |        337510400
 2017-02-05 10:18:46.891049+01 | 1486286326.89105 | pgbench_branches |             8192

 2017-02-05 10:18:47.974351+01 | 1486286327.97435 | pgbench_accounts |       1379270656
 2017-02-05 10:18:47.974351+01 | 1486286327.97435 | pgbench_tellers  |            49152
 2017-02-05 10:18:47.974351+01 | 1486286327.97435 | pgbench_history  |        339197952
 2017-02-05 10:18:47.974351+01 | 1486286327.97435 | pgbench_branches |             8192

 2017-02-05 10:18:49.046361+01 | 1486286329.04636 | pgbench_accounts |       1379270656
 2017-02-05 10:18:49.046361+01 | 1486286329.04636 | pgbench_tellers  |            49152
 2017-02-05 10:18:49.046361+01 | 1486286329.04636 | pgbench_history  |        341434368
 2017-02-05 10:18:49.046361+01 | 1486286329.04636 | pgbench_branches |             8192

 2017-02-05 10:18:50.125662+01 | 1486286330.12566 | pgbench_accounts |       1379270656
 2017-02-05 10:18:50.125662+01 | 1486286330.12566 | pgbench_tellers  |            49152
 2017-02-05 10:18:50.125662+01 | 1486286330.12566 | pgbench_history  |        343801856
 2017-02-05 10:18:50.125662+01 | 1486286330.12566 | pgbench_branches |             8192

 2017-02-05 10:18:51.201411+01 | 1486286331.20141 | pgbench_accounts |       1379270656
 2017-02-05 10:18:51.201411+01 | 1486286331.20141 | pgbench_tellers  |            49152
 2017-02-05 10:18:51.201411+01 | 1486286331.20141 | pgbench_history  |        346046464
 2017-02-05 10:18:51.201411+01 | 1486286331.20141 | pgbench_branches |             8192

 2017-02-05 10:18:52.281945+01 | 1486286332.28194 | pgbench_accounts |       1379270656
 2017-02-05 10:18:52.281945+01 | 1486286332.28194 | pgbench_tellers  |            49152
 2017-02-05 10:18:52.281945+01 | 1486286332.28194 | pgbench_history  |        348602368
 2017-02-05 10:18:52.281945+01 | 1486286332.28194 | pgbench_branches |             8192

 2017-02-05 10:18:53.367311+01 | 1486286333.36731 | pgbench_accounts |       1379270656
 2017-02-05 10:18:53.367311+01 | 1486286333.36731 | pgbench_tellers  |            49152
 2017-02-05 10:18:53.367311+01 | 1486286333.36731 | pgbench_history  |        351109120
 2017-02-05 10:18:53.367311+01 | 1486286333.36731 | pgbench_branches |             8192

 2017-02-05 10:18:54.454251+01 | 1486286334.45425 | pgbench_accounts |       1379270656
 2017-02-05 10:18:54.454251+01 | 1486286334.45425 | pgbench_tellers  |            49152
 2017-02-05 10:18:54.454251+01 | 1486286334.45425 | pgbench_history  |        353591296
 2017-02-05 10:18:54.454251+01 | 1486286334.45425 | pgbench_branches |             8192

 2017-02-05 10:18:55.533305+01 | 1486286335.5333 | pgbench_accounts |       1379270656
 2017-02-05 10:18:55.533305+01 | 1486286335.5333 | pgbench_tellers  |            49152
 2017-02-05 10:18:55.533305+01 | 1486286335.5333 | pgbench_history  |        355491840
 2017-02-05 10:18:55.533305+01 | 1486286335.5333 | pgbench_branches |             8192

 2017-02-05 10:18:56.616128+01 | 1486286336.61613 | pgbench_accounts |       1379270656
 2017-02-05 10:18:56.616128+01 | 1486286336.61613 | pgbench_tellers  |            49152
 2017-02-05 10:18:56.616128+01 | 1486286336.61613 | pgbench_history  |        357539840
 2017-02-05 10:18:56.616128+01 | 1486286336.61613 | pgbench_branches |             8192

 2017-02-05 10:18:57.693037+01 | 1486286337.69304 | pgbench_accounts |       1379270656
 2017-02-05 10:18:57.693037+01 | 1486286337.69304 | pgbench_tellers  |            49152
 2017-02-05 10:18:57.693037+01 | 1486286337.69304 | pgbench_history  |        360407040
 2017-02-05 10:18:57.693037+01 | 1486286337.69304 | pgbench_branches |             8192

 2017-02-05 10:18:58.765991+01 | 1486286338.76599 | pgbench_accounts |       1379270656
 2017-02-05 10:18:58.765991+01 | 1486286338.76599 | pgbench_tellers  |            49152
 2017-02-05 10:18:58.765991+01 | 1486286338.76599 | pgbench_history  |        362831872
 2017-02-05 10:18:58.765991+01 | 1486286338.76599 | pgbench_branches |             8192

 2017-02-05 10:18:59.846836+01 | 1486286339.84684 | pgbench_accounts |       1379270656
 2017-02-05 10:18:59.846836+01 | 1486286339.84684 | pgbench_tellers  |            49152
 2017-02-05 10:18:59.846836+01 | 1486286339.84684 | pgbench_history  |        364519424
 2017-02-05 10:18:59.846836+01 | 1486286339.84684 | pgbench_branches |             8192

 2017-02-05 10:19:00.928744+01 | 1486286340.92874 | pgbench_accounts |       1379270656
 2017-02-05 10:19:00.928744+01 | 1486286340.92874 | pgbench_tellers  |            49152
 2017-02-05 10:19:00.928744+01 | 1486286340.92874 | pgbench_history  |        367075328
 2017-02-05 10:19:00.928744+01 | 1486286340.92874 | pgbench_branches |             8192

 2017-02-05 10:19:02.000916+01 | 1486286342.00092 | pgbench_accounts |       1379270656
 2017-02-05 10:19:02.000916+01 | 1486286342.00092 | pgbench_tellers  |            49152
 2017-02-05 10:19:02.000916+01 | 1486286342.00092 | pgbench_history  |        369975296
 2017-02-05 10:19:02.000916+01 | 1486286342.00092 | pgbench_branches |             8192

 2017-02-05 10:19:03.076714+01 | 1486286343.07671 | pgbench_accounts |       1379270656
 2017-02-05 10:19:03.076714+01 | 1486286343.07671 | pgbench_tellers  |            49152
 2017-02-05 10:19:03.076714+01 | 1486286343.07671 | pgbench_history  |        371744768
 2017-02-05 10:19:03.076714+01 | 1486286343.07671 | pgbench_branches |             8192

 2017-02-05 10:19:04.155139+01 | 1486286344.15514 | pgbench_accounts |       1379270656
 2017-02-05 10:19:04.155139+01 | 1486286344.15514 | pgbench_tellers  |            49152
 2017-02-05 10:19:04.155139+01 | 1486286344.15514 | pgbench_history  |        374308864
 2017-02-05 10:19:04.155139+01 | 1486286344.15514 | pgbench_branches |             8192

 2017-02-05 10:19:05.23039+01 | 1486286345.23039 | pgbench_accounts |       1379270656
 2017-02-05 10:19:05.23039+01 | 1486286345.23039 | pgbench_tellers  |            49152
 2017-02-05 10:19:05.23039+01 | 1486286345.23039 | pgbench_history  |        376512512
 2017-02-05 10:19:05.23039+01 | 1486286345.23039 | pgbench_branches |             8192

 2017-02-05 10:19:06.307464+01 | 1486286346.30746 | pgbench_accounts |       1379270656
 2017-02-05 10:19:06.307464+01 | 1486286346.30746 | pgbench_tellers  |            49152
 2017-02-05 10:19:06.307464+01 | 1486286346.30746 | pgbench_history  |        378716160
 2017-02-05 10:19:06.307464+01 | 1486286346.30746 | pgbench_branches |             8192

 2017-02-05 10:19:07.39136+01 | 1486286347.39136 | pgbench_accounts |       1379270656
 2017-02-05 10:19:07.39136+01 | 1486286347.39136 | pgbench_tellers  |            49152
 2017-02-05 10:19:07.39136+01 | 1486286347.39136 | pgbench_history  |        381132800
 2017-02-05 10:19:07.39136+01 | 1486286347.39136 | pgbench_branches |             8192

 2017-02-05 10:19:08.469193+01 | 1486286348.46919 | pgbench_accounts |       1379270656
 2017-02-05 10:19:08.469193+01 | 1486286348.46919 | pgbench_tellers  |            49152
 2017-02-05 10:19:08.469193+01 | 1486286348.46919 | pgbench_history  |        384458752
 2017-02-05 10:19:08.469193+01 | 1486286348.46919 | pgbench_branches |             8192

 2017-02-05 10:19:09.546458+01 | 1486286349.54646 | pgbench_accounts |       1379270656
 2017-02-05 10:19:09.546458+01 | 1486286349.54646 | pgbench_tellers  |            49152
 2017-02-05 10:19:09.546458+01 | 1486286349.54646 | pgbench_history  |        385982464
 2017-02-05 10:19:09.546458+01 | 1486286349.54646 | pgbench_branches |             8192

 2017-02-05 10:19:10.628767+01 | 1486286350.62877 | pgbench_accounts |       1379270656
 2017-02-05 10:19:10.628767+01 | 1486286350.62877 | pgbench_tellers  |            49152
 2017-02-05 10:19:10.628767+01 | 1486286350.62877 | pgbench_history  |        388169728
 2017-02-05 10:19:10.628767+01 | 1486286350.62877 | pgbench_branches |             8192

 2017-02-05 10:19:11.706041+01 | 1486286351.70604 | pgbench_accounts |       1379270656
 2017-02-05 10:19:11.706041+01 | 1486286351.70604 | pgbench_tellers  |            49152
 2017-02-05 10:19:11.706041+01 | 1486286351.70604 | pgbench_history  |        390184960
 2017-02-05 10:19:11.706041+01 | 1486286351.70604 | pgbench_branches |             8192

 2017-02-05 10:19:12.783934+01 | 1486286352.78393 | pgbench_accounts |       1379270656
 2017-02-05 10:19:12.783934+01 | 1486286352.78393 | pgbench_tellers  |            49152
 2017-02-05 10:19:12.783934+01 | 1486286352.78393 | pgbench_history  |        392388608
 2017-02-05 10:19:12.783934+01 | 1486286352.78393 | pgbench_branches |             8192

 2017-02-05 10:19:13.857307+01 | 1486286353.85731 | pgbench_accounts |       1379270656
 2017-02-05 10:19:13.857307+01 | 1486286353.85731 | pgbench_tellers  |            49152
 2017-02-05 10:19:13.857307+01 | 1486286353.85731 | pgbench_history  |        394592256
 2017-02-05 10:19:13.857307+01 | 1486286353.85731 | pgbench_branches |             8192

 2017-02-05 10:19:14.94503+01 | 1486286354.94503 | pgbench_accounts |       1379270656
 2017-02-05 10:19:14.94503+01 | 1486286354.94503 | pgbench_tellers  |            49152
 2017-02-05 10:19:14.94503+01 | 1486286354.94503 | pgbench_history  |        397402112
 2017-02-05 10:19:14.94503+01 | 1486286354.94503 | pgbench_branches |             8192

 2017-02-05 10:19:16.02813+01 | 1486286356.02813 | pgbench_accounts |       1379270656
 2017-02-05 10:19:16.02813+01 | 1486286356.02813 | pgbench_tellers  |            49152
 2017-02-05 10:19:16.02813+01 | 1486286356.02813 | pgbench_history  |        399360000
 2017-02-05 10:19:16.02813+01 | 1486286356.02813 | pgbench_branches |             8192

 2017-02-05 10:19:17.110869+01 | 1486286357.11087 | pgbench_accounts |       1379270656
 2017-02-05 10:19:17.110869+01 | 1486286357.11087 | pgbench_tellers  |            49152
 2017-02-05 10:19:17.110869+01 | 1486286357.11087 | pgbench_history  |        401784832
 2017-02-05 10:19:17.110869+01 | 1486286357.11087 | pgbench_branches |             8192

 2017-02-05 10:19:18.186132+01 | 1486286358.18613 | pgbench_accounts |       1379270656
 2017-02-05 10:19:18.186132+01 | 1486286358.18613 | pgbench_tellers  |            49152
 2017-02-05 10:19:18.186132+01 | 1486286358.18613 | pgbench_history  |        404127744
 2017-02-05 10:19:18.186132+01 | 1486286358.18613 | pgbench_branches |             8192

 2017-02-05 10:19:19.275108+01 | 1486286359.27511 | pgbench_accounts |       1379270656
 2017-02-05 10:19:19.275108+01 | 1486286359.27511 | pgbench_tellers  |            49152
 2017-02-05 10:19:19.275108+01 | 1486286359.27511 | pgbench_history  |        406667264
 2017-02-05 10:19:19.275108+01 | 1486286359.27511 | pgbench_branches |             8192

 2017-02-05 10:19:20.348498+01 | 1486286360.3485 | pgbench_accounts |       1379270656
 2017-02-05 10:19:20.348498+01 | 1486286360.3485 | pgbench_tellers  |            49152
 2017-02-05 10:19:20.348498+01 | 1486286360.3485 | pgbench_history  |        408330240
 2017-02-05 10:19:20.348498+01 | 1486286360.3485 | pgbench_branches |             8192

 2017-02-05 10:19:21.420552+01 | 1486286361.42055 | pgbench_accounts |       1379270656
 2017-02-05 10:19:21.420552+01 | 1486286361.42055 | pgbench_tellers  |            49152
 2017-02-05 10:19:21.420552+01 | 1486286361.42055 | pgbench_history  |        410558464
 2017-02-05 10:19:21.420552+01 | 1486286361.42055 | pgbench_branches |             8192

 2017-02-05 10:19:22.498267+01 | 1486286362.49827 | pgbench_accounts |       1379270656
 2017-02-05 10:19:22.498267+01 | 1486286362.49827 | pgbench_tellers  |            49152
 2017-02-05 10:19:22.498267+01 | 1486286362.49827 | pgbench_history  |        412925952
 2017-02-05 10:19:22.498267+01 | 1486286362.49827 | pgbench_branches |             8192

 2017-02-05 10:19:23.584216+01 | 1486286363.58422 | pgbench_accounts |       1379270656
 2017-02-05 10:19:23.584216+01 | 1486286363.58422 | pgbench_tellers  |            49152
 2017-02-05 10:19:23.584216+01 | 1486286363.58422 | pgbench_history  |        415809536
 2017-02-05 10:19:23.584216+01 | 1486286363.58422 | pgbench_branches |             8192

 2017-02-05 10:19:24.672375+01 | 1486286364.67237 | pgbench_accounts |       1379270656
 2017-02-05 10:19:24.672375+01 | 1486286364.67237 | pgbench_tellers  |            49152
 2017-02-05 10:19:24.672375+01 | 1486286364.67237 | pgbench_history  |        417333248
 2017-02-05 10:19:24.672375+01 | 1486286364.67237 | pgbench_branches |             8192

 2017-02-05 10:19:25.752754+01 | 1486286365.75275 | pgbench_accounts |       1379270656
 2017-02-05 10:19:25.752754+01 | 1486286365.75275 | pgbench_tellers  |            49152
 2017-02-05 10:19:25.752754+01 | 1486286365.75275 | pgbench_history  |        419897344
 2017-02-05 10:19:25.752754+01 | 1486286365.75275 | pgbench_branches |             8192

 2017-02-05 10:19:26.834735+01 | 1486286366.83473 | pgbench_accounts |       1379270656
 2017-02-05 10:19:26.834735+01 | 1486286366.83473 | pgbench_tellers  |            49152
 2017-02-05 10:19:26.834735+01 | 1486286366.83473 | pgbench_history  |        422608896
 2017-02-05 10:19:26.834735+01 | 1486286366.83473 | pgbench_branches |             8192

 2017-02-05 10:19:27.916564+01 | 1486286367.91656 | pgbench_accounts |       1379270656
 2017-02-05 10:19:27.916564+01 | 1486286367.91656 | pgbench_tellers  |            49152
 2017-02-05 10:19:27.916564+01 | 1486286367.91656 | pgbench_history  |        424165376
 2017-02-05 10:19:27.916564+01 | 1486286367.91656 | pgbench_branches |             8192

 2017-02-05 10:19:28.989916+01 | 1486286368.98992 | pgbench_accounts |       1379270656
 2017-02-05 10:19:28.989916+01 | 1486286368.98992 | pgbench_tellers  |            49152
 2017-02-05 10:19:28.989916+01 | 1486286368.98992 | pgbench_history  |        426377216
 2017-02-05 10:19:28.989916+01 | 1486286368.98992 | pgbench_branches |             8192

 2017-02-05 10:19:30.058047+01 | 1486286370.05805 | pgbench_accounts |       1379270656
 2017-02-05 10:19:30.058047+01 | 1486286370.05805 | pgbench_tellers  |            49152
 2017-02-05 10:19:30.058047+01 | 1486286370.05805 | pgbench_history  |        429293568
 2017-02-05 10:19:30.058047+01 | 1486286370.05805 | pgbench_branches |             8192

 2017-02-05 10:19:31.137038+01 | 1486286371.13704 | pgbench_accounts |       1379270656
 2017-02-05 10:19:31.137038+01 | 1486286371.13704 | pgbench_tellers  |            49152
 2017-02-05 10:19:31.137038+01 | 1486286371.13704 | pgbench_history  |        431005696
 2017-02-05 10:19:31.137038+01 | 1486286371.13704 | pgbench_branches |             8192

 2017-02-05 10:19:32.224667+01 | 1486286372.22467 | pgbench_accounts |       1379270656
 2017-02-05 10:19:32.224667+01 | 1486286372.22467 | pgbench_tellers  |            49152
 2017-02-05 10:19:32.224667+01 | 1486286372.22467 | pgbench_history  |        433512448
 2017-02-05 10:19:32.224667+01 | 1486286372.22467 | pgbench_branches |             8192

 2017-02-05 10:19:33.298306+01 | 1486286373.29831 | pgbench_accounts |       1379270656
 2017-02-05 10:19:33.298306+01 | 1486286373.29831 | pgbench_tellers  |            49152
 2017-02-05 10:19:33.298306+01 | 1486286373.29831 | pgbench_history  |        435716096
 2017-02-05 10:19:33.298306+01 | 1486286373.29831 | pgbench_branches |             8192

 2017-02-05 10:19:34.375138+01 | 1486286374.37514 | pgbench_accounts |       1379270656
 2017-02-05 10:19:34.375138+01 | 1486286374.37514 | pgbench_tellers  |            49152
 2017-02-05 10:19:34.375138+01 | 1486286374.37514 | pgbench_history  |        438460416
 2017-02-05 10:19:34.375138+01 | 1486286374.37514 | pgbench_branches |             8192

 2017-02-05 10:19:35.450924+01 | 1486286375.45092 | pgbench_accounts |       1379270656
 2017-02-05 10:19:35.450924+01 | 1486286375.45092 | pgbench_tellers  |            49152
 2017-02-05 10:19:35.450924+01 | 1486286375.45092 | pgbench_history  |        440016896
 2017-02-05 10:19:35.450924+01 | 1486286375.45092 | pgbench_branches |             8192

 2017-02-05 10:19:36.527385+01 | 1486286376.52738 | pgbench_accounts |       1379270656
 2017-02-05 10:19:36.527385+01 | 1486286376.52738 | pgbench_tellers  |            49152
 2017-02-05 10:19:36.527385+01 | 1486286376.52738 | pgbench_history  |        442195968
 2017-02-05 10:19:36.527385+01 | 1486286376.52738 | pgbench_branches |             8192

 2017-02-05 10:19:37.604017+01 | 1486286377.60402 | pgbench_accounts |       1379270656
 2017-02-05 10:19:37.604017+01 | 1486286377.60402 | pgbench_tellers  |            49152
 2017-02-05 10:19:37.604017+01 | 1486286377.60402 | pgbench_history  |        444735488
 2017-02-05 10:19:37.604017+01 | 1486286377.60402 | pgbench_branches |             8192

 2017-02-05 10:19:38.683512+01 | 1486286378.68351 | pgbench_accounts |       1379270656
 2017-02-05 10:19:38.683512+01 | 1486286378.68351 | pgbench_tellers  |            49152
 2017-02-05 10:19:38.683512+01 | 1486286378.68351 | pgbench_history  |        446939136
 2017-02-05 10:19:38.683512+01 | 1486286378.68351 | pgbench_branches |             8192

 2017-02-05 10:19:39.76069+01 | 1486286379.76069 | pgbench_accounts |       1379270656
 2017-02-05 10:19:39.76069+01 | 1486286379.76069 | pgbench_tellers  |            49152
 2017-02-05 10:19:39.76069+01 | 1486286379.76069 | pgbench_history  |        448815104
 2017-02-05 10:19:39.76069+01 | 1486286379.76069 | pgbench_branches |             8192

 2017-02-05 10:19:40.836769+01 | 1486286380.83677 | pgbench_accounts |       1379270656
 2017-02-05 10:19:40.836769+01 | 1486286380.83677 | pgbench_tellers  |            49152
 2017-02-05 10:19:40.836769+01 | 1486286380.83677 | pgbench_history  |        451534848
 2017-02-05 10:19:40.836769+01 | 1486286380.83677 | pgbench_branches |             8192

 2017-02-05 10:19:41.912717+01 | 1486286381.91272 | pgbench_accounts |       1379270656
 2017-02-05 10:19:41.912717+01 | 1486286381.91272 | pgbench_tellers  |            49152
 2017-02-05 10:19:41.912717+01 | 1486286381.91272 | pgbench_history  |        454606848
 2017-02-05 10:19:41.912717+01 | 1486286381.91272 | pgbench_branches |             8192

 2017-02-05 10:19:42.986063+01 | 1486286382.98606 | pgbench_accounts |       1379270656
 2017-02-05 10:19:42.986063+01 | 1486286382.98606 | pgbench_tellers  |            49152
 2017-02-05 10:19:42.986063+01 | 1486286382.98606 | pgbench_history  |        456138752
 2017-02-05 10:19:42.986063+01 | 1486286382.98606 | pgbench_branches |             8192

 2017-02-05 10:19:44.065234+01 | 1486286384.06523 | pgbench_accounts |       1379270656
 2017-02-05 10:19:44.065234+01 | 1486286384.06523 | pgbench_tellers  |            49152
 2017-02-05 10:19:44.065234+01 | 1486286384.06523 | pgbench_history  |        458227712
 2017-02-05 10:19:44.065234+01 | 1486286384.06523 | pgbench_branches |             8192

 2017-02-05 10:19:45.140742+01 | 1486286385.14074 | pgbench_accounts |       1379270656
 2017-02-05 10:19:45.140742+01 | 1486286385.14074 | pgbench_tellers  |            49152
 2017-02-05 10:19:45.140742+01 | 1486286385.14074 | pgbench_history  |        460136448
 2017-02-05 10:19:45.140742+01 | 1486286385.14074 | pgbench_branches |             8192

 2017-02-05 10:19:46.213499+01 | 1486286386.2135 | pgbench_accounts |       1379270656
 2017-02-05 10:19:46.213499+01 | 1486286386.2135 | pgbench_tellers  |            49152
 2017-02-05 10:19:46.213499+01 | 1486286386.2135 | pgbench_history  |        462995456
 2017-02-05 10:19:46.213499+01 | 1486286386.2135 | pgbench_branches |             8192

 2017-02-05 10:19:47.296503+01 | 1486286387.2965 | pgbench_accounts |       1379270656
 2017-02-05 10:19:47.296503+01 | 1486286387.2965 | pgbench_tellers  |            49152
 2017-02-05 10:19:47.296503+01 | 1486286387.2965 | pgbench_history  |        464683008
 2017-02-05 10:19:47.296503+01 | 1486286387.2965 | pgbench_branches |             8192

 2017-02-05 10:19:48.37943+01 | 1486286388.37943 | pgbench_accounts |       1379270656
 2017-02-05 10:19:48.37943+01 | 1486286388.37943 | pgbench_tellers  |            49152
 2017-02-05 10:19:48.37943+01 | 1486286388.37943 | pgbench_history  |        467681280
 2017-02-05 10:19:48.37943+01 | 1486286388.37943 | pgbench_branches |             8192

 2017-02-05 10:19:49.46896+01 | 1486286389.46896 | pgbench_accounts |       1379270656
 2017-02-05 10:19:49.46896+01 | 1486286389.46896 | pgbench_tellers  |            49152
 2017-02-05 10:19:49.46896+01 | 1486286389.46896 | pgbench_history  |        469590016
 2017-02-05 10:19:49.46896+01 | 1486286389.46896 | pgbench_branches |             8192

 2017-02-05 10:19:50.548354+01 | 1486286390.54835 | pgbench_accounts |       1379270656
 2017-02-05 10:19:50.548354+01 | 1486286390.54835 | pgbench_tellers  |            49152
 2017-02-05 10:19:50.548354+01 | 1486286390.54835 | pgbench_history  |        471875584
 2017-02-05 10:19:50.548354+01 | 1486286390.54835 | pgbench_branches |             8192

 2017-02-05 10:19:51.62379+01 | 1486286391.62379 | pgbench_accounts |       1379270656
 2017-02-05 10:19:51.62379+01 | 1486286391.62379 | pgbench_tellers  |            49152
 2017-02-05 10:19:51.62379+01 | 1486286391.62379 | pgbench_history  |        473858048
 2017-02-05 10:19:51.62379+01 | 1486286391.62379 | pgbench_branches |             8192

 2017-02-05 10:19:52.700107+01 | 1486286392.70011 | pgbench_accounts |       1379270656
 2017-02-05 10:19:52.700107+01 | 1486286392.70011 | pgbench_tellers  |            49152
 2017-02-05 10:19:52.700107+01 | 1486286392.70011 | pgbench_history  |        476618752
 2017-02-05 10:19:52.700107+01 | 1486286392.70011 | pgbench_branches |             8192

 2017-02-05 10:19:53.787183+01 | 1486286393.78718 | pgbench_accounts |       1379270656
 2017-02-05 10:19:53.787183+01 | 1486286393.78718 | pgbench_tellers  |            49152
 2017-02-05 10:19:53.787183+01 | 1486286393.78718 | pgbench_history  |        478355456
 2017-02-05 10:19:53.787183+01 | 1486286393.78718 | pgbench_branches |             8192

 2017-02-05 10:19:54.872104+01 | 1486286394.8721 | pgbench_accounts |       1379270656
 2017-02-05 10:19:54.872104+01 | 1486286394.8721 | pgbench_tellers  |            49152
 2017-02-05 10:19:54.872104+01 | 1486286394.8721 | pgbench_history  |        480403456
 2017-02-05 10:19:54.872104+01 | 1486286394.8721 | pgbench_branches |             8192

 2017-02-05 10:19:55.94439+01 | 1486286395.94439 | pgbench_accounts |       1379270656
 2017-02-05 10:19:55.94439+01 | 1486286395.94439 | pgbench_tellers  |            49152
 2017-02-05 10:19:55.94439+01 | 1486286395.94439 | pgbench_history  |        483270656
 2017-02-05 10:19:55.94439+01 | 1486286395.94439 | pgbench_branches |             8192

 2017-02-05 10:19:57.011892+01 | 1486286397.01189 | pgbench_accounts |       1379270656
 2017-02-05 10:19:57.011892+01 | 1486286397.01189 | pgbench_tellers  |            49152
 2017-02-05 10:19:57.011892+01 | 1486286397.01189 | pgbench_history  |        485474304
 2017-02-05 10:19:57.011892+01 | 1486286397.01189 | pgbench_branches |             8192

 2017-02-05 10:19:58.092501+01 | 1486286398.0925 | pgbench_accounts |       1379270656
 2017-02-05 10:19:58.092501+01 | 1486286398.0925 | pgbench_tellers  |            49152
 2017-02-05 10:19:58.092501+01 | 1486286398.0925 | pgbench_history  |        487161856
 2017-02-05 10:19:58.092501+01 | 1486286398.0925 | pgbench_branches |             8192

 2017-02-05 10:19:59.164883+01 | 1486286399.16488 | pgbench_accounts |       1379270656
 2017-02-05 10:19:59.164883+01 | 1486286399.16488 | pgbench_tellers  |            49152
 2017-02-05 10:19:59.164883+01 | 1486286399.16488 | pgbench_history  |        489070592
 2017-02-05 10:19:59.164883+01 | 1486286399.16488 | pgbench_branches |             8192

 2017-02-05 10:20:00.241312+01 | 1486286400.24131 | pgbench_accounts |       1379270656
 2017-02-05 10:20:00.241312+01 | 1486286400.24131 | pgbench_tellers  |            49152
 2017-02-05 10:20:00.241312+01 | 1486286400.24131 | pgbench_history  |        491282432
 2017-02-05 10:20:00.241312+01 | 1486286400.24131 | pgbench_branches |             8192

 2017-02-05 10:20:01.316987+01 | 1486286401.31699 | pgbench_accounts |       1379270656
 2017-02-05 10:20:01.316987+01 | 1486286401.31699 | pgbench_tellers  |            49152
 2017-02-05 10:20:01.316987+01 | 1486286401.31699 | pgbench_history  |        493674496
 2017-02-05 10:20:01.316987+01 | 1486286401.31699 | pgbench_branches |             8192

 2017-02-05 10:20:02.394473+01 | 1486286402.39447 | pgbench_accounts |       1379270656
 2017-02-05 10:20:02.394473+01 | 1486286402.39447 | pgbench_tellers  |            49152
 2017-02-05 10:20:02.394473+01 | 1486286402.39447 | pgbench_history  |        495362048
 2017-02-05 10:20:02.394473+01 | 1486286402.39447 | pgbench_branches |             8192

 2017-02-05 10:20:03.473822+01 | 1486286403.47382 | pgbench_accounts |       1379270656
 2017-02-05 10:20:03.473822+01 | 1486286403.47382 | pgbench_tellers  |            49152
 2017-02-05 10:20:03.473822+01 | 1486286403.47382 | pgbench_history  |        497401856
 2017-02-05 10:20:03.473822+01 | 1486286403.47382 | pgbench_branches |             8192

 2017-02-05 10:20:04.551034+01 | 1486286404.55103 | pgbench_accounts |       1379270656
 2017-02-05 10:20:04.551034+01 | 1486286404.55103 | pgbench_tellers  |            49152
 2017-02-05 10:20:04.551034+01 | 1486286404.55103 | pgbench_history  |        499253248
 2017-02-05 10:20:04.551034+01 | 1486286404.55103 | pgbench_branches |             8192

 2017-02-05 10:20:05.639158+01 | 1486286405.63916 | pgbench_accounts |       1379270656
 2017-02-05 10:20:05.639158+01 | 1486286405.63916 | pgbench_tellers  |            49152
 2017-02-05 10:20:05.639158+01 | 1486286405.63916 | pgbench_history  |        501620736
 2017-02-05 10:20:05.639158+01 | 1486286405.63916 | pgbench_branches |             8192

 2017-02-05 10:20:06.719382+01 | 1486286406.71938 | pgbench_accounts |       1379270656
 2017-02-05 10:20:06.719382+01 | 1486286406.71938 | pgbench_tellers  |            49152
 2017-02-05 10:20:06.719382+01 | 1486286406.71938 | pgbench_history  |        503332864
 2017-02-05 10:20:06.719382+01 | 1486286406.71938 | pgbench_branches |             8192

 2017-02-05 10:20:07.811375+01 | 1486286407.81137 | pgbench_accounts |       1379270656
 2017-02-05 10:20:07.811375+01 | 1486286407.81137 | pgbench_tellers  |            49152
 2017-02-05 10:20:07.811375+01 | 1486286407.81137 | pgbench_history  |        505724928
 2017-02-05 10:20:07.811375+01 | 1486286407.81137 | pgbench_branches |             8192

 2017-02-05 10:20:08.891247+01 | 1486286408.89125 | pgbench_accounts |       1379270656
 2017-02-05 10:20:08.891247+01 | 1486286408.89125 | pgbench_tellers  |            49152
 2017-02-05 10:20:08.891247+01 | 1486286408.89125 | pgbench_history  |        508067840
 2017-02-05 10:20:08.891247+01 | 1486286408.89125 | pgbench_branches |             8192

 2017-02-05 10:20:09.979789+01 | 1486286409.97979 | pgbench_accounts |       1379270656
 2017-02-05 10:20:09.979789+01 | 1486286409.97979 | pgbench_tellers  |            49152
 2017-02-05 10:20:09.979789+01 | 1486286409.97979 | pgbench_history  |        510115840
 2017-02-05 10:20:09.979789+01 | 1486286409.97979 | pgbench_branches |             8192

 2017-02-05 10:20:11.059133+01 | 1486286411.05913 | pgbench_accounts |       1379270656
 2017-02-05 10:20:11.059133+01 | 1486286411.05913 | pgbench_tellers  |            49152
 2017-02-05 10:20:11.059133+01 | 1486286411.05913 | pgbench_history  |        512155648
 2017-02-05 10:20:11.059133+01 | 1486286411.05913 | pgbench_branches |             8192

 2017-02-05 10:20:12.138206+01 | 1486286412.13821 | pgbench_accounts |       1379270656
 2017-02-05 10:20:12.138206+01 | 1486286412.13821 | pgbench_tellers  |            49152
 2017-02-05 10:20:12.138206+01 | 1486286412.13821 | pgbench_history  |        513843200
 2017-02-05 10:20:12.138206+01 | 1486286412.13821 | pgbench_branches |             8192

 2017-02-05 10:20:13.21558+01 | 1486286413.21558 | pgbench_accounts |       1379270656
 2017-02-05 10:20:13.21558+01 | 1486286413.21558 | pgbench_tellers  |            49152
 2017-02-05 10:20:13.21558+01 | 1486286413.21558 | pgbench_history  |        515858432
 2017-02-05 10:20:13.21558+01 | 1486286413.21558 | pgbench_branches |             8192

 2017-02-05 10:20:14.298632+01 | 1486286414.29863 | pgbench_accounts |       1379270656
 2017-02-05 10:20:14.298632+01 | 1486286414.29863 | pgbench_tellers  |            49152
 2017-02-05 10:20:14.298632+01 | 1486286414.29863 | pgbench_history  |        517955584
 2017-02-05 10:20:14.298632+01 | 1486286414.29863 | pgbench_branches |             8192

 2017-02-05 10:20:15.378368+01 | 1486286415.37837 | pgbench_accounts |       1379270656
 2017-02-05 10:20:15.378368+01 | 1486286415.37837 | pgbench_tellers  |            49152
 2017-02-05 10:20:15.378368+01 | 1486286415.37837 | pgbench_history  |        519880704
 2017-02-05 10:20:15.378368+01 | 1486286415.37837 | pgbench_branches |             8192

 2017-02-05 10:20:16.455437+01 | 1486286416.45544 | pgbench_accounts |       1379270656
 2017-02-05 10:20:16.455437+01 | 1486286416.45544 | pgbench_tellers  |            49152
 2017-02-05 10:20:16.455437+01 | 1486286416.45544 | pgbench_history  |        522575872
 2017-02-05 10:20:16.455437+01 | 1486286416.45544 | pgbench_branches |             8192

 2017-02-05 10:20:17.531087+01 | 1486286417.53109 | pgbench_accounts |       1379270656
 2017-02-05 10:20:17.531087+01 | 1486286417.53109 | pgbench_tellers  |            49152
 2017-02-05 10:20:17.531087+01 | 1486286417.53109 | pgbench_history  |        525107200
 2017-02-05 10:20:17.531087+01 | 1486286417.53109 | pgbench_branches |             8192

 2017-02-05 10:20:18.606724+01 | 1486286418.60672 | pgbench_accounts |       1379270656
 2017-02-05 10:20:18.606724+01 | 1486286418.60672 | pgbench_tellers  |            49152
 2017-02-05 10:20:18.606724+01 | 1486286418.60672 | pgbench_history  |        526155776
 2017-02-05 10:20:18.606724+01 | 1486286418.60672 | pgbench_branches |             8192

 2017-02-05 10:20:19.681463+01 | 1486286419.68146 | pgbench_accounts |       1379270656
 2017-02-05 10:20:19.681463+01 | 1486286419.68146 | pgbench_tellers  |            49152
 2017-02-05 10:20:19.681463+01 | 1486286419.68146 | pgbench_history  |        527867904
 2017-02-05 10:20:19.681463+01 | 1486286419.68146 | pgbench_branches |             8192

 2017-02-05 10:20:20.760639+01 | 1486286420.76064 | pgbench_accounts |       1379270656
 2017-02-05 10:20:20.760639+01 | 1486286420.76064 | pgbench_tellers  |            49152
 2017-02-05 10:20:20.760639+01 | 1486286420.76064 | pgbench_history  |        530259968
 2017-02-05 10:20:20.760639+01 | 1486286420.76064 | pgbench_branches |             8192

 2017-02-05 10:20:21.840122+01 | 1486286421.84012 | pgbench_accounts |       1379270656
 2017-02-05 10:20:21.840122+01 | 1486286421.84012 | pgbench_tellers  |            49152
 2017-02-05 10:20:21.840122+01 | 1486286421.84012 | pgbench_history  |        532791296
 2017-02-05 10:20:21.840122+01 | 1486286421.84012 | pgbench_branches |             8192

 2017-02-05 10:20:22.923623+01 | 1486286422.92362 | pgbench_accounts |       1379270656
 2017-02-05 10:20:22.923623+01 | 1486286422.92362 | pgbench_tellers  |            49152
 2017-02-05 10:20:22.923623+01 | 1486286422.92362 | pgbench_history  |        534667264
 2017-02-05 10:20:22.923623+01 | 1486286422.92362 | pgbench_branches |             8192

 2017-02-05 10:20:24.00237+01 | 1486286424.00237 | pgbench_accounts |       1379270656
 2017-02-05 10:20:24.00237+01 | 1486286424.00237 | pgbench_tellers  |            49152
 2017-02-05 10:20:24.00237+01 | 1486286424.00237 | pgbench_history  |        536190976
 2017-02-05 10:20:24.00237+01 | 1486286424.00237 | pgbench_branches |             8192

 2017-02-05 10:20:25.094214+01 | 1486286425.09421 | pgbench_accounts |       1379270656
 2017-02-05 10:20:25.094214+01 | 1486286425.09421 | pgbench_tellers  |            49152
 2017-02-05 10:20:25.094214+01 | 1486286425.09421 | pgbench_history  |        538910720
 2017-02-05 10:20:25.094214+01 | 1486286425.09421 | pgbench_branches |             8192

 2017-02-05 10:20:26.171736+01 | 1486286426.17174 | pgbench_accounts |       1379270656
 2017-02-05 10:20:26.171736+01 | 1486286426.17174 | pgbench_tellers  |            49152
 2017-02-05 10:20:26.171736+01 | 1486286426.17174 | pgbench_history  |        541122560
 2017-02-05 10:20:26.171736+01 | 1486286426.17174 | pgbench_branches |             8192

 2017-02-05 10:20:27.247272+01 | 1486286427.24727 | pgbench_accounts |       1379270656
 2017-02-05 10:20:27.247272+01 | 1486286427.24727 | pgbench_tellers  |            49152
 2017-02-05 10:20:27.247272+01 | 1486286427.24727 | pgbench_history  |        543465472
 2017-02-05 10:20:27.247272+01 | 1486286427.24727 | pgbench_branches |             8192

 2017-02-05 10:20:28.327114+01 | 1486286428.32711 | pgbench_accounts |       1379270656
 2017-02-05 10:20:28.327114+01 | 1486286428.32711 | pgbench_tellers  |            49152
 2017-02-05 10:20:28.327114+01 | 1486286428.32711 | pgbench_history  |        545505280
 2017-02-05 10:20:28.327114+01 | 1486286428.32711 | pgbench_branches |             8192

 2017-02-05 10:20:29.413618+01 | 1486286429.41362 | pgbench_accounts |       1379270656
 2017-02-05 10:20:29.413618+01 | 1486286429.41362 | pgbench_tellers  |            49152
 2017-02-05 10:20:29.413618+01 | 1486286429.41362 | pgbench_history  |        547946496
 2017-02-05 10:20:29.413618+01 | 1486286429.41362 | pgbench_branches |             8192

 2017-02-05 10:20:30.492228+01 | 1486286430.49223 | pgbench_accounts |       1379270656
 2017-02-05 10:20:30.492228+01 | 1486286430.49223 | pgbench_tellers  |            49152
 2017-02-05 10:20:30.492228+01 | 1486286430.49223 | pgbench_history  |        550567936
 2017-02-05 10:20:30.492228+01 | 1486286430.49223 | pgbench_branches |             8192

 2017-02-05 10:20:31.571715+01 | 1486286431.57172 | pgbench_accounts |       1379270656
 2017-02-05 10:20:31.571715+01 | 1486286431.57172 | pgbench_tellers  |            49152
 2017-02-05 10:20:31.571715+01 | 1486286431.57172 | pgbench_history  |        552583168
 2017-02-05 10:20:31.571715+01 | 1486286431.57172 | pgbench_branches |             8192

 2017-02-05 10:20:32.646675+01 | 1486286432.64668 | pgbench_accounts |       1379270656
 2017-02-05 10:20:32.646675+01 | 1486286432.64668 | pgbench_tellers  |            49152
 2017-02-05 10:20:32.646675+01 | 1486286432.64668 | pgbench_history  |        555139072
 2017-02-05 10:20:32.646675+01 | 1486286432.64668 | pgbench_branches |             8192

 2017-02-05 10:20:33.734951+01 | 1486286433.73495 | pgbench_accounts |       1379270656
 2017-02-05 10:20:33.734951+01 | 1486286433.73495 | pgbench_tellers  |            49152
 2017-02-05 10:20:33.734951+01 | 1486286433.73495 | pgbench_history  |        558030848
 2017-02-05 10:20:33.734951+01 | 1486286433.73495 | pgbench_branches |             8192

 2017-02-05 10:20:34.813331+01 | 1486286434.81333 | pgbench_accounts |       1379270656
 2017-02-05 10:20:34.813331+01 | 1486286434.81333 | pgbench_tellers  |            49152
 2017-02-05 10:20:34.813331+01 | 1486286434.81333 | pgbench_history  |        559390720
 2017-02-05 10:20:34.813331+01 | 1486286434.81333 | pgbench_branches |             8192

 2017-02-05 10:20:35.889416+01 | 1486286435.88942 | pgbench_accounts |       1379270656
 2017-02-05 10:20:35.889416+01 | 1486286435.88942 | pgbench_tellers  |            49152
 2017-02-05 10:20:35.889416+01 | 1486286435.88942 | pgbench_history  |        561643520
 2017-02-05 10:20:35.889416+01 | 1486286435.88942 | pgbench_branches |             8192

 2017-02-05 10:20:36.965072+01 | 1486286436.96507 | pgbench_accounts |       1379270656
 2017-02-05 10:20:36.965072+01 | 1486286436.96507 | pgbench_tellers  |            49152
 2017-02-05 10:20:36.965072+01 | 1486286436.96507 | pgbench_history  |        563847168
 2017-02-05 10:20:36.965072+01 | 1486286436.96507 | pgbench_branches |             8192

 2017-02-05 10:20:38.047892+01 | 1486286438.04789 | pgbench_accounts |       1379270656
 2017-02-05 10:20:38.047892+01 | 1486286438.04789 | pgbench_tellers  |            49152
 2017-02-05 10:20:38.047892+01 | 1486286438.04789 | pgbench_history  |        566272000
 2017-02-05 10:20:38.047892+01 | 1486286438.04789 | pgbench_branches |             8192

 2017-02-05 10:20:39.1291+01 | 1486286439.1291 | pgbench_accounts |       1379270656
 2017-02-05 10:20:39.1291+01 | 1486286439.1291 | pgbench_tellers  |            49152
 2017-02-05 10:20:39.1291+01 | 1486286439.1291 | pgbench_history  |        568508416
 2017-02-05 10:20:39.1291+01 | 1486286439.1291 | pgbench_branches |             8192

 2017-02-05 10:20:40.211956+01 | 1486286440.21196 | pgbench_accounts |       1379270656
 2017-02-05 10:20:40.211956+01 | 1486286440.21196 | pgbench_tellers  |            49152
 2017-02-05 10:20:40.211956+01 | 1486286440.21196 | pgbench_history  |        571564032
 2017-02-05 10:20:40.211956+01 | 1486286440.21196 | pgbench_branches |             8192

 2017-02-05 10:20:41.285327+01 | 1486286441.28533 | pgbench_accounts |       1379270656
 2017-02-05 10:20:41.285327+01 | 1486286441.28533 | pgbench_tellers  |            49152
 2017-02-05 10:20:41.285327+01 | 1486286441.28533 | pgbench_history  |        573112320
 2017-02-05 10:20:41.285327+01 | 1486286441.28533 | pgbench_branches |             8192

 2017-02-05 10:20:42.361737+01 | 1486286442.36174 | pgbench_accounts |       1379270656
 2017-02-05 10:20:42.361737+01 | 1486286442.36174 | pgbench_tellers  |            49152
 2017-02-05 10:20:42.361737+01 | 1486286442.36174 | pgbench_history  |        575504384
 2017-02-05 10:20:42.361737+01 | 1486286442.36174 | pgbench_branches |             8192

 2017-02-05 10:20:43.442949+01 | 1486286443.44295 | pgbench_accounts |       1379270656
 2017-02-05 10:20:43.442949+01 | 1486286443.44295 | pgbench_tellers  |            49152
 2017-02-05 10:20:43.442949+01 | 1486286443.44295 | pgbench_history  |        577847296
 2017-02-05 10:20:43.442949+01 | 1486286443.44295 | pgbench_branches |             8192

 2017-02-05 10:20:44.52006+01 | 1486286444.52006 | pgbench_accounts |       1379270656
 2017-02-05 10:20:44.52006+01 | 1486286444.52006 | pgbench_tellers  |            49152
 2017-02-05 10:20:44.52006+01 | 1486286444.52006 | pgbench_history  |        580222976
 2017-02-05 10:20:44.52006+01 | 1486286444.52006 | pgbench_branches |             8192

 2017-02-05 10:20:45.591441+01 | 1486286445.59144 | pgbench_accounts |       1379270656
 2017-02-05 10:20:45.591441+01 | 1486286445.59144 | pgbench_tellers  |            49152
 2017-02-05 10:20:45.591441+01 | 1486286445.59144 | pgbench_history  |        582565888
 2017-02-05 10:20:45.591441+01 | 1486286445.59144 | pgbench_branches |             8192

 2017-02-05 10:20:46.674385+01 | 1486286446.67439 | pgbench_accounts |       1379270656
 2017-02-05 10:20:46.674385+01 | 1486286446.67439 | pgbench_tellers  |            49152
 2017-02-05 10:20:46.674385+01 | 1486286446.67439 | pgbench_history  |        585515008
 2017-02-05 10:20:46.674385+01 | 1486286446.67439 | pgbench_branches |             8192

 2017-02-05 10:20:47.758079+01 | 1486286447.75808 | pgbench_accounts |       1379270656
 2017-02-05 10:20:47.758079+01 | 1486286447.75808 | pgbench_tellers  |            49152
 2017-02-05 10:20:47.758079+01 | 1486286447.75808 | pgbench_history  |        586547200
 2017-02-05 10:20:47.758079+01 | 1486286447.75808 | pgbench_branches |             8192

 2017-02-05 10:20:48.839727+01 | 1486286448.83973 | pgbench_accounts |       1379270656
 2017-02-05 10:20:48.839727+01 | 1486286448.83973 | pgbench_tellers  |            49152
 2017-02-05 10:20:48.839727+01 | 1486286448.83973 | pgbench_history  |        590364672
 2017-02-05 10:20:48.839727+01 | 1486286448.83973 | pgbench_branches |             8192

 2017-02-05 10:20:49.915807+01 | 1486286449.91581 | pgbench_accounts |       1379270656
 2017-02-05 10:20:49.915807+01 | 1486286449.91581 | pgbench_tellers  |            49152
 2017-02-05 10:20:49.915807+01 | 1486286449.91581 | pgbench_history  |        591888384
 2017-02-05 10:20:49.915807+01 | 1486286449.91581 | pgbench_branches |             8192

 2017-02-05 10:20:50.984359+01 | 1486286450.98436 | pgbench_accounts |       1379270656
 2017-02-05 10:20:50.984359+01 | 1486286450.98436 | pgbench_tellers  |            49152
 2017-02-05 10:20:50.984359+01 | 1486286450.98436 | pgbench_history  |        593600512
 2017-02-05 10:20:50.984359+01 | 1486286450.98436 | pgbench_branches |             8192

 2017-02-05 10:20:52.066705+01 | 1486286452.0667 | pgbench_accounts |       1379270656
 2017-02-05 10:20:52.066705+01 | 1486286452.0667 | pgbench_tellers  |            49152
 2017-02-05 10:20:52.066705+01 | 1486286452.0667 | pgbench_history  |        597139456
 2017-02-05 10:20:52.066705+01 | 1486286452.0667 | pgbench_branches |             8192

 2017-02-05 10:20:53.145566+01 | 1486286453.14557 | pgbench_accounts |       1379270656
 2017-02-05 10:20:53.145566+01 | 1486286453.14557 | pgbench_tellers  |            49152
 2017-02-05 10:20:53.145566+01 | 1486286453.14557 | pgbench_history  |        598515712
 2017-02-05 10:20:53.145566+01 | 1486286453.14557 | pgbench_branches |             8192

 2017-02-05 10:20:54.218067+01 | 1486286454.21807 | pgbench_accounts |       1379270656
 2017-02-05 10:20:54.218067+01 | 1486286454.21807 | pgbench_tellers  |            49152
 2017-02-05 10:20:54.218067+01 | 1486286454.21807 | pgbench_history  |        600645632
 2017-02-05 10:20:54.218067+01 | 1486286454.21807 | pgbench_branches |             8192

 2017-02-05 10:20:55.290708+01 | 1486286455.29071 | pgbench_accounts |       1379270656
 2017-02-05 10:20:55.290708+01 | 1486286455.29071 | pgbench_tellers  |            49152
 2017-02-05 10:20:55.290708+01 | 1486286455.29071 | pgbench_history  |        603037696
 2017-02-05 10:20:55.290708+01 | 1486286455.29071 | pgbench_branches |             8192

 2017-02-05 10:20:56.365173+01 | 1486286456.36517 | pgbench_accounts |       1379270656
 2017-02-05 10:20:56.365173+01 | 1486286456.36517 | pgbench_tellers  |            49152
 2017-02-05 10:20:56.365173+01 | 1486286456.36517 | pgbench_history  |        606437376
 2017-02-05 10:20:56.365173+01 | 1486286456.36517 | pgbench_branches |             8192

 2017-02-05 10:20:57.442368+01 | 1486286457.44237 | pgbench_accounts |       1379270656
 2017-02-05 10:20:57.442368+01 | 1486286457.44237 | pgbench_tellers  |            49152
 2017-02-05 10:20:57.442368+01 | 1486286457.44237 | pgbench_history  |        608149504
 2017-02-05 10:20:57.442368+01 | 1486286457.44237 | pgbench_branches |             8192

 2017-02-05 10:20:58.518043+01 | 1486286458.51804 | pgbench_accounts |       1379270656
 2017-02-05 10:20:58.518043+01 | 1486286458.51804 | pgbench_tellers  |            49152
 2017-02-05 10:20:58.518043+01 | 1486286458.51804 | pgbench_history  |        611008512
 2017-02-05 10:20:58.518043+01 | 1486286458.51804 | pgbench_branches |             8192

 2017-02-05 10:20:59.589662+01 | 1486286459.58966 | pgbench_accounts |       1379270656
 2017-02-05 10:20:59.589662+01 | 1486286459.58966 | pgbench_tellers  |            49152
 2017-02-05 10:20:59.589662+01 | 1486286459.58966 | pgbench_history  |        613376000
 2017-02-05 10:20:59.589662+01 | 1486286459.58966 | pgbench_branches |             8192

 2017-02-05 10:21:00.657965+01 | 1486286460.65796 | pgbench_accounts |       1379270656
 2017-02-05 10:21:00.657965+01 | 1486286460.65796 | pgbench_tellers  |            49152
 2017-02-05 10:21:00.657965+01 | 1486286460.65796 | pgbench_history  |        615768064
 2017-02-05 10:21:00.657965+01 | 1486286460.65796 | pgbench_branches |             8192

 2017-02-05 10:21:01.731424+01 | 1486286461.73142 | pgbench_accounts |       1379270656
 2017-02-05 10:21:01.731424+01 | 1486286461.73142 | pgbench_tellers  |            49152
 2017-02-05 10:21:01.731424+01 | 1486286461.73142 | pgbench_history  |        617316352
 2017-02-05 10:21:01.731424+01 | 1486286461.73142 | pgbench_branches |             8192

 2017-02-05 10:21:02.802612+01 | 1486286462.80261 | pgbench_accounts |       1379270656
 2017-02-05 10:21:02.802612+01 | 1486286462.80261 | pgbench_tellers  |            49152
 2017-02-05 10:21:02.802612+01 | 1486286462.80261 | pgbench_history  |        619896832
 2017-02-05 10:21:02.802612+01 | 1486286462.80261 | pgbench_branches |             8192

 2017-02-05 10:21:03.877945+01 | 1486286463.87794 | pgbench_accounts |       1379270656
 2017-02-05 10:21:03.877945+01 | 1486286463.87794 | pgbench_tellers  |            49152
 2017-02-05 10:21:03.877945+01 | 1486286463.87794 | pgbench_history  |        621912064
 2017-02-05 10:21:03.877945+01 | 1486286463.87794 | pgbench_branches |             8192

 2017-02-05 10:21:04.965354+01 | 1486286464.96535 | pgbench_accounts |       1379270656
 2017-02-05 10:21:04.965354+01 | 1486286464.96535 | pgbench_tellers  |            49152
 2017-02-05 10:21:04.965354+01 | 1486286464.96535 | pgbench_history  |        624984064
 2017-02-05 10:21:04.965354+01 | 1486286464.96535 | pgbench_branches |             8192

 2017-02-05 10:21:06.049284+01 | 1486286466.04928 | pgbench_accounts |       1379270656
 2017-02-05 10:21:06.049284+01 | 1486286466.04928 | pgbench_tellers  |            49152
 2017-02-05 10:21:06.049284+01 | 1486286466.04928 | pgbench_history  |        627195904
 2017-02-05 10:21:06.049284+01 | 1486286466.04928 | pgbench_branches |             8192

