 2017-02-03 14:56:29.874138+01 | 1486130189.87414 | pgbench_branches_pkey |            40960
 2017-02-03 14:56:29.874138+01 | 1486130189.87414 | pgbench_tellers_pkey  |           245760
 2017-02-03 14:56:29.874138+01 | 1486130189.87414 | pgbench_accounts_pkey |       2246197248

 2017-02-03 14:56:30.983006+01 | 1486130190.98301 | pgbench_branches_pkey |            40960
 2017-02-03 14:56:30.983006+01 | 1486130190.98301 | pgbench_tellers_pkey  |           245760
 2017-02-03 14:56:30.983006+01 | 1486130190.98301 | pgbench_accounts_pkey |       2246197248

 2017-02-03 14:56:32.085296+01 | 1486130192.0853 | pgbench_branches_pkey |            40960
 2017-02-03 14:56:32.085296+01 | 1486130192.0853 | pgbench_tellers_pkey  |           245760
 2017-02-03 14:56:32.085296+01 | 1486130192.0853 | pgbench_accounts_pkey |       2246197248

 2017-02-03 14:56:33.187777+01 | 1486130193.18778 | pgbench_branches_pkey |            40960
 2017-02-03 14:56:33.187777+01 | 1486130193.18778 | pgbench_tellers_pkey  |           245760
 2017-02-03 14:56:33.187777+01 | 1486130193.18778 | pgbench_accounts_pkey |       2246197248

 2017-02-03 14:56:34.280823+01 | 1486130194.28082 | pgbench_branches_pkey |            40960
 2017-02-03 14:56:34.280823+01 | 1486130194.28082 | pgbench_tellers_pkey  |           245760
 2017-02-03 14:56:34.280823+01 | 1486130194.28082 | pgbench_accounts_pkey |       2246197248

 2017-02-03 14:56:35.393762+01 | 1486130195.39376 | pgbench_branches_pkey |            40960
 2017-02-03 14:56:35.393762+01 | 1486130195.39376 | pgbench_tellers_pkey  |           245760
 2017-02-03 14:56:35.393762+01 | 1486130195.39376 | pgbench_accounts_pkey |       2246197248

 2017-02-03 14:56:36.495944+01 | 1486130196.49594 | pgbench_branches_pkey |            40960
 2017-02-03 14:56:36.495944+01 | 1486130196.49594 | pgbench_tellers_pkey  |           245760
 2017-02-03 14:56:36.495944+01 | 1486130196.49594 | pgbench_accounts_pkey |       2246197248

 2017-02-03 14:56:37.596365+01 | 1486130197.59636 | pgbench_branches_pkey |            40960
 2017-02-03 14:56:37.596365+01 | 1486130197.59636 | pgbench_tellers_pkey  |           245760
 2017-02-03 14:56:37.596365+01 | 1486130197.59636 | pgbench_accounts_pkey |       2246197248

 2017-02-03 14:56:38.718246+01 | 1486130198.71825 | pgbench_branches_pkey |            40960
 2017-02-03 14:56:38.718246+01 | 1486130198.71825 | pgbench_tellers_pkey  |           245760
 2017-02-03 14:56:38.718246+01 | 1486130198.71825 | pgbench_accounts_pkey |       2246197248

 2017-02-03 14:56:39.82349+01 | 1486130199.82349 | pgbench_branches_pkey |            40960
 2017-02-03 14:56:39.82349+01 | 1486130199.82349 | pgbench_tellers_pkey  |           245760
 2017-02-03 14:56:39.82349+01 | 1486130199.82349 | pgbench_accounts_pkey |       2246197248

 2017-02-03 14:56:40.928348+01 | 1486130200.92835 | pgbench_branches_pkey |            40960
 2017-02-03 14:56:40.928348+01 | 1486130200.92835 | pgbench_tellers_pkey  |           245760
 2017-02-03 14:56:40.928348+01 | 1486130200.92835 | pgbench_accounts_pkey |       2246197248

 2017-02-03 14:56:42.033657+01 | 1486130202.03366 | pgbench_branches_pkey |            40960
 2017-02-03 14:56:42.033657+01 | 1486130202.03366 | pgbench_tellers_pkey  |           245760
 2017-02-03 14:56:42.033657+01 | 1486130202.03366 | pgbench_accounts_pkey |       2246197248

 2017-02-03 14:56:43.127719+01 | 1486130203.12772 | pgbench_branches_pkey |            40960
 2017-02-03 14:56:43.127719+01 | 1486130203.12772 | pgbench_tellers_pkey  |           245760
 2017-02-03 14:56:43.127719+01 | 1486130203.12772 | pgbench_accounts_pkey |       2246197248

 2017-02-03 14:56:44.244553+01 | 1486130204.24455 | pgbench_branches_pkey |            40960
 2017-02-03 14:56:44.244553+01 | 1486130204.24455 | pgbench_tellers_pkey  |           245760
 2017-02-03 14:56:44.244553+01 | 1486130204.24455 | pgbench_accounts_pkey |       2246197248

 2017-02-03 14:56:45.35816+01 | 1486130205.35816 | pgbench_branches_pkey |            40960
 2017-02-03 14:56:45.35816+01 | 1486130205.35816 | pgbench_tellers_pkey  |           245760
 2017-02-03 14:56:45.35816+01 | 1486130205.35816 | pgbench_accounts_pkey |       2246197248

 2017-02-03 14:56:46.467758+01 | 1486130206.46776 | pgbench_branches_pkey |            40960
 2017-02-03 14:56:46.467758+01 | 1486130206.46776 | pgbench_tellers_pkey  |           245760
 2017-02-03 14:56:46.467758+01 | 1486130206.46776 | pgbench_accounts_pkey |       2246197248

 2017-02-03 14:56:47.56991+01 | 1486130207.56991 | pgbench_branches_pkey |            40960
 2017-02-03 14:56:47.56991+01 | 1486130207.56991 | pgbench_tellers_pkey  |           245760
 2017-02-03 14:56:47.56991+01 | 1486130207.56991 | pgbench_accounts_pkey |       2246197248

 2017-02-03 14:56:48.678972+01 | 1486130208.67897 | pgbench_branches_pkey |            40960
 2017-02-03 14:56:48.678972+01 | 1486130208.67897 | pgbench_tellers_pkey  |           245760
 2017-02-03 14:56:48.678972+01 | 1486130208.67897 | pgbench_accounts_pkey |       2246197248

 2017-02-03 14:56:49.785165+01 | 1486130209.78517 | pgbench_branches_pkey |            40960
 2017-02-03 14:56:49.785165+01 | 1486130209.78517 | pgbench_tellers_pkey  |           245760
 2017-02-03 14:56:49.785165+01 | 1486130209.78517 | pgbench_accounts_pkey |       2246197248

 2017-02-03 14:56:50.90049+01 | 1486130210.90049 | pgbench_branches_pkey |            40960
 2017-02-03 14:56:50.90049+01 | 1486130210.90049 | pgbench_tellers_pkey  |           245760
 2017-02-03 14:56:50.90049+01 | 1486130210.90049 | pgbench_accounts_pkey |       2246197248

 2017-02-03 14:56:52.011687+01 | 1486130212.01169 | pgbench_branches_pkey |            40960
 2017-02-03 14:56:52.011687+01 | 1486130212.01169 | pgbench_tellers_pkey  |           245760
 2017-02-03 14:56:52.011687+01 | 1486130212.01169 | pgbench_accounts_pkey |       2246197248

 2017-02-03 14:56:53.103186+01 | 1486130213.10319 | pgbench_branches_pkey |            40960
 2017-02-03 14:56:53.103186+01 | 1486130213.10319 | pgbench_tellers_pkey  |           245760
 2017-02-03 14:56:53.103186+01 | 1486130213.10319 | pgbench_accounts_pkey |       2246197248

 2017-02-03 14:56:54.209559+01 | 1486130214.20956 | pgbench_branches_pkey |            40960
 2017-02-03 14:56:54.209559+01 | 1486130214.20956 | pgbench_tellers_pkey  |           245760
 2017-02-03 14:56:54.209559+01 | 1486130214.20956 | pgbench_accounts_pkey |       2246197248

 2017-02-03 14:56:55.316276+01 | 1486130215.31628 | pgbench_branches_pkey |            40960
 2017-02-03 14:56:55.316276+01 | 1486130215.31628 | pgbench_tellers_pkey  |           245760
 2017-02-03 14:56:55.316276+01 | 1486130215.31628 | pgbench_accounts_pkey |       2246197248

 2017-02-03 14:56:56.421991+01 | 1486130216.42199 | pgbench_branches_pkey |            40960
 2017-02-03 14:56:56.421991+01 | 1486130216.42199 | pgbench_tellers_pkey  |           245760
 2017-02-03 14:56:56.421991+01 | 1486130216.42199 | pgbench_accounts_pkey |       2246197248

 2017-02-03 14:56:57.539532+01 | 1486130217.53953 | pgbench_branches_pkey |            40960
 2017-02-03 14:56:57.539532+01 | 1486130217.53953 | pgbench_tellers_pkey  |           245760
 2017-02-03 14:56:57.539532+01 | 1486130217.53953 | pgbench_accounts_pkey |       2246197248

 2017-02-03 14:56:58.63249+01 | 1486130218.63249 | pgbench_branches_pkey |            40960
 2017-02-03 14:56:58.63249+01 | 1486130218.63249 | pgbench_tellers_pkey  |           245760
 2017-02-03 14:56:58.63249+01 | 1486130218.63249 | pgbench_accounts_pkey |       2246197248

 2017-02-03 14:56:59.743745+01 | 1486130219.74375 | pgbench_branches_pkey |            40960
 2017-02-03 14:56:59.743745+01 | 1486130219.74375 | pgbench_tellers_pkey  |           245760
 2017-02-03 14:56:59.743745+01 | 1486130219.74375 | pgbench_accounts_pkey |       2246197248

 2017-02-03 14:57:00.853973+01 | 1486130220.85397 | pgbench_branches_pkey |            40960
 2017-02-03 14:57:00.853973+01 | 1486130220.85397 | pgbench_tellers_pkey  |           245760
 2017-02-03 14:57:00.853973+01 | 1486130220.85397 | pgbench_accounts_pkey |       2246197248

 2017-02-03 14:57:01.962746+01 | 1486130221.96275 | pgbench_branches_pkey |            40960
 2017-02-03 14:57:01.962746+01 | 1486130221.96275 | pgbench_tellers_pkey  |           245760
 2017-02-03 14:57:01.962746+01 | 1486130221.96275 | pgbench_accounts_pkey |       2246197248

 2017-02-03 14:57:03.087007+01 | 1486130223.08701 | pgbench_branches_pkey |            40960
 2017-02-03 14:57:03.087007+01 | 1486130223.08701 | pgbench_tellers_pkey  |           245760
 2017-02-03 14:57:03.087007+01 | 1486130223.08701 | pgbench_accounts_pkey |       2246197248

 2017-02-03 14:57:04.224632+01 | 1486130224.22463 | pgbench_branches_pkey |            40960
 2017-02-03 14:57:04.224632+01 | 1486130224.22463 | pgbench_tellers_pkey  |           245760
 2017-02-03 14:57:04.224632+01 | 1486130224.22463 | pgbench_accounts_pkey |       2246197248

 2017-02-03 14:57:05.336738+01 | 1486130225.33674 | pgbench_branches_pkey |            40960
 2017-02-03 14:57:05.336738+01 | 1486130225.33674 | pgbench_tellers_pkey  |           245760
 2017-02-03 14:57:05.336738+01 | 1486130225.33674 | pgbench_accounts_pkey |       2246197248

 2017-02-03 14:57:06.442453+01 | 1486130226.44245 | pgbench_branches_pkey |            40960
 2017-02-03 14:57:06.442453+01 | 1486130226.44245 | pgbench_tellers_pkey  |           245760
 2017-02-03 14:57:06.442453+01 | 1486130226.44245 | pgbench_accounts_pkey |       2246197248

 2017-02-03 14:57:07.549456+01 | 1486130227.54946 | pgbench_branches_pkey |            40960
 2017-02-03 14:57:07.549456+01 | 1486130227.54946 | pgbench_tellers_pkey  |           245760
 2017-02-03 14:57:07.549456+01 | 1486130227.54946 | pgbench_accounts_pkey |       2246197248

 2017-02-03 14:57:08.653603+01 | 1486130228.6536 | pgbench_branches_pkey |            40960
 2017-02-03 14:57:08.653603+01 | 1486130228.6536 | pgbench_tellers_pkey  |           245760
 2017-02-03 14:57:08.653603+01 | 1486130228.6536 | pgbench_accounts_pkey |       2246197248

 2017-02-03 14:57:09.759182+01 | 1486130229.75918 | pgbench_branches_pkey |            40960
 2017-02-03 14:57:09.759182+01 | 1486130229.75918 | pgbench_tellers_pkey  |           245760
 2017-02-03 14:57:09.759182+01 | 1486130229.75918 | pgbench_accounts_pkey |       2246197248

 2017-02-03 14:57:10.857314+01 | 1486130230.85731 | pgbench_branches_pkey |            40960
 2017-02-03 14:57:10.857314+01 | 1486130230.85731 | pgbench_tellers_pkey  |           245760
 2017-02-03 14:57:10.857314+01 | 1486130230.85731 | pgbench_accounts_pkey |       2246197248

 2017-02-03 14:57:11.959035+01 | 1486130231.95903 | pgbench_branches_pkey |            40960
 2017-02-03 14:57:11.959035+01 | 1486130231.95903 | pgbench_tellers_pkey  |           245760
 2017-02-03 14:57:11.959035+01 | 1486130231.95903 | pgbench_accounts_pkey |       2246197248

 2017-02-03 14:57:13.073895+01 | 1486130233.07389 | pgbench_branches_pkey |            40960
 2017-02-03 14:57:13.073895+01 | 1486130233.07389 | pgbench_tellers_pkey  |           245760
 2017-02-03 14:57:13.073895+01 | 1486130233.07389 | pgbench_accounts_pkey |       2246197248

 2017-02-03 14:57:14.184713+01 | 1486130234.18471 | pgbench_branches_pkey |            40960
 2017-02-03 14:57:14.184713+01 | 1486130234.18471 | pgbench_tellers_pkey  |           245760
 2017-02-03 14:57:14.184713+01 | 1486130234.18471 | pgbench_accounts_pkey |       2246197248

 2017-02-03 14:57:15.274611+01 | 1486130235.27461 | pgbench_branches_pkey |            40960
 2017-02-03 14:57:15.274611+01 | 1486130235.27461 | pgbench_tellers_pkey  |           245760
 2017-02-03 14:57:15.274611+01 | 1486130235.27461 | pgbench_accounts_pkey |       2246197248

 2017-02-03 14:57:16.392766+01 | 1486130236.39277 | pgbench_branches_pkey |            40960
 2017-02-03 14:57:16.392766+01 | 1486130236.39277 | pgbench_tellers_pkey  |           245760
 2017-02-03 14:57:16.392766+01 | 1486130236.39277 | pgbench_accounts_pkey |       2246197248

 2017-02-03 14:57:17.49859+01 | 1486130237.49859 | pgbench_branches_pkey |            40960
 2017-02-03 14:57:17.49859+01 | 1486130237.49859 | pgbench_tellers_pkey  |           245760
 2017-02-03 14:57:17.49859+01 | 1486130237.49859 | pgbench_accounts_pkey |       2246197248

 2017-02-03 14:57:18.612466+01 | 1486130238.61247 | pgbench_branches_pkey |            40960
 2017-02-03 14:57:18.612466+01 | 1486130238.61247 | pgbench_tellers_pkey  |           245760
 2017-02-03 14:57:18.612466+01 | 1486130238.61247 | pgbench_accounts_pkey |       2246197248

 2017-02-03 14:57:19.733513+01 | 1486130239.73351 | pgbench_branches_pkey |            40960
 2017-02-03 14:57:19.733513+01 | 1486130239.73351 | pgbench_tellers_pkey  |           245760
 2017-02-03 14:57:19.733513+01 | 1486130239.73351 | pgbench_accounts_pkey |       2246197248

 2017-02-03 14:57:20.847188+01 | 1486130240.84719 | pgbench_branches_pkey |            40960
 2017-02-03 14:57:20.847188+01 | 1486130240.84719 | pgbench_tellers_pkey  |           245760
 2017-02-03 14:57:20.847188+01 | 1486130240.84719 | pgbench_accounts_pkey |       2246197248

 2017-02-03 14:57:21.96534+01 | 1486130241.96534 | pgbench_branches_pkey |            40960
 2017-02-03 14:57:21.96534+01 | 1486130241.96534 | pgbench_tellers_pkey  |           245760
 2017-02-03 14:57:21.96534+01 | 1486130241.96534 | pgbench_accounts_pkey |       2246197248

 2017-02-03 14:57:23.054567+01 | 1486130243.05457 | pgbench_branches_pkey |            40960
 2017-02-03 14:57:23.054567+01 | 1486130243.05457 | pgbench_tellers_pkey  |           245760
 2017-02-03 14:57:23.054567+01 | 1486130243.05457 | pgbench_accounts_pkey |       2246197248

 2017-02-03 14:57:24.160728+01 | 1486130244.16073 | pgbench_branches_pkey |            40960
 2017-02-03 14:57:24.160728+01 | 1486130244.16073 | pgbench_tellers_pkey  |           245760
 2017-02-03 14:57:24.160728+01 | 1486130244.16073 | pgbench_accounts_pkey |       2246197248

 2017-02-03 14:57:25.280038+01 | 1486130245.28004 | pgbench_branches_pkey |            40960
 2017-02-03 14:57:25.280038+01 | 1486130245.28004 | pgbench_tellers_pkey  |           245760
 2017-02-03 14:57:25.280038+01 | 1486130245.28004 | pgbench_accounts_pkey |       2246197248

 2017-02-03 14:57:26.364972+01 | 1486130246.36497 | pgbench_branches_pkey |            40960
 2017-02-03 14:57:26.364972+01 | 1486130246.36497 | pgbench_tellers_pkey  |           245760
 2017-02-03 14:57:26.364972+01 | 1486130246.36497 | pgbench_accounts_pkey |       2246197248

 2017-02-03 14:57:27.475497+01 | 1486130247.4755 | pgbench_branches_pkey |            40960
 2017-02-03 14:57:27.475497+01 | 1486130247.4755 | pgbench_tellers_pkey  |           245760
 2017-02-03 14:57:27.475497+01 | 1486130247.4755 | pgbench_accounts_pkey |       2246197248

 2017-02-03 14:57:28.590883+01 | 1486130248.59088 | pgbench_branches_pkey |            40960
 2017-02-03 14:57:28.590883+01 | 1486130248.59088 | pgbench_tellers_pkey  |           245760
 2017-02-03 14:57:28.590883+01 | 1486130248.59088 | pgbench_accounts_pkey |       2246197248

 2017-02-03 14:57:29.694545+01 | 1486130249.69455 | pgbench_branches_pkey |            40960
 2017-02-03 14:57:29.694545+01 | 1486130249.69455 | pgbench_tellers_pkey  |           245760
 2017-02-03 14:57:29.694545+01 | 1486130249.69455 | pgbench_accounts_pkey |       2246197248

 2017-02-03 14:57:30.806248+01 | 1486130250.80625 | pgbench_branches_pkey |            40960
 2017-02-03 14:57:30.806248+01 | 1486130250.80625 | pgbench_tellers_pkey  |           245760
 2017-02-03 14:57:30.806248+01 | 1486130250.80625 | pgbench_accounts_pkey |       2246197248

 2017-02-03 14:57:31.940298+01 | 1486130251.9403 | pgbench_branches_pkey |            40960
 2017-02-03 14:57:31.940298+01 | 1486130251.9403 | pgbench_tellers_pkey  |           245760
 2017-02-03 14:57:31.940298+01 | 1486130251.9403 | pgbench_accounts_pkey |       2246197248

 2017-02-03 14:57:33.031508+01 | 1486130253.03151 | pgbench_branches_pkey |            40960
 2017-02-03 14:57:33.031508+01 | 1486130253.03151 | pgbench_tellers_pkey  |           245760
 2017-02-03 14:57:33.031508+01 | 1486130253.03151 | pgbench_accounts_pkey |       2246197248

 2017-02-03 14:57:34.143081+01 | 1486130254.14308 | pgbench_branches_pkey |            40960
 2017-02-03 14:57:34.143081+01 | 1486130254.14308 | pgbench_tellers_pkey  |           245760
 2017-02-03 14:57:34.143081+01 | 1486130254.14308 | pgbench_accounts_pkey |       2246197248

 2017-02-03 14:57:35.240728+01 | 1486130255.24073 | pgbench_branches_pkey |            40960
 2017-02-03 14:57:35.240728+01 | 1486130255.24073 | pgbench_tellers_pkey  |           245760
 2017-02-03 14:57:35.240728+01 | 1486130255.24073 | pgbench_accounts_pkey |       2246197248

 2017-02-03 14:57:36.349476+01 | 1486130256.34948 | pgbench_branches_pkey |            40960
 2017-02-03 14:57:36.349476+01 | 1486130256.34948 | pgbench_tellers_pkey  |           245760
 2017-02-03 14:57:36.349476+01 | 1486130256.34948 | pgbench_accounts_pkey |       2246197248

 2017-02-03 14:57:37.459091+01 | 1486130257.45909 | pgbench_branches_pkey |            40960
 2017-02-03 14:57:37.459091+01 | 1486130257.45909 | pgbench_tellers_pkey  |           245760
 2017-02-03 14:57:37.459091+01 | 1486130257.45909 | pgbench_accounts_pkey |       2246197248

 2017-02-03 14:57:38.558322+01 | 1486130258.55832 | pgbench_branches_pkey |            40960
 2017-02-03 14:57:38.558322+01 | 1486130258.55832 | pgbench_tellers_pkey  |           245760
 2017-02-03 14:57:38.558322+01 | 1486130258.55832 | pgbench_accounts_pkey |       2246197248

 2017-02-03 14:57:39.676737+01 | 1486130259.67674 | pgbench_branches_pkey |            40960
 2017-02-03 14:57:39.676737+01 | 1486130259.67674 | pgbench_tellers_pkey  |           245760
 2017-02-03 14:57:39.676737+01 | 1486130259.67674 | pgbench_accounts_pkey |       2246197248

 2017-02-03 14:57:40.786815+01 | 1486130260.78681 | pgbench_branches_pkey |            40960
 2017-02-03 14:57:40.786815+01 | 1486130260.78681 | pgbench_tellers_pkey  |           245760
 2017-02-03 14:57:40.786815+01 | 1486130260.78681 | pgbench_accounts_pkey |       2246197248

 2017-02-03 14:57:41.882192+01 | 1486130261.88219 | pgbench_branches_pkey |            40960
 2017-02-03 14:57:41.882192+01 | 1486130261.88219 | pgbench_tellers_pkey  |           245760
 2017-02-03 14:57:41.882192+01 | 1486130261.88219 | pgbench_accounts_pkey |       2246197248

 2017-02-03 14:57:42.986113+01 | 1486130262.98611 | pgbench_branches_pkey |            40960
 2017-02-03 14:57:42.986113+01 | 1486130262.98611 | pgbench_tellers_pkey  |           245760
 2017-02-03 14:57:42.986113+01 | 1486130262.98611 | pgbench_accounts_pkey |       2246197248

 2017-02-03 14:57:44.098415+01 | 1486130264.09841 | pgbench_branches_pkey |            40960
 2017-02-03 14:57:44.098415+01 | 1486130264.09841 | pgbench_tellers_pkey  |           245760
 2017-02-03 14:57:44.098415+01 | 1486130264.09841 | pgbench_accounts_pkey |       2246197248

 2017-02-03 14:57:45.213837+01 | 1486130265.21384 | pgbench_branches_pkey |            40960
 2017-02-03 14:57:45.213837+01 | 1486130265.21384 | pgbench_tellers_pkey  |           245760
 2017-02-03 14:57:45.213837+01 | 1486130265.21384 | pgbench_accounts_pkey |       2246197248

 2017-02-03 14:57:46.31894+01 | 1486130266.31894 | pgbench_branches_pkey |            40960
 2017-02-03 14:57:46.31894+01 | 1486130266.31894 | pgbench_tellers_pkey  |           245760
 2017-02-03 14:57:46.31894+01 | 1486130266.31894 | pgbench_accounts_pkey |       2246197248

 2017-02-03 14:57:47.421585+01 | 1486130267.42159 | pgbench_branches_pkey |            40960
 2017-02-03 14:57:47.421585+01 | 1486130267.42159 | pgbench_tellers_pkey  |           245760
 2017-02-03 14:57:47.421585+01 | 1486130267.42159 | pgbench_accounts_pkey |       2246197248

 2017-02-03 14:57:48.530325+01 | 1486130268.53032 | pgbench_branches_pkey |            40960
 2017-02-03 14:57:48.530325+01 | 1486130268.53032 | pgbench_tellers_pkey  |           245760
 2017-02-03 14:57:48.530325+01 | 1486130268.53032 | pgbench_accounts_pkey |       2246197248

 2017-02-03 14:57:49.631556+01 | 1486130269.63156 | pgbench_branches_pkey |            40960
 2017-02-03 14:57:49.631556+01 | 1486130269.63156 | pgbench_tellers_pkey  |           245760
 2017-02-03 14:57:49.631556+01 | 1486130269.63156 | pgbench_accounts_pkey |       2246197248

 2017-02-03 14:57:50.737262+01 | 1486130270.73726 | pgbench_branches_pkey |            40960
 2017-02-03 14:57:50.737262+01 | 1486130270.73726 | pgbench_tellers_pkey  |           245760
 2017-02-03 14:57:50.737262+01 | 1486130270.73726 | pgbench_accounts_pkey |       2246197248

 2017-02-03 14:57:51.83491+01 | 1486130271.83491 | pgbench_branches_pkey |            40960
 2017-02-03 14:57:51.83491+01 | 1486130271.83491 | pgbench_tellers_pkey  |           245760
 2017-02-03 14:57:51.83491+01 | 1486130271.83491 | pgbench_accounts_pkey |       2246197248

 2017-02-03 14:57:52.937146+01 | 1486130272.93715 | pgbench_branches_pkey |            40960
 2017-02-03 14:57:52.937146+01 | 1486130272.93715 | pgbench_tellers_pkey  |           245760
 2017-02-03 14:57:52.937146+01 | 1486130272.93715 | pgbench_accounts_pkey |       2246197248

 2017-02-03 14:57:54.026484+01 | 1486130274.02648 | pgbench_branches_pkey |            40960
 2017-02-03 14:57:54.026484+01 | 1486130274.02648 | pgbench_tellers_pkey  |           245760
 2017-02-03 14:57:54.026484+01 | 1486130274.02648 | pgbench_accounts_pkey |       2246197248

 2017-02-03 14:57:55.134093+01 | 1486130275.13409 | pgbench_branches_pkey |            40960
 2017-02-03 14:57:55.134093+01 | 1486130275.13409 | pgbench_tellers_pkey  |           245760
 2017-02-03 14:57:55.134093+01 | 1486130275.13409 | pgbench_accounts_pkey |       2246197248

 2017-02-03 14:57:56.2301+01 | 1486130276.2301 | pgbench_branches_pkey |            40960
 2017-02-03 14:57:56.2301+01 | 1486130276.2301 | pgbench_tellers_pkey  |           245760
 2017-02-03 14:57:56.2301+01 | 1486130276.2301 | pgbench_accounts_pkey |       2246197248

 2017-02-03 14:57:57.347394+01 | 1486130277.34739 | pgbench_branches_pkey |            40960
 2017-02-03 14:57:57.347394+01 | 1486130277.34739 | pgbench_tellers_pkey  |           245760
 2017-02-03 14:57:57.347394+01 | 1486130277.34739 | pgbench_accounts_pkey |       2246197248

 2017-02-03 14:57:58.459802+01 | 1486130278.4598 | pgbench_branches_pkey |            40960
 2017-02-03 14:57:58.459802+01 | 1486130278.4598 | pgbench_tellers_pkey  |           245760
 2017-02-03 14:57:58.459802+01 | 1486130278.4598 | pgbench_accounts_pkey |       2246197248

 2017-02-03 14:57:59.568698+01 | 1486130279.5687 | pgbench_branches_pkey |            40960
 2017-02-03 14:57:59.568698+01 | 1486130279.5687 | pgbench_tellers_pkey  |           245760
 2017-02-03 14:57:59.568698+01 | 1486130279.5687 | pgbench_accounts_pkey |       2246197248

 2017-02-03 14:58:00.656706+01 | 1486130280.65671 | pgbench_branches_pkey |            40960
 2017-02-03 14:58:00.656706+01 | 1486130280.65671 | pgbench_tellers_pkey  |           245760
 2017-02-03 14:58:00.656706+01 | 1486130280.65671 | pgbench_accounts_pkey |       2246197248

 2017-02-03 14:58:01.755763+01 | 1486130281.75576 | pgbench_branches_pkey |            40960
 2017-02-03 14:58:01.755763+01 | 1486130281.75576 | pgbench_tellers_pkey  |           245760
 2017-02-03 14:58:01.755763+01 | 1486130281.75576 | pgbench_accounts_pkey |       2246197248

 2017-02-03 14:58:02.867457+01 | 1486130282.86746 | pgbench_branches_pkey |            40960
 2017-02-03 14:58:02.867457+01 | 1486130282.86746 | pgbench_tellers_pkey  |           245760
 2017-02-03 14:58:02.867457+01 | 1486130282.86746 | pgbench_accounts_pkey |       2246197248

 2017-02-03 14:58:03.968624+01 | 1486130283.96862 | pgbench_branches_pkey |            40960
 2017-02-03 14:58:03.968624+01 | 1486130283.96862 | pgbench_tellers_pkey  |           245760
 2017-02-03 14:58:03.968624+01 | 1486130283.96862 | pgbench_accounts_pkey |       2246197248

 2017-02-03 14:58:05.068282+01 | 1486130285.06828 | pgbench_branches_pkey |            40960
 2017-02-03 14:58:05.068282+01 | 1486130285.06828 | pgbench_tellers_pkey  |           245760
 2017-02-03 14:58:05.068282+01 | 1486130285.06828 | pgbench_accounts_pkey |       2246197248

 2017-02-03 14:58:06.203202+01 | 1486130286.2032 | pgbench_branches_pkey |            40960
 2017-02-03 14:58:06.203202+01 | 1486130286.2032 | pgbench_tellers_pkey  |           245760
 2017-02-03 14:58:06.203202+01 | 1486130286.2032 | pgbench_accounts_pkey |       2246197248

 2017-02-03 14:58:07.312931+01 | 1486130287.31293 | pgbench_branches_pkey |            40960
 2017-02-03 14:58:07.312931+01 | 1486130287.31293 | pgbench_tellers_pkey  |           245760
 2017-02-03 14:58:07.312931+01 | 1486130287.31293 | pgbench_accounts_pkey |       2246197248

 2017-02-03 14:58:08.440289+01 | 1486130288.44029 | pgbench_branches_pkey |            40960
 2017-02-03 14:58:08.440289+01 | 1486130288.44029 | pgbench_tellers_pkey  |           245760
 2017-02-03 14:58:08.440289+01 | 1486130288.44029 | pgbench_accounts_pkey |       2246197248

 2017-02-03 14:58:09.54479+01 | 1486130289.54479 | pgbench_branches_pkey |            40960
 2017-02-03 14:58:09.54479+01 | 1486130289.54479 | pgbench_tellers_pkey  |           245760
 2017-02-03 14:58:09.54479+01 | 1486130289.54479 | pgbench_accounts_pkey |       2246197248

 2017-02-03 14:58:10.643217+01 | 1486130290.64322 | pgbench_branches_pkey |            40960
 2017-02-03 14:58:10.643217+01 | 1486130290.64322 | pgbench_tellers_pkey  |           245760
 2017-02-03 14:58:10.643217+01 | 1486130290.64322 | pgbench_accounts_pkey |       2246197248

 2017-02-03 14:58:11.759849+01 | 1486130291.75985 | pgbench_branches_pkey |            40960
 2017-02-03 14:58:11.759849+01 | 1486130291.75985 | pgbench_tellers_pkey  |           245760
 2017-02-03 14:58:11.759849+01 | 1486130291.75985 | pgbench_accounts_pkey |       2246197248

 2017-02-03 14:58:12.866127+01 | 1486130292.86613 | pgbench_branches_pkey |            40960
 2017-02-03 14:58:12.866127+01 | 1486130292.86613 | pgbench_tellers_pkey  |           245760
 2017-02-03 14:58:12.866127+01 | 1486130292.86613 | pgbench_accounts_pkey |       2246197248

 2017-02-03 14:58:13.966717+01 | 1486130293.96672 | pgbench_branches_pkey |            40960
 2017-02-03 14:58:13.966717+01 | 1486130293.96672 | pgbench_tellers_pkey  |           245760
 2017-02-03 14:58:13.966717+01 | 1486130293.96672 | pgbench_accounts_pkey |       2246197248

 2017-02-03 14:58:15.044785+01 | 1486130295.04479 | pgbench_branches_pkey |            40960
 2017-02-03 14:58:15.044785+01 | 1486130295.04479 | pgbench_tellers_pkey  |           245760
 2017-02-03 14:58:15.044785+01 | 1486130295.04479 | pgbench_accounts_pkey |       2246197248

 2017-02-03 14:58:16.13864+01 | 1486130296.13864 | pgbench_branches_pkey |            40960
 2017-02-03 14:58:16.13864+01 | 1486130296.13864 | pgbench_tellers_pkey  |           245760
 2017-02-03 14:58:16.13864+01 | 1486130296.13864 | pgbench_accounts_pkey |       2246197248

 2017-02-03 14:58:17.248541+01 | 1486130297.24854 | pgbench_branches_pkey |            40960
 2017-02-03 14:58:17.248541+01 | 1486130297.24854 | pgbench_tellers_pkey  |           245760
 2017-02-03 14:58:17.248541+01 | 1486130297.24854 | pgbench_accounts_pkey |       2246197248

 2017-02-03 14:58:18.371626+01 | 1486130298.37163 | pgbench_branches_pkey |            40960
 2017-02-03 14:58:18.371626+01 | 1486130298.37163 | pgbench_tellers_pkey  |           245760
 2017-02-03 14:58:18.371626+01 | 1486130298.37163 | pgbench_accounts_pkey |       2246197248

 2017-02-03 14:58:19.481184+01 | 1486130299.48118 | pgbench_branches_pkey |            40960
 2017-02-03 14:58:19.481184+01 | 1486130299.48118 | pgbench_tellers_pkey  |           245760
 2017-02-03 14:58:19.481184+01 | 1486130299.48118 | pgbench_accounts_pkey |       2246197248

 2017-02-03 14:58:20.583379+01 | 1486130300.58338 | pgbench_branches_pkey |            40960
 2017-02-03 14:58:20.583379+01 | 1486130300.58338 | pgbench_tellers_pkey  |           245760
 2017-02-03 14:58:20.583379+01 | 1486130300.58338 | pgbench_accounts_pkey |       2246197248

 2017-02-03 14:58:21.6988+01 | 1486130301.6988 | pgbench_branches_pkey |            40960
 2017-02-03 14:58:21.6988+01 | 1486130301.6988 | pgbench_tellers_pkey  |           245760
 2017-02-03 14:58:21.6988+01 | 1486130301.6988 | pgbench_accounts_pkey |       2246197248

 2017-02-03 14:58:22.798244+01 | 1486130302.79824 | pgbench_branches_pkey |            40960
 2017-02-03 14:58:22.798244+01 | 1486130302.79824 | pgbench_tellers_pkey  |           245760
 2017-02-03 14:58:22.798244+01 | 1486130302.79824 | pgbench_accounts_pkey |       2246197248

 2017-02-03 14:58:23.918815+01 | 1486130303.91881 | pgbench_branches_pkey |            40960
 2017-02-03 14:58:23.918815+01 | 1486130303.91881 | pgbench_tellers_pkey  |           245760
 2017-02-03 14:58:23.918815+01 | 1486130303.91881 | pgbench_accounts_pkey |       2246197248

 2017-02-03 14:58:25.016986+01 | 1486130305.01699 | pgbench_branches_pkey |            40960
 2017-02-03 14:58:25.016986+01 | 1486130305.01699 | pgbench_tellers_pkey  |           245760
 2017-02-03 14:58:25.016986+01 | 1486130305.01699 | pgbench_accounts_pkey |       2246197248

 2017-02-03 14:58:26.137951+01 | 1486130306.13795 | pgbench_branches_pkey |            40960
 2017-02-03 14:58:26.137951+01 | 1486130306.13795 | pgbench_tellers_pkey  |           245760
 2017-02-03 14:58:26.137951+01 | 1486130306.13795 | pgbench_accounts_pkey |       2246197248

 2017-02-03 14:58:27.230937+01 | 1486130307.23094 | pgbench_branches_pkey |            40960
 2017-02-03 14:58:27.230937+01 | 1486130307.23094 | pgbench_tellers_pkey  |           245760
 2017-02-03 14:58:27.230937+01 | 1486130307.23094 | pgbench_accounts_pkey |       2246197248

 2017-02-03 14:58:28.340705+01 | 1486130308.3407 | pgbench_branches_pkey |            40960
 2017-02-03 14:58:28.340705+01 | 1486130308.3407 | pgbench_tellers_pkey  |           245760
 2017-02-03 14:58:28.340705+01 | 1486130308.3407 | pgbench_accounts_pkey |       2246197248

 2017-02-03 14:58:29.435249+01 | 1486130309.43525 | pgbench_branches_pkey |            40960
 2017-02-03 14:58:29.435249+01 | 1486130309.43525 | pgbench_tellers_pkey  |           245760
 2017-02-03 14:58:29.435249+01 | 1486130309.43525 | pgbench_accounts_pkey |       2246197248

 2017-02-03 14:58:30.544447+01 | 1486130310.54445 | pgbench_branches_pkey |            40960
 2017-02-03 14:58:30.544447+01 | 1486130310.54445 | pgbench_tellers_pkey  |           245760
 2017-02-03 14:58:30.544447+01 | 1486130310.54445 | pgbench_accounts_pkey |       2246197248

 2017-02-03 14:58:31.68639+01 | 1486130311.68639 | pgbench_branches_pkey |            40960
 2017-02-03 14:58:31.68639+01 | 1486130311.68639 | pgbench_tellers_pkey  |           245760
 2017-02-03 14:58:31.68639+01 | 1486130311.68639 | pgbench_accounts_pkey |       2246197248

 2017-02-03 14:58:32.777382+01 | 1486130312.77738 | pgbench_branches_pkey |            40960
 2017-02-03 14:58:32.777382+01 | 1486130312.77738 | pgbench_tellers_pkey  |           245760
 2017-02-03 14:58:32.777382+01 | 1486130312.77738 | pgbench_accounts_pkey |       2246197248

 2017-02-03 14:58:33.897225+01 | 1486130313.89722 | pgbench_branches_pkey |            40960
 2017-02-03 14:58:33.897225+01 | 1486130313.89722 | pgbench_tellers_pkey  |           245760
 2017-02-03 14:58:33.897225+01 | 1486130313.89722 | pgbench_accounts_pkey |       2246197248

 2017-02-03 14:58:34.993225+01 | 1486130314.99323 | pgbench_branches_pkey |            40960
 2017-02-03 14:58:34.993225+01 | 1486130314.99323 | pgbench_tellers_pkey  |           245760
 2017-02-03 14:58:34.993225+01 | 1486130314.99323 | pgbench_accounts_pkey |       2246197248

 2017-02-03 14:58:36.095825+01 | 1486130316.09582 | pgbench_branches_pkey |            40960
 2017-02-03 14:58:36.095825+01 | 1486130316.09582 | pgbench_tellers_pkey  |           245760
 2017-02-03 14:58:36.095825+01 | 1486130316.09582 | pgbench_accounts_pkey |       2246197248

 2017-02-03 14:58:37.190338+01 | 1486130317.19034 | pgbench_branches_pkey |            40960
 2017-02-03 14:58:37.190338+01 | 1486130317.19034 | pgbench_tellers_pkey  |           245760
 2017-02-03 14:58:37.190338+01 | 1486130317.19034 | pgbench_accounts_pkey |       2246197248

 2017-02-03 14:58:38.295464+01 | 1486130318.29546 | pgbench_branches_pkey |            40960
 2017-02-03 14:58:38.295464+01 | 1486130318.29546 | pgbench_tellers_pkey  |           245760
 2017-02-03 14:58:38.295464+01 | 1486130318.29546 | pgbench_accounts_pkey |       2246197248

 2017-02-03 14:58:39.408202+01 | 1486130319.4082 | pgbench_branches_pkey |            40960
 2017-02-03 14:58:39.408202+01 | 1486130319.4082 | pgbench_tellers_pkey  |           245760
 2017-02-03 14:58:39.408202+01 | 1486130319.4082 | pgbench_accounts_pkey |       2246197248

 2017-02-03 14:58:40.514106+01 | 1486130320.51411 | pgbench_branches_pkey |            40960
 2017-02-03 14:58:40.514106+01 | 1486130320.51411 | pgbench_tellers_pkey  |           245760
 2017-02-03 14:58:40.514106+01 | 1486130320.51411 | pgbench_accounts_pkey |       2246197248

 2017-02-03 14:58:41.635194+01 | 1486130321.63519 | pgbench_branches_pkey |            40960
 2017-02-03 14:58:41.635194+01 | 1486130321.63519 | pgbench_tellers_pkey  |           245760
 2017-02-03 14:58:41.635194+01 | 1486130321.63519 | pgbench_accounts_pkey |       2246197248

 2017-02-03 14:58:42.736213+01 | 1486130322.73621 | pgbench_branches_pkey |            40960
 2017-02-03 14:58:42.736213+01 | 1486130322.73621 | pgbench_tellers_pkey  |           245760
 2017-02-03 14:58:42.736213+01 | 1486130322.73621 | pgbench_accounts_pkey |       2246197248

 2017-02-03 14:58:43.826339+01 | 1486130323.82634 | pgbench_branches_pkey |            40960
 2017-02-03 14:58:43.826339+01 | 1486130323.82634 | pgbench_tellers_pkey  |           245760
 2017-02-03 14:58:43.826339+01 | 1486130323.82634 | pgbench_accounts_pkey |       2246197248

 2017-02-03 14:58:44.935293+01 | 1486130324.93529 | pgbench_branches_pkey |            40960
 2017-02-03 14:58:44.935293+01 | 1486130324.93529 | pgbench_tellers_pkey  |           245760
 2017-02-03 14:58:44.935293+01 | 1486130324.93529 | pgbench_accounts_pkey |       2246197248

 2017-02-03 14:58:46.049273+01 | 1486130326.04927 | pgbench_branches_pkey |            40960
 2017-02-03 14:58:46.049273+01 | 1486130326.04927 | pgbench_tellers_pkey  |           245760
 2017-02-03 14:58:46.049273+01 | 1486130326.04927 | pgbench_accounts_pkey |       2246197248

 2017-02-03 14:58:47.14224+01 | 1486130327.14224 | pgbench_branches_pkey |            40960
 2017-02-03 14:58:47.14224+01 | 1486130327.14224 | pgbench_tellers_pkey  |           245760
 2017-02-03 14:58:47.14224+01 | 1486130327.14224 | pgbench_accounts_pkey |       2246197248

 2017-02-03 14:58:48.252595+01 | 1486130328.25259 | pgbench_branches_pkey |            40960
 2017-02-03 14:58:48.252595+01 | 1486130328.25259 | pgbench_tellers_pkey  |           245760
 2017-02-03 14:58:48.252595+01 | 1486130328.25259 | pgbench_accounts_pkey |       2246197248

 2017-02-03 14:58:49.359131+01 | 1486130329.35913 | pgbench_branches_pkey |            40960
 2017-02-03 14:58:49.359131+01 | 1486130329.35913 | pgbench_tellers_pkey  |           245760
 2017-02-03 14:58:49.359131+01 | 1486130329.35913 | pgbench_accounts_pkey |       2246197248

 2017-02-03 14:58:50.463698+01 | 1486130330.4637 | pgbench_branches_pkey |            40960
 2017-02-03 14:58:50.463698+01 | 1486130330.4637 | pgbench_tellers_pkey  |           245760
 2017-02-03 14:58:50.463698+01 | 1486130330.4637 | pgbench_accounts_pkey |       2246197248

 2017-02-03 14:58:51.562691+01 | 1486130331.56269 | pgbench_branches_pkey |            40960
 2017-02-03 14:58:51.562691+01 | 1486130331.56269 | pgbench_tellers_pkey  |           245760
 2017-02-03 14:58:51.562691+01 | 1486130331.56269 | pgbench_accounts_pkey |       2246197248

 2017-02-03 14:58:52.65841+01 | 1486130332.65841 | pgbench_branches_pkey |            40960
 2017-02-03 14:58:52.65841+01 | 1486130332.65841 | pgbench_tellers_pkey  |           245760
 2017-02-03 14:58:52.65841+01 | 1486130332.65841 | pgbench_accounts_pkey |       2246197248

 2017-02-03 14:58:53.768642+01 | 1486130333.76864 | pgbench_branches_pkey |            40960
 2017-02-03 14:58:53.768642+01 | 1486130333.76864 | pgbench_tellers_pkey  |           245760
 2017-02-03 14:58:53.768642+01 | 1486130333.76864 | pgbench_accounts_pkey |       2246197248

 2017-02-03 14:58:54.859677+01 | 1486130334.85968 | pgbench_branches_pkey |            40960
 2017-02-03 14:58:54.859677+01 | 1486130334.85968 | pgbench_tellers_pkey  |           245760
 2017-02-03 14:58:54.859677+01 | 1486130334.85968 | pgbench_accounts_pkey |       2246197248

 2017-02-03 14:58:55.963976+01 | 1486130335.96398 | pgbench_branches_pkey |            40960
 2017-02-03 14:58:55.963976+01 | 1486130335.96398 | pgbench_tellers_pkey  |           245760
 2017-02-03 14:58:55.963976+01 | 1486130335.96398 | pgbench_accounts_pkey |       2246197248

 2017-02-03 14:58:57.064685+01 | 1486130337.06469 | pgbench_branches_pkey |            40960
 2017-02-03 14:58:57.064685+01 | 1486130337.06469 | pgbench_tellers_pkey  |           245760
 2017-02-03 14:58:57.064685+01 | 1486130337.06469 | pgbench_accounts_pkey |       2246197248

 2017-02-03 14:58:58.177628+01 | 1486130338.17763 | pgbench_branches_pkey |            40960
 2017-02-03 14:58:58.177628+01 | 1486130338.17763 | pgbench_tellers_pkey  |           245760
 2017-02-03 14:58:58.177628+01 | 1486130338.17763 | pgbench_accounts_pkey |       2246197248

 2017-02-03 14:58:59.293056+01 | 1486130339.29306 | pgbench_branches_pkey |            40960
 2017-02-03 14:58:59.293056+01 | 1486130339.29306 | pgbench_tellers_pkey  |           245760
 2017-02-03 14:58:59.293056+01 | 1486130339.29306 | pgbench_accounts_pkey |       2246197248

 2017-02-03 14:59:00.387889+01 | 1486130340.38789 | pgbench_branches_pkey |            40960
 2017-02-03 14:59:00.387889+01 | 1486130340.38789 | pgbench_tellers_pkey  |           245760
 2017-02-03 14:59:00.387889+01 | 1486130340.38789 | pgbench_accounts_pkey |       2246197248

 2017-02-03 14:59:01.472901+01 | 1486130341.4729 | pgbench_branches_pkey |            40960
 2017-02-03 14:59:01.472901+01 | 1486130341.4729 | pgbench_tellers_pkey  |           245760
 2017-02-03 14:59:01.472901+01 | 1486130341.4729 | pgbench_accounts_pkey |       2246197248

 2017-02-03 14:59:02.614219+01 | 1486130342.61422 | pgbench_branches_pkey |            40960
 2017-02-03 14:59:02.614219+01 | 1486130342.61422 | pgbench_tellers_pkey  |           245760
 2017-02-03 14:59:02.614219+01 | 1486130342.61422 | pgbench_accounts_pkey |       2246197248

 2017-02-03 14:59:03.72465+01 | 1486130343.72465 | pgbench_branches_pkey |            40960
 2017-02-03 14:59:03.72465+01 | 1486130343.72465 | pgbench_tellers_pkey  |           245760
 2017-02-03 14:59:03.72465+01 | 1486130343.72465 | pgbench_accounts_pkey |       2246197248

 2017-02-03 14:59:04.819003+01 | 1486130344.819 | pgbench_branches_pkey |            40960
 2017-02-03 14:59:04.819003+01 | 1486130344.819 | pgbench_tellers_pkey  |           245760
 2017-02-03 14:59:04.819003+01 | 1486130344.819 | pgbench_accounts_pkey |       2246197248

 2017-02-03 14:59:05.927327+01 | 1486130345.92733 | pgbench_branches_pkey |            40960
 2017-02-03 14:59:05.927327+01 | 1486130345.92733 | pgbench_tellers_pkey  |           245760
 2017-02-03 14:59:05.927327+01 | 1486130345.92733 | pgbench_accounts_pkey |       2246197248

 2017-02-03 14:59:07.027318+01 | 1486130347.02732 | pgbench_branches_pkey |            40960
 2017-02-03 14:59:07.027318+01 | 1486130347.02732 | pgbench_tellers_pkey  |           245760
 2017-02-03 14:59:07.027318+01 | 1486130347.02732 | pgbench_accounts_pkey |       2246197248

 2017-02-03 14:59:08.130395+01 | 1486130348.13039 | pgbench_branches_pkey |            40960
 2017-02-03 14:59:08.130395+01 | 1486130348.13039 | pgbench_tellers_pkey  |           245760
 2017-02-03 14:59:08.130395+01 | 1486130348.13039 | pgbench_accounts_pkey |       2246197248

 2017-02-03 14:59:09.239945+01 | 1486130349.23994 | pgbench_branches_pkey |            40960
 2017-02-03 14:59:09.239945+01 | 1486130349.23994 | pgbench_tellers_pkey  |           245760
 2017-02-03 14:59:09.239945+01 | 1486130349.23994 | pgbench_accounts_pkey |       2246197248

 2017-02-03 14:59:10.357895+01 | 1486130350.35789 | pgbench_branches_pkey |            40960
 2017-02-03 14:59:10.357895+01 | 1486130350.35789 | pgbench_tellers_pkey  |           245760
 2017-02-03 14:59:10.357895+01 | 1486130350.35789 | pgbench_accounts_pkey |       2246197248

 2017-02-03 14:59:11.499678+01 | 1486130351.49968 | pgbench_branches_pkey |            40960
 2017-02-03 14:59:11.499678+01 | 1486130351.49968 | pgbench_tellers_pkey  |           245760
 2017-02-03 14:59:11.499678+01 | 1486130351.49968 | pgbench_accounts_pkey |       2246197248

 2017-02-03 14:59:12.625541+01 | 1486130352.62554 | pgbench_branches_pkey |            40960
 2017-02-03 14:59:12.625541+01 | 1486130352.62554 | pgbench_tellers_pkey  |           245760
 2017-02-03 14:59:12.625541+01 | 1486130352.62554 | pgbench_accounts_pkey |       2246197248

 2017-02-03 14:59:13.7349+01 | 1486130353.7349 | pgbench_branches_pkey |            40960
 2017-02-03 14:59:13.7349+01 | 1486130353.7349 | pgbench_tellers_pkey  |           245760
 2017-02-03 14:59:13.7349+01 | 1486130353.7349 | pgbench_accounts_pkey |       2246197248

 2017-02-03 14:59:14.830138+01 | 1486130354.83014 | pgbench_branches_pkey |            40960
 2017-02-03 14:59:14.830138+01 | 1486130354.83014 | pgbench_tellers_pkey  |           245760
 2017-02-03 14:59:14.830138+01 | 1486130354.83014 | pgbench_accounts_pkey |       2246197248

 2017-02-03 14:59:15.925149+01 | 1486130355.92515 | pgbench_branches_pkey |            40960
 2017-02-03 14:59:15.925149+01 | 1486130355.92515 | pgbench_tellers_pkey  |           245760
 2017-02-03 14:59:15.925149+01 | 1486130355.92515 | pgbench_accounts_pkey |       2246197248

 2017-02-03 14:59:17.027326+01 | 1486130357.02733 | pgbench_branches_pkey |            40960
 2017-02-03 14:59:17.027326+01 | 1486130357.02733 | pgbench_tellers_pkey  |           245760
 2017-02-03 14:59:17.027326+01 | 1486130357.02733 | pgbench_accounts_pkey |       2246197248

 2017-02-03 14:59:18.116438+01 | 1486130358.11644 | pgbench_branches_pkey |            40960
 2017-02-03 14:59:18.116438+01 | 1486130358.11644 | pgbench_tellers_pkey  |           245760
 2017-02-03 14:59:18.116438+01 | 1486130358.11644 | pgbench_accounts_pkey |       2246197248

 2017-02-03 14:59:19.222707+01 | 1486130359.22271 | pgbench_branches_pkey |            40960
 2017-02-03 14:59:19.222707+01 | 1486130359.22271 | pgbench_tellers_pkey  |           245760
 2017-02-03 14:59:19.222707+01 | 1486130359.22271 | pgbench_accounts_pkey |       2246197248

 2017-02-03 14:59:20.336614+01 | 1486130360.33661 | pgbench_branches_pkey |            40960
 2017-02-03 14:59:20.336614+01 | 1486130360.33661 | pgbench_tellers_pkey  |           245760
 2017-02-03 14:59:20.336614+01 | 1486130360.33661 | pgbench_accounts_pkey |       2246197248

 2017-02-03 14:59:21.443248+01 | 1486130361.44325 | pgbench_branches_pkey |            40960
 2017-02-03 14:59:21.443248+01 | 1486130361.44325 | pgbench_tellers_pkey  |           245760
 2017-02-03 14:59:21.443248+01 | 1486130361.44325 | pgbench_accounts_pkey |       2246197248

 2017-02-03 14:59:22.542879+01 | 1486130362.54288 | pgbench_branches_pkey |            40960
 2017-02-03 14:59:22.542879+01 | 1486130362.54288 | pgbench_tellers_pkey  |           245760
 2017-02-03 14:59:22.542879+01 | 1486130362.54288 | pgbench_accounts_pkey |       2246197248

 2017-02-03 14:59:23.647572+01 | 1486130363.64757 | pgbench_branches_pkey |            40960
 2017-02-03 14:59:23.647572+01 | 1486130363.64757 | pgbench_tellers_pkey  |           245760
 2017-02-03 14:59:23.647572+01 | 1486130363.64757 | pgbench_accounts_pkey |       2246197248

 2017-02-03 14:59:24.754703+01 | 1486130364.7547 | pgbench_branches_pkey |            40960
 2017-02-03 14:59:24.754703+01 | 1486130364.7547 | pgbench_tellers_pkey  |           245760
 2017-02-03 14:59:24.754703+01 | 1486130364.7547 | pgbench_accounts_pkey |       2246197248

 2017-02-03 14:59:25.863017+01 | 1486130365.86302 | pgbench_branches_pkey |            40960
 2017-02-03 14:59:25.863017+01 | 1486130365.86302 | pgbench_tellers_pkey  |           245760
 2017-02-03 14:59:25.863017+01 | 1486130365.86302 | pgbench_accounts_pkey |       2246197248

 2017-02-03 14:59:26.979088+01 | 1486130366.97909 | pgbench_branches_pkey |            40960
 2017-02-03 14:59:26.979088+01 | 1486130366.97909 | pgbench_tellers_pkey  |           245760
 2017-02-03 14:59:26.979088+01 | 1486130366.97909 | pgbench_accounts_pkey |       2246197248

 2017-02-03 14:59:28.08398+01 | 1486130368.08398 | pgbench_branches_pkey |            40960
 2017-02-03 14:59:28.08398+01 | 1486130368.08398 | pgbench_tellers_pkey  |           245760
 2017-02-03 14:59:28.08398+01 | 1486130368.08398 | pgbench_accounts_pkey |       2246197248

 2017-02-03 14:59:29.193877+01 | 1486130369.19388 | pgbench_branches_pkey |            40960
 2017-02-03 14:59:29.193877+01 | 1486130369.19388 | pgbench_tellers_pkey  |           245760
 2017-02-03 14:59:29.193877+01 | 1486130369.19388 | pgbench_accounts_pkey |       2246197248

 2017-02-03 14:59:30.301467+01 | 1486130370.30147 | pgbench_branches_pkey |            40960
 2017-02-03 14:59:30.301467+01 | 1486130370.30147 | pgbench_tellers_pkey  |           245760
 2017-02-03 14:59:30.301467+01 | 1486130370.30147 | pgbench_accounts_pkey |       2246197248

 2017-02-03 14:59:31.424818+01 | 1486130371.42482 | pgbench_branches_pkey |            40960
 2017-02-03 14:59:31.424818+01 | 1486130371.42482 | pgbench_tellers_pkey  |           245760
 2017-02-03 14:59:31.424818+01 | 1486130371.42482 | pgbench_accounts_pkey |       2246197248

 2017-02-03 14:59:32.53135+01 | 1486130372.53135 | pgbench_branches_pkey |            40960
 2017-02-03 14:59:32.53135+01 | 1486130372.53135 | pgbench_tellers_pkey  |           245760
 2017-02-03 14:59:32.53135+01 | 1486130372.53135 | pgbench_accounts_pkey |       2246197248

 2017-02-03 14:59:33.63442+01 | 1486130373.63442 | pgbench_branches_pkey |            40960
 2017-02-03 14:59:33.63442+01 | 1486130373.63442 | pgbench_tellers_pkey  |           245760
 2017-02-03 14:59:33.63442+01 | 1486130373.63442 | pgbench_accounts_pkey |       2246197248

 2017-02-03 14:59:34.7387+01 | 1486130374.7387 | pgbench_branches_pkey |            40960
 2017-02-03 14:59:34.7387+01 | 1486130374.7387 | pgbench_tellers_pkey  |           245760
 2017-02-03 14:59:34.7387+01 | 1486130374.7387 | pgbench_accounts_pkey |       2246197248

 2017-02-03 14:59:35.831547+01 | 1486130375.83155 | pgbench_branches_pkey |            40960
 2017-02-03 14:59:35.831547+01 | 1486130375.83155 | pgbench_tellers_pkey  |           245760
 2017-02-03 14:59:35.831547+01 | 1486130375.83155 | pgbench_accounts_pkey |       2246197248

 2017-02-03 14:59:36.943833+01 | 1486130376.94383 | pgbench_branches_pkey |            40960
 2017-02-03 14:59:36.943833+01 | 1486130376.94383 | pgbench_tellers_pkey  |           245760
 2017-02-03 14:59:36.943833+01 | 1486130376.94383 | pgbench_accounts_pkey |       2246197248

 2017-02-03 14:59:38.051682+01 | 1486130378.05168 | pgbench_branches_pkey |            40960
 2017-02-03 14:59:38.051682+01 | 1486130378.05168 | pgbench_tellers_pkey  |           245760
 2017-02-03 14:59:38.051682+01 | 1486130378.05168 | pgbench_accounts_pkey |       2246197248

 2017-02-03 14:59:39.15319+01 | 1486130379.15319 | pgbench_branches_pkey |            40960
 2017-02-03 14:59:39.15319+01 | 1486130379.15319 | pgbench_tellers_pkey  |           245760
 2017-02-03 14:59:39.15319+01 | 1486130379.15319 | pgbench_accounts_pkey |       2246197248

 2017-02-03 14:59:40.275576+01 | 1486130380.27558 | pgbench_branches_pkey |            40960
 2017-02-03 14:59:40.275576+01 | 1486130380.27558 | pgbench_tellers_pkey  |           245760
 2017-02-03 14:59:40.275576+01 | 1486130380.27558 | pgbench_accounts_pkey |       2246197248

 2017-02-03 14:59:41.367023+01 | 1486130381.36702 | pgbench_branches_pkey |            40960
 2017-02-03 14:59:41.367023+01 | 1486130381.36702 | pgbench_tellers_pkey  |           245760
 2017-02-03 14:59:41.367023+01 | 1486130381.36702 | pgbench_accounts_pkey |       2246197248

 2017-02-03 14:59:42.480865+01 | 1486130382.48087 | pgbench_branches_pkey |            40960
 2017-02-03 14:59:42.480865+01 | 1486130382.48087 | pgbench_tellers_pkey  |           245760
 2017-02-03 14:59:42.480865+01 | 1486130382.48087 | pgbench_accounts_pkey |       2246197248

 2017-02-03 14:59:43.580823+01 | 1486130383.58082 | pgbench_branches_pkey |            40960
 2017-02-03 14:59:43.580823+01 | 1486130383.58082 | pgbench_tellers_pkey  |           245760
 2017-02-03 14:59:43.580823+01 | 1486130383.58082 | pgbench_accounts_pkey |       2246197248

 2017-02-03 14:59:44.695214+01 | 1486130384.69521 | pgbench_branches_pkey |            40960
 2017-02-03 14:59:44.695214+01 | 1486130384.69521 | pgbench_tellers_pkey  |           245760
 2017-02-03 14:59:44.695214+01 | 1486130384.69521 | pgbench_accounts_pkey |       2246197248

 2017-02-03 14:59:45.79209+01 | 1486130385.79209 | pgbench_branches_pkey |            40960
 2017-02-03 14:59:45.79209+01 | 1486130385.79209 | pgbench_tellers_pkey  |           245760
 2017-02-03 14:59:45.79209+01 | 1486130385.79209 | pgbench_accounts_pkey |       2246197248

 2017-02-03 14:59:46.89802+01 | 1486130386.89802 | pgbench_branches_pkey |            40960
 2017-02-03 14:59:46.89802+01 | 1486130386.89802 | pgbench_tellers_pkey  |           245760
 2017-02-03 14:59:46.89802+01 | 1486130386.89802 | pgbench_accounts_pkey |       2246197248

 2017-02-03 14:59:48.007965+01 | 1486130388.00797 | pgbench_branches_pkey |            40960
 2017-02-03 14:59:48.007965+01 | 1486130388.00797 | pgbench_tellers_pkey  |           245760
 2017-02-03 14:59:48.007965+01 | 1486130388.00797 | pgbench_accounts_pkey |       2246197248

 2017-02-03 14:59:49.122728+01 | 1486130389.12273 | pgbench_branches_pkey |            40960
 2017-02-03 14:59:49.122728+01 | 1486130389.12273 | pgbench_tellers_pkey  |           245760
 2017-02-03 14:59:49.122728+01 | 1486130389.12273 | pgbench_accounts_pkey |       2246197248

 2017-02-03 14:59:50.223176+01 | 1486130390.22318 | pgbench_branches_pkey |            40960
 2017-02-03 14:59:50.223176+01 | 1486130390.22318 | pgbench_tellers_pkey  |           245760
 2017-02-03 14:59:50.223176+01 | 1486130390.22318 | pgbench_accounts_pkey |       2246197248

 2017-02-03 14:59:51.329617+01 | 1486130391.32962 | pgbench_branches_pkey |            40960
 2017-02-03 14:59:51.329617+01 | 1486130391.32962 | pgbench_tellers_pkey  |           245760
 2017-02-03 14:59:51.329617+01 | 1486130391.32962 | pgbench_accounts_pkey |       2246197248

 2017-02-03 14:59:52.437604+01 | 1486130392.4376 | pgbench_branches_pkey |            40960
 2017-02-03 14:59:52.437604+01 | 1486130392.4376 | pgbench_tellers_pkey  |           245760
 2017-02-03 14:59:52.437604+01 | 1486130392.4376 | pgbench_accounts_pkey |       2246197248

 2017-02-03 14:59:53.549815+01 | 1486130393.54981 | pgbench_branches_pkey |            40960
 2017-02-03 14:59:53.549815+01 | 1486130393.54981 | pgbench_tellers_pkey  |           245760
 2017-02-03 14:59:53.549815+01 | 1486130393.54981 | pgbench_accounts_pkey |       2246197248

 2017-02-03 14:59:54.654529+01 | 1486130394.65453 | pgbench_branches_pkey |            40960
 2017-02-03 14:59:54.654529+01 | 1486130394.65453 | pgbench_tellers_pkey  |           245760
 2017-02-03 14:59:54.654529+01 | 1486130394.65453 | pgbench_accounts_pkey |       2246197248

 2017-02-03 14:59:55.76142+01 | 1486130395.76142 | pgbench_branches_pkey |            40960
 2017-02-03 14:59:55.76142+01 | 1486130395.76142 | pgbench_tellers_pkey  |           245760
 2017-02-03 14:59:55.76142+01 | 1486130395.76142 | pgbench_accounts_pkey |       2246197248

 2017-02-03 14:59:56.851404+01 | 1486130396.8514 | pgbench_branches_pkey |            40960
 2017-02-03 14:59:56.851404+01 | 1486130396.8514 | pgbench_tellers_pkey  |           245760
 2017-02-03 14:59:56.851404+01 | 1486130396.8514 | pgbench_accounts_pkey |       2246197248

 2017-02-03 14:59:57.969256+01 | 1486130397.96926 | pgbench_branches_pkey |            40960
 2017-02-03 14:59:57.969256+01 | 1486130397.96926 | pgbench_tellers_pkey  |           245760
 2017-02-03 14:59:57.969256+01 | 1486130397.96926 | pgbench_accounts_pkey |       2246197248

 2017-02-03 14:59:59.078524+01 | 1486130399.07852 | pgbench_branches_pkey |            40960
 2017-02-03 14:59:59.078524+01 | 1486130399.07852 | pgbench_tellers_pkey  |           245760
 2017-02-03 14:59:59.078524+01 | 1486130399.07852 | pgbench_accounts_pkey |       2246197248

 2017-02-03 15:00:00.16873+01 | 1486130400.16873 | pgbench_branches_pkey |            40960
 2017-02-03 15:00:00.16873+01 | 1486130400.16873 | pgbench_tellers_pkey  |           245760
 2017-02-03 15:00:00.16873+01 | 1486130400.16873 | pgbench_accounts_pkey |       2246197248

 2017-02-03 15:00:01.288323+01 | 1486130401.28832 | pgbench_branches_pkey |            40960
 2017-02-03 15:00:01.288323+01 | 1486130401.28832 | pgbench_tellers_pkey  |           245760
 2017-02-03 15:00:01.288323+01 | 1486130401.28832 | pgbench_accounts_pkey |       2246197248

 2017-02-03 15:00:02.386155+01 | 1486130402.38615 | pgbench_branches_pkey |            40960
 2017-02-03 15:00:02.386155+01 | 1486130402.38615 | pgbench_tellers_pkey  |           245760
 2017-02-03 15:00:02.386155+01 | 1486130402.38615 | pgbench_accounts_pkey |       2246197248

 2017-02-03 15:00:03.503045+01 | 1486130403.50305 | pgbench_branches_pkey |            40960
 2017-02-03 15:00:03.503045+01 | 1486130403.50305 | pgbench_tellers_pkey  |           245760
 2017-02-03 15:00:03.503045+01 | 1486130403.50305 | pgbench_accounts_pkey |       2246197248

 2017-02-03 15:00:04.59726+01 | 1486130404.59726 | pgbench_branches_pkey |            40960
 2017-02-03 15:00:04.59726+01 | 1486130404.59726 | pgbench_tellers_pkey  |           245760
 2017-02-03 15:00:04.59726+01 | 1486130404.59726 | pgbench_accounts_pkey |       2246197248

 2017-02-03 15:00:05.706058+01 | 1486130405.70606 | pgbench_branches_pkey |            40960
 2017-02-03 15:00:05.706058+01 | 1486130405.70606 | pgbench_tellers_pkey  |           245760
 2017-02-03 15:00:05.706058+01 | 1486130405.70606 | pgbench_accounts_pkey |       2246197248

 2017-02-03 15:00:06.807319+01 | 1486130406.80732 | pgbench_branches_pkey |            40960
 2017-02-03 15:00:06.807319+01 | 1486130406.80732 | pgbench_tellers_pkey  |           245760
 2017-02-03 15:00:06.807319+01 | 1486130406.80732 | pgbench_accounts_pkey |       2246197248

 2017-02-03 15:00:07.930776+01 | 1486130407.93078 | pgbench_branches_pkey |            40960
 2017-02-03 15:00:07.930776+01 | 1486130407.93078 | pgbench_tellers_pkey  |           245760
 2017-02-03 15:00:07.930776+01 | 1486130407.93078 | pgbench_accounts_pkey |       2246197248

 2017-02-03 15:00:09.042679+01 | 1486130409.04268 | pgbench_branches_pkey |            40960
 2017-02-03 15:00:09.042679+01 | 1486130409.04268 | pgbench_tellers_pkey  |           245760
 2017-02-03 15:00:09.042679+01 | 1486130409.04268 | pgbench_accounts_pkey |       2246197248

 2017-02-03 15:00:10.136457+01 | 1486130410.13646 | pgbench_branches_pkey |            40960
 2017-02-03 15:00:10.136457+01 | 1486130410.13646 | pgbench_tellers_pkey  |           245760
 2017-02-03 15:00:10.136457+01 | 1486130410.13646 | pgbench_accounts_pkey |       2246197248

 2017-02-03 15:00:11.241926+01 | 1486130411.24193 | pgbench_branches_pkey |            40960
 2017-02-03 15:00:11.241926+01 | 1486130411.24193 | pgbench_tellers_pkey  |           245760
 2017-02-03 15:00:11.241926+01 | 1486130411.24193 | pgbench_accounts_pkey |       2246197248

 2017-02-03 15:00:12.338955+01 | 1486130412.33895 | pgbench_branches_pkey |            40960
 2017-02-03 15:00:12.338955+01 | 1486130412.33895 | pgbench_tellers_pkey  |           245760
 2017-02-03 15:00:12.338955+01 | 1486130412.33895 | pgbench_accounts_pkey |       2246197248

 2017-02-03 15:00:13.447961+01 | 1486130413.44796 | pgbench_branches_pkey |            40960
 2017-02-03 15:00:13.447961+01 | 1486130413.44796 | pgbench_tellers_pkey  |           245760
 2017-02-03 15:00:13.447961+01 | 1486130413.44796 | pgbench_accounts_pkey |       2246197248

 2017-02-03 15:00:14.559516+01 | 1486130414.55952 | pgbench_branches_pkey |            40960
 2017-02-03 15:00:14.559516+01 | 1486130414.55952 | pgbench_tellers_pkey  |           245760
 2017-02-03 15:00:14.559516+01 | 1486130414.55952 | pgbench_accounts_pkey |       2246197248

 2017-02-03 15:00:15.681028+01 | 1486130415.68103 | pgbench_branches_pkey |            40960
 2017-02-03 15:00:15.681028+01 | 1486130415.68103 | pgbench_tellers_pkey  |           245760
 2017-02-03 15:00:15.681028+01 | 1486130415.68103 | pgbench_accounts_pkey |       2246197248

 2017-02-03 15:00:16.775781+01 | 1486130416.77578 | pgbench_branches_pkey |            40960
 2017-02-03 15:00:16.775781+01 | 1486130416.77578 | pgbench_tellers_pkey  |           245760
 2017-02-03 15:00:16.775781+01 | 1486130416.77578 | pgbench_accounts_pkey |       2246197248

 2017-02-03 15:00:17.876341+01 | 1486130417.87634 | pgbench_branches_pkey |            40960
 2017-02-03 15:00:17.876341+01 | 1486130417.87634 | pgbench_tellers_pkey  |           245760
 2017-02-03 15:00:17.876341+01 | 1486130417.87634 | pgbench_accounts_pkey |       2246197248

 2017-02-03 15:00:18.982973+01 | 1486130418.98297 | pgbench_branches_pkey |            40960
 2017-02-03 15:00:18.982973+01 | 1486130418.98297 | pgbench_tellers_pkey  |           245760
 2017-02-03 15:00:18.982973+01 | 1486130418.98297 | pgbench_accounts_pkey |       2246197248

 2017-02-03 15:00:20.085267+01 | 1486130420.08527 | pgbench_branches_pkey |            40960
 2017-02-03 15:00:20.085267+01 | 1486130420.08527 | pgbench_tellers_pkey  |           245760
 2017-02-03 15:00:20.085267+01 | 1486130420.08527 | pgbench_accounts_pkey |       2246197248

 2017-02-03 15:00:21.191144+01 | 1486130421.19114 | pgbench_branches_pkey |            40960
 2017-02-03 15:00:21.191144+01 | 1486130421.19114 | pgbench_tellers_pkey  |           245760
 2017-02-03 15:00:21.191144+01 | 1486130421.19114 | pgbench_accounts_pkey |       2246197248

 2017-02-03 15:00:22.296899+01 | 1486130422.2969 | pgbench_branches_pkey |            40960
 2017-02-03 15:00:22.296899+01 | 1486130422.2969 | pgbench_tellers_pkey  |           245760
 2017-02-03 15:00:22.296899+01 | 1486130422.2969 | pgbench_accounts_pkey |       2246197248

 2017-02-03 15:00:23.414118+01 | 1486130423.41412 | pgbench_branches_pkey |            40960
 2017-02-03 15:00:23.414118+01 | 1486130423.41412 | pgbench_tellers_pkey  |           245760
 2017-02-03 15:00:23.414118+01 | 1486130423.41412 | pgbench_accounts_pkey |       2246197248

 2017-02-03 15:00:24.521871+01 | 1486130424.52187 | pgbench_branches_pkey |            40960
 2017-02-03 15:00:24.521871+01 | 1486130424.52187 | pgbench_tellers_pkey  |           245760
 2017-02-03 15:00:24.521871+01 | 1486130424.52187 | pgbench_accounts_pkey |       2246197248

 2017-02-03 15:00:25.63509+01 | 1486130425.63509 | pgbench_branches_pkey |            40960
 2017-02-03 15:00:25.63509+01 | 1486130425.63509 | pgbench_tellers_pkey  |           245760
 2017-02-03 15:00:25.63509+01 | 1486130425.63509 | pgbench_accounts_pkey |       2246197248

 2017-02-03 15:00:26.765266+01 | 1486130426.76527 | pgbench_branches_pkey |            40960
 2017-02-03 15:00:26.765266+01 | 1486130426.76527 | pgbench_tellers_pkey  |           245760
 2017-02-03 15:00:26.765266+01 | 1486130426.76527 | pgbench_accounts_pkey |       2246197248

 2017-02-03 15:00:27.867813+01 | 1486130427.86781 | pgbench_branches_pkey |            40960
 2017-02-03 15:00:27.867813+01 | 1486130427.86781 | pgbench_tellers_pkey  |           245760
 2017-02-03 15:00:27.867813+01 | 1486130427.86781 | pgbench_accounts_pkey |       2246197248

 2017-02-03 15:00:28.966005+01 | 1486130428.96601 | pgbench_branches_pkey |            40960
 2017-02-03 15:00:28.966005+01 | 1486130428.96601 | pgbench_tellers_pkey  |           245760
 2017-02-03 15:00:28.966005+01 | 1486130428.96601 | pgbench_accounts_pkey |       2246197248

 2017-02-03 15:00:30.071645+01 | 1486130430.07165 | pgbench_branches_pkey |            40960
 2017-02-03 15:00:30.071645+01 | 1486130430.07165 | pgbench_tellers_pkey  |           245760
 2017-02-03 15:00:30.071645+01 | 1486130430.07165 | pgbench_accounts_pkey |       2246197248

 2017-02-03 15:00:31.172945+01 | 1486130431.17295 | pgbench_branches_pkey |            40960
 2017-02-03 15:00:31.172945+01 | 1486130431.17295 | pgbench_tellers_pkey  |           245760
 2017-02-03 15:00:31.172945+01 | 1486130431.17295 | pgbench_accounts_pkey |       2246197248

 2017-02-03 15:00:32.287154+01 | 1486130432.28715 | pgbench_branches_pkey |            40960
 2017-02-03 15:00:32.287154+01 | 1486130432.28715 | pgbench_tellers_pkey  |           245760
 2017-02-03 15:00:32.287154+01 | 1486130432.28715 | pgbench_accounts_pkey |       2246197248

 2017-02-03 15:00:33.40234+01 | 1486130433.40234 | pgbench_branches_pkey |            40960
 2017-02-03 15:00:33.40234+01 | 1486130433.40234 | pgbench_tellers_pkey  |           245760
 2017-02-03 15:00:33.40234+01 | 1486130433.40234 | pgbench_accounts_pkey |       2246197248

 2017-02-03 15:00:34.503834+01 | 1486130434.50383 | pgbench_branches_pkey |            40960
 2017-02-03 15:00:34.503834+01 | 1486130434.50383 | pgbench_tellers_pkey  |           245760
 2017-02-03 15:00:34.503834+01 | 1486130434.50383 | pgbench_accounts_pkey |       2246197248

 2017-02-03 15:00:35.619113+01 | 1486130435.61911 | pgbench_branches_pkey |            40960
 2017-02-03 15:00:35.619113+01 | 1486130435.61911 | pgbench_tellers_pkey  |           245760
 2017-02-03 15:00:35.619113+01 | 1486130435.61911 | pgbench_accounts_pkey |       2246197248

 2017-02-03 15:00:36.727759+01 | 1486130436.72776 | pgbench_branches_pkey |            40960
 2017-02-03 15:00:36.727759+01 | 1486130436.72776 | pgbench_tellers_pkey  |           245760
 2017-02-03 15:00:36.727759+01 | 1486130436.72776 | pgbench_accounts_pkey |       2246197248

 2017-02-03 15:00:37.836299+01 | 1486130437.8363 | pgbench_branches_pkey |            40960
 2017-02-03 15:00:37.836299+01 | 1486130437.8363 | pgbench_tellers_pkey  |           245760
 2017-02-03 15:00:37.836299+01 | 1486130437.8363 | pgbench_accounts_pkey |       2246197248

 2017-02-03 15:00:38.942896+01 | 1486130438.9429 | pgbench_branches_pkey |            40960
 2017-02-03 15:00:38.942896+01 | 1486130438.9429 | pgbench_tellers_pkey  |           245760
 2017-02-03 15:00:38.942896+01 | 1486130438.9429 | pgbench_accounts_pkey |       2246197248

 2017-02-03 15:00:40.056301+01 | 1486130440.0563 | pgbench_branches_pkey |            40960
 2017-02-03 15:00:40.056301+01 | 1486130440.0563 | pgbench_tellers_pkey  |           245760
 2017-02-03 15:00:40.056301+01 | 1486130440.0563 | pgbench_accounts_pkey |       2246197248

 2017-02-03 15:00:41.169865+01 | 1486130441.16986 | pgbench_branches_pkey |            40960
 2017-02-03 15:00:41.169865+01 | 1486130441.16986 | pgbench_tellers_pkey  |           245760
 2017-02-03 15:00:41.169865+01 | 1486130441.16986 | pgbench_accounts_pkey |       2246197248

 2017-02-03 15:00:42.294829+01 | 1486130442.29483 | pgbench_branches_pkey |            40960
 2017-02-03 15:00:42.294829+01 | 1486130442.29483 | pgbench_tellers_pkey  |           245760
 2017-02-03 15:00:42.294829+01 | 1486130442.29483 | pgbench_accounts_pkey |       2246197248

 2017-02-03 15:00:43.414383+01 | 1486130443.41438 | pgbench_branches_pkey |            40960
 2017-02-03 15:00:43.414383+01 | 1486130443.41438 | pgbench_tellers_pkey  |           245760
 2017-02-03 15:00:43.414383+01 | 1486130443.41438 | pgbench_accounts_pkey |       2246197248

 2017-02-03 15:00:44.522376+01 | 1486130444.52238 | pgbench_branches_pkey |            40960
 2017-02-03 15:00:44.522376+01 | 1486130444.52238 | pgbench_tellers_pkey  |           245760
 2017-02-03 15:00:44.522376+01 | 1486130444.52238 | pgbench_accounts_pkey |       2246197248

 2017-02-03 15:00:45.628407+01 | 1486130445.62841 | pgbench_branches_pkey |            40960
 2017-02-03 15:00:45.628407+01 | 1486130445.62841 | pgbench_tellers_pkey  |           245760
 2017-02-03 15:00:45.628407+01 | 1486130445.62841 | pgbench_accounts_pkey |       2246197248

 2017-02-03 15:00:46.722562+01 | 1486130446.72256 | pgbench_branches_pkey |            40960
 2017-02-03 15:00:46.722562+01 | 1486130446.72256 | pgbench_tellers_pkey  |           245760
 2017-02-03 15:00:46.722562+01 | 1486130446.72256 | pgbench_accounts_pkey |       2246197248

 2017-02-03 15:00:47.834071+01 | 1486130447.83407 | pgbench_branches_pkey |            40960
 2017-02-03 15:00:47.834071+01 | 1486130447.83407 | pgbench_tellers_pkey  |           245760
 2017-02-03 15:00:47.834071+01 | 1486130447.83407 | pgbench_accounts_pkey |       2246197248

 2017-02-03 15:00:48.941214+01 | 1486130448.94121 | pgbench_branches_pkey |            40960
 2017-02-03 15:00:48.941214+01 | 1486130448.94121 | pgbench_tellers_pkey  |           245760
 2017-02-03 15:00:48.941214+01 | 1486130448.94121 | pgbench_accounts_pkey |       2246197248

 2017-02-03 15:00:50.064008+01 | 1486130450.06401 | pgbench_branches_pkey |            40960
 2017-02-03 15:00:50.064008+01 | 1486130450.06401 | pgbench_tellers_pkey  |           245760
 2017-02-03 15:00:50.064008+01 | 1486130450.06401 | pgbench_accounts_pkey |       2246197248

 2017-02-03 15:00:51.180247+01 | 1486130451.18025 | pgbench_branches_pkey |            40960
 2017-02-03 15:00:51.180247+01 | 1486130451.18025 | pgbench_tellers_pkey  |           245760
 2017-02-03 15:00:51.180247+01 | 1486130451.18025 | pgbench_accounts_pkey |       2246197248

 2017-02-03 15:00:52.28177+01 | 1486130452.28177 | pgbench_branches_pkey |            40960
 2017-02-03 15:00:52.28177+01 | 1486130452.28177 | pgbench_tellers_pkey  |           245760
 2017-02-03 15:00:52.28177+01 | 1486130452.28177 | pgbench_accounts_pkey |       2246197248

 2017-02-03 15:00:53.386751+01 | 1486130453.38675 | pgbench_branches_pkey |            40960
 2017-02-03 15:00:53.386751+01 | 1486130453.38675 | pgbench_tellers_pkey  |           245760
 2017-02-03 15:00:53.386751+01 | 1486130453.38675 | pgbench_accounts_pkey |       2246197248

 2017-02-03 15:00:54.49139+01 | 1486130454.49139 | pgbench_branches_pkey |            40960
 2017-02-03 15:00:54.49139+01 | 1486130454.49139 | pgbench_tellers_pkey  |           245760
 2017-02-03 15:00:54.49139+01 | 1486130454.49139 | pgbench_accounts_pkey |       2246197248

 2017-02-03 15:00:55.597955+01 | 1486130455.59795 | pgbench_branches_pkey |            40960
 2017-02-03 15:00:55.597955+01 | 1486130455.59795 | pgbench_tellers_pkey  |           245760
 2017-02-03 15:00:55.597955+01 | 1486130455.59795 | pgbench_accounts_pkey |       2246197248

 2017-02-03 15:00:56.702027+01 | 1486130456.70203 | pgbench_branches_pkey |            40960
 2017-02-03 15:00:56.702027+01 | 1486130456.70203 | pgbench_tellers_pkey  |           245760
 2017-02-03 15:00:56.702027+01 | 1486130456.70203 | pgbench_accounts_pkey |       2246197248

 2017-02-03 15:00:57.807541+01 | 1486130457.80754 | pgbench_branches_pkey |            40960
 2017-02-03 15:00:57.807541+01 | 1486130457.80754 | pgbench_tellers_pkey  |           245760
 2017-02-03 15:00:57.807541+01 | 1486130457.80754 | pgbench_accounts_pkey |       2246197248

 2017-02-03 15:00:58.919378+01 | 1486130458.91938 | pgbench_branches_pkey |            40960
 2017-02-03 15:00:58.919378+01 | 1486130458.91938 | pgbench_tellers_pkey  |           245760
 2017-02-03 15:00:58.919378+01 | 1486130458.91938 | pgbench_accounts_pkey |       2246197248

 2017-02-03 15:01:00.024332+01 | 1486130460.02433 | pgbench_branches_pkey |            40960
 2017-02-03 15:01:00.024332+01 | 1486130460.02433 | pgbench_tellers_pkey  |           245760
 2017-02-03 15:01:00.024332+01 | 1486130460.02433 | pgbench_accounts_pkey |       2246197248

 2017-02-03 15:01:01.125082+01 | 1486130461.12508 | pgbench_branches_pkey |            40960
 2017-02-03 15:01:01.125082+01 | 1486130461.12508 | pgbench_tellers_pkey  |           245760
 2017-02-03 15:01:01.125082+01 | 1486130461.12508 | pgbench_accounts_pkey |       2246197248

 2017-02-03 15:01:02.229895+01 | 1486130462.2299 | pgbench_branches_pkey |            40960
 2017-02-03 15:01:02.229895+01 | 1486130462.2299 | pgbench_tellers_pkey  |           245760
 2017-02-03 15:01:02.229895+01 | 1486130462.2299 | pgbench_accounts_pkey |       2246197248

 2017-02-03 15:01:03.329706+01 | 1486130463.32971 | pgbench_branches_pkey |            40960
 2017-02-03 15:01:03.329706+01 | 1486130463.32971 | pgbench_tellers_pkey  |           245760
 2017-02-03 15:01:03.329706+01 | 1486130463.32971 | pgbench_accounts_pkey |       2246197248

 2017-02-03 15:01:04.420972+01 | 1486130464.42097 | pgbench_branches_pkey |            40960
 2017-02-03 15:01:04.420972+01 | 1486130464.42097 | pgbench_tellers_pkey  |           245760
 2017-02-03 15:01:04.420972+01 | 1486130464.42097 | pgbench_accounts_pkey |       2246197248

 2017-02-03 15:01:05.524532+01 | 1486130465.52453 | pgbench_branches_pkey |            40960
 2017-02-03 15:01:05.524532+01 | 1486130465.52453 | pgbench_tellers_pkey  |           245760
 2017-02-03 15:01:05.524532+01 | 1486130465.52453 | pgbench_accounts_pkey |       2246197248

 2017-02-03 15:01:06.634118+01 | 1486130466.63412 | pgbench_branches_pkey |            40960
 2017-02-03 15:01:06.634118+01 | 1486130466.63412 | pgbench_tellers_pkey  |           245760
 2017-02-03 15:01:06.634118+01 | 1486130466.63412 | pgbench_accounts_pkey |       2246197248

 2017-02-03 15:01:07.758632+01 | 1486130467.75863 | pgbench_branches_pkey |            40960
 2017-02-03 15:01:07.758632+01 | 1486130467.75863 | pgbench_tellers_pkey  |           245760
 2017-02-03 15:01:07.758632+01 | 1486130467.75863 | pgbench_accounts_pkey |       2246197248

 2017-02-03 15:01:08.871491+01 | 1486130468.87149 | pgbench_branches_pkey |            40960
 2017-02-03 15:01:08.871491+01 | 1486130468.87149 | pgbench_tellers_pkey  |           245760
 2017-02-03 15:01:08.871491+01 | 1486130468.87149 | pgbench_accounts_pkey |       2246197248

 2017-02-03 15:01:09.968541+01 | 1486130469.96854 | pgbench_branches_pkey |            40960
 2017-02-03 15:01:09.968541+01 | 1486130469.96854 | pgbench_tellers_pkey  |           245760
 2017-02-03 15:01:09.968541+01 | 1486130469.96854 | pgbench_accounts_pkey |       2246197248

 2017-02-03 15:01:11.066969+01 | 1486130471.06697 | pgbench_branches_pkey |            40960
 2017-02-03 15:01:11.066969+01 | 1486130471.06697 | pgbench_tellers_pkey  |           245760
 2017-02-03 15:01:11.066969+01 | 1486130471.06697 | pgbench_accounts_pkey |       2246197248

 2017-02-03 15:01:12.165062+01 | 1486130472.16506 | pgbench_branches_pkey |            40960
 2017-02-03 15:01:12.165062+01 | 1486130472.16506 | pgbench_tellers_pkey  |           245760
 2017-02-03 15:01:12.165062+01 | 1486130472.16506 | pgbench_accounts_pkey |       2246197248

 2017-02-03 15:01:13.278016+01 | 1486130473.27802 | pgbench_branches_pkey |            40960
 2017-02-03 15:01:13.278016+01 | 1486130473.27802 | pgbench_tellers_pkey  |           245760
 2017-02-03 15:01:13.278016+01 | 1486130473.27802 | pgbench_accounts_pkey |       2246197248

 2017-02-03 15:01:14.37601+01 | 1486130474.37601 | pgbench_branches_pkey |            40960
 2017-02-03 15:01:14.37601+01 | 1486130474.37601 | pgbench_tellers_pkey  |           245760
 2017-02-03 15:01:14.37601+01 | 1486130474.37601 | pgbench_accounts_pkey |       2246197248

 2017-02-03 15:01:15.485144+01 | 1486130475.48514 | pgbench_branches_pkey |            40960
 2017-02-03 15:01:15.485144+01 | 1486130475.48514 | pgbench_tellers_pkey  |           245760
 2017-02-03 15:01:15.485144+01 | 1486130475.48514 | pgbench_accounts_pkey |       2246197248

 2017-02-03 15:01:16.588381+01 | 1486130476.58838 | pgbench_branches_pkey |            40960
 2017-02-03 15:01:16.588381+01 | 1486130476.58838 | pgbench_tellers_pkey  |           245760
 2017-02-03 15:01:16.588381+01 | 1486130476.58838 | pgbench_accounts_pkey |       2246197248

 2017-02-03 15:01:17.69663+01 | 1486130477.69663 | pgbench_branches_pkey |            40960
 2017-02-03 15:01:17.69663+01 | 1486130477.69663 | pgbench_tellers_pkey  |           245760
 2017-02-03 15:01:17.69663+01 | 1486130477.69663 | pgbench_accounts_pkey |       2246197248

 2017-02-03 15:01:18.803343+01 | 1486130478.80334 | pgbench_branches_pkey |            40960
 2017-02-03 15:01:18.803343+01 | 1486130478.80334 | pgbench_tellers_pkey  |           245760
 2017-02-03 15:01:18.803343+01 | 1486130478.80334 | pgbench_accounts_pkey |       2246197248

 2017-02-03 15:01:19.901637+01 | 1486130479.90164 | pgbench_branches_pkey |            40960
 2017-02-03 15:01:19.901637+01 | 1486130479.90164 | pgbench_tellers_pkey  |           245760
 2017-02-03 15:01:19.901637+01 | 1486130479.90164 | pgbench_accounts_pkey |       2246197248

 2017-02-03 15:01:21.00021+01 | 1486130481.00021 | pgbench_branches_pkey |            40960
 2017-02-03 15:01:21.00021+01 | 1486130481.00021 | pgbench_tellers_pkey  |           245760
 2017-02-03 15:01:21.00021+01 | 1486130481.00021 | pgbench_accounts_pkey |       2246197248

 2017-02-03 15:01:22.101484+01 | 1486130482.10148 | pgbench_branches_pkey |            40960
 2017-02-03 15:01:22.101484+01 | 1486130482.10148 | pgbench_tellers_pkey  |           245760
 2017-02-03 15:01:22.101484+01 | 1486130482.10148 | pgbench_accounts_pkey |       2246197248

 2017-02-03 15:01:23.203517+01 | 1486130483.20352 | pgbench_branches_pkey |            40960
 2017-02-03 15:01:23.203517+01 | 1486130483.20352 | pgbench_tellers_pkey  |           245760
 2017-02-03 15:01:23.203517+01 | 1486130483.20352 | pgbench_accounts_pkey |       2246197248

 2017-02-03 15:01:24.310718+01 | 1486130484.31072 | pgbench_branches_pkey |            40960
 2017-02-03 15:01:24.310718+01 | 1486130484.31072 | pgbench_tellers_pkey  |           245760
 2017-02-03 15:01:24.310718+01 | 1486130484.31072 | pgbench_accounts_pkey |       2246197248

 2017-02-03 15:01:25.409819+01 | 1486130485.40982 | pgbench_branches_pkey |            40960
 2017-02-03 15:01:25.409819+01 | 1486130485.40982 | pgbench_tellers_pkey  |           245760
 2017-02-03 15:01:25.409819+01 | 1486130485.40982 | pgbench_accounts_pkey |       2246197248

 2017-02-03 15:01:26.511306+01 | 1486130486.51131 | pgbench_branches_pkey |            40960
 2017-02-03 15:01:26.511306+01 | 1486130486.51131 | pgbench_tellers_pkey  |           245760
 2017-02-03 15:01:26.511306+01 | 1486130486.51131 | pgbench_accounts_pkey |       2246197248

 2017-02-03 15:01:27.599194+01 | 1486130487.59919 | pgbench_branches_pkey |            40960
 2017-02-03 15:01:27.599194+01 | 1486130487.59919 | pgbench_tellers_pkey  |           245760
 2017-02-03 15:01:27.599194+01 | 1486130487.59919 | pgbench_accounts_pkey |       2246197248

 2017-02-03 15:01:28.708072+01 | 1486130488.70807 | pgbench_branches_pkey |            40960
 2017-02-03 15:01:28.708072+01 | 1486130488.70807 | pgbench_tellers_pkey  |           245760
 2017-02-03 15:01:28.708072+01 | 1486130488.70807 | pgbench_accounts_pkey |       2246197248

