 2017-02-03 20:42:07.410488+01 | 1486150927.41049 | pgbench_accounts |      13429514240
 2017-02-03 20:42:07.410488+01 | 1486150927.41049 | pgbench_tellers  |           450560
 2017-02-03 20:42:07.410488+01 | 1486150927.41049 | pgbench_history  |                0
 2017-02-03 20:42:07.410488+01 | 1486150927.41049 | pgbench_branches |            40960

 2017-02-03 20:42:08.490539+01 | 1486150928.49054 | pgbench_accounts |      13429514240
 2017-02-03 20:42:08.490539+01 | 1486150928.49054 | pgbench_tellers  |           450560
 2017-02-03 20:42:08.490539+01 | 1486150928.49054 | pgbench_history  |                0
 2017-02-03 20:42:08.490539+01 | 1486150928.49054 | pgbench_branches |            40960

 2017-02-03 20:42:09.572137+01 | 1486150929.57214 | pgbench_accounts |      13429514240
 2017-02-03 20:42:09.572137+01 | 1486150929.57214 | pgbench_tellers  |           450560
 2017-02-03 20:42:09.572137+01 | 1486150929.57214 | pgbench_history  |                0
 2017-02-03 20:42:09.572137+01 | 1486150929.57214 | pgbench_branches |            40960

 2017-02-03 20:42:10.649538+01 | 1486150930.64954 | pgbench_accounts |      13429514240
 2017-02-03 20:42:10.649538+01 | 1486150930.64954 | pgbench_tellers  |           450560
 2017-02-03 20:42:10.649538+01 | 1486150930.64954 | pgbench_history  |                0
 2017-02-03 20:42:10.649538+01 | 1486150930.64954 | pgbench_branches |            40960

 2017-02-03 20:42:11.729851+01 | 1486150931.72985 | pgbench_accounts |      13429514240
 2017-02-03 20:42:11.729851+01 | 1486150931.72985 | pgbench_tellers  |           450560
 2017-02-03 20:42:11.729851+01 | 1486150931.72985 | pgbench_history  |                0
 2017-02-03 20:42:11.729851+01 | 1486150931.72985 | pgbench_branches |            40960

 2017-02-03 20:42:12.813212+01 | 1486150932.81321 | pgbench_accounts |      13429514240
 2017-02-03 20:42:12.813212+01 | 1486150932.81321 | pgbench_tellers  |           450560
 2017-02-03 20:42:12.813212+01 | 1486150932.81321 | pgbench_history  |                0
 2017-02-03 20:42:12.813212+01 | 1486150932.81321 | pgbench_branches |            40960

 2017-02-03 20:42:13.891118+01 | 1486150933.89112 | pgbench_accounts |      13429514240
 2017-02-03 20:42:13.891118+01 | 1486150933.89112 | pgbench_tellers  |           450560
 2017-02-03 20:42:13.891118+01 | 1486150933.89112 | pgbench_history  |                0
 2017-02-03 20:42:13.891118+01 | 1486150933.89112 | pgbench_branches |            40960

 2017-02-03 20:42:14.968547+01 | 1486150934.96855 | pgbench_accounts |      13429514240
 2017-02-03 20:42:14.968547+01 | 1486150934.96855 | pgbench_tellers  |           450560
 2017-02-03 20:42:14.968547+01 | 1486150934.96855 | pgbench_history  |                0
 2017-02-03 20:42:14.968547+01 | 1486150934.96855 | pgbench_branches |            40960

 2017-02-03 20:42:16.043811+01 | 1486150936.04381 | pgbench_accounts |      13429514240
 2017-02-03 20:42:16.043811+01 | 1486150936.04381 | pgbench_tellers  |           450560
 2017-02-03 20:42:16.043811+01 | 1486150936.04381 | pgbench_history  |                0
 2017-02-03 20:42:16.043811+01 | 1486150936.04381 | pgbench_branches |            40960

 2017-02-03 20:42:17.121386+01 | 1486150937.12139 | pgbench_accounts |      13429514240
 2017-02-03 20:42:17.121386+01 | 1486150937.12139 | pgbench_tellers  |           450560
 2017-02-03 20:42:17.121386+01 | 1486150937.12139 | pgbench_history  |                0
 2017-02-03 20:42:17.121386+01 | 1486150937.12139 | pgbench_branches |            40960

 2017-02-03 20:42:18.197701+01 | 1486150938.1977 | pgbench_accounts |      13429514240
 2017-02-03 20:42:18.197701+01 | 1486150938.1977 | pgbench_tellers  |           450560
 2017-02-03 20:42:18.197701+01 | 1486150938.1977 | pgbench_history  |                0
 2017-02-03 20:42:18.197701+01 | 1486150938.1977 | pgbench_branches |            40960

 2017-02-03 20:42:19.289623+01 | 1486150939.28962 | pgbench_accounts |      13429514240
 2017-02-03 20:42:19.289623+01 | 1486150939.28962 | pgbench_tellers  |           450560
 2017-02-03 20:42:19.289623+01 | 1486150939.28962 | pgbench_history  |                0
 2017-02-03 20:42:19.289623+01 | 1486150939.28962 | pgbench_branches |            40960

 2017-02-03 20:42:20.364718+01 | 1486150940.36472 | pgbench_accounts |      13429514240
 2017-02-03 20:42:20.364718+01 | 1486150940.36472 | pgbench_tellers  |           450560
 2017-02-03 20:42:20.364718+01 | 1486150940.36472 | pgbench_history  |                0
 2017-02-03 20:42:20.364718+01 | 1486150940.36472 | pgbench_branches |            40960

 2017-02-03 20:42:21.448665+01 | 1486150941.44866 | pgbench_accounts |      13429514240
 2017-02-03 20:42:21.448665+01 | 1486150941.44866 | pgbench_tellers  |           450560
 2017-02-03 20:42:21.448665+01 | 1486150941.44866 | pgbench_history  |                0
 2017-02-03 20:42:21.448665+01 | 1486150941.44866 | pgbench_branches |            40960

 2017-02-03 20:42:22.529564+01 | 1486150942.52956 | pgbench_accounts |      13429514240
 2017-02-03 20:42:22.529564+01 | 1486150942.52956 | pgbench_tellers  |           450560
 2017-02-03 20:42:22.529564+01 | 1486150942.52956 | pgbench_history  |                0
 2017-02-03 20:42:22.529564+01 | 1486150942.52956 | pgbench_branches |            40960

 2017-02-03 20:42:23.6035+01 | 1486150943.6035 | pgbench_accounts |      13429514240
 2017-02-03 20:42:23.6035+01 | 1486150943.6035 | pgbench_tellers  |           450560
 2017-02-03 20:42:23.6035+01 | 1486150943.6035 | pgbench_history  |                0
 2017-02-03 20:42:23.6035+01 | 1486150943.6035 | pgbench_branches |            40960

 2017-02-03 20:42:24.679848+01 | 1486150944.67985 | pgbench_accounts |      13429514240
 2017-02-03 20:42:24.679848+01 | 1486150944.67985 | pgbench_tellers  |           450560
 2017-02-03 20:42:24.679848+01 | 1486150944.67985 | pgbench_history  |                0
 2017-02-03 20:42:24.679848+01 | 1486150944.67985 | pgbench_branches |            40960

 2017-02-03 20:42:25.754737+01 | 1486150945.75474 | pgbench_accounts |      13429514240
 2017-02-03 20:42:25.754737+01 | 1486150945.75474 | pgbench_tellers  |           450560
 2017-02-03 20:42:25.754737+01 | 1486150945.75474 | pgbench_history  |                0
 2017-02-03 20:42:25.754737+01 | 1486150945.75474 | pgbench_branches |            40960

 2017-02-03 20:42:26.840376+01 | 1486150946.84038 | pgbench_accounts |      13429514240
 2017-02-03 20:42:26.840376+01 | 1486150946.84038 | pgbench_tellers  |           450560
 2017-02-03 20:42:26.840376+01 | 1486150946.84038 | pgbench_history  |                0
 2017-02-03 20:42:26.840376+01 | 1486150946.84038 | pgbench_branches |            40960

 2017-02-03 20:42:27.913233+01 | 1486150947.91323 | pgbench_accounts |      13429514240
 2017-02-03 20:42:27.913233+01 | 1486150947.91323 | pgbench_tellers  |           450560
 2017-02-03 20:42:27.913233+01 | 1486150947.91323 | pgbench_history  |                0
 2017-02-03 20:42:27.913233+01 | 1486150947.91323 | pgbench_branches |            40960

 2017-02-03 20:42:28.987419+01 | 1486150948.98742 | pgbench_accounts |      13429514240
 2017-02-03 20:42:28.987419+01 | 1486150948.98742 | pgbench_tellers  |           450560
 2017-02-03 20:42:28.987419+01 | 1486150948.98742 | pgbench_history  |                0
 2017-02-03 20:42:28.987419+01 | 1486150948.98742 | pgbench_branches |            40960

 2017-02-03 20:42:30.063985+01 | 1486150950.06399 | pgbench_accounts |      13429514240
 2017-02-03 20:42:30.063985+01 | 1486150950.06399 | pgbench_tellers  |           450560
 2017-02-03 20:42:30.063985+01 | 1486150950.06399 | pgbench_history  |                0
 2017-02-03 20:42:30.063985+01 | 1486150950.06399 | pgbench_branches |            40960

 2017-02-03 20:42:31.145285+01 | 1486150951.14528 | pgbench_accounts |      13429514240
 2017-02-03 20:42:31.145285+01 | 1486150951.14528 | pgbench_tellers  |           450560
 2017-02-03 20:42:31.145285+01 | 1486150951.14528 | pgbench_history  |                0
 2017-02-03 20:42:31.145285+01 | 1486150951.14528 | pgbench_branches |            40960

 2017-02-03 20:42:32.234598+01 | 1486150952.2346 | pgbench_accounts |      13429514240
 2017-02-03 20:42:32.234598+01 | 1486150952.2346 | pgbench_tellers  |           450560
 2017-02-03 20:42:32.234598+01 | 1486150952.2346 | pgbench_history  |                0
 2017-02-03 20:42:32.234598+01 | 1486150952.2346 | pgbench_branches |            40960

 2017-02-03 20:42:33.312202+01 | 1486150953.3122 | pgbench_accounts |      13429514240
 2017-02-03 20:42:33.312202+01 | 1486150953.3122 | pgbench_tellers  |           450560
 2017-02-03 20:42:33.312202+01 | 1486150953.3122 | pgbench_history  |                0
 2017-02-03 20:42:33.312202+01 | 1486150953.3122 | pgbench_branches |            40960

 2017-02-03 20:42:34.391929+01 | 1486150954.39193 | pgbench_accounts |      13429514240
 2017-02-03 20:42:34.391929+01 | 1486150954.39193 | pgbench_tellers  |           450560
 2017-02-03 20:42:34.391929+01 | 1486150954.39193 | pgbench_history  |                0
 2017-02-03 20:42:34.391929+01 | 1486150954.39193 | pgbench_branches |            40960

 2017-02-03 20:42:35.469219+01 | 1486150955.46922 | pgbench_accounts |      13429514240
 2017-02-03 20:42:35.469219+01 | 1486150955.46922 | pgbench_tellers  |           450560
 2017-02-03 20:42:35.469219+01 | 1486150955.46922 | pgbench_history  |                0
 2017-02-03 20:42:35.469219+01 | 1486150955.46922 | pgbench_branches |            40960

 2017-02-03 20:42:36.546934+01 | 1486150956.54693 | pgbench_accounts |      13429514240
 2017-02-03 20:42:36.546934+01 | 1486150956.54693 | pgbench_tellers  |           450560
 2017-02-03 20:42:36.546934+01 | 1486150956.54693 | pgbench_history  |                0
 2017-02-03 20:42:36.546934+01 | 1486150956.54693 | pgbench_branches |            40960

 2017-02-03 20:42:37.622214+01 | 1486150957.62221 | pgbench_accounts |      13429514240
 2017-02-03 20:42:37.622214+01 | 1486150957.62221 | pgbench_tellers  |           450560
 2017-02-03 20:42:37.622214+01 | 1486150957.62221 | pgbench_history  |                0
 2017-02-03 20:42:37.622214+01 | 1486150957.62221 | pgbench_branches |            40960

 2017-02-03 20:42:38.702571+01 | 1486150958.70257 | pgbench_accounts |      13429514240
 2017-02-03 20:42:38.702571+01 | 1486150958.70257 | pgbench_tellers  |           450560
 2017-02-03 20:42:38.702571+01 | 1486150958.70257 | pgbench_history  |                0
 2017-02-03 20:42:38.702571+01 | 1486150958.70257 | pgbench_branches |            40960

 2017-02-03 20:42:39.780481+01 | 1486150959.78048 | pgbench_accounts |      13429514240
 2017-02-03 20:42:39.780481+01 | 1486150959.78048 | pgbench_tellers  |           450560
 2017-02-03 20:42:39.780481+01 | 1486150959.78048 | pgbench_history  |                0
 2017-02-03 20:42:39.780481+01 | 1486150959.78048 | pgbench_branches |            40960

 2017-02-03 20:42:40.865407+01 | 1486150960.86541 | pgbench_accounts |      13429514240
 2017-02-03 20:42:40.865407+01 | 1486150960.86541 | pgbench_tellers  |           450560
 2017-02-03 20:42:40.865407+01 | 1486150960.86541 | pgbench_history  |                0
 2017-02-03 20:42:40.865407+01 | 1486150960.86541 | pgbench_branches |            40960

 2017-02-03 20:42:41.942092+01 | 1486150961.94209 | pgbench_accounts |      13429514240
 2017-02-03 20:42:41.942092+01 | 1486150961.94209 | pgbench_tellers  |           450560
 2017-02-03 20:42:41.942092+01 | 1486150961.94209 | pgbench_history  |                0
 2017-02-03 20:42:41.942092+01 | 1486150961.94209 | pgbench_branches |            40960

 2017-02-03 20:42:43.013475+01 | 1486150963.01347 | pgbench_accounts |      13429514240
 2017-02-03 20:42:43.013475+01 | 1486150963.01347 | pgbench_tellers  |           450560
 2017-02-03 20:42:43.013475+01 | 1486150963.01347 | pgbench_history  |                0
 2017-02-03 20:42:43.013475+01 | 1486150963.01347 | pgbench_branches |            40960

 2017-02-03 20:42:44.09426+01 | 1486150964.09426 | pgbench_accounts |      13429514240
 2017-02-03 20:42:44.09426+01 | 1486150964.09426 | pgbench_tellers  |           450560
 2017-02-03 20:42:44.09426+01 | 1486150964.09426 | pgbench_history  |                0
 2017-02-03 20:42:44.09426+01 | 1486150964.09426 | pgbench_branches |            40960

 2017-02-03 20:42:45.170019+01 | 1486150965.17002 | pgbench_accounts |      13429514240
 2017-02-03 20:42:45.170019+01 | 1486150965.17002 | pgbench_tellers  |           450560
 2017-02-03 20:42:45.170019+01 | 1486150965.17002 | pgbench_history  |                0
 2017-02-03 20:42:45.170019+01 | 1486150965.17002 | pgbench_branches |            40960

 2017-02-03 20:42:46.250368+01 | 1486150966.25037 | pgbench_accounts |      13429514240
 2017-02-03 20:42:46.250368+01 | 1486150966.25037 | pgbench_tellers  |           450560
 2017-02-03 20:42:46.250368+01 | 1486150966.25037 | pgbench_history  |                0
 2017-02-03 20:42:46.250368+01 | 1486150966.25037 | pgbench_branches |            40960

 2017-02-03 20:42:47.332329+01 | 1486150967.33233 | pgbench_accounts |      13429514240
 2017-02-03 20:42:47.332329+01 | 1486150967.33233 | pgbench_tellers  |           450560
 2017-02-03 20:42:47.332329+01 | 1486150967.33233 | pgbench_history  |                0
 2017-02-03 20:42:47.332329+01 | 1486150967.33233 | pgbench_branches |            40960

 2017-02-03 20:42:48.405203+01 | 1486150968.4052 | pgbench_accounts |      13429514240
 2017-02-03 20:42:48.405203+01 | 1486150968.4052 | pgbench_tellers  |           450560
 2017-02-03 20:42:48.405203+01 | 1486150968.4052 | pgbench_history  |                0
 2017-02-03 20:42:48.405203+01 | 1486150968.4052 | pgbench_branches |            40960

 2017-02-03 20:42:49.489173+01 | 1486150969.48917 | pgbench_accounts |      13429514240
 2017-02-03 20:42:49.489173+01 | 1486150969.48917 | pgbench_tellers  |           450560
 2017-02-03 20:42:49.489173+01 | 1486150969.48917 | pgbench_history  |                0
 2017-02-03 20:42:49.489173+01 | 1486150969.48917 | pgbench_branches |            40960

 2017-02-03 20:42:50.571161+01 | 1486150970.57116 | pgbench_accounts |      13429514240
 2017-02-03 20:42:50.571161+01 | 1486150970.57116 | pgbench_tellers  |           450560
 2017-02-03 20:42:50.571161+01 | 1486150970.57116 | pgbench_history  |                0
 2017-02-03 20:42:50.571161+01 | 1486150970.57116 | pgbench_branches |            40960

 2017-02-03 20:42:51.662788+01 | 1486150971.66279 | pgbench_accounts |      13429514240
 2017-02-03 20:42:51.662788+01 | 1486150971.66279 | pgbench_tellers  |           450560
 2017-02-03 20:42:51.662788+01 | 1486150971.66279 | pgbench_history  |                0
 2017-02-03 20:42:51.662788+01 | 1486150971.66279 | pgbench_branches |            40960

 2017-02-03 20:42:52.74333+01 | 1486150972.74333 | pgbench_accounts |      13429514240
 2017-02-03 20:42:52.74333+01 | 1486150972.74333 | pgbench_tellers  |           450560
 2017-02-03 20:42:52.74333+01 | 1486150972.74333 | pgbench_history  |                0
 2017-02-03 20:42:52.74333+01 | 1486150972.74333 | pgbench_branches |            40960

 2017-02-03 20:42:53.827526+01 | 1486150973.82753 | pgbench_accounts |      13429514240
 2017-02-03 20:42:53.827526+01 | 1486150973.82753 | pgbench_tellers  |           450560
 2017-02-03 20:42:53.827526+01 | 1486150973.82753 | pgbench_history  |                0
 2017-02-03 20:42:53.827526+01 | 1486150973.82753 | pgbench_branches |            40960

 2017-02-03 20:42:54.912283+01 | 1486150974.91228 | pgbench_accounts |      13429514240
 2017-02-03 20:42:54.912283+01 | 1486150974.91228 | pgbench_tellers  |           450560
 2017-02-03 20:42:54.912283+01 | 1486150974.91228 | pgbench_history  |                0
 2017-02-03 20:42:54.912283+01 | 1486150974.91228 | pgbench_branches |            40960

 2017-02-03 20:42:55.997233+01 | 1486150975.99723 | pgbench_accounts |      13429514240
 2017-02-03 20:42:55.997233+01 | 1486150975.99723 | pgbench_tellers  |           450560
 2017-02-03 20:42:55.997233+01 | 1486150975.99723 | pgbench_history  |                0
 2017-02-03 20:42:55.997233+01 | 1486150975.99723 | pgbench_branches |            40960

 2017-02-03 20:42:57.086926+01 | 1486150977.08693 | pgbench_accounts |      13429514240
 2017-02-03 20:42:57.086926+01 | 1486150977.08693 | pgbench_tellers  |           450560
 2017-02-03 20:42:57.086926+01 | 1486150977.08693 | pgbench_history  |                0
 2017-02-03 20:42:57.086926+01 | 1486150977.08693 | pgbench_branches |            40960

 2017-02-03 20:42:58.16204+01 | 1486150978.16204 | pgbench_accounts |      13429514240
 2017-02-03 20:42:58.16204+01 | 1486150978.16204 | pgbench_tellers  |           450560
 2017-02-03 20:42:58.16204+01 | 1486150978.16204 | pgbench_history  |                0
 2017-02-03 20:42:58.16204+01 | 1486150978.16204 | pgbench_branches |            40960

 2017-02-03 20:42:59.245268+01 | 1486150979.24527 | pgbench_accounts |      13429514240
 2017-02-03 20:42:59.245268+01 | 1486150979.24527 | pgbench_tellers  |           450560
 2017-02-03 20:42:59.245268+01 | 1486150979.24527 | pgbench_history  |                0
 2017-02-03 20:42:59.245268+01 | 1486150979.24527 | pgbench_branches |            40960

 2017-02-03 20:43:00.330501+01 | 1486150980.3305 | pgbench_accounts |      13429514240
 2017-02-03 20:43:00.330501+01 | 1486150980.3305 | pgbench_tellers  |           450560
 2017-02-03 20:43:00.330501+01 | 1486150980.3305 | pgbench_history  |                0
 2017-02-03 20:43:00.330501+01 | 1486150980.3305 | pgbench_branches |            40960

 2017-02-03 20:43:01.40991+01 | 1486150981.40991 | pgbench_accounts |      13429514240
 2017-02-03 20:43:01.40991+01 | 1486150981.40991 | pgbench_tellers  |           450560
 2017-02-03 20:43:01.40991+01 | 1486150981.40991 | pgbench_history  |                0
 2017-02-03 20:43:01.40991+01 | 1486150981.40991 | pgbench_branches |            40960

 2017-02-03 20:43:02.487113+01 | 1486150982.48711 | pgbench_accounts |      13429514240
 2017-02-03 20:43:02.487113+01 | 1486150982.48711 | pgbench_tellers  |           450560
 2017-02-03 20:43:02.487113+01 | 1486150982.48711 | pgbench_history  |                0
 2017-02-03 20:43:02.487113+01 | 1486150982.48711 | pgbench_branches |            40960

 2017-02-03 20:43:03.568003+01 | 1486150983.568 | pgbench_accounts |      13429514240
 2017-02-03 20:43:03.568003+01 | 1486150983.568 | pgbench_tellers  |           450560
 2017-02-03 20:43:03.568003+01 | 1486150983.568 | pgbench_history  |                0
 2017-02-03 20:43:03.568003+01 | 1486150983.568 | pgbench_branches |            40960

 2017-02-03 20:43:04.647218+01 | 1486150984.64722 | pgbench_accounts |      13429514240
 2017-02-03 20:43:04.647218+01 | 1486150984.64722 | pgbench_tellers  |           450560
 2017-02-03 20:43:04.647218+01 | 1486150984.64722 | pgbench_history  |                0
 2017-02-03 20:43:04.647218+01 | 1486150984.64722 | pgbench_branches |            40960

 2017-02-03 20:43:05.731869+01 | 1486150985.73187 | pgbench_accounts |      13429514240
 2017-02-03 20:43:05.731869+01 | 1486150985.73187 | pgbench_tellers  |           450560
 2017-02-03 20:43:05.731869+01 | 1486150985.73187 | pgbench_history  |                0
 2017-02-03 20:43:05.731869+01 | 1486150985.73187 | pgbench_branches |            40960

 2017-02-03 20:43:06.810007+01 | 1486150986.81001 | pgbench_accounts |      13429514240
 2017-02-03 20:43:06.810007+01 | 1486150986.81001 | pgbench_tellers  |           450560
 2017-02-03 20:43:06.810007+01 | 1486150986.81001 | pgbench_history  |                0
 2017-02-03 20:43:06.810007+01 | 1486150986.81001 | pgbench_branches |            40960

 2017-02-03 20:43:07.887693+01 | 1486150987.88769 | pgbench_accounts |      13429514240
 2017-02-03 20:43:07.887693+01 | 1486150987.88769 | pgbench_tellers  |           450560
 2017-02-03 20:43:07.887693+01 | 1486150987.88769 | pgbench_history  |                0
 2017-02-03 20:43:07.887693+01 | 1486150987.88769 | pgbench_branches |            40960

 2017-02-03 20:43:08.965776+01 | 1486150988.96578 | pgbench_accounts |      13429514240
 2017-02-03 20:43:08.965776+01 | 1486150988.96578 | pgbench_tellers  |           450560
 2017-02-03 20:43:08.965776+01 | 1486150988.96578 | pgbench_history  |                0
 2017-02-03 20:43:08.965776+01 | 1486150988.96578 | pgbench_branches |            40960

 2017-02-03 20:43:10.046383+01 | 1486150990.04638 | pgbench_accounts |      13429514240
 2017-02-03 20:43:10.046383+01 | 1486150990.04638 | pgbench_tellers  |           450560
 2017-02-03 20:43:10.046383+01 | 1486150990.04638 | pgbench_history  |                0
 2017-02-03 20:43:10.046383+01 | 1486150990.04638 | pgbench_branches |            40960

 2017-02-03 20:43:11.122005+01 | 1486150991.122 | pgbench_accounts |      13429514240
 2017-02-03 20:43:11.122005+01 | 1486150991.122 | pgbench_tellers  |           450560
 2017-02-03 20:43:11.122005+01 | 1486150991.122 | pgbench_history  |                0
 2017-02-03 20:43:11.122005+01 | 1486150991.122 | pgbench_branches |            40960

 2017-02-03 20:43:12.196218+01 | 1486150992.19622 | pgbench_accounts |      13429514240
 2017-02-03 20:43:12.196218+01 | 1486150992.19622 | pgbench_tellers  |           450560
 2017-02-03 20:43:12.196218+01 | 1486150992.19622 | pgbench_history  |                0
 2017-02-03 20:43:12.196218+01 | 1486150992.19622 | pgbench_branches |            40960

 2017-02-03 20:43:13.279804+01 | 1486150993.2798 | pgbench_accounts |      13429514240
 2017-02-03 20:43:13.279804+01 | 1486150993.2798 | pgbench_tellers  |           450560
 2017-02-03 20:43:13.279804+01 | 1486150993.2798 | pgbench_history  |                0
 2017-02-03 20:43:13.279804+01 | 1486150993.2798 | pgbench_branches |            40960

 2017-02-03 20:43:14.352682+01 | 1486150994.35268 | pgbench_accounts |      13429514240
 2017-02-03 20:43:14.352682+01 | 1486150994.35268 | pgbench_tellers  |           450560
 2017-02-03 20:43:14.352682+01 | 1486150994.35268 | pgbench_history  |                0
 2017-02-03 20:43:14.352682+01 | 1486150994.35268 | pgbench_branches |            40960

 2017-02-03 20:43:15.428652+01 | 1486150995.42865 | pgbench_accounts |      13429514240
 2017-02-03 20:43:15.428652+01 | 1486150995.42865 | pgbench_tellers  |           450560
 2017-02-03 20:43:15.428652+01 | 1486150995.42865 | pgbench_history  |                0
 2017-02-03 20:43:15.428652+01 | 1486150995.42865 | pgbench_branches |            40960

 2017-02-03 20:43:16.506579+01 | 1486150996.50658 | pgbench_accounts |      13429514240
 2017-02-03 20:43:16.506579+01 | 1486150996.50658 | pgbench_tellers  |           450560
 2017-02-03 20:43:16.506579+01 | 1486150996.50658 | pgbench_history  |                0
 2017-02-03 20:43:16.506579+01 | 1486150996.50658 | pgbench_branches |            40960

 2017-02-03 20:43:17.591553+01 | 1486150997.59155 | pgbench_accounts |      13429514240
 2017-02-03 20:43:17.591553+01 | 1486150997.59155 | pgbench_tellers  |           450560
 2017-02-03 20:43:17.591553+01 | 1486150997.59155 | pgbench_history  |                0
 2017-02-03 20:43:17.591553+01 | 1486150997.59155 | pgbench_branches |            40960

 2017-02-03 20:43:18.664697+01 | 1486150998.6647 | pgbench_accounts |      13429514240
 2017-02-03 20:43:18.664697+01 | 1486150998.6647 | pgbench_tellers  |           450560
 2017-02-03 20:43:18.664697+01 | 1486150998.6647 | pgbench_history  |                0
 2017-02-03 20:43:18.664697+01 | 1486150998.6647 | pgbench_branches |            40960

 2017-02-03 20:43:19.739014+01 | 1486150999.73901 | pgbench_accounts |      13429514240
 2017-02-03 20:43:19.739014+01 | 1486150999.73901 | pgbench_tellers  |           450560
 2017-02-03 20:43:19.739014+01 | 1486150999.73901 | pgbench_history  |                0
 2017-02-03 20:43:19.739014+01 | 1486150999.73901 | pgbench_branches |            40960

 2017-02-03 20:43:20.820278+01 | 1486151000.82028 | pgbench_accounts |      13429514240
 2017-02-03 20:43:20.820278+01 | 1486151000.82028 | pgbench_tellers  |           450560
 2017-02-03 20:43:20.820278+01 | 1486151000.82028 | pgbench_history  |                0
 2017-02-03 20:43:20.820278+01 | 1486151000.82028 | pgbench_branches |            40960

 2017-02-03 20:43:21.892751+01 | 1486151001.89275 | pgbench_accounts |      13429514240
 2017-02-03 20:43:21.892751+01 | 1486151001.89275 | pgbench_tellers  |           450560
 2017-02-03 20:43:21.892751+01 | 1486151001.89275 | pgbench_history  |                0
 2017-02-03 20:43:21.892751+01 | 1486151001.89275 | pgbench_branches |            40960

 2017-02-03 20:43:22.970983+01 | 1486151002.97098 | pgbench_accounts |      13429514240
 2017-02-03 20:43:22.970983+01 | 1486151002.97098 | pgbench_tellers  |           450560
 2017-02-03 20:43:22.970983+01 | 1486151002.97098 | pgbench_history  |                0
 2017-02-03 20:43:22.970983+01 | 1486151002.97098 | pgbench_branches |            40960

 2017-02-03 20:43:24.048909+01 | 1486151004.04891 | pgbench_accounts |      13429514240
 2017-02-03 20:43:24.048909+01 | 1486151004.04891 | pgbench_tellers  |           450560
 2017-02-03 20:43:24.048909+01 | 1486151004.04891 | pgbench_history  |                0
 2017-02-03 20:43:24.048909+01 | 1486151004.04891 | pgbench_branches |            40960

 2017-02-03 20:43:25.122022+01 | 1486151005.12202 | pgbench_accounts |      13429514240
 2017-02-03 20:43:25.122022+01 | 1486151005.12202 | pgbench_tellers  |           450560
 2017-02-03 20:43:25.122022+01 | 1486151005.12202 | pgbench_history  |                0
 2017-02-03 20:43:25.122022+01 | 1486151005.12202 | pgbench_branches |            40960

 2017-02-03 20:43:26.203625+01 | 1486151006.20362 | pgbench_accounts |      13429514240
 2017-02-03 20:43:26.203625+01 | 1486151006.20362 | pgbench_tellers  |           450560
 2017-02-03 20:43:26.203625+01 | 1486151006.20362 | pgbench_history  |                0
 2017-02-03 20:43:26.203625+01 | 1486151006.20362 | pgbench_branches |            40960

 2017-02-03 20:43:27.289737+01 | 1486151007.28974 | pgbench_accounts |      13429514240
 2017-02-03 20:43:27.289737+01 | 1486151007.28974 | pgbench_tellers  |           450560
 2017-02-03 20:43:27.289737+01 | 1486151007.28974 | pgbench_history  |                0
 2017-02-03 20:43:27.289737+01 | 1486151007.28974 | pgbench_branches |            40960

 2017-02-03 20:43:28.363495+01 | 1486151008.3635 | pgbench_accounts |      13429514240
 2017-02-03 20:43:28.363495+01 | 1486151008.3635 | pgbench_tellers  |           450560
 2017-02-03 20:43:28.363495+01 | 1486151008.3635 | pgbench_history  |                0
 2017-02-03 20:43:28.363495+01 | 1486151008.3635 | pgbench_branches |            40960

 2017-02-03 20:43:29.439702+01 | 1486151009.4397 | pgbench_accounts |      13429514240
 2017-02-03 20:43:29.439702+01 | 1486151009.4397 | pgbench_tellers  |           450560
 2017-02-03 20:43:29.439702+01 | 1486151009.4397 | pgbench_history  |                0
 2017-02-03 20:43:29.439702+01 | 1486151009.4397 | pgbench_branches |            40960

 2017-02-03 20:43:30.517672+01 | 1486151010.51767 | pgbench_accounts |      13429514240
 2017-02-03 20:43:30.517672+01 | 1486151010.51767 | pgbench_tellers  |           450560
 2017-02-03 20:43:30.517672+01 | 1486151010.51767 | pgbench_history  |                0
 2017-02-03 20:43:30.517672+01 | 1486151010.51767 | pgbench_branches |            40960

 2017-02-03 20:43:31.602696+01 | 1486151011.6027 | pgbench_accounts |      13429514240
 2017-02-03 20:43:31.602696+01 | 1486151011.6027 | pgbench_tellers  |           450560
 2017-02-03 20:43:31.602696+01 | 1486151011.6027 | pgbench_history  |                0
 2017-02-03 20:43:31.602696+01 | 1486151011.6027 | pgbench_branches |            40960

 2017-02-03 20:43:32.685092+01 | 1486151012.68509 | pgbench_accounts |      13429514240
 2017-02-03 20:43:32.685092+01 | 1486151012.68509 | pgbench_tellers  |           450560
 2017-02-03 20:43:32.685092+01 | 1486151012.68509 | pgbench_history  |                0
 2017-02-03 20:43:32.685092+01 | 1486151012.68509 | pgbench_branches |            40960

 2017-02-03 20:43:33.766983+01 | 1486151013.76698 | pgbench_accounts |      13429514240
 2017-02-03 20:43:33.766983+01 | 1486151013.76698 | pgbench_tellers  |           450560
 2017-02-03 20:43:33.766983+01 | 1486151013.76698 | pgbench_history  |                0
 2017-02-03 20:43:33.766983+01 | 1486151013.76698 | pgbench_branches |            40960

 2017-02-03 20:43:34.853534+01 | 1486151014.85353 | pgbench_accounts |      13429514240
 2017-02-03 20:43:34.853534+01 | 1486151014.85353 | pgbench_tellers  |           450560
 2017-02-03 20:43:34.853534+01 | 1486151014.85353 | pgbench_history  |                0
 2017-02-03 20:43:34.853534+01 | 1486151014.85353 | pgbench_branches |            40960

 2017-02-03 20:43:35.932929+01 | 1486151015.93293 | pgbench_accounts |      13429514240
 2017-02-03 20:43:35.932929+01 | 1486151015.93293 | pgbench_tellers  |           450560
 2017-02-03 20:43:35.932929+01 | 1486151015.93293 | pgbench_history  |                0
 2017-02-03 20:43:35.932929+01 | 1486151015.93293 | pgbench_branches |            40960

 2017-02-03 20:43:37.00889+01 | 1486151017.00889 | pgbench_accounts |      13429514240
 2017-02-03 20:43:37.00889+01 | 1486151017.00889 | pgbench_tellers  |           450560
 2017-02-03 20:43:37.00889+01 | 1486151017.00889 | pgbench_history  |                0
 2017-02-03 20:43:37.00889+01 | 1486151017.00889 | pgbench_branches |            40960

 2017-02-03 20:43:38.086425+01 | 1486151018.08643 | pgbench_accounts |      13429514240
 2017-02-03 20:43:38.086425+01 | 1486151018.08643 | pgbench_tellers  |           450560
 2017-02-03 20:43:38.086425+01 | 1486151018.08643 | pgbench_history  |                0
 2017-02-03 20:43:38.086425+01 | 1486151018.08643 | pgbench_branches |            40960

 2017-02-03 20:43:39.165083+01 | 1486151019.16508 | pgbench_accounts |      13429514240
 2017-02-03 20:43:39.165083+01 | 1486151019.16508 | pgbench_tellers  |           450560
 2017-02-03 20:43:39.165083+01 | 1486151019.16508 | pgbench_history  |                0
 2017-02-03 20:43:39.165083+01 | 1486151019.16508 | pgbench_branches |            40960

 2017-02-03 20:43:40.246071+01 | 1486151020.24607 | pgbench_accounts |      13429514240
 2017-02-03 20:43:40.246071+01 | 1486151020.24607 | pgbench_tellers  |           450560
 2017-02-03 20:43:40.246071+01 | 1486151020.24607 | pgbench_history  |                0
 2017-02-03 20:43:40.246071+01 | 1486151020.24607 | pgbench_branches |            40960

 2017-02-03 20:43:41.332587+01 | 1486151021.33259 | pgbench_accounts |      13429514240
 2017-02-03 20:43:41.332587+01 | 1486151021.33259 | pgbench_tellers  |           450560
 2017-02-03 20:43:41.332587+01 | 1486151021.33259 | pgbench_history  |                0
 2017-02-03 20:43:41.332587+01 | 1486151021.33259 | pgbench_branches |            40960

 2017-02-03 20:43:42.410236+01 | 1486151022.41024 | pgbench_accounts |      13429514240
 2017-02-03 20:43:42.410236+01 | 1486151022.41024 | pgbench_tellers  |           450560
 2017-02-03 20:43:42.410236+01 | 1486151022.41024 | pgbench_history  |                0
 2017-02-03 20:43:42.410236+01 | 1486151022.41024 | pgbench_branches |            40960

 2017-02-03 20:43:43.499452+01 | 1486151023.49945 | pgbench_accounts |      13429514240
 2017-02-03 20:43:43.499452+01 | 1486151023.49945 | pgbench_tellers  |           450560
 2017-02-03 20:43:43.499452+01 | 1486151023.49945 | pgbench_history  |                0
 2017-02-03 20:43:43.499452+01 | 1486151023.49945 | pgbench_branches |            40960

 2017-02-03 20:43:44.575632+01 | 1486151024.57563 | pgbench_accounts |      13429514240
 2017-02-03 20:43:44.575632+01 | 1486151024.57563 | pgbench_tellers  |           450560
 2017-02-03 20:43:44.575632+01 | 1486151024.57563 | pgbench_history  |                0
 2017-02-03 20:43:44.575632+01 | 1486151024.57563 | pgbench_branches |            40960

 2017-02-03 20:43:45.652207+01 | 1486151025.65221 | pgbench_accounts |      13429514240
 2017-02-03 20:43:45.652207+01 | 1486151025.65221 | pgbench_tellers  |           450560
 2017-02-03 20:43:45.652207+01 | 1486151025.65221 | pgbench_history  |                0
 2017-02-03 20:43:45.652207+01 | 1486151025.65221 | pgbench_branches |            40960

 2017-02-03 20:43:46.727574+01 | 1486151026.72757 | pgbench_accounts |      13429514240
 2017-02-03 20:43:46.727574+01 | 1486151026.72757 | pgbench_tellers  |           450560
 2017-02-03 20:43:46.727574+01 | 1486151026.72757 | pgbench_history  |                0
 2017-02-03 20:43:46.727574+01 | 1486151026.72757 | pgbench_branches |            40960

 2017-02-03 20:43:47.814083+01 | 1486151027.81408 | pgbench_accounts |      13429514240
 2017-02-03 20:43:47.814083+01 | 1486151027.81408 | pgbench_tellers  |           450560
 2017-02-03 20:43:47.814083+01 | 1486151027.81408 | pgbench_history  |                0
 2017-02-03 20:43:47.814083+01 | 1486151027.81408 | pgbench_branches |            40960

 2017-02-03 20:43:48.894056+01 | 1486151028.89406 | pgbench_accounts |      13429514240
 2017-02-03 20:43:48.894056+01 | 1486151028.89406 | pgbench_tellers  |           450560
 2017-02-03 20:43:48.894056+01 | 1486151028.89406 | pgbench_history  |                0
 2017-02-03 20:43:48.894056+01 | 1486151028.89406 | pgbench_branches |            40960

 2017-02-03 20:43:49.975938+01 | 1486151029.97594 | pgbench_accounts |      13429514240
 2017-02-03 20:43:49.975938+01 | 1486151029.97594 | pgbench_tellers  |           450560
 2017-02-03 20:43:49.975938+01 | 1486151029.97594 | pgbench_history  |                0
 2017-02-03 20:43:49.975938+01 | 1486151029.97594 | pgbench_branches |            40960

 2017-02-03 20:43:51.051117+01 | 1486151031.05112 | pgbench_accounts |      13429514240
 2017-02-03 20:43:51.051117+01 | 1486151031.05112 | pgbench_tellers  |           450560
 2017-02-03 20:43:51.051117+01 | 1486151031.05112 | pgbench_history  |                0
 2017-02-03 20:43:51.051117+01 | 1486151031.05112 | pgbench_branches |            40960

 2017-02-03 20:43:52.118818+01 | 1486151032.11882 | pgbench_accounts |      13429514240
 2017-02-03 20:43:52.118818+01 | 1486151032.11882 | pgbench_tellers  |           450560
 2017-02-03 20:43:52.118818+01 | 1486151032.11882 | pgbench_history  |                0
 2017-02-03 20:43:52.118818+01 | 1486151032.11882 | pgbench_branches |            40960

 2017-02-03 20:43:53.200065+01 | 1486151033.20006 | pgbench_accounts |      13429514240
 2017-02-03 20:43:53.200065+01 | 1486151033.20006 | pgbench_tellers  |           450560
 2017-02-03 20:43:53.200065+01 | 1486151033.20006 | pgbench_history  |                0
 2017-02-03 20:43:53.200065+01 | 1486151033.20006 | pgbench_branches |            40960

 2017-02-03 20:43:54.285218+01 | 1486151034.28522 | pgbench_accounts |      13429514240
 2017-02-03 20:43:54.285218+01 | 1486151034.28522 | pgbench_tellers  |           450560
 2017-02-03 20:43:54.285218+01 | 1486151034.28522 | pgbench_history  |                0
 2017-02-03 20:43:54.285218+01 | 1486151034.28522 | pgbench_branches |            40960

 2017-02-03 20:43:55.369548+01 | 1486151035.36955 | pgbench_accounts |      13429514240
 2017-02-03 20:43:55.369548+01 | 1486151035.36955 | pgbench_tellers  |           450560
 2017-02-03 20:43:55.369548+01 | 1486151035.36955 | pgbench_history  |                0
 2017-02-03 20:43:55.369548+01 | 1486151035.36955 | pgbench_branches |            40960

 2017-02-03 20:43:56.445541+01 | 1486151036.44554 | pgbench_accounts |      13429514240
 2017-02-03 20:43:56.445541+01 | 1486151036.44554 | pgbench_tellers  |           450560
 2017-02-03 20:43:56.445541+01 | 1486151036.44554 | pgbench_history  |                0
 2017-02-03 20:43:56.445541+01 | 1486151036.44554 | pgbench_branches |            40960

 2017-02-03 20:43:57.535211+01 | 1486151037.53521 | pgbench_accounts |      13429514240
 2017-02-03 20:43:57.535211+01 | 1486151037.53521 | pgbench_tellers  |           450560
 2017-02-03 20:43:57.535211+01 | 1486151037.53521 | pgbench_history  |                0
 2017-02-03 20:43:57.535211+01 | 1486151037.53521 | pgbench_branches |            40960

 2017-02-03 20:43:58.607369+01 | 1486151038.60737 | pgbench_accounts |      13429514240
 2017-02-03 20:43:58.607369+01 | 1486151038.60737 | pgbench_tellers  |           450560
 2017-02-03 20:43:58.607369+01 | 1486151038.60737 | pgbench_history  |                0
 2017-02-03 20:43:58.607369+01 | 1486151038.60737 | pgbench_branches |            40960

 2017-02-03 20:43:59.689599+01 | 1486151039.6896 | pgbench_accounts |      13429514240
 2017-02-03 20:43:59.689599+01 | 1486151039.6896 | pgbench_tellers  |           450560
 2017-02-03 20:43:59.689599+01 | 1486151039.6896 | pgbench_history  |                0
 2017-02-03 20:43:59.689599+01 | 1486151039.6896 | pgbench_branches |            40960

 2017-02-03 20:44:00.774612+01 | 1486151040.77461 | pgbench_accounts |      13429514240
 2017-02-03 20:44:00.774612+01 | 1486151040.77461 | pgbench_tellers  |           450560
 2017-02-03 20:44:00.774612+01 | 1486151040.77461 | pgbench_history  |                0
 2017-02-03 20:44:00.774612+01 | 1486151040.77461 | pgbench_branches |            40960

 2017-02-03 20:44:01.850304+01 | 1486151041.8503 | pgbench_accounts |      13429514240
 2017-02-03 20:44:01.850304+01 | 1486151041.8503 | pgbench_tellers  |           450560
 2017-02-03 20:44:01.850304+01 | 1486151041.8503 | pgbench_history  |                0
 2017-02-03 20:44:01.850304+01 | 1486151041.8503 | pgbench_branches |            40960

 2017-02-03 20:44:02.932755+01 | 1486151042.93275 | pgbench_accounts |      13429514240
 2017-02-03 20:44:02.932755+01 | 1486151042.93275 | pgbench_tellers  |           450560
 2017-02-03 20:44:02.932755+01 | 1486151042.93275 | pgbench_history  |                0
 2017-02-03 20:44:02.932755+01 | 1486151042.93275 | pgbench_branches |            40960

 2017-02-03 20:44:04.016809+01 | 1486151044.01681 | pgbench_accounts |      13429514240
 2017-02-03 20:44:04.016809+01 | 1486151044.01681 | pgbench_tellers  |           450560
 2017-02-03 20:44:04.016809+01 | 1486151044.01681 | pgbench_history  |                0
 2017-02-03 20:44:04.016809+01 | 1486151044.01681 | pgbench_branches |            40960

 2017-02-03 20:44:05.09772+01 | 1486151045.09772 | pgbench_accounts |      13429514240
 2017-02-03 20:44:05.09772+01 | 1486151045.09772 | pgbench_tellers  |           450560
 2017-02-03 20:44:05.09772+01 | 1486151045.09772 | pgbench_history  |                0
 2017-02-03 20:44:05.09772+01 | 1486151045.09772 | pgbench_branches |            40960

 2017-02-03 20:44:06.172567+01 | 1486151046.17257 | pgbench_accounts |      13429514240
 2017-02-03 20:44:06.172567+01 | 1486151046.17257 | pgbench_tellers  |           450560
 2017-02-03 20:44:06.172567+01 | 1486151046.17257 | pgbench_history  |                0
 2017-02-03 20:44:06.172567+01 | 1486151046.17257 | pgbench_branches |            40960

 2017-02-03 20:44:07.249+01 | 1486151047.249 | pgbench_accounts |      13429514240
 2017-02-03 20:44:07.249+01 | 1486151047.249 | pgbench_tellers  |           450560
 2017-02-03 20:44:07.249+01 | 1486151047.249 | pgbench_history  |                0
 2017-02-03 20:44:07.249+01 | 1486151047.249 | pgbench_branches |            40960

 2017-02-03 20:44:08.321745+01 | 1486151048.32174 | pgbench_accounts |      13429514240
 2017-02-03 20:44:08.321745+01 | 1486151048.32174 | pgbench_tellers  |           450560
 2017-02-03 20:44:08.321745+01 | 1486151048.32174 | pgbench_history  |                0
 2017-02-03 20:44:08.321745+01 | 1486151048.32174 | pgbench_branches |            40960

 2017-02-03 20:44:09.406028+01 | 1486151049.40603 | pgbench_accounts |      13429514240
 2017-02-03 20:44:09.406028+01 | 1486151049.40603 | pgbench_tellers  |           450560
 2017-02-03 20:44:09.406028+01 | 1486151049.40603 | pgbench_history  |                0
 2017-02-03 20:44:09.406028+01 | 1486151049.40603 | pgbench_branches |            40960

 2017-02-03 20:44:10.483772+01 | 1486151050.48377 | pgbench_accounts |      13429514240
 2017-02-03 20:44:10.483772+01 | 1486151050.48377 | pgbench_tellers  |           450560
 2017-02-03 20:44:10.483772+01 | 1486151050.48377 | pgbench_history  |                0
 2017-02-03 20:44:10.483772+01 | 1486151050.48377 | pgbench_branches |            40960

 2017-02-03 20:44:11.572968+01 | 1486151051.57297 | pgbench_accounts |      13429514240
 2017-02-03 20:44:11.572968+01 | 1486151051.57297 | pgbench_tellers  |           450560
 2017-02-03 20:44:11.572968+01 | 1486151051.57297 | pgbench_history  |                0
 2017-02-03 20:44:11.572968+01 | 1486151051.57297 | pgbench_branches |            40960

 2017-02-03 20:44:12.648241+01 | 1486151052.64824 | pgbench_accounts |      13429514240
 2017-02-03 20:44:12.648241+01 | 1486151052.64824 | pgbench_tellers  |           450560
 2017-02-03 20:44:12.648241+01 | 1486151052.64824 | pgbench_history  |                0
 2017-02-03 20:44:12.648241+01 | 1486151052.64824 | pgbench_branches |            40960

 2017-02-03 20:44:13.72037+01 | 1486151053.72037 | pgbench_accounts |      13429514240
 2017-02-03 20:44:13.72037+01 | 1486151053.72037 | pgbench_tellers  |           450560
 2017-02-03 20:44:13.72037+01 | 1486151053.72037 | pgbench_history  |                0
 2017-02-03 20:44:13.72037+01 | 1486151053.72037 | pgbench_branches |            40960

 2017-02-03 20:44:14.794613+01 | 1486151054.79461 | pgbench_accounts |      13429514240
 2017-02-03 20:44:14.794613+01 | 1486151054.79461 | pgbench_tellers  |           450560
 2017-02-03 20:44:14.794613+01 | 1486151054.79461 | pgbench_history  |                0
 2017-02-03 20:44:14.794613+01 | 1486151054.79461 | pgbench_branches |            40960

 2017-02-03 20:44:15.868463+01 | 1486151055.86846 | pgbench_accounts |      13429514240
 2017-02-03 20:44:15.868463+01 | 1486151055.86846 | pgbench_tellers  |           450560
 2017-02-03 20:44:15.868463+01 | 1486151055.86846 | pgbench_history  |                0
 2017-02-03 20:44:15.868463+01 | 1486151055.86846 | pgbench_branches |            40960

 2017-02-03 20:44:16.945516+01 | 1486151056.94552 | pgbench_accounts |      13429514240
 2017-02-03 20:44:16.945516+01 | 1486151056.94552 | pgbench_tellers  |           450560
 2017-02-03 20:44:16.945516+01 | 1486151056.94552 | pgbench_history  |                0
 2017-02-03 20:44:16.945516+01 | 1486151056.94552 | pgbench_branches |            40960

 2017-02-03 20:44:18.03407+01 | 1486151058.03407 | pgbench_accounts |      13429514240
 2017-02-03 20:44:18.03407+01 | 1486151058.03407 | pgbench_tellers  |           450560
 2017-02-03 20:44:18.03407+01 | 1486151058.03407 | pgbench_history  |                0
 2017-02-03 20:44:18.03407+01 | 1486151058.03407 | pgbench_branches |            40960

 2017-02-03 20:44:19.122048+01 | 1486151059.12205 | pgbench_accounts |      13429514240
 2017-02-03 20:44:19.122048+01 | 1486151059.12205 | pgbench_tellers  |           450560
 2017-02-03 20:44:19.122048+01 | 1486151059.12205 | pgbench_history  |                0
 2017-02-03 20:44:19.122048+01 | 1486151059.12205 | pgbench_branches |            40960

 2017-02-03 20:44:20.204525+01 | 1486151060.20452 | pgbench_accounts |      13429514240
 2017-02-03 20:44:20.204525+01 | 1486151060.20452 | pgbench_tellers  |           450560
 2017-02-03 20:44:20.204525+01 | 1486151060.20452 | pgbench_history  |                0
 2017-02-03 20:44:20.204525+01 | 1486151060.20452 | pgbench_branches |            40960

 2017-02-03 20:44:21.288302+01 | 1486151061.2883 | pgbench_accounts |      13429514240
 2017-02-03 20:44:21.288302+01 | 1486151061.2883 | pgbench_tellers  |           450560
 2017-02-03 20:44:21.288302+01 | 1486151061.2883 | pgbench_history  |                0
 2017-02-03 20:44:21.288302+01 | 1486151061.2883 | pgbench_branches |            40960

 2017-02-03 20:44:22.369666+01 | 1486151062.36967 | pgbench_accounts |      13429514240
 2017-02-03 20:44:22.369666+01 | 1486151062.36967 | pgbench_tellers  |           450560
 2017-02-03 20:44:22.369666+01 | 1486151062.36967 | pgbench_history  |                0
 2017-02-03 20:44:22.369666+01 | 1486151062.36967 | pgbench_branches |            40960

 2017-02-03 20:44:23.454701+01 | 1486151063.4547 | pgbench_accounts |      13429514240
 2017-02-03 20:44:23.454701+01 | 1486151063.4547 | pgbench_tellers  |           450560
 2017-02-03 20:44:23.454701+01 | 1486151063.4547 | pgbench_history  |                0
 2017-02-03 20:44:23.454701+01 | 1486151063.4547 | pgbench_branches |            40960

 2017-02-03 20:44:24.54226+01 | 1486151064.54226 | pgbench_accounts |      13429514240
 2017-02-03 20:44:24.54226+01 | 1486151064.54226 | pgbench_tellers  |           450560
 2017-02-03 20:44:24.54226+01 | 1486151064.54226 | pgbench_history  |                0
 2017-02-03 20:44:24.54226+01 | 1486151064.54226 | pgbench_branches |            40960

 2017-02-03 20:44:25.615804+01 | 1486151065.6158 | pgbench_accounts |      13429514240
 2017-02-03 20:44:25.615804+01 | 1486151065.6158 | pgbench_tellers  |           450560
 2017-02-03 20:44:25.615804+01 | 1486151065.6158 | pgbench_history  |                0
 2017-02-03 20:44:25.615804+01 | 1486151065.6158 | pgbench_branches |            40960

 2017-02-03 20:44:26.693459+01 | 1486151066.69346 | pgbench_accounts |      13429514240
 2017-02-03 20:44:26.693459+01 | 1486151066.69346 | pgbench_tellers  |           450560
 2017-02-03 20:44:26.693459+01 | 1486151066.69346 | pgbench_history  |                0
 2017-02-03 20:44:26.693459+01 | 1486151066.69346 | pgbench_branches |            40960

 2017-02-03 20:44:27.770636+01 | 1486151067.77064 | pgbench_accounts |      13429514240
 2017-02-03 20:44:27.770636+01 | 1486151067.77064 | pgbench_tellers  |           450560
 2017-02-03 20:44:27.770636+01 | 1486151067.77064 | pgbench_history  |                0
 2017-02-03 20:44:27.770636+01 | 1486151067.77064 | pgbench_branches |            40960

 2017-02-03 20:44:28.848929+01 | 1486151068.84893 | pgbench_accounts |      13429514240
 2017-02-03 20:44:28.848929+01 | 1486151068.84893 | pgbench_tellers  |           450560
 2017-02-03 20:44:28.848929+01 | 1486151068.84893 | pgbench_history  |                0
 2017-02-03 20:44:28.848929+01 | 1486151068.84893 | pgbench_branches |            40960

 2017-02-03 20:44:29.93861+01 | 1486151069.93861 | pgbench_accounts |      13429514240
 2017-02-03 20:44:29.93861+01 | 1486151069.93861 | pgbench_tellers  |           450560
 2017-02-03 20:44:29.93861+01 | 1486151069.93861 | pgbench_history  |                0
 2017-02-03 20:44:29.93861+01 | 1486151069.93861 | pgbench_branches |            40960

 2017-02-03 20:44:31.018392+01 | 1486151071.01839 | pgbench_accounts |      13429514240
 2017-02-03 20:44:31.018392+01 | 1486151071.01839 | pgbench_tellers  |           450560
 2017-02-03 20:44:31.018392+01 | 1486151071.01839 | pgbench_history  |                0
 2017-02-03 20:44:31.018392+01 | 1486151071.01839 | pgbench_branches |            40960

 2017-02-03 20:44:32.099204+01 | 1486151072.0992 | pgbench_accounts |      13429514240
 2017-02-03 20:44:32.099204+01 | 1486151072.0992 | pgbench_tellers  |           450560
 2017-02-03 20:44:32.099204+01 | 1486151072.0992 | pgbench_history  |                0
 2017-02-03 20:44:32.099204+01 | 1486151072.0992 | pgbench_branches |            40960

 2017-02-03 20:44:33.182125+01 | 1486151073.18213 | pgbench_accounts |      13429514240
 2017-02-03 20:44:33.182125+01 | 1486151073.18213 | pgbench_tellers  |           450560
 2017-02-03 20:44:33.182125+01 | 1486151073.18213 | pgbench_history  |                0
 2017-02-03 20:44:33.182125+01 | 1486151073.18213 | pgbench_branches |            40960

 2017-02-03 20:44:34.274522+01 | 1486151074.27452 | pgbench_accounts |      13429514240
 2017-02-03 20:44:34.274522+01 | 1486151074.27452 | pgbench_tellers  |           450560
 2017-02-03 20:44:34.274522+01 | 1486151074.27452 | pgbench_history  |                0
 2017-02-03 20:44:34.274522+01 | 1486151074.27452 | pgbench_branches |            40960

 2017-02-03 20:44:35.354903+01 | 1486151075.3549 | pgbench_accounts |      13429514240
 2017-02-03 20:44:35.354903+01 | 1486151075.3549 | pgbench_tellers  |           450560
 2017-02-03 20:44:35.354903+01 | 1486151075.3549 | pgbench_history  |                0
 2017-02-03 20:44:35.354903+01 | 1486151075.3549 | pgbench_branches |            40960

 2017-02-03 20:44:36.435103+01 | 1486151076.4351 | pgbench_accounts |      13429514240
 2017-02-03 20:44:36.435103+01 | 1486151076.4351 | pgbench_tellers  |           450560
 2017-02-03 20:44:36.435103+01 | 1486151076.4351 | pgbench_history  |                0
 2017-02-03 20:44:36.435103+01 | 1486151076.4351 | pgbench_branches |            40960

 2017-02-03 20:44:37.518332+01 | 1486151077.51833 | pgbench_accounts |      13429514240
 2017-02-03 20:44:37.518332+01 | 1486151077.51833 | pgbench_tellers  |           450560
 2017-02-03 20:44:37.518332+01 | 1486151077.51833 | pgbench_history  |                0
 2017-02-03 20:44:37.518332+01 | 1486151077.51833 | pgbench_branches |            40960

 2017-02-03 20:44:38.59988+01 | 1486151078.59988 | pgbench_accounts |      13429514240
 2017-02-03 20:44:38.59988+01 | 1486151078.59988 | pgbench_tellers  |           450560
 2017-02-03 20:44:38.59988+01 | 1486151078.59988 | pgbench_history  |                0
 2017-02-03 20:44:38.59988+01 | 1486151078.59988 | pgbench_branches |            40960

 2017-02-03 20:44:39.680782+01 | 1486151079.68078 | pgbench_accounts |      13429514240
 2017-02-03 20:44:39.680782+01 | 1486151079.68078 | pgbench_tellers  |           450560
 2017-02-03 20:44:39.680782+01 | 1486151079.68078 | pgbench_history  |                0
 2017-02-03 20:44:39.680782+01 | 1486151079.68078 | pgbench_branches |            40960

 2017-02-03 20:44:40.759401+01 | 1486151080.7594 | pgbench_accounts |      13429514240
 2017-02-03 20:44:40.759401+01 | 1486151080.7594 | pgbench_tellers  |           450560
 2017-02-03 20:44:40.759401+01 | 1486151080.7594 | pgbench_history  |                0
 2017-02-03 20:44:40.759401+01 | 1486151080.7594 | pgbench_branches |            40960

 2017-02-03 20:44:41.83188+01 | 1486151081.83188 | pgbench_accounts |      13429514240
 2017-02-03 20:44:41.83188+01 | 1486151081.83188 | pgbench_tellers  |           450560
 2017-02-03 20:44:41.83188+01 | 1486151081.83188 | pgbench_history  |                0
 2017-02-03 20:44:41.83188+01 | 1486151081.83188 | pgbench_branches |            40960

 2017-02-03 20:44:42.906887+01 | 1486151082.90689 | pgbench_accounts |      13429514240
 2017-02-03 20:44:42.906887+01 | 1486151082.90689 | pgbench_tellers  |           450560
 2017-02-03 20:44:42.906887+01 | 1486151082.90689 | pgbench_history  |                0
 2017-02-03 20:44:42.906887+01 | 1486151082.90689 | pgbench_branches |            40960

 2017-02-03 20:44:43.985965+01 | 1486151083.98597 | pgbench_accounts |      13429514240
 2017-02-03 20:44:43.985965+01 | 1486151083.98597 | pgbench_tellers  |           450560
 2017-02-03 20:44:43.985965+01 | 1486151083.98597 | pgbench_history  |                0
 2017-02-03 20:44:43.985965+01 | 1486151083.98597 | pgbench_branches |            40960

 2017-02-03 20:44:45.067869+01 | 1486151085.06787 | pgbench_accounts |      13429514240
 2017-02-03 20:44:45.067869+01 | 1486151085.06787 | pgbench_tellers  |           450560
 2017-02-03 20:44:45.067869+01 | 1486151085.06787 | pgbench_history  |                0
 2017-02-03 20:44:45.067869+01 | 1486151085.06787 | pgbench_branches |            40960

 2017-02-03 20:44:46.144447+01 | 1486151086.14445 | pgbench_accounts |      13429514240
 2017-02-03 20:44:46.144447+01 | 1486151086.14445 | pgbench_tellers  |           450560
 2017-02-03 20:44:46.144447+01 | 1486151086.14445 | pgbench_history  |                0
 2017-02-03 20:44:46.144447+01 | 1486151086.14445 | pgbench_branches |            40960

 2017-02-03 20:44:47.218081+01 | 1486151087.21808 | pgbench_accounts |      13429514240
 2017-02-03 20:44:47.218081+01 | 1486151087.21808 | pgbench_tellers  |           450560
 2017-02-03 20:44:47.218081+01 | 1486151087.21808 | pgbench_history  |                0
 2017-02-03 20:44:47.218081+01 | 1486151087.21808 | pgbench_branches |            40960

 2017-02-03 20:44:48.298368+01 | 1486151088.29837 | pgbench_accounts |      13429514240
 2017-02-03 20:44:48.298368+01 | 1486151088.29837 | pgbench_tellers  |           450560
 2017-02-03 20:44:48.298368+01 | 1486151088.29837 | pgbench_history  |                0
 2017-02-03 20:44:48.298368+01 | 1486151088.29837 | pgbench_branches |            40960

 2017-02-03 20:44:49.379955+01 | 1486151089.37996 | pgbench_accounts |      13429514240
 2017-02-03 20:44:49.379955+01 | 1486151089.37996 | pgbench_tellers  |           450560
 2017-02-03 20:44:49.379955+01 | 1486151089.37996 | pgbench_history  |                0
 2017-02-03 20:44:49.379955+01 | 1486151089.37996 | pgbench_branches |            40960

 2017-02-03 20:44:50.456615+01 | 1486151090.45661 | pgbench_accounts |      13429514240
 2017-02-03 20:44:50.456615+01 | 1486151090.45661 | pgbench_tellers  |           450560
 2017-02-03 20:44:50.456615+01 | 1486151090.45661 | pgbench_history  |                0
 2017-02-03 20:44:50.456615+01 | 1486151090.45661 | pgbench_branches |            40960

 2017-02-03 20:44:51.534548+01 | 1486151091.53455 | pgbench_accounts |      13429514240
 2017-02-03 20:44:51.534548+01 | 1486151091.53455 | pgbench_tellers  |           450560
 2017-02-03 20:44:51.534548+01 | 1486151091.53455 | pgbench_history  |                0
 2017-02-03 20:44:51.534548+01 | 1486151091.53455 | pgbench_branches |            40960

 2017-02-03 20:44:52.618788+01 | 1486151092.61879 | pgbench_accounts |      13429514240
 2017-02-03 20:44:52.618788+01 | 1486151092.61879 | pgbench_tellers  |           450560
 2017-02-03 20:44:52.618788+01 | 1486151092.61879 | pgbench_history  |                0
 2017-02-03 20:44:52.618788+01 | 1486151092.61879 | pgbench_branches |            40960

 2017-02-03 20:44:53.702626+01 | 1486151093.70263 | pgbench_accounts |      13429514240
 2017-02-03 20:44:53.702626+01 | 1486151093.70263 | pgbench_tellers  |           450560
 2017-02-03 20:44:53.702626+01 | 1486151093.70263 | pgbench_history  |                0
 2017-02-03 20:44:53.702626+01 | 1486151093.70263 | pgbench_branches |            40960

 2017-02-03 20:44:54.785775+01 | 1486151094.78577 | pgbench_accounts |      13429514240
 2017-02-03 20:44:54.785775+01 | 1486151094.78577 | pgbench_tellers  |           450560
 2017-02-03 20:44:54.785775+01 | 1486151094.78577 | pgbench_history  |                0
 2017-02-03 20:44:54.785775+01 | 1486151094.78577 | pgbench_branches |            40960

 2017-02-03 20:44:55.871267+01 | 1486151095.87127 | pgbench_accounts |      13429514240
 2017-02-03 20:44:55.871267+01 | 1486151095.87127 | pgbench_tellers  |           450560
 2017-02-03 20:44:55.871267+01 | 1486151095.87127 | pgbench_history  |                0
 2017-02-03 20:44:55.871267+01 | 1486151095.87127 | pgbench_branches |            40960

 2017-02-03 20:44:56.945011+01 | 1486151096.94501 | pgbench_accounts |      13429514240
 2017-02-03 20:44:56.945011+01 | 1486151096.94501 | pgbench_tellers  |           450560
 2017-02-03 20:44:56.945011+01 | 1486151096.94501 | pgbench_history  |                0
 2017-02-03 20:44:56.945011+01 | 1486151096.94501 | pgbench_branches |            40960

 2017-02-03 20:44:58.027924+01 | 1486151098.02792 | pgbench_accounts |      13429514240
 2017-02-03 20:44:58.027924+01 | 1486151098.02792 | pgbench_tellers  |           450560
 2017-02-03 20:44:58.027924+01 | 1486151098.02792 | pgbench_history  |                0
 2017-02-03 20:44:58.027924+01 | 1486151098.02792 | pgbench_branches |            40960

 2017-02-03 20:44:59.1112+01 | 1486151099.1112 | pgbench_accounts |      13429514240
 2017-02-03 20:44:59.1112+01 | 1486151099.1112 | pgbench_tellers  |           450560
 2017-02-03 20:44:59.1112+01 | 1486151099.1112 | pgbench_history  |                0
 2017-02-03 20:44:59.1112+01 | 1486151099.1112 | pgbench_branches |            40960

 2017-02-03 20:45:00.187285+01 | 1486151100.18728 | pgbench_accounts |      13429514240
 2017-02-03 20:45:00.187285+01 | 1486151100.18728 | pgbench_tellers  |           450560
 2017-02-03 20:45:00.187285+01 | 1486151100.18728 | pgbench_history  |                0
 2017-02-03 20:45:00.187285+01 | 1486151100.18728 | pgbench_branches |            40960

 2017-02-03 20:45:01.263347+01 | 1486151101.26335 | pgbench_accounts |      13429514240
 2017-02-03 20:45:01.263347+01 | 1486151101.26335 | pgbench_tellers  |           450560
 2017-02-03 20:45:01.263347+01 | 1486151101.26335 | pgbench_history  |                0
 2017-02-03 20:45:01.263347+01 | 1486151101.26335 | pgbench_branches |            40960

 2017-02-03 20:45:02.340959+01 | 1486151102.34096 | pgbench_accounts |      13429514240
 2017-02-03 20:45:02.340959+01 | 1486151102.34096 | pgbench_tellers  |           450560
 2017-02-03 20:45:02.340959+01 | 1486151102.34096 | pgbench_history  |                0
 2017-02-03 20:45:02.340959+01 | 1486151102.34096 | pgbench_branches |            40960

 2017-02-03 20:45:03.417277+01 | 1486151103.41728 | pgbench_accounts |      13429514240
 2017-02-03 20:45:03.417277+01 | 1486151103.41728 | pgbench_tellers  |           450560
 2017-02-03 20:45:03.417277+01 | 1486151103.41728 | pgbench_history  |                0
 2017-02-03 20:45:03.417277+01 | 1486151103.41728 | pgbench_branches |            40960

 2017-02-03 20:45:04.506028+01 | 1486151104.50603 | pgbench_accounts |      13429514240
 2017-02-03 20:45:04.506028+01 | 1486151104.50603 | pgbench_tellers  |           450560
 2017-02-03 20:45:04.506028+01 | 1486151104.50603 | pgbench_history  |                0
 2017-02-03 20:45:04.506028+01 | 1486151104.50603 | pgbench_branches |            40960

 2017-02-03 20:45:05.592827+01 | 1486151105.59283 | pgbench_accounts |      13429514240
 2017-02-03 20:45:05.592827+01 | 1486151105.59283 | pgbench_tellers  |           450560
 2017-02-03 20:45:05.592827+01 | 1486151105.59283 | pgbench_history  |                0
 2017-02-03 20:45:05.592827+01 | 1486151105.59283 | pgbench_branches |            40960

 2017-02-03 20:45:06.674575+01 | 1486151106.67458 | pgbench_accounts |      13429514240
 2017-02-03 20:45:06.674575+01 | 1486151106.67458 | pgbench_tellers  |           450560
 2017-02-03 20:45:06.674575+01 | 1486151106.67458 | pgbench_history  |                0
 2017-02-03 20:45:06.674575+01 | 1486151106.67458 | pgbench_branches |            40960

 2017-02-03 20:45:07.756821+01 | 1486151107.75682 | pgbench_accounts |      13429514240
 2017-02-03 20:45:07.756821+01 | 1486151107.75682 | pgbench_tellers  |           450560
 2017-02-03 20:45:07.756821+01 | 1486151107.75682 | pgbench_history  |                0
 2017-02-03 20:45:07.756821+01 | 1486151107.75682 | pgbench_branches |            40960

 2017-02-03 20:45:08.832127+01 | 1486151108.83213 | pgbench_accounts |      13429514240
 2017-02-03 20:45:08.832127+01 | 1486151108.83213 | pgbench_tellers  |           450560
 2017-02-03 20:45:08.832127+01 | 1486151108.83213 | pgbench_history  |                0
 2017-02-03 20:45:08.832127+01 | 1486151108.83213 | pgbench_branches |            40960

 2017-02-03 20:45:09.913337+01 | 1486151109.91334 | pgbench_accounts |      13429514240
 2017-02-03 20:45:09.913337+01 | 1486151109.91334 | pgbench_tellers  |           450560
 2017-02-03 20:45:09.913337+01 | 1486151109.91334 | pgbench_history  |                0
 2017-02-03 20:45:09.913337+01 | 1486151109.91334 | pgbench_branches |            40960

 2017-02-03 20:45:10.995412+01 | 1486151110.99541 | pgbench_accounts |      13429514240
 2017-02-03 20:45:10.995412+01 | 1486151110.99541 | pgbench_tellers  |           450560
 2017-02-03 20:45:10.995412+01 | 1486151110.99541 | pgbench_history  |                0
 2017-02-03 20:45:10.995412+01 | 1486151110.99541 | pgbench_branches |            40960

 2017-02-03 20:45:12.064663+01 | 1486151112.06466 | pgbench_accounts |      13429514240
 2017-02-03 20:45:12.064663+01 | 1486151112.06466 | pgbench_tellers  |           450560
 2017-02-03 20:45:12.064663+01 | 1486151112.06466 | pgbench_history  |                0
 2017-02-03 20:45:12.064663+01 | 1486151112.06466 | pgbench_branches |            40960

 2017-02-03 20:45:13.148226+01 | 1486151113.14823 | pgbench_accounts |      13429514240
 2017-02-03 20:45:13.148226+01 | 1486151113.14823 | pgbench_tellers  |           450560
 2017-02-03 20:45:13.148226+01 | 1486151113.14823 | pgbench_history  |                0
 2017-02-03 20:45:13.148226+01 | 1486151113.14823 | pgbench_branches |            40960

 2017-02-03 20:45:14.230661+01 | 1486151114.23066 | pgbench_accounts |      13429514240
 2017-02-03 20:45:14.230661+01 | 1486151114.23066 | pgbench_tellers  |           450560
 2017-02-03 20:45:14.230661+01 | 1486151114.23066 | pgbench_history  |                0
 2017-02-03 20:45:14.230661+01 | 1486151114.23066 | pgbench_branches |            40960

 2017-02-03 20:45:15.306726+01 | 1486151115.30673 | pgbench_accounts |      13429514240
 2017-02-03 20:45:15.306726+01 | 1486151115.30673 | pgbench_tellers  |           450560
 2017-02-03 20:45:15.306726+01 | 1486151115.30673 | pgbench_history  |                0
 2017-02-03 20:45:15.306726+01 | 1486151115.30673 | pgbench_branches |            40960

 2017-02-03 20:45:16.387335+01 | 1486151116.38734 | pgbench_accounts |      13429514240
 2017-02-03 20:45:16.387335+01 | 1486151116.38734 | pgbench_tellers  |           450560
 2017-02-03 20:45:16.387335+01 | 1486151116.38734 | pgbench_history  |                0
 2017-02-03 20:45:16.387335+01 | 1486151116.38734 | pgbench_branches |            40960

 2017-02-03 20:45:17.477536+01 | 1486151117.47754 | pgbench_accounts |      13429514240
 2017-02-03 20:45:17.477536+01 | 1486151117.47754 | pgbench_tellers  |           450560
 2017-02-03 20:45:17.477536+01 | 1486151117.47754 | pgbench_history  |                0
 2017-02-03 20:45:17.477536+01 | 1486151117.47754 | pgbench_branches |            40960

 2017-02-03 20:45:18.558479+01 | 1486151118.55848 | pgbench_accounts |      13429514240
 2017-02-03 20:45:18.558479+01 | 1486151118.55848 | pgbench_tellers  |           450560
 2017-02-03 20:45:18.558479+01 | 1486151118.55848 | pgbench_history  |                0
 2017-02-03 20:45:18.558479+01 | 1486151118.55848 | pgbench_branches |            40960

 2017-02-03 20:45:19.642739+01 | 1486151119.64274 | pgbench_accounts |      13429514240
 2017-02-03 20:45:19.642739+01 | 1486151119.64274 | pgbench_tellers  |           450560
 2017-02-03 20:45:19.642739+01 | 1486151119.64274 | pgbench_history  |                0
 2017-02-03 20:45:19.642739+01 | 1486151119.64274 | pgbench_branches |            40960

 2017-02-03 20:45:20.729106+01 | 1486151120.72911 | pgbench_accounts |      13429514240
 2017-02-03 20:45:20.729106+01 | 1486151120.72911 | pgbench_tellers  |           450560
 2017-02-03 20:45:20.729106+01 | 1486151120.72911 | pgbench_history  |                0
 2017-02-03 20:45:20.729106+01 | 1486151120.72911 | pgbench_branches |            40960

 2017-02-03 20:45:21.809513+01 | 1486151121.80951 | pgbench_accounts |      13429514240
 2017-02-03 20:45:21.809513+01 | 1486151121.80951 | pgbench_tellers  |           450560
 2017-02-03 20:45:21.809513+01 | 1486151121.80951 | pgbench_history  |                0
 2017-02-03 20:45:21.809513+01 | 1486151121.80951 | pgbench_branches |            40960

 2017-02-03 20:45:22.890643+01 | 1486151122.89064 | pgbench_accounts |      13429514240
 2017-02-03 20:45:22.890643+01 | 1486151122.89064 | pgbench_tellers  |           450560
 2017-02-03 20:45:22.890643+01 | 1486151122.89064 | pgbench_history  |                0
 2017-02-03 20:45:22.890643+01 | 1486151122.89064 | pgbench_branches |            40960

 2017-02-03 20:45:23.973567+01 | 1486151123.97357 | pgbench_accounts |      13429514240
 2017-02-03 20:45:23.973567+01 | 1486151123.97357 | pgbench_tellers  |           450560
 2017-02-03 20:45:23.973567+01 | 1486151123.97357 | pgbench_history  |                0
 2017-02-03 20:45:23.973567+01 | 1486151123.97357 | pgbench_branches |            40960

 2017-02-03 20:45:25.055212+01 | 1486151125.05521 | pgbench_accounts |      13429514240
 2017-02-03 20:45:25.055212+01 | 1486151125.05521 | pgbench_tellers  |           450560
 2017-02-03 20:45:25.055212+01 | 1486151125.05521 | pgbench_history  |                0
 2017-02-03 20:45:25.055212+01 | 1486151125.05521 | pgbench_branches |            40960

 2017-02-03 20:45:26.143058+01 | 1486151126.14306 | pgbench_accounts |      13429514240
 2017-02-03 20:45:26.143058+01 | 1486151126.14306 | pgbench_tellers  |           450560
 2017-02-03 20:45:26.143058+01 | 1486151126.14306 | pgbench_history  |                0
 2017-02-03 20:45:26.143058+01 | 1486151126.14306 | pgbench_branches |            40960

 2017-02-03 20:45:27.230308+01 | 1486151127.23031 | pgbench_accounts |      13429514240
 2017-02-03 20:45:27.230308+01 | 1486151127.23031 | pgbench_tellers  |           450560
 2017-02-03 20:45:27.230308+01 | 1486151127.23031 | pgbench_history  |                0
 2017-02-03 20:45:27.230308+01 | 1486151127.23031 | pgbench_branches |            40960

 2017-02-03 20:45:28.300768+01 | 1486151128.30077 | pgbench_accounts |      13429514240
 2017-02-03 20:45:28.300768+01 | 1486151128.30077 | pgbench_tellers  |           450560
 2017-02-03 20:45:28.300768+01 | 1486151128.30077 | pgbench_history  |                0
 2017-02-03 20:45:28.300768+01 | 1486151128.30077 | pgbench_branches |            40960

 2017-02-03 20:45:29.37355+01 | 1486151129.37355 | pgbench_accounts |      13429514240
 2017-02-03 20:45:29.37355+01 | 1486151129.37355 | pgbench_tellers  |           450560
 2017-02-03 20:45:29.37355+01 | 1486151129.37355 | pgbench_history  |                0
 2017-02-03 20:45:29.37355+01 | 1486151129.37355 | pgbench_branches |            40960

 2017-02-03 20:45:30.453255+01 | 1486151130.45325 | pgbench_accounts |      13429514240
 2017-02-03 20:45:30.453255+01 | 1486151130.45325 | pgbench_tellers  |           450560
 2017-02-03 20:45:30.453255+01 | 1486151130.45325 | pgbench_history  |                0
 2017-02-03 20:45:30.453255+01 | 1486151130.45325 | pgbench_branches |            40960

 2017-02-03 20:45:31.535072+01 | 1486151131.53507 | pgbench_accounts |      13429514240
 2017-02-03 20:45:31.535072+01 | 1486151131.53507 | pgbench_tellers  |           450560
 2017-02-03 20:45:31.535072+01 | 1486151131.53507 | pgbench_history  |                0
 2017-02-03 20:45:31.535072+01 | 1486151131.53507 | pgbench_branches |            40960

 2017-02-03 20:45:32.607934+01 | 1486151132.60793 | pgbench_accounts |      13429514240
 2017-02-03 20:45:32.607934+01 | 1486151132.60793 | pgbench_tellers  |           450560
 2017-02-03 20:45:32.607934+01 | 1486151132.60793 | pgbench_history  |                0
 2017-02-03 20:45:32.607934+01 | 1486151132.60793 | pgbench_branches |            40960

 2017-02-03 20:45:33.686177+01 | 1486151133.68618 | pgbench_accounts |      13429514240
 2017-02-03 20:45:33.686177+01 | 1486151133.68618 | pgbench_tellers  |           450560
 2017-02-03 20:45:33.686177+01 | 1486151133.68618 | pgbench_history  |                0
 2017-02-03 20:45:33.686177+01 | 1486151133.68618 | pgbench_branches |            40960

 2017-02-03 20:45:34.761439+01 | 1486151134.76144 | pgbench_accounts |      13429514240
 2017-02-03 20:45:34.761439+01 | 1486151134.76144 | pgbench_tellers  |           450560
 2017-02-03 20:45:34.761439+01 | 1486151134.76144 | pgbench_history  |                0
 2017-02-03 20:45:34.761439+01 | 1486151134.76144 | pgbench_branches |            40960

 2017-02-03 20:45:35.832592+01 | 1486151135.83259 | pgbench_accounts |      13429514240
 2017-02-03 20:45:35.832592+01 | 1486151135.83259 | pgbench_tellers  |           450560
 2017-02-03 20:45:35.832592+01 | 1486151135.83259 | pgbench_history  |                0
 2017-02-03 20:45:35.832592+01 | 1486151135.83259 | pgbench_branches |            40960

 2017-02-03 20:45:36.916584+01 | 1486151136.91658 | pgbench_accounts |      13429514240
 2017-02-03 20:45:36.916584+01 | 1486151136.91658 | pgbench_tellers  |           450560
 2017-02-03 20:45:36.916584+01 | 1486151136.91658 | pgbench_history  |                0
 2017-02-03 20:45:36.916584+01 | 1486151136.91658 | pgbench_branches |            40960

 2017-02-03 20:45:37.989813+01 | 1486151137.98981 | pgbench_accounts |      13429514240
 2017-02-03 20:45:37.989813+01 | 1486151137.98981 | pgbench_tellers  |           450560
 2017-02-03 20:45:37.989813+01 | 1486151137.98981 | pgbench_history  |                0
 2017-02-03 20:45:37.989813+01 | 1486151137.98981 | pgbench_branches |            40960

 2017-02-03 20:45:39.071329+01 | 1486151139.07133 | pgbench_accounts |      13429514240
 2017-02-03 20:45:39.071329+01 | 1486151139.07133 | pgbench_tellers  |           450560
 2017-02-03 20:45:39.071329+01 | 1486151139.07133 | pgbench_history  |                0
 2017-02-03 20:45:39.071329+01 | 1486151139.07133 | pgbench_branches |            40960

 2017-02-03 20:45:40.146835+01 | 1486151140.14684 | pgbench_accounts |      13429514240
 2017-02-03 20:45:40.146835+01 | 1486151140.14684 | pgbench_tellers  |           450560
 2017-02-03 20:45:40.146835+01 | 1486151140.14684 | pgbench_history  |                0
 2017-02-03 20:45:40.146835+01 | 1486151140.14684 | pgbench_branches |            40960

 2017-02-03 20:45:41.2361+01 | 1486151141.2361 | pgbench_accounts |      13429514240
 2017-02-03 20:45:41.2361+01 | 1486151141.2361 | pgbench_tellers  |           450560
 2017-02-03 20:45:41.2361+01 | 1486151141.2361 | pgbench_history  |                0
 2017-02-03 20:45:41.2361+01 | 1486151141.2361 | pgbench_branches |            40960

 2017-02-03 20:45:42.320943+01 | 1486151142.32094 | pgbench_accounts |      13429514240
 2017-02-03 20:45:42.320943+01 | 1486151142.32094 | pgbench_tellers  |           450560
 2017-02-03 20:45:42.320943+01 | 1486151142.32094 | pgbench_history  |                0
 2017-02-03 20:45:42.320943+01 | 1486151142.32094 | pgbench_branches |            40960

 2017-02-03 20:45:43.400607+01 | 1486151143.40061 | pgbench_accounts |      13429514240
 2017-02-03 20:45:43.400607+01 | 1486151143.40061 | pgbench_tellers  |           450560
 2017-02-03 20:45:43.400607+01 | 1486151143.40061 | pgbench_history  |                0
 2017-02-03 20:45:43.400607+01 | 1486151143.40061 | pgbench_branches |            40960

 2017-02-03 20:45:44.479825+01 | 1486151144.47983 | pgbench_accounts |      13429514240
 2017-02-03 20:45:44.479825+01 | 1486151144.47983 | pgbench_tellers  |           450560
 2017-02-03 20:45:44.479825+01 | 1486151144.47983 | pgbench_history  |                0
 2017-02-03 20:45:44.479825+01 | 1486151144.47983 | pgbench_branches |            40960

 2017-02-03 20:45:45.564298+01 | 1486151145.5643 | pgbench_accounts |      13429514240
 2017-02-03 20:45:45.564298+01 | 1486151145.5643 | pgbench_tellers  |           450560
 2017-02-03 20:45:45.564298+01 | 1486151145.5643 | pgbench_history  |                0
 2017-02-03 20:45:45.564298+01 | 1486151145.5643 | pgbench_branches |            40960

 2017-02-03 20:45:46.644149+01 | 1486151146.64415 | pgbench_accounts |      13429514240
 2017-02-03 20:45:46.644149+01 | 1486151146.64415 | pgbench_tellers  |           450560
 2017-02-03 20:45:46.644149+01 | 1486151146.64415 | pgbench_history  |                0
 2017-02-03 20:45:46.644149+01 | 1486151146.64415 | pgbench_branches |            40960

 2017-02-03 20:45:47.723099+01 | 1486151147.7231 | pgbench_accounts |      13429514240
 2017-02-03 20:45:47.723099+01 | 1486151147.7231 | pgbench_tellers  |           450560
 2017-02-03 20:45:47.723099+01 | 1486151147.7231 | pgbench_history  |                0
 2017-02-03 20:45:47.723099+01 | 1486151147.7231 | pgbench_branches |            40960

 2017-02-03 20:45:48.800912+01 | 1486151148.80091 | pgbench_accounts |      13429514240
 2017-02-03 20:45:48.800912+01 | 1486151148.80091 | pgbench_tellers  |           450560
 2017-02-03 20:45:48.800912+01 | 1486151148.80091 | pgbench_history  |                0
 2017-02-03 20:45:48.800912+01 | 1486151148.80091 | pgbench_branches |            40960

 2017-02-03 20:45:49.879901+01 | 1486151149.8799 | pgbench_accounts |      13429514240
 2017-02-03 20:45:49.879901+01 | 1486151149.8799 | pgbench_tellers  |           450560
 2017-02-03 20:45:49.879901+01 | 1486151149.8799 | pgbench_history  |                0
 2017-02-03 20:45:49.879901+01 | 1486151149.8799 | pgbench_branches |            40960

 2017-02-03 20:45:50.965507+01 | 1486151150.96551 | pgbench_accounts |      13429514240
 2017-02-03 20:45:50.965507+01 | 1486151150.96551 | pgbench_tellers  |           450560
 2017-02-03 20:45:50.965507+01 | 1486151150.96551 | pgbench_history  |                0
 2017-02-03 20:45:50.965507+01 | 1486151150.96551 | pgbench_branches |            40960

 2017-02-03 20:45:52.041025+01 | 1486151152.04102 | pgbench_accounts |      13429514240
 2017-02-03 20:45:52.041025+01 | 1486151152.04102 | pgbench_tellers  |           450560
 2017-02-03 20:45:52.041025+01 | 1486151152.04102 | pgbench_history  |                0
 2017-02-03 20:45:52.041025+01 | 1486151152.04102 | pgbench_branches |            40960

 2017-02-03 20:45:53.132636+01 | 1486151153.13264 | pgbench_accounts |      13429514240
 2017-02-03 20:45:53.132636+01 | 1486151153.13264 | pgbench_tellers  |           450560
 2017-02-03 20:45:53.132636+01 | 1486151153.13264 | pgbench_history  |                0
 2017-02-03 20:45:53.132636+01 | 1486151153.13264 | pgbench_branches |            40960

 2017-02-03 20:45:54.222921+01 | 1486151154.22292 | pgbench_accounts |      13429514240
 2017-02-03 20:45:54.222921+01 | 1486151154.22292 | pgbench_tellers  |           450560
 2017-02-03 20:45:54.222921+01 | 1486151154.22292 | pgbench_history  |                0
 2017-02-03 20:45:54.222921+01 | 1486151154.22292 | pgbench_branches |            40960

 2017-02-03 20:45:55.311331+01 | 1486151155.31133 | pgbench_accounts |      13429514240
 2017-02-03 20:45:55.311331+01 | 1486151155.31133 | pgbench_tellers  |           450560
 2017-02-03 20:45:55.311331+01 | 1486151155.31133 | pgbench_history  |                0
 2017-02-03 20:45:55.311331+01 | 1486151155.31133 | pgbench_branches |            40960

 2017-02-03 20:45:56.394872+01 | 1486151156.39487 | pgbench_accounts |      13429514240
 2017-02-03 20:45:56.394872+01 | 1486151156.39487 | pgbench_tellers  |           450560
 2017-02-03 20:45:56.394872+01 | 1486151156.39487 | pgbench_history  |                0
 2017-02-03 20:45:56.394872+01 | 1486151156.39487 | pgbench_branches |            40960

 2017-02-03 20:45:57.474287+01 | 1486151157.47429 | pgbench_accounts |      13429514240
 2017-02-03 20:45:57.474287+01 | 1486151157.47429 | pgbench_tellers  |           450560
 2017-02-03 20:45:57.474287+01 | 1486151157.47429 | pgbench_history  |                0
 2017-02-03 20:45:57.474287+01 | 1486151157.47429 | pgbench_branches |            40960

 2017-02-03 20:45:58.553106+01 | 1486151158.55311 | pgbench_accounts |      13429514240
 2017-02-03 20:45:58.553106+01 | 1486151158.55311 | pgbench_tellers  |           450560
 2017-02-03 20:45:58.553106+01 | 1486151158.55311 | pgbench_history  |                0
 2017-02-03 20:45:58.553106+01 | 1486151158.55311 | pgbench_branches |            40960

 2017-02-03 20:45:59.637675+01 | 1486151159.63768 | pgbench_accounts |      13429514240
 2017-02-03 20:45:59.637675+01 | 1486151159.63768 | pgbench_tellers  |           450560
 2017-02-03 20:45:59.637675+01 | 1486151159.63768 | pgbench_history  |                0
 2017-02-03 20:45:59.637675+01 | 1486151159.63768 | pgbench_branches |            40960

 2017-02-03 20:46:00.723423+01 | 1486151160.72342 | pgbench_accounts |      13429514240
 2017-02-03 20:46:00.723423+01 | 1486151160.72342 | pgbench_tellers  |           450560
 2017-02-03 20:46:00.723423+01 | 1486151160.72342 | pgbench_history  |                0
 2017-02-03 20:46:00.723423+01 | 1486151160.72342 | pgbench_branches |            40960

 2017-02-03 20:46:01.808079+01 | 1486151161.80808 | pgbench_accounts |      13429514240
 2017-02-03 20:46:01.808079+01 | 1486151161.80808 | pgbench_tellers  |           450560
 2017-02-03 20:46:01.808079+01 | 1486151161.80808 | pgbench_history  |                0
 2017-02-03 20:46:01.808079+01 | 1486151161.80808 | pgbench_branches |            40960

 2017-02-03 20:46:02.886076+01 | 1486151162.88608 | pgbench_accounts |      13429514240
 2017-02-03 20:46:02.886076+01 | 1486151162.88608 | pgbench_tellers  |           450560
 2017-02-03 20:46:02.886076+01 | 1486151162.88608 | pgbench_history  |                0
 2017-02-03 20:46:02.886076+01 | 1486151162.88608 | pgbench_branches |            40960

 2017-02-03 20:46:03.961455+01 | 1486151163.96146 | pgbench_accounts |      13429514240
 2017-02-03 20:46:03.961455+01 | 1486151163.96146 | pgbench_tellers  |           450560
 2017-02-03 20:46:03.961455+01 | 1486151163.96146 | pgbench_history  |                0
 2017-02-03 20:46:03.961455+01 | 1486151163.96146 | pgbench_branches |            40960

 2017-02-03 20:46:05.033065+01 | 1486151165.03307 | pgbench_accounts |      13429514240
 2017-02-03 20:46:05.033065+01 | 1486151165.03307 | pgbench_tellers  |           450560
 2017-02-03 20:46:05.033065+01 | 1486151165.03307 | pgbench_history  |                0
 2017-02-03 20:46:05.033065+01 | 1486151165.03307 | pgbench_branches |            40960

 2017-02-03 20:46:06.120156+01 | 1486151166.12016 | pgbench_accounts |      13429514240
 2017-02-03 20:46:06.120156+01 | 1486151166.12016 | pgbench_tellers  |           450560
 2017-02-03 20:46:06.120156+01 | 1486151166.12016 | pgbench_history  |                0
 2017-02-03 20:46:06.120156+01 | 1486151166.12016 | pgbench_branches |            40960

 2017-02-03 20:46:07.198028+01 | 1486151167.19803 | pgbench_accounts |      13429514240
 2017-02-03 20:46:07.198028+01 | 1486151167.19803 | pgbench_tellers  |           450560
 2017-02-03 20:46:07.198028+01 | 1486151167.19803 | pgbench_history  |                0
 2017-02-03 20:46:07.198028+01 | 1486151167.19803 | pgbench_branches |            40960

 2017-02-03 20:46:08.28056+01 | 1486151168.28056 | pgbench_accounts |      13429514240
 2017-02-03 20:46:08.28056+01 | 1486151168.28056 | pgbench_tellers  |           450560
 2017-02-03 20:46:08.28056+01 | 1486151168.28056 | pgbench_history  |                0
 2017-02-03 20:46:08.28056+01 | 1486151168.28056 | pgbench_branches |            40960

 2017-02-03 20:46:09.350201+01 | 1486151169.3502 | pgbench_accounts |      13429514240
 2017-02-03 20:46:09.350201+01 | 1486151169.3502 | pgbench_tellers  |           450560
 2017-02-03 20:46:09.350201+01 | 1486151169.3502 | pgbench_history  |                0
 2017-02-03 20:46:09.350201+01 | 1486151169.3502 | pgbench_branches |            40960

 2017-02-03 20:46:10.423886+01 | 1486151170.42389 | pgbench_accounts |      13429514240
 2017-02-03 20:46:10.423886+01 | 1486151170.42389 | pgbench_tellers  |           450560
 2017-02-03 20:46:10.423886+01 | 1486151170.42389 | pgbench_history  |                0
 2017-02-03 20:46:10.423886+01 | 1486151170.42389 | pgbench_branches |            40960

 2017-02-03 20:46:11.505163+01 | 1486151171.50516 | pgbench_accounts |      13429514240
 2017-02-03 20:46:11.505163+01 | 1486151171.50516 | pgbench_tellers  |           450560
 2017-02-03 20:46:11.505163+01 | 1486151171.50516 | pgbench_history  |                0
 2017-02-03 20:46:11.505163+01 | 1486151171.50516 | pgbench_branches |            40960

 2017-02-03 20:46:12.576508+01 | 1486151172.57651 | pgbench_accounts |      13429514240
 2017-02-03 20:46:12.576508+01 | 1486151172.57651 | pgbench_tellers  |           450560
 2017-02-03 20:46:12.576508+01 | 1486151172.57651 | pgbench_history  |                0
 2017-02-03 20:46:12.576508+01 | 1486151172.57651 | pgbench_branches |            40960

 2017-02-03 20:46:13.655785+01 | 1486151173.65579 | pgbench_accounts |      13429514240
 2017-02-03 20:46:13.655785+01 | 1486151173.65579 | pgbench_tellers  |           450560
 2017-02-03 20:46:13.655785+01 | 1486151173.65579 | pgbench_history  |                0
 2017-02-03 20:46:13.655785+01 | 1486151173.65579 | pgbench_branches |            40960

 2017-02-03 20:46:14.732632+01 | 1486151174.73263 | pgbench_accounts |      13429514240
 2017-02-03 20:46:14.732632+01 | 1486151174.73263 | pgbench_tellers  |           450560
 2017-02-03 20:46:14.732632+01 | 1486151174.73263 | pgbench_history  |                0
 2017-02-03 20:46:14.732632+01 | 1486151174.73263 | pgbench_branches |            40960

 2017-02-03 20:46:15.812934+01 | 1486151175.81293 | pgbench_accounts |      13429514240
 2017-02-03 20:46:15.812934+01 | 1486151175.81293 | pgbench_tellers  |           450560
 2017-02-03 20:46:15.812934+01 | 1486151175.81293 | pgbench_history  |                0
 2017-02-03 20:46:15.812934+01 | 1486151175.81293 | pgbench_branches |            40960

 2017-02-03 20:46:16.898779+01 | 1486151176.89878 | pgbench_accounts |      13429514240
 2017-02-03 20:46:16.898779+01 | 1486151176.89878 | pgbench_tellers  |           450560
 2017-02-03 20:46:16.898779+01 | 1486151176.89878 | pgbench_history  |                0
 2017-02-03 20:46:16.898779+01 | 1486151176.89878 | pgbench_branches |            40960

 2017-02-03 20:46:17.980941+01 | 1486151177.98094 | pgbench_accounts |      13429514240
 2017-02-03 20:46:17.980941+01 | 1486151177.98094 | pgbench_tellers  |           450560
 2017-02-03 20:46:17.980941+01 | 1486151177.98094 | pgbench_history  |                0
 2017-02-03 20:46:17.980941+01 | 1486151177.98094 | pgbench_branches |            40960

 2017-02-03 20:46:19.056015+01 | 1486151179.05602 | pgbench_accounts |      13429514240
 2017-02-03 20:46:19.056015+01 | 1486151179.05602 | pgbench_tellers  |           450560
 2017-02-03 20:46:19.056015+01 | 1486151179.05602 | pgbench_history  |                0
 2017-02-03 20:46:19.056015+01 | 1486151179.05602 | pgbench_branches |            40960

 2017-02-03 20:46:20.143927+01 | 1486151180.14393 | pgbench_accounts |      13429514240
 2017-02-03 20:46:20.143927+01 | 1486151180.14393 | pgbench_tellers  |           450560
 2017-02-03 20:46:20.143927+01 | 1486151180.14393 | pgbench_history  |                0
 2017-02-03 20:46:20.143927+01 | 1486151180.14393 | pgbench_branches |            40960

 2017-02-03 20:46:21.220801+01 | 1486151181.2208 | pgbench_accounts |      13429514240
 2017-02-03 20:46:21.220801+01 | 1486151181.2208 | pgbench_tellers  |           450560
 2017-02-03 20:46:21.220801+01 | 1486151181.2208 | pgbench_history  |                0
 2017-02-03 20:46:21.220801+01 | 1486151181.2208 | pgbench_branches |            40960

 2017-02-03 20:46:22.308332+01 | 1486151182.30833 | pgbench_accounts |      13429514240
 2017-02-03 20:46:22.308332+01 | 1486151182.30833 | pgbench_tellers  |           450560
 2017-02-03 20:46:22.308332+01 | 1486151182.30833 | pgbench_history  |                0
 2017-02-03 20:46:22.308332+01 | 1486151182.30833 | pgbench_branches |            40960

 2017-02-03 20:46:23.390097+01 | 1486151183.3901 | pgbench_accounts |      13429514240
 2017-02-03 20:46:23.390097+01 | 1486151183.3901 | pgbench_tellers  |           450560
 2017-02-03 20:46:23.390097+01 | 1486151183.3901 | pgbench_history  |                0
 2017-02-03 20:46:23.390097+01 | 1486151183.3901 | pgbench_branches |            40960

 2017-02-03 20:46:24.471964+01 | 1486151184.47196 | pgbench_accounts |      13429514240
 2017-02-03 20:46:24.471964+01 | 1486151184.47196 | pgbench_tellers  |           450560
 2017-02-03 20:46:24.471964+01 | 1486151184.47196 | pgbench_history  |                0
 2017-02-03 20:46:24.471964+01 | 1486151184.47196 | pgbench_branches |            40960

 2017-02-03 20:46:25.560319+01 | 1486151185.56032 | pgbench_accounts |      13429514240
 2017-02-03 20:46:25.560319+01 | 1486151185.56032 | pgbench_tellers  |           450560
 2017-02-03 20:46:25.560319+01 | 1486151185.56032 | pgbench_history  |                0
 2017-02-03 20:46:25.560319+01 | 1486151185.56032 | pgbench_branches |            40960

 2017-02-03 20:46:26.631829+01 | 1486151186.63183 | pgbench_accounts |      13429514240
 2017-02-03 20:46:26.631829+01 | 1486151186.63183 | pgbench_tellers  |           450560
 2017-02-03 20:46:26.631829+01 | 1486151186.63183 | pgbench_history  |                0
 2017-02-03 20:46:26.631829+01 | 1486151186.63183 | pgbench_branches |            40960

 2017-02-03 20:46:27.708434+01 | 1486151187.70843 | pgbench_accounts |      13429514240
 2017-02-03 20:46:27.708434+01 | 1486151187.70843 | pgbench_tellers  |           450560
 2017-02-03 20:46:27.708434+01 | 1486151187.70843 | pgbench_history  |                0
 2017-02-03 20:46:27.708434+01 | 1486151187.70843 | pgbench_branches |            40960

 2017-02-03 20:46:28.780283+01 | 1486151188.78028 | pgbench_accounts |      13429514240
 2017-02-03 20:46:28.780283+01 | 1486151188.78028 | pgbench_tellers  |           450560
 2017-02-03 20:46:28.780283+01 | 1486151188.78028 | pgbench_history  |                0
 2017-02-03 20:46:28.780283+01 | 1486151188.78028 | pgbench_branches |            40960

 2017-02-03 20:46:29.864627+01 | 1486151189.86463 | pgbench_accounts |      13429514240
 2017-02-03 20:46:29.864627+01 | 1486151189.86463 | pgbench_tellers  |           450560
 2017-02-03 20:46:29.864627+01 | 1486151189.86463 | pgbench_history  |                0
 2017-02-03 20:46:29.864627+01 | 1486151189.86463 | pgbench_branches |            40960

 2017-02-03 20:46:30.944327+01 | 1486151190.94433 | pgbench_accounts |      13429514240
 2017-02-03 20:46:30.944327+01 | 1486151190.94433 | pgbench_tellers  |           450560
 2017-02-03 20:46:30.944327+01 | 1486151190.94433 | pgbench_history  |                0
 2017-02-03 20:46:30.944327+01 | 1486151190.94433 | pgbench_branches |            40960

 2017-02-03 20:46:32.027364+01 | 1486151192.02736 | pgbench_accounts |      13429514240
 2017-02-03 20:46:32.027364+01 | 1486151192.02736 | pgbench_tellers  |           450560
 2017-02-03 20:46:32.027364+01 | 1486151192.02736 | pgbench_history  |                0
 2017-02-03 20:46:32.027364+01 | 1486151192.02736 | pgbench_branches |            40960

 2017-02-03 20:46:33.115481+01 | 1486151193.11548 | pgbench_accounts |      13429514240
 2017-02-03 20:46:33.115481+01 | 1486151193.11548 | pgbench_tellers  |           450560
 2017-02-03 20:46:33.115481+01 | 1486151193.11548 | pgbench_history  |                0
 2017-02-03 20:46:33.115481+01 | 1486151193.11548 | pgbench_branches |            40960

 2017-02-03 20:46:34.206839+01 | 1486151194.20684 | pgbench_accounts |      13429514240
 2017-02-03 20:46:34.206839+01 | 1486151194.20684 | pgbench_tellers  |           450560
 2017-02-03 20:46:34.206839+01 | 1486151194.20684 | pgbench_history  |                0
 2017-02-03 20:46:34.206839+01 | 1486151194.20684 | pgbench_branches |            40960

 2017-02-03 20:46:35.287429+01 | 1486151195.28743 | pgbench_accounts |      13429514240
 2017-02-03 20:46:35.287429+01 | 1486151195.28743 | pgbench_tellers  |           450560
 2017-02-03 20:46:35.287429+01 | 1486151195.28743 | pgbench_history  |                0
 2017-02-03 20:46:35.287429+01 | 1486151195.28743 | pgbench_branches |            40960

 2017-02-03 20:46:36.37241+01 | 1486151196.37241 | pgbench_accounts |      13429514240
 2017-02-03 20:46:36.37241+01 | 1486151196.37241 | pgbench_tellers  |           450560
 2017-02-03 20:46:36.37241+01 | 1486151196.37241 | pgbench_history  |                0
 2017-02-03 20:46:36.37241+01 | 1486151196.37241 | pgbench_branches |            40960

 2017-02-03 20:46:37.449245+01 | 1486151197.44924 | pgbench_accounts |      13429514240
 2017-02-03 20:46:37.449245+01 | 1486151197.44924 | pgbench_tellers  |           450560
 2017-02-03 20:46:37.449245+01 | 1486151197.44924 | pgbench_history  |                0
 2017-02-03 20:46:37.449245+01 | 1486151197.44924 | pgbench_branches |            40960

 2017-02-03 20:46:38.534993+01 | 1486151198.53499 | pgbench_accounts |      13429514240
 2017-02-03 20:46:38.534993+01 | 1486151198.53499 | pgbench_tellers  |           450560
 2017-02-03 20:46:38.534993+01 | 1486151198.53499 | pgbench_history  |                0
 2017-02-03 20:46:38.534993+01 | 1486151198.53499 | pgbench_branches |            40960

 2017-02-03 20:46:39.6028+01 | 1486151199.6028 | pgbench_accounts |      13429514240
 2017-02-03 20:46:39.6028+01 | 1486151199.6028 | pgbench_tellers  |           450560
 2017-02-03 20:46:39.6028+01 | 1486151199.6028 | pgbench_history  |                0
 2017-02-03 20:46:39.6028+01 | 1486151199.6028 | pgbench_branches |            40960

 2017-02-03 20:46:40.684474+01 | 1486151200.68447 | pgbench_accounts |      13429514240
 2017-02-03 20:46:40.684474+01 | 1486151200.68447 | pgbench_tellers  |           450560
 2017-02-03 20:46:40.684474+01 | 1486151200.68447 | pgbench_history  |                0
 2017-02-03 20:46:40.684474+01 | 1486151200.68447 | pgbench_branches |            40960

 2017-02-03 20:46:41.761069+01 | 1486151201.76107 | pgbench_accounts |      13429514240
 2017-02-03 20:46:41.761069+01 | 1486151201.76107 | pgbench_tellers  |           450560
 2017-02-03 20:46:41.761069+01 | 1486151201.76107 | pgbench_history  |                0
 2017-02-03 20:46:41.761069+01 | 1486151201.76107 | pgbench_branches |            40960

 2017-02-03 20:46:42.846596+01 | 1486151202.8466 | pgbench_accounts |      13429514240
 2017-02-03 20:46:42.846596+01 | 1486151202.8466 | pgbench_tellers  |           450560
 2017-02-03 20:46:42.846596+01 | 1486151202.8466 | pgbench_history  |                0
 2017-02-03 20:46:42.846596+01 | 1486151202.8466 | pgbench_branches |            40960

 2017-02-03 20:46:43.928809+01 | 1486151203.92881 | pgbench_accounts |      13429514240
 2017-02-03 20:46:43.928809+01 | 1486151203.92881 | pgbench_tellers  |           450560
 2017-02-03 20:46:43.928809+01 | 1486151203.92881 | pgbench_history  |                0
 2017-02-03 20:46:43.928809+01 | 1486151203.92881 | pgbench_branches |            40960

 2017-02-03 20:46:45.005876+01 | 1486151205.00588 | pgbench_accounts |      13429514240
 2017-02-03 20:46:45.005876+01 | 1486151205.00588 | pgbench_tellers  |           450560
 2017-02-03 20:46:45.005876+01 | 1486151205.00588 | pgbench_history  |                0
 2017-02-03 20:46:45.005876+01 | 1486151205.00588 | pgbench_branches |            40960

 2017-02-03 20:46:46.079659+01 | 1486151206.07966 | pgbench_accounts |      13429514240
 2017-02-03 20:46:46.079659+01 | 1486151206.07966 | pgbench_tellers  |           450560
 2017-02-03 20:46:46.079659+01 | 1486151206.07966 | pgbench_history  |                0
 2017-02-03 20:46:46.079659+01 | 1486151206.07966 | pgbench_branches |            40960

 2017-02-03 20:46:47.159383+01 | 1486151207.15938 | pgbench_accounts |      13429514240
 2017-02-03 20:46:47.159383+01 | 1486151207.15938 | pgbench_tellers  |           450560
 2017-02-03 20:46:47.159383+01 | 1486151207.15938 | pgbench_history  |                0
 2017-02-03 20:46:47.159383+01 | 1486151207.15938 | pgbench_branches |            40960

 2017-02-03 20:46:48.237737+01 | 1486151208.23774 | pgbench_accounts |      13429514240
 2017-02-03 20:46:48.237737+01 | 1486151208.23774 | pgbench_tellers  |           450560
 2017-02-03 20:46:48.237737+01 | 1486151208.23774 | pgbench_history  |                0
 2017-02-03 20:46:48.237737+01 | 1486151208.23774 | pgbench_branches |            40960

 2017-02-03 20:46:49.312467+01 | 1486151209.31247 | pgbench_accounts |      13429514240
 2017-02-03 20:46:49.312467+01 | 1486151209.31247 | pgbench_tellers  |           450560
 2017-02-03 20:46:49.312467+01 | 1486151209.31247 | pgbench_history  |                0
 2017-02-03 20:46:49.312467+01 | 1486151209.31247 | pgbench_branches |            40960

 2017-02-03 20:46:50.383682+01 | 1486151210.38368 | pgbench_accounts |      13429514240
 2017-02-03 20:46:50.383682+01 | 1486151210.38368 | pgbench_tellers  |           450560
 2017-02-03 20:46:50.383682+01 | 1486151210.38368 | pgbench_history  |                0
 2017-02-03 20:46:50.383682+01 | 1486151210.38368 | pgbench_branches |            40960

 2017-02-03 20:46:51.467064+01 | 1486151211.46706 | pgbench_accounts |      13429514240
 2017-02-03 20:46:51.467064+01 | 1486151211.46706 | pgbench_tellers  |           450560
 2017-02-03 20:46:51.467064+01 | 1486151211.46706 | pgbench_history  |                0
 2017-02-03 20:46:51.467064+01 | 1486151211.46706 | pgbench_branches |            40960

 2017-02-03 20:46:52.546468+01 | 1486151212.54647 | pgbench_accounts |      13429514240
 2017-02-03 20:46:52.546468+01 | 1486151212.54647 | pgbench_tellers  |           450560
 2017-02-03 20:46:52.546468+01 | 1486151212.54647 | pgbench_history  |                0
 2017-02-03 20:46:52.546468+01 | 1486151212.54647 | pgbench_branches |            40960

 2017-02-03 20:46:53.640396+01 | 1486151213.6404 | pgbench_accounts |      13429514240
 2017-02-03 20:46:53.640396+01 | 1486151213.6404 | pgbench_tellers  |           450560
 2017-02-03 20:46:53.640396+01 | 1486151213.6404 | pgbench_history  |                0
 2017-02-03 20:46:53.640396+01 | 1486151213.6404 | pgbench_branches |            40960

 2017-02-03 20:46:54.719935+01 | 1486151214.71993 | pgbench_accounts |      13429514240
 2017-02-03 20:46:54.719935+01 | 1486151214.71993 | pgbench_tellers  |           450560
 2017-02-03 20:46:54.719935+01 | 1486151214.71993 | pgbench_history  |                0
 2017-02-03 20:46:54.719935+01 | 1486151214.71993 | pgbench_branches |            40960

 2017-02-03 20:46:55.793911+01 | 1486151215.79391 | pgbench_accounts |      13429514240
 2017-02-03 20:46:55.793911+01 | 1486151215.79391 | pgbench_tellers  |           450560
 2017-02-03 20:46:55.793911+01 | 1486151215.79391 | pgbench_history  |                0
 2017-02-03 20:46:55.793911+01 | 1486151215.79391 | pgbench_branches |            40960

 2017-02-03 20:46:56.870628+01 | 1486151216.87063 | pgbench_accounts |      13429514240
 2017-02-03 20:46:56.870628+01 | 1486151216.87063 | pgbench_tellers  |           450560
 2017-02-03 20:46:56.870628+01 | 1486151216.87063 | pgbench_history  |                0
 2017-02-03 20:46:56.870628+01 | 1486151216.87063 | pgbench_branches |            40960

 2017-02-03 20:46:57.953861+01 | 1486151217.95386 | pgbench_accounts |      13429514240
 2017-02-03 20:46:57.953861+01 | 1486151217.95386 | pgbench_tellers  |           450560
 2017-02-03 20:46:57.953861+01 | 1486151217.95386 | pgbench_history  |                0
 2017-02-03 20:46:57.953861+01 | 1486151217.95386 | pgbench_branches |            40960

 2017-02-03 20:46:59.036733+01 | 1486151219.03673 | pgbench_accounts |      13429514240
 2017-02-03 20:46:59.036733+01 | 1486151219.03673 | pgbench_tellers  |           450560
 2017-02-03 20:46:59.036733+01 | 1486151219.03673 | pgbench_history  |                0
 2017-02-03 20:46:59.036733+01 | 1486151219.03673 | pgbench_branches |            40960

 2017-02-03 20:47:00.122624+01 | 1486151220.12262 | pgbench_accounts |      13429514240
 2017-02-03 20:47:00.122624+01 | 1486151220.12262 | pgbench_tellers  |           450560
 2017-02-03 20:47:00.122624+01 | 1486151220.12262 | pgbench_history  |                0
 2017-02-03 20:47:00.122624+01 | 1486151220.12262 | pgbench_branches |            40960

 2017-02-03 20:47:01.199048+01 | 1486151221.19905 | pgbench_accounts |      13429514240
 2017-02-03 20:47:01.199048+01 | 1486151221.19905 | pgbench_tellers  |           450560
 2017-02-03 20:47:01.199048+01 | 1486151221.19905 | pgbench_history  |                0
 2017-02-03 20:47:01.199048+01 | 1486151221.19905 | pgbench_branches |            40960

 2017-02-03 20:47:02.266627+01 | 1486151222.26663 | pgbench_accounts |      13429514240
 2017-02-03 20:47:02.266627+01 | 1486151222.26663 | pgbench_tellers  |           450560
 2017-02-03 20:47:02.266627+01 | 1486151222.26663 | pgbench_history  |                0
 2017-02-03 20:47:02.266627+01 | 1486151222.26663 | pgbench_branches |            40960

 2017-02-03 20:47:03.348549+01 | 1486151223.34855 | pgbench_accounts |      13429514240
 2017-02-03 20:47:03.348549+01 | 1486151223.34855 | pgbench_tellers  |           450560
 2017-02-03 20:47:03.348549+01 | 1486151223.34855 | pgbench_history  |                0
 2017-02-03 20:47:03.348549+01 | 1486151223.34855 | pgbench_branches |            40960

 2017-02-03 20:47:04.418656+01 | 1486151224.41866 | pgbench_accounts |      13429514240
 2017-02-03 20:47:04.418656+01 | 1486151224.41866 | pgbench_tellers  |           450560
 2017-02-03 20:47:04.418656+01 | 1486151224.41866 | pgbench_history  |                0
 2017-02-03 20:47:04.418656+01 | 1486151224.41866 | pgbench_branches |            40960

 2017-02-03 20:47:05.499768+01 | 1486151225.49977 | pgbench_accounts |      13429514240
 2017-02-03 20:47:05.499768+01 | 1486151225.49977 | pgbench_tellers  |           450560
 2017-02-03 20:47:05.499768+01 | 1486151225.49977 | pgbench_history  |                0
 2017-02-03 20:47:05.499768+01 | 1486151225.49977 | pgbench_branches |            40960

 2017-02-03 20:47:06.57358+01 | 1486151226.57358 | pgbench_accounts |      13429514240
 2017-02-03 20:47:06.57358+01 | 1486151226.57358 | pgbench_tellers  |           450560
 2017-02-03 20:47:06.57358+01 | 1486151226.57358 | pgbench_history  |                0
 2017-02-03 20:47:06.57358+01 | 1486151226.57358 | pgbench_branches |            40960

