 2017-02-05 09:19:08.412425+01 | 1486282748.41243 | pgbench_accounts |      13878878208
 2017-02-05 09:19:08.412425+01 | 1486282748.41243 | pgbench_tellers  |           450560
 2017-02-05 09:19:08.412425+01 | 1486282748.41243 | pgbench_history  |                0
 2017-02-05 09:19:08.412425+01 | 1486282748.41243 | pgbench_branches |            40960

 2017-02-05 09:19:09.533487+01 | 1486282749.53349 | pgbench_accounts |      13878878208
 2017-02-05 09:19:09.533487+01 | 1486282749.53349 | pgbench_tellers  |           450560
 2017-02-05 09:19:09.533487+01 | 1486282749.53349 | pgbench_history  |                0
 2017-02-05 09:19:09.533487+01 | 1486282749.53349 | pgbench_branches |            40960

 2017-02-05 09:19:10.64829+01 | 1486282750.64829 | pgbench_accounts |      13878878208
 2017-02-05 09:19:10.64829+01 | 1486282750.64829 | pgbench_tellers  |           450560
 2017-02-05 09:19:10.64829+01 | 1486282750.64829 | pgbench_history  |                0
 2017-02-05 09:19:10.64829+01 | 1486282750.64829 | pgbench_branches |            40960

 2017-02-05 09:19:11.763881+01 | 1486282751.76388 | pgbench_accounts |      13878878208
 2017-02-05 09:19:11.763881+01 | 1486282751.76388 | pgbench_tellers  |           450560
 2017-02-05 09:19:11.763881+01 | 1486282751.76388 | pgbench_history  |                0
 2017-02-05 09:19:11.763881+01 | 1486282751.76388 | pgbench_branches |            40960

 2017-02-05 09:19:12.871958+01 | 1486282752.87196 | pgbench_accounts |      13878878208
 2017-02-05 09:19:12.871958+01 | 1486282752.87196 | pgbench_tellers  |           450560
 2017-02-05 09:19:12.871958+01 | 1486282752.87196 | pgbench_history  |                0
 2017-02-05 09:19:12.871958+01 | 1486282752.87196 | pgbench_branches |            40960

 2017-02-05 09:19:13.960398+01 | 1486282753.9604 | pgbench_accounts |      13878878208
 2017-02-05 09:19:13.960398+01 | 1486282753.9604 | pgbench_tellers  |           450560
 2017-02-05 09:19:13.960398+01 | 1486282753.9604 | pgbench_history  |                0
 2017-02-05 09:19:13.960398+01 | 1486282753.9604 | pgbench_branches |            40960

 2017-02-05 09:19:15.035438+01 | 1486282755.03544 | pgbench_accounts |      13878878208
 2017-02-05 09:19:15.035438+01 | 1486282755.03544 | pgbench_tellers  |           450560
 2017-02-05 09:19:15.035438+01 | 1486282755.03544 | pgbench_history  |                0
 2017-02-05 09:19:15.035438+01 | 1486282755.03544 | pgbench_branches |            40960

 2017-02-05 09:19:16.125921+01 | 1486282756.12592 | pgbench_accounts |      13878878208
 2017-02-05 09:19:16.125921+01 | 1486282756.12592 | pgbench_tellers  |           450560
 2017-02-05 09:19:16.125921+01 | 1486282756.12592 | pgbench_history  |                0
 2017-02-05 09:19:16.125921+01 | 1486282756.12592 | pgbench_branches |            40960

 2017-02-05 09:19:17.230106+01 | 1486282757.23011 | pgbench_accounts |      13878878208
 2017-02-05 09:19:17.230106+01 | 1486282757.23011 | pgbench_tellers  |           450560
 2017-02-05 09:19:17.230106+01 | 1486282757.23011 | pgbench_history  |                0
 2017-02-05 09:19:17.230106+01 | 1486282757.23011 | pgbench_branches |            40960

 2017-02-05 09:19:18.323252+01 | 1486282758.32325 | pgbench_accounts |      13878878208
 2017-02-05 09:19:18.323252+01 | 1486282758.32325 | pgbench_tellers  |           450560
 2017-02-05 09:19:18.323252+01 | 1486282758.32325 | pgbench_history  |                0
 2017-02-05 09:19:18.323252+01 | 1486282758.32325 | pgbench_branches |            40960

 2017-02-05 09:19:19.425618+01 | 1486282759.42562 | pgbench_accounts |      13878878208
 2017-02-05 09:19:19.425618+01 | 1486282759.42562 | pgbench_tellers  |           450560
 2017-02-05 09:19:19.425618+01 | 1486282759.42562 | pgbench_history  |                0
 2017-02-05 09:19:19.425618+01 | 1486282759.42562 | pgbench_branches |            40960

 2017-02-05 09:19:20.523481+01 | 1486282760.52348 | pgbench_accounts |      13878878208
 2017-02-05 09:19:20.523481+01 | 1486282760.52348 | pgbench_tellers  |           450560
 2017-02-05 09:19:20.523481+01 | 1486282760.52348 | pgbench_history  |                0
 2017-02-05 09:19:20.523481+01 | 1486282760.52348 | pgbench_branches |            40960

 2017-02-05 09:19:21.632717+01 | 1486282761.63272 | pgbench_accounts |      13878878208
 2017-02-05 09:19:21.632717+01 | 1486282761.63272 | pgbench_tellers  |           450560
 2017-02-05 09:19:21.632717+01 | 1486282761.63272 | pgbench_history  |                0
 2017-02-05 09:19:21.632717+01 | 1486282761.63272 | pgbench_branches |            40960

 2017-02-05 09:19:22.723973+01 | 1486282762.72397 | pgbench_accounts |      13878878208
 2017-02-05 09:19:22.723973+01 | 1486282762.72397 | pgbench_tellers  |           450560
 2017-02-05 09:19:22.723973+01 | 1486282762.72397 | pgbench_history  |                0
 2017-02-05 09:19:22.723973+01 | 1486282762.72397 | pgbench_branches |            40960

 2017-02-05 09:19:23.822778+01 | 1486282763.82278 | pgbench_accounts |      13878878208
 2017-02-05 09:19:23.822778+01 | 1486282763.82278 | pgbench_tellers  |           450560
 2017-02-05 09:19:23.822778+01 | 1486282763.82278 | pgbench_history  |                0
 2017-02-05 09:19:23.822778+01 | 1486282763.82278 | pgbench_branches |            40960

 2017-02-05 09:19:24.932393+01 | 1486282764.93239 | pgbench_accounts |      13878878208
 2017-02-05 09:19:24.932393+01 | 1486282764.93239 | pgbench_tellers  |           450560
 2017-02-05 09:19:24.932393+01 | 1486282764.93239 | pgbench_history  |                0
 2017-02-05 09:19:24.932393+01 | 1486282764.93239 | pgbench_branches |            40960

 2017-02-05 09:19:26.023995+01 | 1486282766.02399 | pgbench_accounts |      13878878208
 2017-02-05 09:19:26.023995+01 | 1486282766.02399 | pgbench_tellers  |           450560
 2017-02-05 09:19:26.023995+01 | 1486282766.02399 | pgbench_history  |                0
 2017-02-05 09:19:26.023995+01 | 1486282766.02399 | pgbench_branches |            40960

 2017-02-05 09:19:27.108996+01 | 1486282767.109 | pgbench_accounts |      13878878208
 2017-02-05 09:19:27.108996+01 | 1486282767.109 | pgbench_tellers  |           450560
 2017-02-05 09:19:27.108996+01 | 1486282767.109 | pgbench_history  |                0
 2017-02-05 09:19:27.108996+01 | 1486282767.109 | pgbench_branches |            40960

 2017-02-05 09:19:28.215642+01 | 1486282768.21564 | pgbench_accounts |      13878878208
 2017-02-05 09:19:28.215642+01 | 1486282768.21564 | pgbench_tellers  |           450560
 2017-02-05 09:19:28.215642+01 | 1486282768.21564 | pgbench_history  |                0
 2017-02-05 09:19:28.215642+01 | 1486282768.21564 | pgbench_branches |            40960

 2017-02-05 09:19:29.327198+01 | 1486282769.3272 | pgbench_accounts |      13878878208
 2017-02-05 09:19:29.327198+01 | 1486282769.3272 | pgbench_tellers  |           450560
 2017-02-05 09:19:29.327198+01 | 1486282769.3272 | pgbench_history  |                0
 2017-02-05 09:19:29.327198+01 | 1486282769.3272 | pgbench_branches |            40960

 2017-02-05 09:19:30.419064+01 | 1486282770.41906 | pgbench_accounts |      13878878208
 2017-02-05 09:19:30.419064+01 | 1486282770.41906 | pgbench_tellers  |           450560
 2017-02-05 09:19:30.419064+01 | 1486282770.41906 | pgbench_history  |                0
 2017-02-05 09:19:30.419064+01 | 1486282770.41906 | pgbench_branches |            40960

 2017-02-05 09:19:31.493184+01 | 1486282771.49318 | pgbench_accounts |      13878878208
 2017-02-05 09:19:31.493184+01 | 1486282771.49318 | pgbench_tellers  |           450560
 2017-02-05 09:19:31.493184+01 | 1486282771.49318 | pgbench_history  |                0
 2017-02-05 09:19:31.493184+01 | 1486282771.49318 | pgbench_branches |            40960

 2017-02-05 09:19:32.58222+01 | 1486282772.58222 | pgbench_accounts |      13878878208
 2017-02-05 09:19:32.58222+01 | 1486282772.58222 | pgbench_tellers  |           450560
 2017-02-05 09:19:32.58222+01 | 1486282772.58222 | pgbench_history  |                0
 2017-02-05 09:19:32.58222+01 | 1486282772.58222 | pgbench_branches |            40960

 2017-02-05 09:19:33.700544+01 | 1486282773.70054 | pgbench_accounts |      13878878208
 2017-02-05 09:19:33.700544+01 | 1486282773.70054 | pgbench_tellers  |           450560
 2017-02-05 09:19:33.700544+01 | 1486282773.70054 | pgbench_history  |                0
 2017-02-05 09:19:33.700544+01 | 1486282773.70054 | pgbench_branches |            40960

 2017-02-05 09:19:34.805098+01 | 1486282774.8051 | pgbench_accounts |      13878878208
 2017-02-05 09:19:34.805098+01 | 1486282774.8051 | pgbench_tellers  |           450560
 2017-02-05 09:19:34.805098+01 | 1486282774.8051 | pgbench_history  |                0
 2017-02-05 09:19:34.805098+01 | 1486282774.8051 | pgbench_branches |            40960

 2017-02-05 09:19:35.900467+01 | 1486282775.90047 | pgbench_accounts |      13878878208
 2017-02-05 09:19:35.900467+01 | 1486282775.90047 | pgbench_tellers  |           450560
 2017-02-05 09:19:35.900467+01 | 1486282775.90047 | pgbench_history  |                0
 2017-02-05 09:19:35.900467+01 | 1486282775.90047 | pgbench_branches |            40960

 2017-02-05 09:19:36.979162+01 | 1486282776.97916 | pgbench_accounts |      13878878208
 2017-02-05 09:19:36.979162+01 | 1486282776.97916 | pgbench_tellers  |           450560
 2017-02-05 09:19:36.979162+01 | 1486282776.97916 | pgbench_history  |                0
 2017-02-05 09:19:36.979162+01 | 1486282776.97916 | pgbench_branches |            40960

 2017-02-05 09:19:38.057756+01 | 1486282778.05776 | pgbench_accounts |      13878878208
 2017-02-05 09:19:38.057756+01 | 1486282778.05776 | pgbench_tellers  |           450560
 2017-02-05 09:19:38.057756+01 | 1486282778.05776 | pgbench_history  |                0
 2017-02-05 09:19:38.057756+01 | 1486282778.05776 | pgbench_branches |            40960

 2017-02-05 09:19:39.152262+01 | 1486282779.15226 | pgbench_accounts |      13878878208
 2017-02-05 09:19:39.152262+01 | 1486282779.15226 | pgbench_tellers  |           450560
 2017-02-05 09:19:39.152262+01 | 1486282779.15226 | pgbench_history  |                0
 2017-02-05 09:19:39.152262+01 | 1486282779.15226 | pgbench_branches |            40960

 2017-02-05 09:19:40.235799+01 | 1486282780.2358 | pgbench_accounts |      13878878208
 2017-02-05 09:19:40.235799+01 | 1486282780.2358 | pgbench_tellers  |           450560
 2017-02-05 09:19:40.235799+01 | 1486282780.2358 | pgbench_history  |                0
 2017-02-05 09:19:40.235799+01 | 1486282780.2358 | pgbench_branches |            40960

 2017-02-05 09:19:41.332279+01 | 1486282781.33228 | pgbench_accounts |      13878878208
 2017-02-05 09:19:41.332279+01 | 1486282781.33228 | pgbench_tellers  |           450560
 2017-02-05 09:19:41.332279+01 | 1486282781.33228 | pgbench_history  |                0
 2017-02-05 09:19:41.332279+01 | 1486282781.33228 | pgbench_branches |            40960

 2017-02-05 09:19:42.420897+01 | 1486282782.4209 | pgbench_accounts |      13878878208
 2017-02-05 09:19:42.420897+01 | 1486282782.4209 | pgbench_tellers  |           450560
 2017-02-05 09:19:42.420897+01 | 1486282782.4209 | pgbench_history  |                0
 2017-02-05 09:19:42.420897+01 | 1486282782.4209 | pgbench_branches |            40960

 2017-02-05 09:19:43.49844+01 | 1486282783.49844 | pgbench_accounts |      13878878208
 2017-02-05 09:19:43.49844+01 | 1486282783.49844 | pgbench_tellers  |           450560
 2017-02-05 09:19:43.49844+01 | 1486282783.49844 | pgbench_history  |                0
 2017-02-05 09:19:43.49844+01 | 1486282783.49844 | pgbench_branches |            40960

 2017-02-05 09:19:44.604223+01 | 1486282784.60422 | pgbench_accounts |      13878878208
 2017-02-05 09:19:44.604223+01 | 1486282784.60422 | pgbench_tellers  |           450560
 2017-02-05 09:19:44.604223+01 | 1486282784.60422 | pgbench_history  |                0
 2017-02-05 09:19:44.604223+01 | 1486282784.60422 | pgbench_branches |            40960

 2017-02-05 09:19:45.712885+01 | 1486282785.71288 | pgbench_accounts |      13878878208
 2017-02-05 09:19:45.712885+01 | 1486282785.71288 | pgbench_tellers  |           450560
 2017-02-05 09:19:45.712885+01 | 1486282785.71288 | pgbench_history  |                0
 2017-02-05 09:19:45.712885+01 | 1486282785.71288 | pgbench_branches |            40960

 2017-02-05 09:19:46.810207+01 | 1486282786.81021 | pgbench_accounts |      13878878208
 2017-02-05 09:19:46.810207+01 | 1486282786.81021 | pgbench_tellers  |           450560
 2017-02-05 09:19:46.810207+01 | 1486282786.81021 | pgbench_history  |                0
 2017-02-05 09:19:46.810207+01 | 1486282786.81021 | pgbench_branches |            40960

 2017-02-05 09:19:47.905587+01 | 1486282787.90559 | pgbench_accounts |      13878878208
 2017-02-05 09:19:47.905587+01 | 1486282787.90559 | pgbench_tellers  |           450560
 2017-02-05 09:19:47.905587+01 | 1486282787.90559 | pgbench_history  |                0
 2017-02-05 09:19:47.905587+01 | 1486282787.90559 | pgbench_branches |            40960

 2017-02-05 09:19:49.000858+01 | 1486282789.00086 | pgbench_accounts |      13878878208
 2017-02-05 09:19:49.000858+01 | 1486282789.00086 | pgbench_tellers  |           450560
 2017-02-05 09:19:49.000858+01 | 1486282789.00086 | pgbench_history  |                0
 2017-02-05 09:19:49.000858+01 | 1486282789.00086 | pgbench_branches |            40960

 2017-02-05 09:19:50.125403+01 | 1486282790.1254 | pgbench_accounts |      13878878208
 2017-02-05 09:19:50.125403+01 | 1486282790.1254 | pgbench_tellers  |           450560
 2017-02-05 09:19:50.125403+01 | 1486282790.1254 | pgbench_history  |                0
 2017-02-05 09:19:50.125403+01 | 1486282790.1254 | pgbench_branches |            40960

 2017-02-05 09:19:51.214195+01 | 1486282791.2142 | pgbench_accounts |      13878878208
 2017-02-05 09:19:51.214195+01 | 1486282791.2142 | pgbench_tellers  |           450560
 2017-02-05 09:19:51.214195+01 | 1486282791.2142 | pgbench_history  |                0
 2017-02-05 09:19:51.214195+01 | 1486282791.2142 | pgbench_branches |            40960

 2017-02-05 09:19:52.32303+01 | 1486282792.32303 | pgbench_accounts |      13878878208
 2017-02-05 09:19:52.32303+01 | 1486282792.32303 | pgbench_tellers  |           450560
 2017-02-05 09:19:52.32303+01 | 1486282792.32303 | pgbench_history  |                0
 2017-02-05 09:19:52.32303+01 | 1486282792.32303 | pgbench_branches |            40960

 2017-02-05 09:19:53.399751+01 | 1486282793.39975 | pgbench_accounts |      13878878208
 2017-02-05 09:19:53.399751+01 | 1486282793.39975 | pgbench_tellers  |           450560
 2017-02-05 09:19:53.399751+01 | 1486282793.39975 | pgbench_history  |                0
 2017-02-05 09:19:53.399751+01 | 1486282793.39975 | pgbench_branches |            40960

 2017-02-05 09:19:54.483306+01 | 1486282794.48331 | pgbench_accounts |      13878878208
 2017-02-05 09:19:54.483306+01 | 1486282794.48331 | pgbench_tellers  |           450560
 2017-02-05 09:19:54.483306+01 | 1486282794.48331 | pgbench_history  |                0
 2017-02-05 09:19:54.483306+01 | 1486282794.48331 | pgbench_branches |            40960

 2017-02-05 09:19:55.57288+01 | 1486282795.57288 | pgbench_accounts |      13878878208
 2017-02-05 09:19:55.57288+01 | 1486282795.57288 | pgbench_tellers  |           450560
 2017-02-05 09:19:55.57288+01 | 1486282795.57288 | pgbench_history  |                0
 2017-02-05 09:19:55.57288+01 | 1486282795.57288 | pgbench_branches |            40960

 2017-02-05 09:19:56.673192+01 | 1486282796.67319 | pgbench_accounts |      13878878208
 2017-02-05 09:19:56.673192+01 | 1486282796.67319 | pgbench_tellers  |           450560
 2017-02-05 09:19:56.673192+01 | 1486282796.67319 | pgbench_history  |                0
 2017-02-05 09:19:56.673192+01 | 1486282796.67319 | pgbench_branches |            40960

 2017-02-05 09:19:57.77453+01 | 1486282797.77453 | pgbench_accounts |      13878878208
 2017-02-05 09:19:57.77453+01 | 1486282797.77453 | pgbench_tellers  |           450560
 2017-02-05 09:19:57.77453+01 | 1486282797.77453 | pgbench_history  |                0
 2017-02-05 09:19:57.77453+01 | 1486282797.77453 | pgbench_branches |            40960

 2017-02-05 09:19:58.885237+01 | 1486282798.88524 | pgbench_accounts |      13878878208
 2017-02-05 09:19:58.885237+01 | 1486282798.88524 | pgbench_tellers  |           450560
 2017-02-05 09:19:58.885237+01 | 1486282798.88524 | pgbench_history  |                0
 2017-02-05 09:19:58.885237+01 | 1486282798.88524 | pgbench_branches |            40960

 2017-02-05 09:19:59.969091+01 | 1486282799.96909 | pgbench_accounts |      13878878208
 2017-02-05 09:19:59.969091+01 | 1486282799.96909 | pgbench_tellers  |           450560
 2017-02-05 09:19:59.969091+01 | 1486282799.96909 | pgbench_history  |                0
 2017-02-05 09:19:59.969091+01 | 1486282799.96909 | pgbench_branches |            40960

 2017-02-05 09:20:01.049636+01 | 1486282801.04964 | pgbench_accounts |      13878878208
 2017-02-05 09:20:01.049636+01 | 1486282801.04964 | pgbench_tellers  |           450560
 2017-02-05 09:20:01.049636+01 | 1486282801.04964 | pgbench_history  |                0
 2017-02-05 09:20:01.049636+01 | 1486282801.04964 | pgbench_branches |            40960

 2017-02-05 09:20:02.144881+01 | 1486282802.14488 | pgbench_accounts |      13878878208
 2017-02-05 09:20:02.144881+01 | 1486282802.14488 | pgbench_tellers  |           450560
 2017-02-05 09:20:02.144881+01 | 1486282802.14488 | pgbench_history  |                0
 2017-02-05 09:20:02.144881+01 | 1486282802.14488 | pgbench_branches |            40960

 2017-02-05 09:20:03.254964+01 | 1486282803.25496 | pgbench_accounts |      13878878208
 2017-02-05 09:20:03.254964+01 | 1486282803.25496 | pgbench_tellers  |           450560
 2017-02-05 09:20:03.254964+01 | 1486282803.25496 | pgbench_history  |                0
 2017-02-05 09:20:03.254964+01 | 1486282803.25496 | pgbench_branches |            40960

 2017-02-05 09:20:04.340654+01 | 1486282804.34065 | pgbench_accounts |      13878878208
 2017-02-05 09:20:04.340654+01 | 1486282804.34065 | pgbench_tellers  |           450560
 2017-02-05 09:20:04.340654+01 | 1486282804.34065 | pgbench_history  |                0
 2017-02-05 09:20:04.340654+01 | 1486282804.34065 | pgbench_branches |            40960

 2017-02-05 09:20:05.422589+01 | 1486282805.42259 | pgbench_accounts |      13878878208
 2017-02-05 09:20:05.422589+01 | 1486282805.42259 | pgbench_tellers  |           450560
 2017-02-05 09:20:05.422589+01 | 1486282805.42259 | pgbench_history  |                0
 2017-02-05 09:20:05.422589+01 | 1486282805.42259 | pgbench_branches |            40960

 2017-02-05 09:20:06.503861+01 | 1486282806.50386 | pgbench_accounts |      13878878208
 2017-02-05 09:20:06.503861+01 | 1486282806.50386 | pgbench_tellers  |           450560
 2017-02-05 09:20:06.503861+01 | 1486282806.50386 | pgbench_history  |                0
 2017-02-05 09:20:06.503861+01 | 1486282806.50386 | pgbench_branches |            40960

 2017-02-05 09:20:07.608016+01 | 1486282807.60802 | pgbench_accounts |      13878878208
 2017-02-05 09:20:07.608016+01 | 1486282807.60802 | pgbench_tellers  |           450560
 2017-02-05 09:20:07.608016+01 | 1486282807.60802 | pgbench_history  |                0
 2017-02-05 09:20:07.608016+01 | 1486282807.60802 | pgbench_branches |            40960

 2017-02-05 09:20:08.716043+01 | 1486282808.71604 | pgbench_accounts |      13878878208
 2017-02-05 09:20:08.716043+01 | 1486282808.71604 | pgbench_tellers  |           450560
 2017-02-05 09:20:08.716043+01 | 1486282808.71604 | pgbench_history  |                0
 2017-02-05 09:20:08.716043+01 | 1486282808.71604 | pgbench_branches |            40960

 2017-02-05 09:20:09.800375+01 | 1486282809.80037 | pgbench_accounts |      13878878208
 2017-02-05 09:20:09.800375+01 | 1486282809.80037 | pgbench_tellers  |           450560
 2017-02-05 09:20:09.800375+01 | 1486282809.80037 | pgbench_history  |                0
 2017-02-05 09:20:09.800375+01 | 1486282809.80037 | pgbench_branches |            40960

 2017-02-05 09:20:10.888789+01 | 1486282810.88879 | pgbench_accounts |      13878878208
 2017-02-05 09:20:10.888789+01 | 1486282810.88879 | pgbench_tellers  |           450560
 2017-02-05 09:20:10.888789+01 | 1486282810.88879 | pgbench_history  |                0
 2017-02-05 09:20:10.888789+01 | 1486282810.88879 | pgbench_branches |            40960

 2017-02-05 09:20:12.019031+01 | 1486282812.01903 | pgbench_accounts |      13878878208
 2017-02-05 09:20:12.019031+01 | 1486282812.01903 | pgbench_tellers  |           450560
 2017-02-05 09:20:12.019031+01 | 1486282812.01903 | pgbench_history  |                0
 2017-02-05 09:20:12.019031+01 | 1486282812.01903 | pgbench_branches |            40960

 2017-02-05 09:20:13.110756+01 | 1486282813.11076 | pgbench_accounts |      13878878208
 2017-02-05 09:20:13.110756+01 | 1486282813.11076 | pgbench_tellers  |           450560
 2017-02-05 09:20:13.110756+01 | 1486282813.11076 | pgbench_history  |                0
 2017-02-05 09:20:13.110756+01 | 1486282813.11076 | pgbench_branches |            40960

 2017-02-05 09:20:14.199971+01 | 1486282814.19997 | pgbench_accounts |      13878878208
 2017-02-05 09:20:14.199971+01 | 1486282814.19997 | pgbench_tellers  |           450560
 2017-02-05 09:20:14.199971+01 | 1486282814.19997 | pgbench_history  |                0
 2017-02-05 09:20:14.199971+01 | 1486282814.19997 | pgbench_branches |            40960

 2017-02-05 09:20:15.317599+01 | 1486282815.3176 | pgbench_accounts |      13878878208
 2017-02-05 09:20:15.317599+01 | 1486282815.3176 | pgbench_tellers  |           450560
 2017-02-05 09:20:15.317599+01 | 1486282815.3176 | pgbench_history  |                0
 2017-02-05 09:20:15.317599+01 | 1486282815.3176 | pgbench_branches |            40960

 2017-02-05 09:20:16.43687+01 | 1486282816.43687 | pgbench_accounts |      13878878208
 2017-02-05 09:20:16.43687+01 | 1486282816.43687 | pgbench_tellers  |           450560
 2017-02-05 09:20:16.43687+01 | 1486282816.43687 | pgbench_history  |                0
 2017-02-05 09:20:16.43687+01 | 1486282816.43687 | pgbench_branches |            40960

 2017-02-05 09:20:17.532285+01 | 1486282817.53228 | pgbench_accounts |      13878878208
 2017-02-05 09:20:17.532285+01 | 1486282817.53228 | pgbench_tellers  |           450560
 2017-02-05 09:20:17.532285+01 | 1486282817.53228 | pgbench_history  |                0
 2017-02-05 09:20:17.532285+01 | 1486282817.53228 | pgbench_branches |            40960

 2017-02-05 09:20:18.614183+01 | 1486282818.61418 | pgbench_accounts |      13878878208
 2017-02-05 09:20:18.614183+01 | 1486282818.61418 | pgbench_tellers  |           450560
 2017-02-05 09:20:18.614183+01 | 1486282818.61418 | pgbench_history  |                0
 2017-02-05 09:20:18.614183+01 | 1486282818.61418 | pgbench_branches |            40960

 2017-02-05 09:20:19.683715+01 | 1486282819.68372 | pgbench_accounts |      13878878208
 2017-02-05 09:20:19.683715+01 | 1486282819.68372 | pgbench_tellers  |           450560
 2017-02-05 09:20:19.683715+01 | 1486282819.68372 | pgbench_history  |                0
 2017-02-05 09:20:19.683715+01 | 1486282819.68372 | pgbench_branches |            40960

 2017-02-05 09:20:20.749672+01 | 1486282820.74967 | pgbench_accounts |      13878878208
 2017-02-05 09:20:20.749672+01 | 1486282820.74967 | pgbench_tellers  |           450560
 2017-02-05 09:20:20.749672+01 | 1486282820.74967 | pgbench_history  |                0
 2017-02-05 09:20:20.749672+01 | 1486282820.74967 | pgbench_branches |            40960

 2017-02-05 09:20:21.842004+01 | 1486282821.842 | pgbench_accounts |      13878878208
 2017-02-05 09:20:21.842004+01 | 1486282821.842 | pgbench_tellers  |           450560
 2017-02-05 09:20:21.842004+01 | 1486282821.842 | pgbench_history  |                0
 2017-02-05 09:20:21.842004+01 | 1486282821.842 | pgbench_branches |            40960

 2017-02-05 09:20:22.964986+01 | 1486282822.96499 | pgbench_accounts |      13878878208
 2017-02-05 09:20:22.964986+01 | 1486282822.96499 | pgbench_tellers  |           450560
 2017-02-05 09:20:22.964986+01 | 1486282822.96499 | pgbench_history  |                0
 2017-02-05 09:20:22.964986+01 | 1486282822.96499 | pgbench_branches |            40960

 2017-02-05 09:20:24.058212+01 | 1486282824.05821 | pgbench_accounts |      13878878208
 2017-02-05 09:20:24.058212+01 | 1486282824.05821 | pgbench_tellers  |           450560
 2017-02-05 09:20:24.058212+01 | 1486282824.05821 | pgbench_history  |                0
 2017-02-05 09:20:24.058212+01 | 1486282824.05821 | pgbench_branches |            40960

 2017-02-05 09:20:25.144925+01 | 1486282825.14493 | pgbench_accounts |      13878878208
 2017-02-05 09:20:25.144925+01 | 1486282825.14493 | pgbench_tellers  |           450560
 2017-02-05 09:20:25.144925+01 | 1486282825.14493 | pgbench_history  |                0
 2017-02-05 09:20:25.144925+01 | 1486282825.14493 | pgbench_branches |            40960

 2017-02-05 09:20:26.222914+01 | 1486282826.22291 | pgbench_accounts |      13878878208
 2017-02-05 09:20:26.222914+01 | 1486282826.22291 | pgbench_tellers  |           450560
 2017-02-05 09:20:26.222914+01 | 1486282826.22291 | pgbench_history  |                0
 2017-02-05 09:20:26.222914+01 | 1486282826.22291 | pgbench_branches |            40960

 2017-02-05 09:20:27.297269+01 | 1486282827.29727 | pgbench_accounts |      13878878208
 2017-02-05 09:20:27.297269+01 | 1486282827.29727 | pgbench_tellers  |           450560
 2017-02-05 09:20:27.297269+01 | 1486282827.29727 | pgbench_history  |                0
 2017-02-05 09:20:27.297269+01 | 1486282827.29727 | pgbench_branches |            40960

 2017-02-05 09:20:28.388469+01 | 1486282828.38847 | pgbench_accounts |      13878878208
 2017-02-05 09:20:28.388469+01 | 1486282828.38847 | pgbench_tellers  |           450560
 2017-02-05 09:20:28.388469+01 | 1486282828.38847 | pgbench_history  |                0
 2017-02-05 09:20:28.388469+01 | 1486282828.38847 | pgbench_branches |            40960

 2017-02-05 09:20:29.483582+01 | 1486282829.48358 | pgbench_accounts |      13878878208
 2017-02-05 09:20:29.483582+01 | 1486282829.48358 | pgbench_tellers  |           450560
 2017-02-05 09:20:29.483582+01 | 1486282829.48358 | pgbench_history  |                0
 2017-02-05 09:20:29.483582+01 | 1486282829.48358 | pgbench_branches |            40960

 2017-02-05 09:20:30.573285+01 | 1486282830.57329 | pgbench_accounts |      13878878208
 2017-02-05 09:20:30.573285+01 | 1486282830.57329 | pgbench_tellers  |           450560
 2017-02-05 09:20:30.573285+01 | 1486282830.57329 | pgbench_history  |                0
 2017-02-05 09:20:30.573285+01 | 1486282830.57329 | pgbench_branches |            40960

 2017-02-05 09:20:31.672243+01 | 1486282831.67224 | pgbench_accounts |      13878878208
 2017-02-05 09:20:31.672243+01 | 1486282831.67224 | pgbench_tellers  |           450560
 2017-02-05 09:20:31.672243+01 | 1486282831.67224 | pgbench_history  |                0
 2017-02-05 09:20:31.672243+01 | 1486282831.67224 | pgbench_branches |            40960

 2017-02-05 09:20:32.774011+01 | 1486282832.77401 | pgbench_accounts |      13878878208
 2017-02-05 09:20:32.774011+01 | 1486282832.77401 | pgbench_tellers  |           450560
 2017-02-05 09:20:32.774011+01 | 1486282832.77401 | pgbench_history  |                0
 2017-02-05 09:20:32.774011+01 | 1486282832.77401 | pgbench_branches |            40960

 2017-02-05 09:20:33.876481+01 | 1486282833.87648 | pgbench_accounts |      13878878208
 2017-02-05 09:20:33.876481+01 | 1486282833.87648 | pgbench_tellers  |           450560
 2017-02-05 09:20:33.876481+01 | 1486282833.87648 | pgbench_history  |                0
 2017-02-05 09:20:33.876481+01 | 1486282833.87648 | pgbench_branches |            40960

 2017-02-05 09:20:34.973505+01 | 1486282834.97351 | pgbench_accounts |      13878878208
 2017-02-05 09:20:34.973505+01 | 1486282834.97351 | pgbench_tellers  |           450560
 2017-02-05 09:20:34.973505+01 | 1486282834.97351 | pgbench_history  |                0
 2017-02-05 09:20:34.973505+01 | 1486282834.97351 | pgbench_branches |            40960

 2017-02-05 09:20:36.058236+01 | 1486282836.05824 | pgbench_accounts |      13878878208
 2017-02-05 09:20:36.058236+01 | 1486282836.05824 | pgbench_tellers  |           450560
 2017-02-05 09:20:36.058236+01 | 1486282836.05824 | pgbench_history  |                0
 2017-02-05 09:20:36.058236+01 | 1486282836.05824 | pgbench_branches |            40960

 2017-02-05 09:20:37.141292+01 | 1486282837.14129 | pgbench_accounts |      13878878208
 2017-02-05 09:20:37.141292+01 | 1486282837.14129 | pgbench_tellers  |           450560
 2017-02-05 09:20:37.141292+01 | 1486282837.14129 | pgbench_history  |                0
 2017-02-05 09:20:37.141292+01 | 1486282837.14129 | pgbench_branches |            40960

 2017-02-05 09:20:38.240447+01 | 1486282838.24045 | pgbench_accounts |      13878878208
 2017-02-05 09:20:38.240447+01 | 1486282838.24045 | pgbench_tellers  |           450560
 2017-02-05 09:20:38.240447+01 | 1486282838.24045 | pgbench_history  |                0
 2017-02-05 09:20:38.240447+01 | 1486282838.24045 | pgbench_branches |            40960

 2017-02-05 09:20:39.354468+01 | 1486282839.35447 | pgbench_accounts |      13878878208
 2017-02-05 09:20:39.354468+01 | 1486282839.35447 | pgbench_tellers  |           450560
 2017-02-05 09:20:39.354468+01 | 1486282839.35447 | pgbench_history  |                0
 2017-02-05 09:20:39.354468+01 | 1486282839.35447 | pgbench_branches |            40960

 2017-02-05 09:20:40.433508+01 | 1486282840.43351 | pgbench_accounts |      13878878208
 2017-02-05 09:20:40.433508+01 | 1486282840.43351 | pgbench_tellers  |           450560
 2017-02-05 09:20:40.433508+01 | 1486282840.43351 | pgbench_history  |                0
 2017-02-05 09:20:40.433508+01 | 1486282840.43351 | pgbench_branches |            40960

 2017-02-05 09:20:41.516047+01 | 1486282841.51605 | pgbench_accounts |      13878878208
 2017-02-05 09:20:41.516047+01 | 1486282841.51605 | pgbench_tellers  |           450560
 2017-02-05 09:20:41.516047+01 | 1486282841.51605 | pgbench_history  |                0
 2017-02-05 09:20:41.516047+01 | 1486282841.51605 | pgbench_branches |            40960

 2017-02-05 09:20:42.590141+01 | 1486282842.59014 | pgbench_accounts |      13878878208
 2017-02-05 09:20:42.590141+01 | 1486282842.59014 | pgbench_tellers  |           450560
 2017-02-05 09:20:42.590141+01 | 1486282842.59014 | pgbench_history  |                0
 2017-02-05 09:20:42.590141+01 | 1486282842.59014 | pgbench_branches |            40960

 2017-02-05 09:20:43.675924+01 | 1486282843.67592 | pgbench_accounts |      13878878208
 2017-02-05 09:20:43.675924+01 | 1486282843.67592 | pgbench_tellers  |           450560
 2017-02-05 09:20:43.675924+01 | 1486282843.67592 | pgbench_history  |                0
 2017-02-05 09:20:43.675924+01 | 1486282843.67592 | pgbench_branches |            40960

 2017-02-05 09:20:44.757706+01 | 1486282844.75771 | pgbench_accounts |      13878878208
 2017-02-05 09:20:44.757706+01 | 1486282844.75771 | pgbench_tellers  |           450560
 2017-02-05 09:20:44.757706+01 | 1486282844.75771 | pgbench_history  |                0
 2017-02-05 09:20:44.757706+01 | 1486282844.75771 | pgbench_branches |            40960

 2017-02-05 09:20:45.844364+01 | 1486282845.84436 | pgbench_accounts |      13878878208
 2017-02-05 09:20:45.844364+01 | 1486282845.84436 | pgbench_tellers  |           450560
 2017-02-05 09:20:45.844364+01 | 1486282845.84436 | pgbench_history  |                0
 2017-02-05 09:20:45.844364+01 | 1486282845.84436 | pgbench_branches |            40960

 2017-02-05 09:20:46.932306+01 | 1486282846.93231 | pgbench_accounts |      13878878208
 2017-02-05 09:20:46.932306+01 | 1486282846.93231 | pgbench_tellers  |           450560
 2017-02-05 09:20:46.932306+01 | 1486282846.93231 | pgbench_history  |                0
 2017-02-05 09:20:46.932306+01 | 1486282846.93231 | pgbench_branches |            40960

 2017-02-05 09:20:48.036964+01 | 1486282848.03696 | pgbench_accounts |      13878878208
 2017-02-05 09:20:48.036964+01 | 1486282848.03696 | pgbench_tellers  |           450560
 2017-02-05 09:20:48.036964+01 | 1486282848.03696 | pgbench_history  |                0
 2017-02-05 09:20:48.036964+01 | 1486282848.03696 | pgbench_branches |            40960

 2017-02-05 09:20:49.144615+01 | 1486282849.14461 | pgbench_accounts |      13878878208
 2017-02-05 09:20:49.144615+01 | 1486282849.14461 | pgbench_tellers  |           450560
 2017-02-05 09:20:49.144615+01 | 1486282849.14461 | pgbench_history  |                0
 2017-02-05 09:20:49.144615+01 | 1486282849.14461 | pgbench_branches |            40960

 2017-02-05 09:20:50.244057+01 | 1486282850.24406 | pgbench_accounts |      13878878208
 2017-02-05 09:20:50.244057+01 | 1486282850.24406 | pgbench_tellers  |           450560
 2017-02-05 09:20:50.244057+01 | 1486282850.24406 | pgbench_history  |                0
 2017-02-05 09:20:50.244057+01 | 1486282850.24406 | pgbench_branches |            40960

 2017-02-05 09:20:51.351646+01 | 1486282851.35165 | pgbench_accounts |      13878878208
 2017-02-05 09:20:51.351646+01 | 1486282851.35165 | pgbench_tellers  |           450560
 2017-02-05 09:20:51.351646+01 | 1486282851.35165 | pgbench_history  |                0
 2017-02-05 09:20:51.351646+01 | 1486282851.35165 | pgbench_branches |            40960

 2017-02-05 09:20:52.465267+01 | 1486282852.46527 | pgbench_accounts |      13878878208
 2017-02-05 09:20:52.465267+01 | 1486282852.46527 | pgbench_tellers  |           450560
 2017-02-05 09:20:52.465267+01 | 1486282852.46527 | pgbench_history  |                0
 2017-02-05 09:20:52.465267+01 | 1486282852.46527 | pgbench_branches |            40960

 2017-02-05 09:20:53.549468+01 | 1486282853.54947 | pgbench_accounts |      13878878208
 2017-02-05 09:20:53.549468+01 | 1486282853.54947 | pgbench_tellers  |           450560
 2017-02-05 09:20:53.549468+01 | 1486282853.54947 | pgbench_history  |                0
 2017-02-05 09:20:53.549468+01 | 1486282853.54947 | pgbench_branches |            40960

 2017-02-05 09:20:54.617212+01 | 1486282854.61721 | pgbench_accounts |      13878878208
 2017-02-05 09:20:54.617212+01 | 1486282854.61721 | pgbench_tellers  |           450560
 2017-02-05 09:20:54.617212+01 | 1486282854.61721 | pgbench_history  |                0
 2017-02-05 09:20:54.617212+01 | 1486282854.61721 | pgbench_branches |            40960

 2017-02-05 09:20:55.702617+01 | 1486282855.70262 | pgbench_accounts |      13878878208
 2017-02-05 09:20:55.702617+01 | 1486282855.70262 | pgbench_tellers  |           450560
 2017-02-05 09:20:55.702617+01 | 1486282855.70262 | pgbench_history  |                0
 2017-02-05 09:20:55.702617+01 | 1486282855.70262 | pgbench_branches |            40960

 2017-02-05 09:20:56.78397+01 | 1486282856.78397 | pgbench_accounts |      13878878208
 2017-02-05 09:20:56.78397+01 | 1486282856.78397 | pgbench_tellers  |           450560
 2017-02-05 09:20:56.78397+01 | 1486282856.78397 | pgbench_history  |                0
 2017-02-05 09:20:56.78397+01 | 1486282856.78397 | pgbench_branches |            40960

 2017-02-05 09:20:57.871222+01 | 1486282857.87122 | pgbench_accounts |      13878878208
 2017-02-05 09:20:57.871222+01 | 1486282857.87122 | pgbench_tellers  |           450560
 2017-02-05 09:20:57.871222+01 | 1486282857.87122 | pgbench_history  |                0
 2017-02-05 09:20:57.871222+01 | 1486282857.87122 | pgbench_branches |            40960

 2017-02-05 09:20:58.957629+01 | 1486282858.95763 | pgbench_accounts |      13878878208
 2017-02-05 09:20:58.957629+01 | 1486282858.95763 | pgbench_tellers  |           450560
 2017-02-05 09:20:58.957629+01 | 1486282858.95763 | pgbench_history  |                0
 2017-02-05 09:20:58.957629+01 | 1486282858.95763 | pgbench_branches |            40960

 2017-02-05 09:21:00.044028+01 | 1486282860.04403 | pgbench_accounts |      13878878208
 2017-02-05 09:21:00.044028+01 | 1486282860.04403 | pgbench_tellers  |           450560
 2017-02-05 09:21:00.044028+01 | 1486282860.04403 | pgbench_history  |                0
 2017-02-05 09:21:00.044028+01 | 1486282860.04403 | pgbench_branches |            40960

 2017-02-05 09:21:01.157425+01 | 1486282861.15742 | pgbench_accounts |      13878878208
 2017-02-05 09:21:01.157425+01 | 1486282861.15742 | pgbench_tellers  |           450560
 2017-02-05 09:21:01.157425+01 | 1486282861.15742 | pgbench_history  |                0
 2017-02-05 09:21:01.157425+01 | 1486282861.15742 | pgbench_branches |            40960

 2017-02-05 09:21:02.255123+01 | 1486282862.25512 | pgbench_accounts |      13878878208
 2017-02-05 09:21:02.255123+01 | 1486282862.25512 | pgbench_tellers  |           450560
 2017-02-05 09:21:02.255123+01 | 1486282862.25512 | pgbench_history  |                0
 2017-02-05 09:21:02.255123+01 | 1486282862.25512 | pgbench_branches |            40960

 2017-02-05 09:21:03.362094+01 | 1486282863.36209 | pgbench_accounts |      13878878208
 2017-02-05 09:21:03.362094+01 | 1486282863.36209 | pgbench_tellers  |           450560
 2017-02-05 09:21:03.362094+01 | 1486282863.36209 | pgbench_history  |                0
 2017-02-05 09:21:03.362094+01 | 1486282863.36209 | pgbench_branches |            40960

 2017-02-05 09:21:04.453221+01 | 1486282864.45322 | pgbench_accounts |      13878878208
 2017-02-05 09:21:04.453221+01 | 1486282864.45322 | pgbench_tellers  |           450560
 2017-02-05 09:21:04.453221+01 | 1486282864.45322 | pgbench_history  |                0
 2017-02-05 09:21:04.453221+01 | 1486282864.45322 | pgbench_branches |            40960

 2017-02-05 09:21:05.529742+01 | 1486282865.52974 | pgbench_accounts |      13878878208
 2017-02-05 09:21:05.529742+01 | 1486282865.52974 | pgbench_tellers  |           450560
 2017-02-05 09:21:05.529742+01 | 1486282865.52974 | pgbench_history  |                0
 2017-02-05 09:21:05.529742+01 | 1486282865.52974 | pgbench_branches |            40960

 2017-02-05 09:21:06.613731+01 | 1486282866.61373 | pgbench_accounts |      13878878208
 2017-02-05 09:21:06.613731+01 | 1486282866.61373 | pgbench_tellers  |           450560
 2017-02-05 09:21:06.613731+01 | 1486282866.61373 | pgbench_history  |                0
 2017-02-05 09:21:06.613731+01 | 1486282866.61373 | pgbench_branches |            40960

 2017-02-05 09:21:07.705379+01 | 1486282867.70538 | pgbench_accounts |      13878878208
 2017-02-05 09:21:07.705379+01 | 1486282867.70538 | pgbench_tellers  |           450560
 2017-02-05 09:21:07.705379+01 | 1486282867.70538 | pgbench_history  |                0
 2017-02-05 09:21:07.705379+01 | 1486282867.70538 | pgbench_branches |            40960

 2017-02-05 09:21:08.814437+01 | 1486282868.81444 | pgbench_accounts |      13878878208
 2017-02-05 09:21:08.814437+01 | 1486282868.81444 | pgbench_tellers  |           450560
 2017-02-05 09:21:08.814437+01 | 1486282868.81444 | pgbench_history  |                0
 2017-02-05 09:21:08.814437+01 | 1486282868.81444 | pgbench_branches |            40960

 2017-02-05 09:21:09.909184+01 | 1486282869.90918 | pgbench_accounts |      13878878208
 2017-02-05 09:21:09.909184+01 | 1486282869.90918 | pgbench_tellers  |           450560
 2017-02-05 09:21:09.909184+01 | 1486282869.90918 | pgbench_history  |                0
 2017-02-05 09:21:09.909184+01 | 1486282869.90918 | pgbench_branches |            40960

 2017-02-05 09:21:11.019555+01 | 1486282871.01956 | pgbench_accounts |      13878878208
 2017-02-05 09:21:11.019555+01 | 1486282871.01956 | pgbench_tellers  |           450560
 2017-02-05 09:21:11.019555+01 | 1486282871.01956 | pgbench_history  |                0
 2017-02-05 09:21:11.019555+01 | 1486282871.01956 | pgbench_branches |            40960

 2017-02-05 09:21:12.101709+01 | 1486282872.10171 | pgbench_accounts |      13878878208
 2017-02-05 09:21:12.101709+01 | 1486282872.10171 | pgbench_tellers  |           450560
 2017-02-05 09:21:12.101709+01 | 1486282872.10171 | pgbench_history  |                0
 2017-02-05 09:21:12.101709+01 | 1486282872.10171 | pgbench_branches |            40960

 2017-02-05 09:21:13.183894+01 | 1486282873.18389 | pgbench_accounts |      13878878208
 2017-02-05 09:21:13.183894+01 | 1486282873.18389 | pgbench_tellers  |           450560
 2017-02-05 09:21:13.183894+01 | 1486282873.18389 | pgbench_history  |                0
 2017-02-05 09:21:13.183894+01 | 1486282873.18389 | pgbench_branches |            40960

 2017-02-05 09:21:14.279378+01 | 1486282874.27938 | pgbench_accounts |      13878878208
 2017-02-05 09:21:14.279378+01 | 1486282874.27938 | pgbench_tellers  |           450560
 2017-02-05 09:21:14.279378+01 | 1486282874.27938 | pgbench_history  |                0
 2017-02-05 09:21:14.279378+01 | 1486282874.27938 | pgbench_branches |            40960

 2017-02-05 09:21:15.380418+01 | 1486282875.38042 | pgbench_accounts |      13878878208
 2017-02-05 09:21:15.380418+01 | 1486282875.38042 | pgbench_tellers  |           450560
 2017-02-05 09:21:15.380418+01 | 1486282875.38042 | pgbench_history  |                0
 2017-02-05 09:21:15.380418+01 | 1486282875.38042 | pgbench_branches |            40960

 2017-02-05 09:21:16.458556+01 | 1486282876.45856 | pgbench_accounts |      13878878208
 2017-02-05 09:21:16.458556+01 | 1486282876.45856 | pgbench_tellers  |           450560
 2017-02-05 09:21:16.458556+01 | 1486282876.45856 | pgbench_history  |                0
 2017-02-05 09:21:16.458556+01 | 1486282876.45856 | pgbench_branches |            40960

 2017-02-05 09:21:17.548438+01 | 1486282877.54844 | pgbench_accounts |      13878878208
 2017-02-05 09:21:17.548438+01 | 1486282877.54844 | pgbench_tellers  |           450560
 2017-02-05 09:21:17.548438+01 | 1486282877.54844 | pgbench_history  |                0
 2017-02-05 09:21:17.548438+01 | 1486282877.54844 | pgbench_branches |            40960

 2017-02-05 09:21:18.627624+01 | 1486282878.62762 | pgbench_accounts |      13878878208
 2017-02-05 09:21:18.627624+01 | 1486282878.62762 | pgbench_tellers  |           450560
 2017-02-05 09:21:18.627624+01 | 1486282878.62762 | pgbench_history  |                0
 2017-02-05 09:21:18.627624+01 | 1486282878.62762 | pgbench_branches |            40960

 2017-02-05 09:21:19.719591+01 | 1486282879.71959 | pgbench_accounts |      13878878208
 2017-02-05 09:21:19.719591+01 | 1486282879.71959 | pgbench_tellers  |           450560
 2017-02-05 09:21:19.719591+01 | 1486282879.71959 | pgbench_history  |                0
 2017-02-05 09:21:19.719591+01 | 1486282879.71959 | pgbench_branches |            40960

 2017-02-05 09:21:20.812111+01 | 1486282880.81211 | pgbench_accounts |      13878878208
 2017-02-05 09:21:20.812111+01 | 1486282880.81211 | pgbench_tellers  |           450560
 2017-02-05 09:21:20.812111+01 | 1486282880.81211 | pgbench_history  |                0
 2017-02-05 09:21:20.812111+01 | 1486282880.81211 | pgbench_branches |            40960

 2017-02-05 09:21:21.902493+01 | 1486282881.90249 | pgbench_accounts |      13878878208
 2017-02-05 09:21:21.902493+01 | 1486282881.90249 | pgbench_tellers  |           450560
 2017-02-05 09:21:21.902493+01 | 1486282881.90249 | pgbench_history  |                0
 2017-02-05 09:21:21.902493+01 | 1486282881.90249 | pgbench_branches |            40960

 2017-02-05 09:21:23.005577+01 | 1486282883.00558 | pgbench_accounts |      13878878208
 2017-02-05 09:21:23.005577+01 | 1486282883.00558 | pgbench_tellers  |           450560
 2017-02-05 09:21:23.005577+01 | 1486282883.00558 | pgbench_history  |                0
 2017-02-05 09:21:23.005577+01 | 1486282883.00558 | pgbench_branches |            40960

 2017-02-05 09:21:24.119591+01 | 1486282884.11959 | pgbench_accounts |      13878878208
 2017-02-05 09:21:24.119591+01 | 1486282884.11959 | pgbench_tellers  |           450560
 2017-02-05 09:21:24.119591+01 | 1486282884.11959 | pgbench_history  |                0
 2017-02-05 09:21:24.119591+01 | 1486282884.11959 | pgbench_branches |            40960

 2017-02-05 09:21:25.214618+01 | 1486282885.21462 | pgbench_accounts |      13878878208
 2017-02-05 09:21:25.214618+01 | 1486282885.21462 | pgbench_tellers  |           450560
 2017-02-05 09:21:25.214618+01 | 1486282885.21462 | pgbench_history  |                0
 2017-02-05 09:21:25.214618+01 | 1486282885.21462 | pgbench_branches |            40960

 2017-02-05 09:21:26.304599+01 | 1486282886.3046 | pgbench_accounts |      13878878208
 2017-02-05 09:21:26.304599+01 | 1486282886.3046 | pgbench_tellers  |           450560
 2017-02-05 09:21:26.304599+01 | 1486282886.3046 | pgbench_history  |                0
 2017-02-05 09:21:26.304599+01 | 1486282886.3046 | pgbench_branches |            40960

 2017-02-05 09:21:27.398818+01 | 1486282887.39882 | pgbench_accounts |      13878878208
 2017-02-05 09:21:27.398818+01 | 1486282887.39882 | pgbench_tellers  |           450560
 2017-02-05 09:21:27.398818+01 | 1486282887.39882 | pgbench_history  |                0
 2017-02-05 09:21:27.398818+01 | 1486282887.39882 | pgbench_branches |            40960

 2017-02-05 09:21:28.483515+01 | 1486282888.48352 | pgbench_accounts |      13878878208
 2017-02-05 09:21:28.483515+01 | 1486282888.48352 | pgbench_tellers  |           450560
 2017-02-05 09:21:28.483515+01 | 1486282888.48352 | pgbench_history  |                0
 2017-02-05 09:21:28.483515+01 | 1486282888.48352 | pgbench_branches |            40960

 2017-02-05 09:21:29.57098+01 | 1486282889.57098 | pgbench_accounts |      13878878208
 2017-02-05 09:21:29.57098+01 | 1486282889.57098 | pgbench_tellers  |           450560
 2017-02-05 09:21:29.57098+01 | 1486282889.57098 | pgbench_history  |                0
 2017-02-05 09:21:29.57098+01 | 1486282889.57098 | pgbench_branches |            40960

 2017-02-05 09:21:30.686861+01 | 1486282890.68686 | pgbench_accounts |      13878878208
 2017-02-05 09:21:30.686861+01 | 1486282890.68686 | pgbench_tellers  |           450560
 2017-02-05 09:21:30.686861+01 | 1486282890.68686 | pgbench_history  |                0
 2017-02-05 09:21:30.686861+01 | 1486282890.68686 | pgbench_branches |            40960

 2017-02-05 09:21:31.786855+01 | 1486282891.78685 | pgbench_accounts |      13878878208
 2017-02-05 09:21:31.786855+01 | 1486282891.78685 | pgbench_tellers  |           450560
 2017-02-05 09:21:31.786855+01 | 1486282891.78685 | pgbench_history  |                0
 2017-02-05 09:21:31.786855+01 | 1486282891.78685 | pgbench_branches |            40960

 2017-02-05 09:21:32.895351+01 | 1486282892.89535 | pgbench_accounts |      13878878208
 2017-02-05 09:21:32.895351+01 | 1486282892.89535 | pgbench_tellers  |           450560
 2017-02-05 09:21:32.895351+01 | 1486282892.89535 | pgbench_history  |                0
 2017-02-05 09:21:32.895351+01 | 1486282892.89535 | pgbench_branches |            40960

 2017-02-05 09:21:33.971634+01 | 1486282893.97163 | pgbench_accounts |      13878878208
 2017-02-05 09:21:33.971634+01 | 1486282893.97163 | pgbench_tellers  |           450560
 2017-02-05 09:21:33.971634+01 | 1486282893.97163 | pgbench_history  |                0
 2017-02-05 09:21:33.971634+01 | 1486282893.97163 | pgbench_branches |            40960

 2017-02-05 09:21:35.052152+01 | 1486282895.05215 | pgbench_accounts |      13878878208
 2017-02-05 09:21:35.052152+01 | 1486282895.05215 | pgbench_tellers  |           450560
 2017-02-05 09:21:35.052152+01 | 1486282895.05215 | pgbench_history  |                0
 2017-02-05 09:21:35.052152+01 | 1486282895.05215 | pgbench_branches |            40960

 2017-02-05 09:21:36.127882+01 | 1486282896.12788 | pgbench_accounts |      13878878208
 2017-02-05 09:21:36.127882+01 | 1486282896.12788 | pgbench_tellers  |           450560
 2017-02-05 09:21:36.127882+01 | 1486282896.12788 | pgbench_history  |                0
 2017-02-05 09:21:36.127882+01 | 1486282896.12788 | pgbench_branches |            40960

 2017-02-05 09:21:37.214593+01 | 1486282897.21459 | pgbench_accounts |      13878878208
 2017-02-05 09:21:37.214593+01 | 1486282897.21459 | pgbench_tellers  |           450560
 2017-02-05 09:21:37.214593+01 | 1486282897.21459 | pgbench_history  |                0
 2017-02-05 09:21:37.214593+01 | 1486282897.21459 | pgbench_branches |            40960

 2017-02-05 09:21:38.308754+01 | 1486282898.30875 | pgbench_accounts |      13878878208
 2017-02-05 09:21:38.308754+01 | 1486282898.30875 | pgbench_tellers  |           450560
 2017-02-05 09:21:38.308754+01 | 1486282898.30875 | pgbench_history  |                0
 2017-02-05 09:21:38.308754+01 | 1486282898.30875 | pgbench_branches |            40960

 2017-02-05 09:21:39.418072+01 | 1486282899.41807 | pgbench_accounts |      13878878208
 2017-02-05 09:21:39.418072+01 | 1486282899.41807 | pgbench_tellers  |           450560
 2017-02-05 09:21:39.418072+01 | 1486282899.41807 | pgbench_history  |                0
 2017-02-05 09:21:39.418072+01 | 1486282899.41807 | pgbench_branches |            40960

 2017-02-05 09:21:40.525028+01 | 1486282900.52503 | pgbench_accounts |      13878878208
 2017-02-05 09:21:40.525028+01 | 1486282900.52503 | pgbench_tellers  |           450560
 2017-02-05 09:21:40.525028+01 | 1486282900.52503 | pgbench_history  |                0
 2017-02-05 09:21:40.525028+01 | 1486282900.52503 | pgbench_branches |            40960

 2017-02-05 09:21:41.637378+01 | 1486282901.63738 | pgbench_accounts |      13878878208
 2017-02-05 09:21:41.637378+01 | 1486282901.63738 | pgbench_tellers  |           450560
 2017-02-05 09:21:41.637378+01 | 1486282901.63738 | pgbench_history  |                0
 2017-02-05 09:21:41.637378+01 | 1486282901.63738 | pgbench_branches |            40960

 2017-02-05 09:21:42.74238+01 | 1486282902.74238 | pgbench_accounts |      13878878208
 2017-02-05 09:21:42.74238+01 | 1486282902.74238 | pgbench_tellers  |           450560
 2017-02-05 09:21:42.74238+01 | 1486282902.74238 | pgbench_history  |                0
 2017-02-05 09:21:42.74238+01 | 1486282902.74238 | pgbench_branches |            40960

 2017-02-05 09:21:43.843467+01 | 1486282903.84347 | pgbench_accounts |      13878878208
 2017-02-05 09:21:43.843467+01 | 1486282903.84347 | pgbench_tellers  |           450560
 2017-02-05 09:21:43.843467+01 | 1486282903.84347 | pgbench_history  |                0
 2017-02-05 09:21:43.843467+01 | 1486282903.84347 | pgbench_branches |            40960

 2017-02-05 09:21:44.93171+01 | 1486282904.93171 | pgbench_accounts |      13878878208
 2017-02-05 09:21:44.93171+01 | 1486282904.93171 | pgbench_tellers  |           450560
 2017-02-05 09:21:44.93171+01 | 1486282904.93171 | pgbench_history  |                0
 2017-02-05 09:21:44.93171+01 | 1486282904.93171 | pgbench_branches |            40960

 2017-02-05 09:21:46.01785+01 | 1486282906.01785 | pgbench_accounts |      13878878208
 2017-02-05 09:21:46.01785+01 | 1486282906.01785 | pgbench_tellers  |           450560
 2017-02-05 09:21:46.01785+01 | 1486282906.01785 | pgbench_history  |                0
 2017-02-05 09:21:46.01785+01 | 1486282906.01785 | pgbench_branches |            40960

 2017-02-05 09:21:47.107286+01 | 1486282907.10729 | pgbench_accounts |      13878878208
 2017-02-05 09:21:47.107286+01 | 1486282907.10729 | pgbench_tellers  |           450560
 2017-02-05 09:21:47.107286+01 | 1486282907.10729 | pgbench_history  |                0
 2017-02-05 09:21:47.107286+01 | 1486282907.10729 | pgbench_branches |            40960

 2017-02-05 09:21:48.189699+01 | 1486282908.1897 | pgbench_accounts |      13878878208
 2017-02-05 09:21:48.189699+01 | 1486282908.1897 | pgbench_tellers  |           450560
 2017-02-05 09:21:48.189699+01 | 1486282908.1897 | pgbench_history  |                0
 2017-02-05 09:21:48.189699+01 | 1486282908.1897 | pgbench_branches |            40960

 2017-02-05 09:21:49.29172+01 | 1486282909.29172 | pgbench_accounts |      13878878208
 2017-02-05 09:21:49.29172+01 | 1486282909.29172 | pgbench_tellers  |           450560
 2017-02-05 09:21:49.29172+01 | 1486282909.29172 | pgbench_history  |                0
 2017-02-05 09:21:49.29172+01 | 1486282909.29172 | pgbench_branches |            40960

 2017-02-05 09:21:50.393215+01 | 1486282910.39321 | pgbench_accounts |      13878878208
 2017-02-05 09:21:50.393215+01 | 1486282910.39321 | pgbench_tellers  |           450560
 2017-02-05 09:21:50.393215+01 | 1486282910.39321 | pgbench_history  |                0
 2017-02-05 09:21:50.393215+01 | 1486282910.39321 | pgbench_branches |            40960

 2017-02-05 09:21:51.503779+01 | 1486282911.50378 | pgbench_accounts |      13878878208
 2017-02-05 09:21:51.503779+01 | 1486282911.50378 | pgbench_tellers  |           450560
 2017-02-05 09:21:51.503779+01 | 1486282911.50378 | pgbench_history  |                0
 2017-02-05 09:21:51.503779+01 | 1486282911.50378 | pgbench_branches |            40960

 2017-02-05 09:21:52.62118+01 | 1486282912.62118 | pgbench_accounts |      13878878208
 2017-02-05 09:21:52.62118+01 | 1486282912.62118 | pgbench_tellers  |           450560
 2017-02-05 09:21:52.62118+01 | 1486282912.62118 | pgbench_history  |                0
 2017-02-05 09:21:52.62118+01 | 1486282912.62118 | pgbench_branches |            40960

 2017-02-05 09:21:53.704241+01 | 1486282913.70424 | pgbench_accounts |      13878878208
 2017-02-05 09:21:53.704241+01 | 1486282913.70424 | pgbench_tellers  |           450560
 2017-02-05 09:21:53.704241+01 | 1486282913.70424 | pgbench_history  |                0
 2017-02-05 09:21:53.704241+01 | 1486282913.70424 | pgbench_branches |            40960

 2017-02-05 09:21:54.780784+01 | 1486282914.78078 | pgbench_accounts |      13878878208
 2017-02-05 09:21:54.780784+01 | 1486282914.78078 | pgbench_tellers  |           450560
 2017-02-05 09:21:54.780784+01 | 1486282914.78078 | pgbench_history  |                0
 2017-02-05 09:21:54.780784+01 | 1486282914.78078 | pgbench_branches |            40960

 2017-02-05 09:21:55.860525+01 | 1486282915.86052 | pgbench_accounts |      13878878208
 2017-02-05 09:21:55.860525+01 | 1486282915.86052 | pgbench_tellers  |           450560
 2017-02-05 09:21:55.860525+01 | 1486282915.86052 | pgbench_history  |                0
 2017-02-05 09:21:55.860525+01 | 1486282915.86052 | pgbench_branches |            40960

 2017-02-05 09:21:56.962964+01 | 1486282916.96296 | pgbench_accounts |      13878878208
 2017-02-05 09:21:56.962964+01 | 1486282916.96296 | pgbench_tellers  |           450560
 2017-02-05 09:21:56.962964+01 | 1486282916.96296 | pgbench_history  |                0
 2017-02-05 09:21:56.962964+01 | 1486282916.96296 | pgbench_branches |            40960

 2017-02-05 09:21:58.069594+01 | 1486282918.06959 | pgbench_accounts |      13878878208
 2017-02-05 09:21:58.069594+01 | 1486282918.06959 | pgbench_tellers  |           450560
 2017-02-05 09:21:58.069594+01 | 1486282918.06959 | pgbench_history  |                0
 2017-02-05 09:21:58.069594+01 | 1486282918.06959 | pgbench_branches |            40960

 2017-02-05 09:21:59.163731+01 | 1486282919.16373 | pgbench_accounts |      13878878208
 2017-02-05 09:21:59.163731+01 | 1486282919.16373 | pgbench_tellers  |           450560
 2017-02-05 09:21:59.163731+01 | 1486282919.16373 | pgbench_history  |                0
 2017-02-05 09:21:59.163731+01 | 1486282919.16373 | pgbench_branches |            40960

 2017-02-05 09:22:00.263937+01 | 1486282920.26394 | pgbench_accounts |      13878878208
 2017-02-05 09:22:00.263937+01 | 1486282920.26394 | pgbench_tellers  |           450560
 2017-02-05 09:22:00.263937+01 | 1486282920.26394 | pgbench_history  |                0
 2017-02-05 09:22:00.263937+01 | 1486282920.26394 | pgbench_branches |            40960

 2017-02-05 09:22:01.376672+01 | 1486282921.37667 | pgbench_accounts |      13878878208
 2017-02-05 09:22:01.376672+01 | 1486282921.37667 | pgbench_tellers  |           450560
 2017-02-05 09:22:01.376672+01 | 1486282921.37667 | pgbench_history  |                0
 2017-02-05 09:22:01.376672+01 | 1486282921.37667 | pgbench_branches |            40960

 2017-02-05 09:22:02.472092+01 | 1486282922.47209 | pgbench_accounts |      13878878208
 2017-02-05 09:22:02.472092+01 | 1486282922.47209 | pgbench_tellers  |           450560
 2017-02-05 09:22:02.472092+01 | 1486282922.47209 | pgbench_history  |                0
 2017-02-05 09:22:02.472092+01 | 1486282922.47209 | pgbench_branches |            40960

 2017-02-05 09:22:03.577848+01 | 1486282923.57785 | pgbench_accounts |      13878878208
 2017-02-05 09:22:03.577848+01 | 1486282923.57785 | pgbench_tellers  |           450560
 2017-02-05 09:22:03.577848+01 | 1486282923.57785 | pgbench_history  |                0
 2017-02-05 09:22:03.577848+01 | 1486282923.57785 | pgbench_branches |            40960

 2017-02-05 09:22:04.679504+01 | 1486282924.6795 | pgbench_accounts |      13878878208
 2017-02-05 09:22:04.679504+01 | 1486282924.6795 | pgbench_tellers  |           450560
 2017-02-05 09:22:04.679504+01 | 1486282924.6795 | pgbench_history  |                0
 2017-02-05 09:22:04.679504+01 | 1486282924.6795 | pgbench_branches |            40960

 2017-02-05 09:22:05.790731+01 | 1486282925.79073 | pgbench_accounts |      13878878208
 2017-02-05 09:22:05.790731+01 | 1486282925.79073 | pgbench_tellers  |           450560
 2017-02-05 09:22:05.790731+01 | 1486282925.79073 | pgbench_history  |                0
 2017-02-05 09:22:05.790731+01 | 1486282925.79073 | pgbench_branches |            40960

 2017-02-05 09:22:06.895194+01 | 1486282926.89519 | pgbench_accounts |      13878878208
 2017-02-05 09:22:06.895194+01 | 1486282926.89519 | pgbench_tellers  |           450560
 2017-02-05 09:22:06.895194+01 | 1486282926.89519 | pgbench_history  |                0
 2017-02-05 09:22:06.895194+01 | 1486282926.89519 | pgbench_branches |            40960

 2017-02-05 09:22:07.99515+01 | 1486282927.99515 | pgbench_accounts |      13878878208
 2017-02-05 09:22:07.99515+01 | 1486282927.99515 | pgbench_tellers  |           450560
 2017-02-05 09:22:07.99515+01 | 1486282927.99515 | pgbench_history  |                0
 2017-02-05 09:22:07.99515+01 | 1486282927.99515 | pgbench_branches |            40960

 2017-02-05 09:22:09.106496+01 | 1486282929.1065 | pgbench_accounts |      13878878208
 2017-02-05 09:22:09.106496+01 | 1486282929.1065 | pgbench_tellers  |           450560
 2017-02-05 09:22:09.106496+01 | 1486282929.1065 | pgbench_history  |                0
 2017-02-05 09:22:09.106496+01 | 1486282929.1065 | pgbench_branches |            40960

 2017-02-05 09:22:10.223238+01 | 1486282930.22324 | pgbench_accounts |      13878878208
 2017-02-05 09:22:10.223238+01 | 1486282930.22324 | pgbench_tellers  |           450560
 2017-02-05 09:22:10.223238+01 | 1486282930.22324 | pgbench_history  |                0
 2017-02-05 09:22:10.223238+01 | 1486282930.22324 | pgbench_branches |            40960

 2017-02-05 09:22:11.308761+01 | 1486282931.30876 | pgbench_accounts |      13878878208
 2017-02-05 09:22:11.308761+01 | 1486282931.30876 | pgbench_tellers  |           450560
 2017-02-05 09:22:11.308761+01 | 1486282931.30876 | pgbench_history  |                0
 2017-02-05 09:22:11.308761+01 | 1486282931.30876 | pgbench_branches |            40960

 2017-02-05 09:22:12.384838+01 | 1486282932.38484 | pgbench_accounts |      13878878208
 2017-02-05 09:22:12.384838+01 | 1486282932.38484 | pgbench_tellers  |           450560
 2017-02-05 09:22:12.384838+01 | 1486282932.38484 | pgbench_history  |                0
 2017-02-05 09:22:12.384838+01 | 1486282932.38484 | pgbench_branches |            40960

 2017-02-05 09:22:13.480351+01 | 1486282933.48035 | pgbench_accounts |      13878878208
 2017-02-05 09:22:13.480351+01 | 1486282933.48035 | pgbench_tellers  |           450560
 2017-02-05 09:22:13.480351+01 | 1486282933.48035 | pgbench_history  |                0
 2017-02-05 09:22:13.480351+01 | 1486282933.48035 | pgbench_branches |            40960

 2017-02-05 09:22:14.552632+01 | 1486282934.55263 | pgbench_accounts |      13878878208
 2017-02-05 09:22:14.552632+01 | 1486282934.55263 | pgbench_tellers  |           450560
 2017-02-05 09:22:14.552632+01 | 1486282934.55263 | pgbench_history  |                0
 2017-02-05 09:22:14.552632+01 | 1486282934.55263 | pgbench_branches |            40960

 2017-02-05 09:22:15.619355+01 | 1486282935.61935 | pgbench_accounts |      13878878208
 2017-02-05 09:22:15.619355+01 | 1486282935.61935 | pgbench_tellers  |           450560
 2017-02-05 09:22:15.619355+01 | 1486282935.61935 | pgbench_history  |                0
 2017-02-05 09:22:15.619355+01 | 1486282935.61935 | pgbench_branches |            40960

 2017-02-05 09:22:16.687915+01 | 1486282936.68792 | pgbench_accounts |      13878878208
 2017-02-05 09:22:16.687915+01 | 1486282936.68792 | pgbench_tellers  |           450560
 2017-02-05 09:22:16.687915+01 | 1486282936.68792 | pgbench_history  |                0
 2017-02-05 09:22:16.687915+01 | 1486282936.68792 | pgbench_branches |            40960

 2017-02-05 09:22:17.755399+01 | 1486282937.7554 | pgbench_accounts |      13878878208
 2017-02-05 09:22:17.755399+01 | 1486282937.7554 | pgbench_tellers  |           450560
 2017-02-05 09:22:17.755399+01 | 1486282937.7554 | pgbench_history  |                0
 2017-02-05 09:22:17.755399+01 | 1486282937.7554 | pgbench_branches |            40960

 2017-02-05 09:22:18.832579+01 | 1486282938.83258 | pgbench_accounts |      13878878208
 2017-02-05 09:22:18.832579+01 | 1486282938.83258 | pgbench_tellers  |           450560
 2017-02-05 09:22:18.832579+01 | 1486282938.83258 | pgbench_history  |                0
 2017-02-05 09:22:18.832579+01 | 1486282938.83258 | pgbench_branches |            40960

 2017-02-05 09:22:19.905687+01 | 1486282939.90569 | pgbench_accounts |      13878878208
 2017-02-05 09:22:19.905687+01 | 1486282939.90569 | pgbench_tellers  |           450560
 2017-02-05 09:22:19.905687+01 | 1486282939.90569 | pgbench_history  |                0
 2017-02-05 09:22:19.905687+01 | 1486282939.90569 | pgbench_branches |            40960

 2017-02-05 09:22:20.986073+01 | 1486282940.98607 | pgbench_accounts |      13878878208
 2017-02-05 09:22:20.986073+01 | 1486282940.98607 | pgbench_tellers  |           450560
 2017-02-05 09:22:20.986073+01 | 1486282940.98607 | pgbench_history  |                0
 2017-02-05 09:22:20.986073+01 | 1486282940.98607 | pgbench_branches |            40960

 2017-02-05 09:22:22.06846+01 | 1486282942.06846 | pgbench_accounts |      13878878208
 2017-02-05 09:22:22.06846+01 | 1486282942.06846 | pgbench_tellers  |           450560
 2017-02-05 09:22:22.06846+01 | 1486282942.06846 | pgbench_history  |                0
 2017-02-05 09:22:22.06846+01 | 1486282942.06846 | pgbench_branches |            40960

 2017-02-05 09:22:23.160996+01 | 1486282943.161 | pgbench_accounts |      13878878208
 2017-02-05 09:22:23.160996+01 | 1486282943.161 | pgbench_tellers  |           450560
 2017-02-05 09:22:23.160996+01 | 1486282943.161 | pgbench_history  |                0
 2017-02-05 09:22:23.160996+01 | 1486282943.161 | pgbench_branches |            40960

 2017-02-05 09:22:24.26924+01 | 1486282944.26924 | pgbench_accounts |      13878878208
 2017-02-05 09:22:24.26924+01 | 1486282944.26924 | pgbench_tellers  |           450560
 2017-02-05 09:22:24.26924+01 | 1486282944.26924 | pgbench_history  |                0
 2017-02-05 09:22:24.26924+01 | 1486282944.26924 | pgbench_branches |            40960

 2017-02-05 09:22:25.374327+01 | 1486282945.37433 | pgbench_accounts |      13878878208
 2017-02-05 09:22:25.374327+01 | 1486282945.37433 | pgbench_tellers  |           450560
 2017-02-05 09:22:25.374327+01 | 1486282945.37433 | pgbench_history  |                0
 2017-02-05 09:22:25.374327+01 | 1486282945.37433 | pgbench_branches |            40960

 2017-02-05 09:22:26.481319+01 | 1486282946.48132 | pgbench_accounts |      13878878208
 2017-02-05 09:22:26.481319+01 | 1486282946.48132 | pgbench_tellers  |           450560
 2017-02-05 09:22:26.481319+01 | 1486282946.48132 | pgbench_history  |                0
 2017-02-05 09:22:26.481319+01 | 1486282946.48132 | pgbench_branches |            40960

 2017-02-05 09:22:27.596046+01 | 1486282947.59605 | pgbench_accounts |      13878878208
 2017-02-05 09:22:27.596046+01 | 1486282947.59605 | pgbench_tellers  |           450560
 2017-02-05 09:22:27.596046+01 | 1486282947.59605 | pgbench_history  |                0
 2017-02-05 09:22:27.596046+01 | 1486282947.59605 | pgbench_branches |            40960

 2017-02-05 09:22:28.698125+01 | 1486282948.69812 | pgbench_accounts |      13878878208
 2017-02-05 09:22:28.698125+01 | 1486282948.69812 | pgbench_tellers  |           450560
 2017-02-05 09:22:28.698125+01 | 1486282948.69812 | pgbench_history  |                0
 2017-02-05 09:22:28.698125+01 | 1486282948.69812 | pgbench_branches |            40960

 2017-02-05 09:22:29.79794+01 | 1486282949.79794 | pgbench_accounts |      13878878208
 2017-02-05 09:22:29.79794+01 | 1486282949.79794 | pgbench_tellers  |           450560
 2017-02-05 09:22:29.79794+01 | 1486282949.79794 | pgbench_history  |                0
 2017-02-05 09:22:29.79794+01 | 1486282949.79794 | pgbench_branches |            40960

 2017-02-05 09:22:30.896267+01 | 1486282950.89627 | pgbench_accounts |      13878878208
 2017-02-05 09:22:30.896267+01 | 1486282950.89627 | pgbench_tellers  |           450560
 2017-02-05 09:22:30.896267+01 | 1486282950.89627 | pgbench_history  |                0
 2017-02-05 09:22:30.896267+01 | 1486282950.89627 | pgbench_branches |            40960

 2017-02-05 09:22:32.013511+01 | 1486282952.01351 | pgbench_accounts |      13878878208
 2017-02-05 09:22:32.013511+01 | 1486282952.01351 | pgbench_tellers  |           450560
 2017-02-05 09:22:32.013511+01 | 1486282952.01351 | pgbench_history  |                0
 2017-02-05 09:22:32.013511+01 | 1486282952.01351 | pgbench_branches |            40960

 2017-02-05 09:22:33.124514+01 | 1486282953.12451 | pgbench_accounts |      13878878208
 2017-02-05 09:22:33.124514+01 | 1486282953.12451 | pgbench_tellers  |           450560
 2017-02-05 09:22:33.124514+01 | 1486282953.12451 | pgbench_history  |                0
 2017-02-05 09:22:33.124514+01 | 1486282953.12451 | pgbench_branches |            40960

 2017-02-05 09:22:34.229751+01 | 1486282954.22975 | pgbench_accounts |      13878878208
 2017-02-05 09:22:34.229751+01 | 1486282954.22975 | pgbench_tellers  |           450560
 2017-02-05 09:22:34.229751+01 | 1486282954.22975 | pgbench_history  |                0
 2017-02-05 09:22:34.229751+01 | 1486282954.22975 | pgbench_branches |            40960

 2017-02-05 09:22:35.336758+01 | 1486282955.33676 | pgbench_accounts |      13878878208
 2017-02-05 09:22:35.336758+01 | 1486282955.33676 | pgbench_tellers  |           450560
 2017-02-05 09:22:35.336758+01 | 1486282955.33676 | pgbench_history  |                0
 2017-02-05 09:22:35.336758+01 | 1486282955.33676 | pgbench_branches |            40960

 2017-02-05 09:22:36.440933+01 | 1486282956.44093 | pgbench_accounts |      13878878208
 2017-02-05 09:22:36.440933+01 | 1486282956.44093 | pgbench_tellers  |           450560
 2017-02-05 09:22:36.440933+01 | 1486282956.44093 | pgbench_history  |                0
 2017-02-05 09:22:36.440933+01 | 1486282956.44093 | pgbench_branches |            40960

 2017-02-05 09:22:37.553168+01 | 1486282957.55317 | pgbench_accounts |      13878878208
 2017-02-05 09:22:37.553168+01 | 1486282957.55317 | pgbench_tellers  |           450560
 2017-02-05 09:22:37.553168+01 | 1486282957.55317 | pgbench_history  |                0
 2017-02-05 09:22:37.553168+01 | 1486282957.55317 | pgbench_branches |            40960

 2017-02-05 09:22:38.661201+01 | 1486282958.6612 | pgbench_accounts |      13878878208
 2017-02-05 09:22:38.661201+01 | 1486282958.6612 | pgbench_tellers  |           450560
 2017-02-05 09:22:38.661201+01 | 1486282958.6612 | pgbench_history  |                0
 2017-02-05 09:22:38.661201+01 | 1486282958.6612 | pgbench_branches |            40960

 2017-02-05 09:22:39.768649+01 | 1486282959.76865 | pgbench_accounts |      13878878208
 2017-02-05 09:22:39.768649+01 | 1486282959.76865 | pgbench_tellers  |           450560
 2017-02-05 09:22:39.768649+01 | 1486282959.76865 | pgbench_history  |                0
 2017-02-05 09:22:39.768649+01 | 1486282959.76865 | pgbench_branches |            40960

 2017-02-05 09:22:40.857+01 | 1486282960.857 | pgbench_accounts |      13878878208
 2017-02-05 09:22:40.857+01 | 1486282960.857 | pgbench_tellers  |           450560
 2017-02-05 09:22:40.857+01 | 1486282960.857 | pgbench_history  |                0
 2017-02-05 09:22:40.857+01 | 1486282960.857 | pgbench_branches |            40960

 2017-02-05 09:22:41.932993+01 | 1486282961.93299 | pgbench_accounts |      13878878208
 2017-02-05 09:22:41.932993+01 | 1486282961.93299 | pgbench_tellers  |           450560
 2017-02-05 09:22:41.932993+01 | 1486282961.93299 | pgbench_history  |                0
 2017-02-05 09:22:41.932993+01 | 1486282961.93299 | pgbench_branches |            40960

 2017-02-05 09:22:43.023934+01 | 1486282963.02393 | pgbench_accounts |      13878878208
 2017-02-05 09:22:43.023934+01 | 1486282963.02393 | pgbench_tellers  |           450560
 2017-02-05 09:22:43.023934+01 | 1486282963.02393 | pgbench_history  |                0
 2017-02-05 09:22:43.023934+01 | 1486282963.02393 | pgbench_branches |            40960

 2017-02-05 09:22:44.121752+01 | 1486282964.12175 | pgbench_accounts |      13878878208
 2017-02-05 09:22:44.121752+01 | 1486282964.12175 | pgbench_tellers  |           450560
 2017-02-05 09:22:44.121752+01 | 1486282964.12175 | pgbench_history  |                0
 2017-02-05 09:22:44.121752+01 | 1486282964.12175 | pgbench_branches |            40960

 2017-02-05 09:22:45.20984+01 | 1486282965.20984 | pgbench_accounts |      13878878208
 2017-02-05 09:22:45.20984+01 | 1486282965.20984 | pgbench_tellers  |           450560
 2017-02-05 09:22:45.20984+01 | 1486282965.20984 | pgbench_history  |                0
 2017-02-05 09:22:45.20984+01 | 1486282965.20984 | pgbench_branches |            40960

 2017-02-05 09:22:46.313036+01 | 1486282966.31304 | pgbench_accounts |      13878878208
 2017-02-05 09:22:46.313036+01 | 1486282966.31304 | pgbench_tellers  |           450560
 2017-02-05 09:22:46.313036+01 | 1486282966.31304 | pgbench_history  |                0
 2017-02-05 09:22:46.313036+01 | 1486282966.31304 | pgbench_branches |            40960

 2017-02-05 09:22:47.410571+01 | 1486282967.41057 | pgbench_accounts |      13878878208
 2017-02-05 09:22:47.410571+01 | 1486282967.41057 | pgbench_tellers  |           450560
 2017-02-05 09:22:47.410571+01 | 1486282967.41057 | pgbench_history  |                0
 2017-02-05 09:22:47.410571+01 | 1486282967.41057 | pgbench_branches |            40960

 2017-02-05 09:22:48.527127+01 | 1486282968.52713 | pgbench_accounts |      13878878208
 2017-02-05 09:22:48.527127+01 | 1486282968.52713 | pgbench_tellers  |           450560
 2017-02-05 09:22:48.527127+01 | 1486282968.52713 | pgbench_history  |                0
 2017-02-05 09:22:48.527127+01 | 1486282968.52713 | pgbench_branches |            40960

 2017-02-05 09:22:49.63535+01 | 1486282969.63535 | pgbench_accounts |      13878878208
 2017-02-05 09:22:49.63535+01 | 1486282969.63535 | pgbench_tellers  |           450560
 2017-02-05 09:22:49.63535+01 | 1486282969.63535 | pgbench_history  |                0
 2017-02-05 09:22:49.63535+01 | 1486282969.63535 | pgbench_branches |            40960

 2017-02-05 09:22:50.735578+01 | 1486282970.73558 | pgbench_accounts |      13878878208
 2017-02-05 09:22:50.735578+01 | 1486282970.73558 | pgbench_tellers  |           450560
 2017-02-05 09:22:50.735578+01 | 1486282970.73558 | pgbench_history  |                0
 2017-02-05 09:22:50.735578+01 | 1486282970.73558 | pgbench_branches |            40960

 2017-02-05 09:22:51.838455+01 | 1486282971.83845 | pgbench_accounts |      13878878208
 2017-02-05 09:22:51.838455+01 | 1486282971.83845 | pgbench_tellers  |           450560
 2017-02-05 09:22:51.838455+01 | 1486282971.83845 | pgbench_history  |                0
 2017-02-05 09:22:51.838455+01 | 1486282971.83845 | pgbench_branches |            40960

 2017-02-05 09:22:52.942475+01 | 1486282972.94248 | pgbench_accounts |      13878878208
 2017-02-05 09:22:52.942475+01 | 1486282972.94248 | pgbench_tellers  |           450560
 2017-02-05 09:22:52.942475+01 | 1486282972.94248 | pgbench_history  |                0
 2017-02-05 09:22:52.942475+01 | 1486282972.94248 | pgbench_branches |            40960

 2017-02-05 09:22:54.042151+01 | 1486282974.04215 | pgbench_accounts |      13878878208
 2017-02-05 09:22:54.042151+01 | 1486282974.04215 | pgbench_tellers  |           450560
 2017-02-05 09:22:54.042151+01 | 1486282974.04215 | pgbench_history  |                0
 2017-02-05 09:22:54.042151+01 | 1486282974.04215 | pgbench_branches |            40960

 2017-02-05 09:22:55.141994+01 | 1486282975.14199 | pgbench_accounts |      13878878208
 2017-02-05 09:22:55.141994+01 | 1486282975.14199 | pgbench_tellers  |           450560
 2017-02-05 09:22:55.141994+01 | 1486282975.14199 | pgbench_history  |                0
 2017-02-05 09:22:55.141994+01 | 1486282975.14199 | pgbench_branches |            40960

 2017-02-05 09:22:56.214651+01 | 1486282976.21465 | pgbench_accounts |      13878878208
 2017-02-05 09:22:56.214651+01 | 1486282976.21465 | pgbench_tellers  |           450560
 2017-02-05 09:22:56.214651+01 | 1486282976.21465 | pgbench_history  |                0
 2017-02-05 09:22:56.214651+01 | 1486282976.21465 | pgbench_branches |            40960

 2017-02-05 09:22:57.297381+01 | 1486282977.29738 | pgbench_accounts |      13878878208
 2017-02-05 09:22:57.297381+01 | 1486282977.29738 | pgbench_tellers  |           450560
 2017-02-05 09:22:57.297381+01 | 1486282977.29738 | pgbench_history  |                0
 2017-02-05 09:22:57.297381+01 | 1486282977.29738 | pgbench_branches |            40960

 2017-02-05 09:22:58.395983+01 | 1486282978.39598 | pgbench_accounts |      13878878208
 2017-02-05 09:22:58.395983+01 | 1486282978.39598 | pgbench_tellers  |           450560
 2017-02-05 09:22:58.395983+01 | 1486282978.39598 | pgbench_history  |                0
 2017-02-05 09:22:58.395983+01 | 1486282978.39598 | pgbench_branches |            40960

 2017-02-05 09:22:59.493022+01 | 1486282979.49302 | pgbench_accounts |      13878878208
 2017-02-05 09:22:59.493022+01 | 1486282979.49302 | pgbench_tellers  |           450560
 2017-02-05 09:22:59.493022+01 | 1486282979.49302 | pgbench_history  |                0
 2017-02-05 09:22:59.493022+01 | 1486282979.49302 | pgbench_branches |            40960

 2017-02-05 09:23:00.599717+01 | 1486282980.59972 | pgbench_accounts |      13878878208
 2017-02-05 09:23:00.599717+01 | 1486282980.59972 | pgbench_tellers  |           450560
 2017-02-05 09:23:00.599717+01 | 1486282980.59972 | pgbench_history  |                0
 2017-02-05 09:23:00.599717+01 | 1486282980.59972 | pgbench_branches |            40960

 2017-02-05 09:23:01.703371+01 | 1486282981.70337 | pgbench_accounts |      13878878208
 2017-02-05 09:23:01.703371+01 | 1486282981.70337 | pgbench_tellers  |           450560
 2017-02-05 09:23:01.703371+01 | 1486282981.70337 | pgbench_history  |                0
 2017-02-05 09:23:01.703371+01 | 1486282981.70337 | pgbench_branches |            40960

 2017-02-05 09:23:02.815399+01 | 1486282982.8154 | pgbench_accounts |      13878878208
 2017-02-05 09:23:02.815399+01 | 1486282982.8154 | pgbench_tellers  |           450560
 2017-02-05 09:23:02.815399+01 | 1486282982.8154 | pgbench_history  |                0
 2017-02-05 09:23:02.815399+01 | 1486282982.8154 | pgbench_branches |            40960

 2017-02-05 09:23:03.910892+01 | 1486282983.91089 | pgbench_accounts |      13878878208
 2017-02-05 09:23:03.910892+01 | 1486282983.91089 | pgbench_tellers  |           450560
 2017-02-05 09:23:03.910892+01 | 1486282983.91089 | pgbench_history  |                0
 2017-02-05 09:23:03.910892+01 | 1486282983.91089 | pgbench_branches |            40960

 2017-02-05 09:23:05.015277+01 | 1486282985.01528 | pgbench_accounts |      13878878208
 2017-02-05 09:23:05.015277+01 | 1486282985.01528 | pgbench_tellers  |           450560
 2017-02-05 09:23:05.015277+01 | 1486282985.01528 | pgbench_history  |                0
 2017-02-05 09:23:05.015277+01 | 1486282985.01528 | pgbench_branches |            40960

 2017-02-05 09:23:06.125475+01 | 1486282986.12547 | pgbench_accounts |      13878878208
 2017-02-05 09:23:06.125475+01 | 1486282986.12547 | pgbench_tellers  |           450560
 2017-02-05 09:23:06.125475+01 | 1486282986.12547 | pgbench_history  |                0
 2017-02-05 09:23:06.125475+01 | 1486282986.12547 | pgbench_branches |            40960

 2017-02-05 09:23:07.238424+01 | 1486282987.23842 | pgbench_accounts |      13878878208
 2017-02-05 09:23:07.238424+01 | 1486282987.23842 | pgbench_tellers  |           450560
 2017-02-05 09:23:07.238424+01 | 1486282987.23842 | pgbench_history  |                0
 2017-02-05 09:23:07.238424+01 | 1486282987.23842 | pgbench_branches |            40960

 2017-02-05 09:23:08.32393+01 | 1486282988.32393 | pgbench_accounts |      13878878208
 2017-02-05 09:23:08.32393+01 | 1486282988.32393 | pgbench_tellers  |           450560
 2017-02-05 09:23:08.32393+01 | 1486282988.32393 | pgbench_history  |                0
 2017-02-05 09:23:08.32393+01 | 1486282988.32393 | pgbench_branches |            40960

 2017-02-05 09:23:09.400601+01 | 1486282989.4006 | pgbench_accounts |      13878878208
 2017-02-05 09:23:09.400601+01 | 1486282989.4006 | pgbench_tellers  |           450560
 2017-02-05 09:23:09.400601+01 | 1486282989.4006 | pgbench_history  |                0
 2017-02-05 09:23:09.400601+01 | 1486282989.4006 | pgbench_branches |            40960

 2017-02-05 09:23:10.484946+01 | 1486282990.48495 | pgbench_accounts |      13878878208
 2017-02-05 09:23:10.484946+01 | 1486282990.48495 | pgbench_tellers  |           450560
 2017-02-05 09:23:10.484946+01 | 1486282990.48495 | pgbench_history  |                0
 2017-02-05 09:23:10.484946+01 | 1486282990.48495 | pgbench_branches |            40960

 2017-02-05 09:23:11.581944+01 | 1486282991.58194 | pgbench_accounts |      13878878208
 2017-02-05 09:23:11.581944+01 | 1486282991.58194 | pgbench_tellers  |           450560
 2017-02-05 09:23:11.581944+01 | 1486282991.58194 | pgbench_history  |                0
 2017-02-05 09:23:11.581944+01 | 1486282991.58194 | pgbench_branches |            40960

 2017-02-05 09:23:12.686341+01 | 1486282992.68634 | pgbench_accounts |      13878878208
 2017-02-05 09:23:12.686341+01 | 1486282992.68634 | pgbench_tellers  |           450560
 2017-02-05 09:23:12.686341+01 | 1486282992.68634 | pgbench_history  |                0
 2017-02-05 09:23:12.686341+01 | 1486282992.68634 | pgbench_branches |            40960

 2017-02-05 09:23:13.784929+01 | 1486282993.78493 | pgbench_accounts |      13878878208
 2017-02-05 09:23:13.784929+01 | 1486282993.78493 | pgbench_tellers  |           450560
 2017-02-05 09:23:13.784929+01 | 1486282993.78493 | pgbench_history  |                0
 2017-02-05 09:23:13.784929+01 | 1486282993.78493 | pgbench_branches |            40960

 2017-02-05 09:23:14.891506+01 | 1486282994.89151 | pgbench_accounts |      13878878208
 2017-02-05 09:23:14.891506+01 | 1486282994.89151 | pgbench_tellers  |           450560
 2017-02-05 09:23:14.891506+01 | 1486282994.89151 | pgbench_history  |                0
 2017-02-05 09:23:14.891506+01 | 1486282994.89151 | pgbench_branches |            40960

 2017-02-05 09:23:16.0092+01 | 1486282996.0092 | pgbench_accounts |      13878878208
 2017-02-05 09:23:16.0092+01 | 1486282996.0092 | pgbench_tellers  |           450560
 2017-02-05 09:23:16.0092+01 | 1486282996.0092 | pgbench_history  |                0
 2017-02-05 09:23:16.0092+01 | 1486282996.0092 | pgbench_branches |            40960

 2017-02-05 09:23:17.112293+01 | 1486282997.11229 | pgbench_accounts |      13878878208
 2017-02-05 09:23:17.112293+01 | 1486282997.11229 | pgbench_tellers  |           450560
 2017-02-05 09:23:17.112293+01 | 1486282997.11229 | pgbench_history  |                0
 2017-02-05 09:23:17.112293+01 | 1486282997.11229 | pgbench_branches |            40960

 2017-02-05 09:23:18.229911+01 | 1486282998.22991 | pgbench_accounts |      13878878208
 2017-02-05 09:23:18.229911+01 | 1486282998.22991 | pgbench_tellers  |           450560
 2017-02-05 09:23:18.229911+01 | 1486282998.22991 | pgbench_history  |                0
 2017-02-05 09:23:18.229911+01 | 1486282998.22991 | pgbench_branches |            40960

 2017-02-05 09:23:19.331365+01 | 1486282999.33137 | pgbench_accounts |      13878878208
 2017-02-05 09:23:19.331365+01 | 1486282999.33137 | pgbench_tellers  |           450560
 2017-02-05 09:23:19.331365+01 | 1486282999.33137 | pgbench_history  |                0
 2017-02-05 09:23:19.331365+01 | 1486282999.33137 | pgbench_branches |            40960

 2017-02-05 09:23:20.396071+01 | 1486283000.39607 | pgbench_accounts |      13878878208
 2017-02-05 09:23:20.396071+01 | 1486283000.39607 | pgbench_tellers  |           450560
 2017-02-05 09:23:20.396071+01 | 1486283000.39607 | pgbench_history  |                0
 2017-02-05 09:23:20.396071+01 | 1486283000.39607 | pgbench_branches |            40960

 2017-02-05 09:23:21.470964+01 | 1486283001.47096 | pgbench_accounts |      13878878208
 2017-02-05 09:23:21.470964+01 | 1486283001.47096 | pgbench_tellers  |           450560
 2017-02-05 09:23:21.470964+01 | 1486283001.47096 | pgbench_history  |                0
 2017-02-05 09:23:21.470964+01 | 1486283001.47096 | pgbench_branches |            40960

 2017-02-05 09:23:22.564979+01 | 1486283002.56498 | pgbench_accounts |      13878878208
 2017-02-05 09:23:22.564979+01 | 1486283002.56498 | pgbench_tellers  |           450560
 2017-02-05 09:23:22.564979+01 | 1486283002.56498 | pgbench_history  |                0
 2017-02-05 09:23:22.564979+01 | 1486283002.56498 | pgbench_branches |            40960

 2017-02-05 09:23:23.652351+01 | 1486283003.65235 | pgbench_accounts |      13878878208
 2017-02-05 09:23:23.652351+01 | 1486283003.65235 | pgbench_tellers  |           450560
 2017-02-05 09:23:23.652351+01 | 1486283003.65235 | pgbench_history  |                0
 2017-02-05 09:23:23.652351+01 | 1486283003.65235 | pgbench_branches |            40960

 2017-02-05 09:23:24.73634+01 | 1486283004.73634 | pgbench_accounts |      13878878208
 2017-02-05 09:23:24.73634+01 | 1486283004.73634 | pgbench_tellers  |           450560
 2017-02-05 09:23:24.73634+01 | 1486283004.73634 | pgbench_history  |                0
 2017-02-05 09:23:24.73634+01 | 1486283004.73634 | pgbench_branches |            40960

 2017-02-05 09:23:25.838103+01 | 1486283005.8381 | pgbench_accounts |      13878878208
 2017-02-05 09:23:25.838103+01 | 1486283005.8381 | pgbench_tellers  |           450560
 2017-02-05 09:23:25.838103+01 | 1486283005.8381 | pgbench_history  |                0
 2017-02-05 09:23:25.838103+01 | 1486283005.8381 | pgbench_branches |            40960

 2017-02-05 09:23:26.950507+01 | 1486283006.95051 | pgbench_accounts |      13878878208
 2017-02-05 09:23:26.950507+01 | 1486283006.95051 | pgbench_tellers  |           450560
 2017-02-05 09:23:26.950507+01 | 1486283006.95051 | pgbench_history  |                0
 2017-02-05 09:23:26.950507+01 | 1486283006.95051 | pgbench_branches |            40960

 2017-02-05 09:23:28.056605+01 | 1486283008.05661 | pgbench_accounts |      13878878208
 2017-02-05 09:23:28.056605+01 | 1486283008.05661 | pgbench_tellers  |           450560
 2017-02-05 09:23:28.056605+01 | 1486283008.05661 | pgbench_history  |                0
 2017-02-05 09:23:28.056605+01 | 1486283008.05661 | pgbench_branches |            40960

 2017-02-05 09:23:29.16337+01 | 1486283009.16337 | pgbench_accounts |      13878878208
 2017-02-05 09:23:29.16337+01 | 1486283009.16337 | pgbench_tellers  |           450560
 2017-02-05 09:23:29.16337+01 | 1486283009.16337 | pgbench_history  |                0
 2017-02-05 09:23:29.16337+01 | 1486283009.16337 | pgbench_branches |            40960

 2017-02-05 09:23:30.272563+01 | 1486283010.27256 | pgbench_accounts |      13878878208
 2017-02-05 09:23:30.272563+01 | 1486283010.27256 | pgbench_tellers  |           450560
 2017-02-05 09:23:30.272563+01 | 1486283010.27256 | pgbench_history  |                0
 2017-02-05 09:23:30.272563+01 | 1486283010.27256 | pgbench_branches |            40960

 2017-02-05 09:23:31.381798+01 | 1486283011.3818 | pgbench_accounts |      13878878208
 2017-02-05 09:23:31.381798+01 | 1486283011.3818 | pgbench_tellers  |           450560
 2017-02-05 09:23:31.381798+01 | 1486283011.3818 | pgbench_history  |                0
 2017-02-05 09:23:31.381798+01 | 1486283011.3818 | pgbench_branches |            40960

 2017-02-05 09:23:32.49045+01 | 1486283012.49045 | pgbench_accounts |      13878878208
 2017-02-05 09:23:32.49045+01 | 1486283012.49045 | pgbench_tellers  |           450560
 2017-02-05 09:23:32.49045+01 | 1486283012.49045 | pgbench_history  |                0
 2017-02-05 09:23:32.49045+01 | 1486283012.49045 | pgbench_branches |            40960

 2017-02-05 09:23:33.589615+01 | 1486283013.58962 | pgbench_accounts |      13878878208
 2017-02-05 09:23:33.589615+01 | 1486283013.58962 | pgbench_tellers  |           450560
 2017-02-05 09:23:33.589615+01 | 1486283013.58962 | pgbench_history  |                0
 2017-02-05 09:23:33.589615+01 | 1486283013.58962 | pgbench_branches |            40960

 2017-02-05 09:23:34.689329+01 | 1486283014.68933 | pgbench_accounts |      13878878208
 2017-02-05 09:23:34.689329+01 | 1486283014.68933 | pgbench_tellers  |           450560
 2017-02-05 09:23:34.689329+01 | 1486283014.68933 | pgbench_history  |                0
 2017-02-05 09:23:34.689329+01 | 1486283014.68933 | pgbench_branches |            40960

 2017-02-05 09:23:35.776616+01 | 1486283015.77662 | pgbench_accounts |      13878878208
 2017-02-05 09:23:35.776616+01 | 1486283015.77662 | pgbench_tellers  |           450560
 2017-02-05 09:23:35.776616+01 | 1486283015.77662 | pgbench_history  |                0
 2017-02-05 09:23:35.776616+01 | 1486283015.77662 | pgbench_branches |            40960

 2017-02-05 09:23:36.852477+01 | 1486283016.85248 | pgbench_accounts |      13878878208
 2017-02-05 09:23:36.852477+01 | 1486283016.85248 | pgbench_tellers  |           450560
 2017-02-05 09:23:36.852477+01 | 1486283016.85248 | pgbench_history  |                0
 2017-02-05 09:23:36.852477+01 | 1486283016.85248 | pgbench_branches |            40960

 2017-02-05 09:23:37.945427+01 | 1486283017.94543 | pgbench_accounts |      13878878208
 2017-02-05 09:23:37.945427+01 | 1486283017.94543 | pgbench_tellers  |           450560
 2017-02-05 09:23:37.945427+01 | 1486283017.94543 | pgbench_history  |                0
 2017-02-05 09:23:37.945427+01 | 1486283017.94543 | pgbench_branches |            40960

 2017-02-05 09:23:39.056873+01 | 1486283019.05687 | pgbench_accounts |      13878878208
 2017-02-05 09:23:39.056873+01 | 1486283019.05687 | pgbench_tellers  |           450560
 2017-02-05 09:23:39.056873+01 | 1486283019.05687 | pgbench_history  |                0
 2017-02-05 09:23:39.056873+01 | 1486283019.05687 | pgbench_branches |            40960

 2017-02-05 09:23:40.160115+01 | 1486283020.16012 | pgbench_accounts |      13878878208
 2017-02-05 09:23:40.160115+01 | 1486283020.16012 | pgbench_tellers  |           450560
 2017-02-05 09:23:40.160115+01 | 1486283020.16012 | pgbench_history  |                0
 2017-02-05 09:23:40.160115+01 | 1486283020.16012 | pgbench_branches |            40960

 2017-02-05 09:23:41.270919+01 | 1486283021.27092 | pgbench_accounts |      13878878208
 2017-02-05 09:23:41.270919+01 | 1486283021.27092 | pgbench_tellers  |           450560
 2017-02-05 09:23:41.270919+01 | 1486283021.27092 | pgbench_history  |                0
 2017-02-05 09:23:41.270919+01 | 1486283021.27092 | pgbench_branches |            40960

 2017-02-05 09:23:42.361212+01 | 1486283022.36121 | pgbench_accounts |      13878878208
 2017-02-05 09:23:42.361212+01 | 1486283022.36121 | pgbench_tellers  |           450560
 2017-02-05 09:23:42.361212+01 | 1486283022.36121 | pgbench_history  |                0
 2017-02-05 09:23:42.361212+01 | 1486283022.36121 | pgbench_branches |            40960

 2017-02-05 09:23:43.444992+01 | 1486283023.44499 | pgbench_accounts |      13878878208
 2017-02-05 09:23:43.444992+01 | 1486283023.44499 | pgbench_tellers  |           450560
 2017-02-05 09:23:43.444992+01 | 1486283023.44499 | pgbench_history  |                0
 2017-02-05 09:23:43.444992+01 | 1486283023.44499 | pgbench_branches |            40960

 2017-02-05 09:23:44.532693+01 | 1486283024.53269 | pgbench_accounts |      13878878208
 2017-02-05 09:23:44.532693+01 | 1486283024.53269 | pgbench_tellers  |           450560
 2017-02-05 09:23:44.532693+01 | 1486283024.53269 | pgbench_history  |                0
 2017-02-05 09:23:44.532693+01 | 1486283024.53269 | pgbench_branches |            40960

 2017-02-05 09:23:45.619477+01 | 1486283025.61948 | pgbench_accounts |      13878878208
 2017-02-05 09:23:45.619477+01 | 1486283025.61948 | pgbench_tellers  |           450560
 2017-02-05 09:23:45.619477+01 | 1486283025.61948 | pgbench_history  |                0
 2017-02-05 09:23:45.619477+01 | 1486283025.61948 | pgbench_branches |            40960

 2017-02-05 09:23:46.71773+01 | 1486283026.71773 | pgbench_accounts |      13878878208
 2017-02-05 09:23:46.71773+01 | 1486283026.71773 | pgbench_tellers  |           450560
 2017-02-05 09:23:46.71773+01 | 1486283026.71773 | pgbench_history  |                0
 2017-02-05 09:23:46.71773+01 | 1486283026.71773 | pgbench_branches |            40960

 2017-02-05 09:23:47.808199+01 | 1486283027.8082 | pgbench_accounts |      13878878208
 2017-02-05 09:23:47.808199+01 | 1486283027.8082 | pgbench_tellers  |           450560
 2017-02-05 09:23:47.808199+01 | 1486283027.8082 | pgbench_history  |                0
 2017-02-05 09:23:47.808199+01 | 1486283027.8082 | pgbench_branches |            40960

 2017-02-05 09:23:48.89111+01 | 1486283028.89111 | pgbench_accounts |      13878878208
 2017-02-05 09:23:48.89111+01 | 1486283028.89111 | pgbench_tellers  |           450560
 2017-02-05 09:23:48.89111+01 | 1486283028.89111 | pgbench_history  |                0
 2017-02-05 09:23:48.89111+01 | 1486283028.89111 | pgbench_branches |            40960

 2017-02-05 09:23:49.975188+01 | 1486283029.97519 | pgbench_accounts |      13878878208
 2017-02-05 09:23:49.975188+01 | 1486283029.97519 | pgbench_tellers  |           450560
 2017-02-05 09:23:49.975188+01 | 1486283029.97519 | pgbench_history  |                0
 2017-02-05 09:23:49.975188+01 | 1486283029.97519 | pgbench_branches |            40960

 2017-02-05 09:23:51.088184+01 | 1486283031.08818 | pgbench_accounts |      13878878208
 2017-02-05 09:23:51.088184+01 | 1486283031.08818 | pgbench_tellers  |           450560
 2017-02-05 09:23:51.088184+01 | 1486283031.08818 | pgbench_history  |                0
 2017-02-05 09:23:51.088184+01 | 1486283031.08818 | pgbench_branches |            40960

 2017-02-05 09:23:52.182914+01 | 1486283032.18291 | pgbench_accounts |      13878878208
 2017-02-05 09:23:52.182914+01 | 1486283032.18291 | pgbench_tellers  |           450560
 2017-02-05 09:23:52.182914+01 | 1486283032.18291 | pgbench_history  |                0
 2017-02-05 09:23:52.182914+01 | 1486283032.18291 | pgbench_branches |            40960

 2017-02-05 09:23:53.311533+01 | 1486283033.31153 | pgbench_accounts |      13878878208
 2017-02-05 09:23:53.311533+01 | 1486283033.31153 | pgbench_tellers  |           450560
 2017-02-05 09:23:53.311533+01 | 1486283033.31153 | pgbench_history  |                0
 2017-02-05 09:23:53.311533+01 | 1486283033.31153 | pgbench_branches |            40960

 2017-02-05 09:23:54.424355+01 | 1486283034.42436 | pgbench_accounts |      13878878208
 2017-02-05 09:23:54.424355+01 | 1486283034.42436 | pgbench_tellers  |           450560
 2017-02-05 09:23:54.424355+01 | 1486283034.42436 | pgbench_history  |                0
 2017-02-05 09:23:54.424355+01 | 1486283034.42436 | pgbench_branches |            40960

 2017-02-05 09:23:55.538138+01 | 1486283035.53814 | pgbench_accounts |      13878878208
 2017-02-05 09:23:55.538138+01 | 1486283035.53814 | pgbench_tellers  |           450560
 2017-02-05 09:23:55.538138+01 | 1486283035.53814 | pgbench_history  |                0
 2017-02-05 09:23:55.538138+01 | 1486283035.53814 | pgbench_branches |            40960

 2017-02-05 09:23:56.641924+01 | 1486283036.64192 | pgbench_accounts |      13878878208
 2017-02-05 09:23:56.641924+01 | 1486283036.64192 | pgbench_tellers  |           450560
 2017-02-05 09:23:56.641924+01 | 1486283036.64192 | pgbench_history  |                0
 2017-02-05 09:23:56.641924+01 | 1486283036.64192 | pgbench_branches |            40960

 2017-02-05 09:23:57.722564+01 | 1486283037.72256 | pgbench_accounts |      13878878208
 2017-02-05 09:23:57.722564+01 | 1486283037.72256 | pgbench_tellers  |           450560
 2017-02-05 09:23:57.722564+01 | 1486283037.72256 | pgbench_history  |                0
 2017-02-05 09:23:57.722564+01 | 1486283037.72256 | pgbench_branches |            40960

 2017-02-05 09:23:58.80858+01 | 1486283038.80858 | pgbench_accounts |      13878878208
 2017-02-05 09:23:58.80858+01 | 1486283038.80858 | pgbench_tellers  |           450560
 2017-02-05 09:23:58.80858+01 | 1486283038.80858 | pgbench_history  |                0
 2017-02-05 09:23:58.80858+01 | 1486283038.80858 | pgbench_branches |            40960

 2017-02-05 09:23:59.908971+01 | 1486283039.90897 | pgbench_accounts |      13878878208
 2017-02-05 09:23:59.908971+01 | 1486283039.90897 | pgbench_tellers  |           450560
 2017-02-05 09:23:59.908971+01 | 1486283039.90897 | pgbench_history  |                0
 2017-02-05 09:23:59.908971+01 | 1486283039.90897 | pgbench_branches |            40960

 2017-02-05 09:24:01.026559+01 | 1486283041.02656 | pgbench_accounts |      13878878208
 2017-02-05 09:24:01.026559+01 | 1486283041.02656 | pgbench_tellers  |           450560
 2017-02-05 09:24:01.026559+01 | 1486283041.02656 | pgbench_history  |                0
 2017-02-05 09:24:01.026559+01 | 1486283041.02656 | pgbench_branches |            40960

 2017-02-05 09:24:02.117619+01 | 1486283042.11762 | pgbench_accounts |      13878878208
 2017-02-05 09:24:02.117619+01 | 1486283042.11762 | pgbench_tellers  |           450560
 2017-02-05 09:24:02.117619+01 | 1486283042.11762 | pgbench_history  |                0
 2017-02-05 09:24:02.117619+01 | 1486283042.11762 | pgbench_branches |            40960

 2017-02-05 09:24:03.20449+01 | 1486283043.20449 | pgbench_accounts |      13878878208
 2017-02-05 09:24:03.20449+01 | 1486283043.20449 | pgbench_tellers  |           450560
 2017-02-05 09:24:03.20449+01 | 1486283043.20449 | pgbench_history  |                0
 2017-02-05 09:24:03.20449+01 | 1486283043.20449 | pgbench_branches |            40960

 2017-02-05 09:24:04.283206+01 | 1486283044.28321 | pgbench_accounts |      13878878208
 2017-02-05 09:24:04.283206+01 | 1486283044.28321 | pgbench_tellers  |           450560
 2017-02-05 09:24:04.283206+01 | 1486283044.28321 | pgbench_history  |                0
 2017-02-05 09:24:04.283206+01 | 1486283044.28321 | pgbench_branches |            40960

 2017-02-05 09:24:05.36231+01 | 1486283045.36231 | pgbench_accounts |      13878878208
 2017-02-05 09:24:05.36231+01 | 1486283045.36231 | pgbench_tellers  |           450560
 2017-02-05 09:24:05.36231+01 | 1486283045.36231 | pgbench_history  |                0
 2017-02-05 09:24:05.36231+01 | 1486283045.36231 | pgbench_branches |            40960

 2017-02-05 09:24:06.441603+01 | 1486283046.4416 | pgbench_accounts |      13878878208
 2017-02-05 09:24:06.441603+01 | 1486283046.4416 | pgbench_tellers  |           450560
 2017-02-05 09:24:06.441603+01 | 1486283046.4416 | pgbench_history  |                0
 2017-02-05 09:24:06.441603+01 | 1486283046.4416 | pgbench_branches |            40960

 2017-02-05 09:24:07.520209+01 | 1486283047.52021 | pgbench_accounts |      13878878208
 2017-02-05 09:24:07.520209+01 | 1486283047.52021 | pgbench_tellers  |           450560
 2017-02-05 09:24:07.520209+01 | 1486283047.52021 | pgbench_history  |                0
 2017-02-05 09:24:07.520209+01 | 1486283047.52021 | pgbench_branches |            40960

