 2017-02-05 07:51:51.542513+01 | 1486277511.54251 |                 0 |               9 |                 36416 |                 1466 |            1946294 |       1183541 |            11821 |        49951091 |                     0 |     181760583 | 2017-02-05 07:07:06.023438+01

 2017-02-05 07:51:52.627672+01 | 1486277512.62767 |                 0 |               9 |                 36416 |                 1466 |            1946294 |       1183541 |            11821 |        49951091 |                     0 |     181801505 | 2017-02-05 07:07:06.023438+01

 2017-02-05 07:51:53.702741+01 | 1486277513.70274 |                 0 |               9 |                 36416 |                 1466 |            1946294 |       1183541 |            11821 |        49951091 |                     0 |     181857015 | 2017-02-05 07:07:06.023438+01

 2017-02-05 07:51:54.794473+01 | 1486277514.79447 |                 0 |               9 |                 36416 |                 1466 |            1946294 |       1183541 |            11821 |        49951091 |                     0 |     181903233 | 2017-02-05 07:07:06.023438+01

 2017-02-05 07:51:55.88057+01 | 1486277515.88057 |                 0 |               9 |                 36416 |                 1466 |            1946294 |       1183541 |            11821 |        49951091 |                     0 |     181953715 | 2017-02-05 07:07:06.023438+01

 2017-02-05 07:51:56.972071+01 | 1486277516.97207 |                 0 |               9 |                 36416 |                 1466 |            1946294 |       1183541 |            11821 |        49951091 |                     0 |     182016768 | 2017-02-05 07:07:06.023438+01

 2017-02-05 07:51:58.047453+01 | 1486277518.04745 |                 0 |               9 |                 36416 |                 1466 |            1946294 |       1183883 |            11822 |        49951091 |                     0 |     182072516 | 2017-02-05 07:07:06.023438+01

 2017-02-05 07:51:59.129934+01 | 1486277519.12993 |                 0 |               9 |                 36416 |                 1466 |            1946294 |       1184383 |            11827 |        49951091 |                     0 |     182128848 | 2017-02-05 07:07:06.023438+01

 2017-02-05 07:52:00.215881+01 | 1486277520.21588 |                 0 |               9 |                 36416 |                 1466 |            1946294 |       1184983 |            11833 |        49951091 |                     0 |     182186525 | 2017-02-05 07:07:06.023438+01

 2017-02-05 07:52:01.29258+01 | 1486277521.29258 |                 0 |               9 |                 36416 |                 1466 |            1946294 |       1185483 |            11838 |        49951091 |                     0 |     182230822 | 2017-02-05 07:07:06.023438+01

 2017-02-05 07:52:02.384584+01 | 1486277522.38458 |                 0 |               9 |                 36416 |                 1466 |            1946294 |       1185983 |            11843 |        49951091 |                     0 |     182278376 | 2017-02-05 07:07:06.023438+01

 2017-02-05 07:52:03.470097+01 | 1486277523.4701 |                 0 |               9 |                 36416 |                 1466 |            1946294 |       1186583 |            11849 |        49951091 |                     0 |     182331715 | 2017-02-05 07:07:06.023438+01

 2017-02-05 07:52:04.543696+01 | 1486277524.5437 |                 0 |               9 |                 36416 |                 1466 |            1946294 |       1187083 |            11854 |        49951091 |                     0 |     182378477 | 2017-02-05 07:07:06.023438+01

 2017-02-05 07:52:05.619375+01 | 1486277525.61937 |                 0 |               9 |                 36416 |                 1466 |            1946294 |       1187683 |            11860 |        49951091 |                     0 |     182437354 | 2017-02-05 07:07:06.023438+01

 2017-02-05 07:52:06.697309+01 | 1486277526.69731 |                 0 |               9 |                 36416 |                 1466 |            1946294 |       1188183 |            11865 |        49951091 |                     0 |     182485337 | 2017-02-05 07:07:06.023438+01

 2017-02-05 07:52:07.783937+01 | 1486277527.78394 |                 0 |               9 |                 36416 |                 1466 |            1946294 |       1188683 |            11870 |        49951091 |                     0 |     182531278 | 2017-02-05 07:07:06.023438+01

 2017-02-05 07:52:08.862651+01 | 1486277528.86265 |                 0 |               9 |                 36416 |                 1466 |            1946294 |       1189283 |            11876 |        49951091 |                     0 |     182590168 | 2017-02-05 07:07:06.023438+01

 2017-02-05 07:52:09.948743+01 | 1486277529.94874 |                 0 |               9 |                 36416 |                 1466 |            1946294 |       1189783 |            11881 |        49951091 |                     0 |     182636651 | 2017-02-05 07:07:06.023438+01

 2017-02-05 07:52:11.01977+01 | 1486277531.01977 |                 0 |               9 |                 36416 |                 1466 |            1946294 |       1190283 |            11886 |        49951091 |                     0 |     182684810 | 2017-02-05 07:07:06.023438+01

 2017-02-05 07:52:12.096927+01 | 1486277532.09693 |                 0 |               9 |                 36416 |                 1466 |            1946294 |       1190883 |            11892 |        49951091 |                     0 |     182742295 | 2017-02-05 07:07:06.023438+01

 2017-02-05 07:52:13.164352+01 | 1486277533.16435 |                 0 |               9 |                 36416 |                 1466 |            1946294 |       1191383 |            11897 |        49951091 |                     0 |     182788642 | 2017-02-05 07:07:06.023438+01

 2017-02-05 07:52:14.248004+01 | 1486277534.248 |                 0 |               9 |                 36416 |                 1466 |            1946294 |       1191883 |            11902 |        49951091 |                     0 |     182837827 | 2017-02-05 07:07:06.023438+01

 2017-02-05 07:52:15.336817+01 | 1486277535.33682 |                 0 |               9 |                 36416 |                 1466 |            1946294 |       1192483 |            11908 |        49951091 |                     0 |     182883463 | 2017-02-05 07:07:06.023438+01

 2017-02-05 07:52:16.422239+01 | 1486277536.42224 |                 0 |               9 |                 36416 |                 1466 |            1946294 |       1192983 |            11913 |        49951091 |                     0 |     182920715 | 2017-02-05 07:07:06.023438+01

 2017-02-05 07:52:17.498771+01 | 1486277537.49877 |                 0 |               9 |                 36416 |                 1466 |            1946294 |       1193483 |            11918 |        49951091 |                     0 |     182960572 | 2017-02-05 07:07:06.023438+01

 2017-02-05 07:52:18.580125+01 | 1486277538.58013 |                 0 |               9 |                 36416 |                 1466 |            1946294 |       1194083 |            11924 |        49951091 |                     0 |     183018249 | 2017-02-05 07:07:06.023438+01

 2017-02-05 07:52:19.654052+01 | 1486277539.65405 |                 0 |               9 |                 36416 |                 1466 |            1946294 |       1194583 |            11929 |        49951091 |                     0 |     183064521 | 2017-02-05 07:07:06.023438+01

 2017-02-05 07:52:20.72497+01 | 1486277540.72497 |                 0 |               9 |                 36416 |                 1466 |            1946294 |       1195083 |            11934 |        49951091 |                     0 |     183093226 | 2017-02-05 07:07:06.023438+01

 2017-02-05 07:52:21.802879+01 | 1486277541.80288 |                 0 |               9 |                 36416 |                 1466 |            1946294 |       1195683 |            11940 |        49951091 |                     0 |     183148618 | 2017-02-05 07:07:06.023438+01

 2017-02-05 07:52:22.88957+01 | 1486277542.88957 |                 0 |               9 |                 36416 |                 1466 |            1946294 |       1196183 |            11945 |        49951091 |                     0 |     183197179 | 2017-02-05 07:07:06.023438+01

 2017-02-05 07:52:23.980735+01 | 1486277543.98074 |                 0 |               9 |                 36416 |                 1466 |            1946294 |       1196683 |            11950 |        49951091 |                     0 |     183242300 | 2017-02-05 07:07:06.023438+01

 2017-02-05 07:52:25.063438+01 | 1486277545.06344 |                 0 |               9 |                 36416 |                 1466 |            1946294 |       1197283 |            11956 |        49951091 |                     0 |     183303575 | 2017-02-05 07:07:06.023438+01

 2017-02-05 07:52:26.131971+01 | 1486277546.13197 |                 0 |               9 |                 36416 |                 1466 |            1946294 |       1197783 |            11961 |        49951091 |                     0 |     183343035 | 2017-02-05 07:07:06.023438+01

 2017-02-05 07:52:27.20896+01 | 1486277547.20896 |                 0 |               9 |                 36416 |                 1466 |            1946294 |       1198283 |            11966 |        49951091 |                     0 |     183391684 | 2017-02-05 07:07:06.023438+01

 2017-02-05 07:52:28.290878+01 | 1486277548.29088 |                 0 |               9 |                 36416 |                 1466 |            1946294 |       1198883 |            11972 |        49951091 |                     0 |     183449479 | 2017-02-05 07:07:06.023438+01

 2017-02-05 07:52:29.382259+01 | 1486277549.38226 |                 0 |               9 |                 36416 |                 1466 |            1946294 |       1199383 |            11977 |        49951091 |                     0 |     183497006 | 2017-02-05 07:07:06.023438+01

 2017-02-05 07:52:30.463409+01 | 1486277550.46341 |                 0 |               9 |                 36416 |                 1466 |            1946294 |       1199983 |            11983 |        49951091 |                     0 |     183554225 | 2017-02-05 07:07:06.023438+01

 2017-02-05 07:52:31.540382+01 | 1486277551.54038 |                 0 |               9 |                 36416 |                 1466 |            1946294 |       1200483 |            11988 |        49951091 |                     0 |     183598071 | 2017-02-05 07:07:06.023438+01

 2017-02-05 07:52:32.618861+01 | 1486277552.61886 |                 0 |               9 |                 36416 |                 1466 |            1946294 |       1200983 |            11993 |        49951091 |                     0 |     183646488 | 2017-02-05 07:07:06.023438+01

 2017-02-05 07:52:33.704552+01 | 1486277553.70455 |                 0 |               9 |                 36416 |                 1466 |            1946294 |       1201583 |            11999 |        49951091 |                     0 |     183688767 | 2017-02-05 07:07:06.023438+01

 2017-02-05 07:52:34.799957+01 | 1486277554.79996 |                 0 |               9 |                 36416 |                 1466 |            1946294 |       1202083 |            12004 |        49951091 |                     0 |     183736355 | 2017-02-05 07:07:06.023438+01

 2017-02-05 07:52:35.871527+01 | 1486277555.87153 |                 0 |               9 |                 36416 |                 1466 |            1946294 |       1202583 |            12009 |        49951091 |                     0 |     183780895 | 2017-02-05 07:07:06.023438+01

 2017-02-05 07:52:36.963822+01 | 1486277556.96382 |                 0 |               9 |                 36416 |                 1466 |            1946294 |       1203183 |            12015 |        49951091 |                     0 |     183839474 | 2017-02-05 07:07:06.023438+01

 2017-02-05 07:52:38.045775+01 | 1486277558.04577 |                 0 |               9 |                 36416 |                 1466 |            1946294 |       1203683 |            12020 |        49951091 |                     0 |     183884512 | 2017-02-05 07:07:06.023438+01

 2017-02-05 07:52:39.132896+01 | 1486277559.1329 |                 0 |               9 |                 36416 |                 1466 |            1946294 |       1204283 |            12026 |        49951091 |                     0 |     183942255 | 2017-02-05 07:07:06.023438+01

 2017-02-05 07:52:40.222109+01 | 1486277560.22211 |                 0 |               9 |                 36416 |                 1466 |            1946294 |       1204783 |            12031 |        49951091 |                     0 |     183988407 | 2017-02-05 07:07:06.023438+01

 2017-02-05 07:52:41.298095+01 | 1486277561.29809 |                 0 |               9 |                 36416 |                 1466 |            1946294 |       1205283 |            12036 |        49951091 |                     0 |     184038258 | 2017-02-05 07:07:06.023438+01

 2017-02-05 07:52:42.383507+01 | 1486277562.38351 |                 0 |               9 |                 36416 |                 1466 |            1946294 |       1205883 |            12042 |        49951091 |                     0 |     184094874 | 2017-02-05 07:07:06.023438+01

 2017-02-05 07:52:43.462919+01 | 1486277563.46292 |                 0 |               9 |                 36416 |                 1466 |            1946294 |       1206383 |            12047 |        49951091 |                     0 |     184142801 | 2017-02-05 07:07:06.023438+01

 2017-02-05 07:52:44.544213+01 | 1486277564.54421 |                 0 |               9 |                 36416 |                 1466 |            1946294 |       1206883 |            12052 |        49951091 |                     0 |     184190918 | 2017-02-05 07:07:06.023438+01

 2017-02-05 07:52:45.624699+01 | 1486277565.6247 |                 0 |               9 |                 36416 |                 1466 |            1946294 |       1207483 |            12058 |        49951091 |                     0 |     184243372 | 2017-02-05 07:07:06.023438+01

 2017-02-05 07:52:46.709045+01 | 1486277566.70904 |                 0 |               9 |                 36416 |                 1466 |            1946294 |       1207983 |            12063 |        49951091 |                     0 |     184289369 | 2017-02-05 07:07:06.023438+01

 2017-02-05 07:52:47.797422+01 | 1486277567.79742 |                 0 |               9 |                 36416 |                 1466 |            1946294 |       1208483 |            12068 |        49951091 |                     0 |     184337645 | 2017-02-05 07:07:06.023438+01

 2017-02-05 07:52:48.882642+01 | 1486277568.88264 |                 0 |               9 |                 36416 |                 1466 |            1946294 |       1209083 |            12074 |        49951091 |                     0 |     184396520 | 2017-02-05 07:07:06.023438+01

 2017-02-05 07:52:49.973642+01 | 1486277569.97364 |                 0 |               9 |                 36416 |                 1466 |            1946294 |       1209583 |            12079 |        49951091 |                     0 |     184444270 | 2017-02-05 07:07:06.023438+01

 2017-02-05 07:52:51.056242+01 | 1486277571.05624 |                 0 |               9 |                 36416 |                 1466 |            1946294 |       1210183 |            12085 |        50449137 |                     0 |     184503425 | 2017-02-05 07:07:06.023438+01

 2017-02-05 07:52:52.131536+01 | 1486277572.13154 |                 0 |               9 |                 36416 |                 1466 |            1946294 |       1210683 |            12090 |        50449137 |                     0 |     184551610 | 2017-02-05 07:07:06.023438+01

 2017-02-05 07:52:53.220776+01 | 1486277573.22078 |                 0 |               9 |                 36416 |                 1466 |            1946294 |       1211183 |            12095 |        50449137 |                     0 |     184601769 | 2017-02-05 07:07:06.023438+01

 2017-02-05 07:52:54.314363+01 | 1486277574.31436 |                 0 |               9 |                 36416 |                 1466 |            1946294 |       1211783 |            12101 |        50449137 |                     0 |     184654322 | 2017-02-05 07:07:06.023438+01

 2017-02-05 07:52:55.404446+01 | 1486277575.40445 |                 0 |               9 |                 36416 |                 1466 |            1946294 |       1212283 |            12106 |        50449137 |                     0 |     184702529 | 2017-02-05 07:07:06.023438+01

 2017-02-05 07:52:56.47852+01 | 1486277576.47852 |                 0 |               9 |                 36416 |                 1466 |            1946294 |       1212883 |            12112 |        50449137 |                     0 |     184761482 | 2017-02-05 07:07:06.023438+01

 2017-02-05 07:52:57.567071+01 | 1486277577.56707 |                 0 |               9 |                 36416 |                 1466 |            1946294 |       1213383 |            12117 |        50449137 |                     0 |     184810085 | 2017-02-05 07:07:06.023438+01

 2017-02-05 07:52:58.642208+01 | 1486277578.64221 |                 0 |               9 |                 36416 |                 1466 |            1946294 |       1213883 |            12122 |        50449137 |                     0 |     184856760 | 2017-02-05 07:07:06.023438+01

 2017-02-05 07:52:59.713457+01 | 1486277579.71346 |                 0 |               9 |                 36416 |                 1466 |            1946294 |       1214483 |            12128 |        50449137 |                     0 |     184913306 | 2017-02-05 07:07:06.023438+01

 2017-02-05 07:53:00.785819+01 | 1486277580.78582 |                 0 |               9 |                 36416 |                 1466 |            1946294 |       1214983 |            12133 |        50449137 |                     0 |     184954062 | 2017-02-05 07:07:06.023438+01

 2017-02-05 07:53:01.865018+01 | 1486277581.86502 |                 0 |               9 |                 36416 |                 1466 |            1946294 |       1215483 |            12138 |        50449137 |                     0 |     185000642 | 2017-02-05 07:07:06.023438+01

 2017-02-05 07:53:02.938329+01 | 1486277582.93833 |                 0 |               9 |                 36416 |                 1466 |            1946294 |       1216083 |            12144 |        50449137 |                     0 |     185057120 | 2017-02-05 07:07:06.023438+01

 2017-02-05 07:53:04.016732+01 | 1486277584.01673 |                 0 |               9 |                 36416 |                 1466 |            1946294 |       1216583 |            12149 |        50449137 |                     0 |     185104886 | 2017-02-05 07:07:06.023438+01

 2017-02-05 07:53:05.095446+01 | 1486277585.09545 |                 0 |               9 |                 36416 |                 1466 |            1946294 |       1217083 |            12154 |        50449137 |                     0 |     185147273 | 2017-02-05 07:07:06.023438+01

 2017-02-05 07:53:06.180428+01 | 1486277586.18043 |                 0 |               9 |                 36416 |                 1466 |            1946294 |       1217683 |            12160 |        50449137 |                     0 |     185204079 | 2017-02-05 07:07:06.023438+01

 2017-02-05 07:53:07.266378+01 | 1486277587.26638 |                 0 |               9 |                 36416 |                 1466 |            1946294 |       1218183 |            12165 |        50449137 |                     0 |     185251337 | 2017-02-05 07:07:06.023438+01

 2017-02-05 07:53:08.358224+01 | 1486277588.35822 |                 0 |               9 |                 36416 |                 1466 |            1946294 |       1218683 |            12170 |        50449137 |                     0 |     185300365 | 2017-02-05 07:07:06.023438+01

 2017-02-05 07:53:09.443249+01 | 1486277589.44325 |                 0 |               9 |                 36416 |                 1466 |            1946294 |       1219283 |            12176 |        50449137 |                     0 |     185359986 | 2017-02-05 07:07:06.023438+01

 2017-02-05 07:53:10.516499+01 | 1486277590.5165 |                 0 |               9 |                 36416 |                 1466 |            1946294 |       1219783 |            12181 |        50449137 |                     0 |     185408786 | 2017-02-05 07:07:06.023438+01

 2017-02-05 07:53:11.584517+01 | 1486277591.58452 |                 0 |               9 |                 36416 |                 1466 |            1946294 |       1220283 |            12186 |        50449137 |                     0 |     185454258 | 2017-02-05 07:07:06.023438+01

 2017-02-05 07:53:12.667997+01 | 1486277592.668 |                 0 |               9 |                 36416 |                 1466 |            1946294 |       1220883 |            12192 |        50449137 |                     0 |     185514214 | 2017-02-05 07:07:06.023438+01

 2017-02-05 07:53:13.753801+01 | 1486277593.7538 |                 0 |               9 |                 36416 |                 1466 |            1946294 |       1221383 |            12197 |        50449137 |                     0 |     185561343 | 2017-02-05 07:07:06.023438+01

 2017-02-05 07:53:14.829497+01 | 1486277594.8295 |                 0 |               9 |                 36416 |                 1466 |            1946294 |       1221983 |            12203 |        50449137 |                     0 |     185615948 | 2017-02-05 07:07:06.023438+01

 2017-02-05 07:53:15.907806+01 | 1486277595.90781 |                 0 |               9 |                 36416 |                 1466 |            1946294 |       1222483 |            12208 |        50449137 |                     0 |     185662701 | 2017-02-05 07:07:06.023438+01

 2017-02-05 07:53:16.989733+01 | 1486277596.98973 |                 0 |               9 |                 36416 |                 1466 |            1946294 |       1222983 |            12213 |        50449137 |                     0 |     185706079 | 2017-02-05 07:07:06.023438+01

 2017-02-05 07:53:18.066148+01 | 1486277598.06615 |                 0 |               9 |                 36416 |                 1466 |            1946294 |       1223583 |            12219 |        50449137 |                     0 |     185754408 | 2017-02-05 07:07:06.023438+01

 2017-02-05 07:53:19.146664+01 | 1486277599.14666 |                 0 |               9 |                 36416 |                 1466 |            1946294 |       1224083 |            12224 |        50449137 |                     0 |     185793235 | 2017-02-05 07:07:06.023438+01

 2017-02-05 07:53:20.238362+01 | 1486277600.23836 |                 0 |               9 |                 36416 |                 1466 |            1946294 |       1224583 |            12229 |        50449137 |                     0 |     185830854 | 2017-02-05 07:07:06.023438+01

 2017-02-05 07:53:21.320502+01 | 1486277601.3205 |                 0 |               9 |                 36416 |                 1466 |            1946294 |       1225183 |            12235 |        50449137 |                     0 |     185876786 | 2017-02-05 07:07:06.023438+01

 2017-02-05 07:53:22.410058+01 | 1486277602.41006 |                 0 |               9 |                 36416 |                 1466 |            1946294 |       1225683 |            12240 |        50449137 |                     0 |     185924329 | 2017-02-05 07:07:06.023438+01

 2017-02-05 07:53:23.490289+01 | 1486277603.49029 |                 0 |               9 |                 36416 |                 1466 |            1946294 |       1226183 |            12245 |        50449137 |                     0 |     185971512 | 2017-02-05 07:07:06.023438+01

 2017-02-05 07:53:24.581228+01 | 1486277604.58123 |                 0 |               9 |                 36416 |                 1466 |            1946294 |       1226783 |            12251 |        50449137 |                     0 |     186027644 | 2017-02-05 07:07:06.023438+01

 2017-02-05 07:53:25.657972+01 | 1486277605.65797 |                 0 |               9 |                 36416 |                 1466 |            1946294 |       1227283 |            12256 |        50449137 |                     0 |     186077007 | 2017-02-05 07:07:06.023438+01

 2017-02-05 07:53:26.744086+01 | 1486277606.74409 |                 0 |               9 |                 36416 |                 1466 |            1946294 |       1227783 |            12261 |        50449137 |                     0 |     186123432 | 2017-02-05 07:07:06.023438+01

 2017-02-05 07:53:27.838587+01 | 1486277607.83859 |                 0 |               9 |                 36416 |                 1466 |            1946294 |       1228383 |            12267 |        50449137 |                     0 |     186180157 | 2017-02-05 07:07:06.023438+01

 2017-02-05 07:53:28.92456+01 | 1486277608.92456 |                 0 |               9 |                 36416 |                 1466 |            1946294 |       1228883 |            12272 |        50449137 |                     0 |     186227398 | 2017-02-05 07:07:06.023438+01

 2017-02-05 07:53:30.017077+01 | 1486277610.01708 |                 0 |               9 |                 36416 |                 1466 |            1946294 |       1229483 |            12278 |        50449137 |                     0 |     186281708 | 2017-02-05 07:07:06.023438+01

 2017-02-05 07:53:31.097302+01 | 1486277611.0973 |                 0 |               9 |                 36416 |                 1466 |            1946294 |       1229983 |            12283 |        50449137 |                     0 |     186329632 | 2017-02-05 07:07:06.023438+01

 2017-02-05 07:53:32.1713+01 | 1486277612.1713 |                 0 |               9 |                 36416 |                 1466 |            1946294 |       1230483 |            12288 |        50449137 |                     0 |     186376891 | 2017-02-05 07:07:06.023438+01

 2017-02-05 07:53:33.244351+01 | 1486277613.24435 |                 0 |               9 |                 36416 |                 1466 |            1946294 |       1231083 |            12294 |        50449137 |                     0 |     186434541 | 2017-02-05 07:07:06.023438+01

 2017-02-05 07:53:34.326215+01 | 1486277614.32622 |                 0 |               9 |                 36416 |                 1466 |            1946294 |       1231583 |            12299 |        50449137 |                     0 |     186480683 | 2017-02-05 07:07:06.023438+01

 2017-02-05 07:53:35.415774+01 | 1486277615.41577 |                 0 |               9 |                 36416 |                 1466 |            1946294 |       1232083 |            12304 |        50951225 |                     0 |     186522798 | 2017-02-05 07:07:06.023438+01

 2017-02-05 07:53:36.502937+01 | 1486277616.50294 |                 0 |               9 |                 36416 |                 1466 |            1946294 |       1232683 |            12310 |        50951225 |                     0 |     186572833 | 2017-02-05 07:07:06.023438+01

 2017-02-05 07:53:37.562889+01 | 1486277617.56289 |                 0 |               9 |                 36416 |                 1466 |            1946294 |       1233183 |            12315 |        50951225 |                     0 |     186608023 | 2017-02-05 07:07:06.023438+01

 2017-02-05 07:53:38.654734+01 | 1486277618.65473 |                 0 |               9 |                 36416 |                 1466 |            1946294 |       1233683 |            12320 |        50951225 |                     0 |     186649159 | 2017-02-05 07:07:06.023438+01

 2017-02-05 07:53:39.741043+01 | 1486277619.74104 |                 0 |               9 |                 36416 |                 1466 |            1946294 |       1234283 |            12326 |        50951225 |                     0 |     186694263 | 2017-02-05 07:07:06.023438+01

 2017-02-05 07:53:40.825379+01 | 1486277620.82538 |                 0 |               9 |                 36416 |                 1466 |            1946294 |       1234783 |            12331 |        50951225 |                     0 |     186734133 | 2017-02-05 07:07:06.023438+01

 2017-02-05 07:53:41.904068+01 | 1486277621.90407 |                 0 |               9 |                 36416 |                 1466 |            1946294 |       1235383 |            12337 |        50951225 |                     0 |     186785324 | 2017-02-05 07:07:06.023438+01

 2017-02-05 07:53:42.994959+01 | 1486277622.99496 |                 0 |               9 |                 36416 |                 1466 |            1946294 |       1235883 |            12342 |        50951225 |                     0 |     186834285 | 2017-02-05 07:07:06.023438+01

 2017-02-05 07:53:44.089776+01 | 1486277624.08978 |                 0 |               9 |                 36416 |                 1466 |            1946294 |       1236383 |            12347 |        50951225 |                     0 |     186881043 | 2017-02-05 07:07:06.023438+01

 2017-02-05 07:53:45.178012+01 | 1486277625.17801 |                 0 |               9 |                 36416 |                 1466 |            1946294 |       1236983 |            12353 |        50951225 |                     0 |     186937157 | 2017-02-05 07:07:06.023438+01

 2017-02-05 07:53:46.267319+01 | 1486277626.26732 |                 0 |               9 |                 36416 |                 1466 |            1946294 |       1237483 |            12358 |        50951225 |                     0 |     186985134 | 2017-02-05 07:07:06.023438+01

 2017-02-05 07:53:47.355964+01 | 1486277627.35596 |                 0 |               9 |                 36416 |                 1466 |            1946294 |       1238083 |            12364 |        50951225 |                     0 |     187044856 | 2017-02-05 07:07:06.023438+01

 2017-02-05 07:53:48.441713+01 | 1486277628.44171 |                 0 |               9 |                 36416 |                 1466 |            1946294 |       1238583 |            12369 |        50951225 |                     0 |     187090942 | 2017-02-05 07:07:06.023438+01

 2017-02-05 07:53:49.529382+01 | 1486277629.52938 |                 0 |               9 |                 36416 |                 1466 |            1946294 |       1239083 |            12374 |        50951225 |                     0 |     187137753 | 2017-02-05 07:07:06.023438+01

 2017-02-05 07:53:50.602307+01 | 1486277630.60231 |                 0 |               9 |                 36416 |                 1466 |            1946294 |       1239683 |            12380 |        50951225 |                     0 |     187195649 | 2017-02-05 07:07:06.023438+01

 2017-02-05 07:53:51.689809+01 | 1486277631.68981 |                 0 |               9 |                 36416 |                 1466 |            1946294 |       1240183 |            12385 |        50951225 |                     0 |     187244143 | 2017-02-05 07:07:06.023438+01

 2017-02-05 07:53:52.780176+01 | 1486277632.78018 |                 0 |               9 |                 36416 |                 1466 |            1946294 |       1240683 |            12390 |        50951225 |                     0 |     187291015 | 2017-02-05 07:07:06.023438+01

 2017-02-05 07:53:53.871479+01 | 1486277633.87148 |                 0 |               9 |                 36416 |                 1466 |            1946294 |       1241283 |            12396 |        50951225 |                     0 |     187347924 | 2017-02-05 07:07:06.023438+01

 2017-02-05 07:53:54.947168+01 | 1486277634.94717 |                 0 |               9 |                 36416 |                 1466 |            1946294 |       1241783 |            12401 |        50951225 |                     0 |     187396004 | 2017-02-05 07:07:06.023438+01

 2017-02-05 07:53:56.025121+01 | 1486277636.02512 |                 0 |               9 |                 36416 |                 1466 |            1946294 |       1242383 |            12407 |        50951225 |                     0 |     187452933 | 2017-02-05 07:07:06.023438+01

 2017-02-05 07:53:57.102954+01 | 1486277637.10295 |                 0 |               9 |                 36416 |                 1466 |            1946294 |       1242883 |            12412 |        50951225 |                     0 |     187500975 | 2017-02-05 07:07:06.023438+01

 2017-02-05 07:53:58.183567+01 | 1486277638.18357 |                 0 |               9 |                 36416 |                 1466 |            1946294 |       1243383 |            12417 |        50951225 |                     0 |     187549307 | 2017-02-05 07:07:06.023438+01

 2017-02-05 07:53:59.266896+01 | 1486277639.2669 |                 0 |               9 |                 36416 |                 1466 |            1946294 |       1243983 |            12423 |        50951225 |                     0 |     187606751 | 2017-02-05 07:07:06.023438+01

 2017-02-05 07:54:00.335421+01 | 1486277640.33542 |                 0 |               9 |                 36416 |                 1466 |            1946294 |       1244483 |            12428 |        50951225 |                     0 |     187652149 | 2017-02-05 07:07:06.023438+01

 2017-02-05 07:54:01.407715+01 | 1486277641.40772 |                 0 |               9 |                 36416 |                 1466 |            1946294 |       1244983 |            12433 |        50951225 |                     0 |     187702510 | 2017-02-05 07:07:06.023438+01

 2017-02-05 07:54:02.498151+01 | 1486277642.49815 |                 0 |               9 |                 36416 |                 1466 |            1946294 |       1245583 |            12439 |        50951225 |                     0 |     187753327 | 2017-02-05 07:07:06.023438+01

 2017-02-05 07:54:03.586102+01 | 1486277643.5861 |                 0 |               9 |                 36416 |                 1466 |            1946294 |       1246083 |            12444 |        50951225 |                     0 |     187799818 | 2017-02-05 07:07:06.023438+01

 2017-02-05 07:54:04.672047+01 | 1486277644.67205 |                 0 |               9 |                 36416 |                 1466 |            1946294 |       1246583 |            12449 |        50951225 |                     0 |     187846736 | 2017-02-05 07:07:06.023438+01

 2017-02-05 07:54:05.753413+01 | 1486277645.75341 |                 0 |               9 |                 36416 |                 1466 |            1946294 |       1247183 |            12455 |        50951225 |                     0 |     187905373 | 2017-02-05 07:07:06.023438+01

 2017-02-05 07:54:06.840921+01 | 1486277646.84092 |                 0 |               9 |                 36416 |                 1466 |            1946294 |       1247683 |            12460 |        50951225 |                     0 |     187953609 | 2017-02-05 07:07:06.023438+01

 2017-02-05 07:54:07.918066+01 | 1486277647.91807 |                 0 |               9 |                 36416 |                 1466 |            1946294 |       1248283 |            12466 |        50951225 |                     0 |     188011488 | 2017-02-05 07:07:06.023438+01

 2017-02-05 07:54:08.999611+01 | 1486277648.99961 |                 0 |               9 |                 36416 |                 1466 |            1946294 |       1248783 |            12471 |        50951225 |                     0 |     188057864 | 2017-02-05 07:07:06.023438+01

 2017-02-05 07:54:10.083755+01 | 1486277650.08376 |                 0 |               9 |                 36416 |                 1466 |            1946294 |       1249283 |            12476 |        50951225 |                     0 |     188106860 | 2017-02-05 07:07:06.023438+01

 2017-02-05 07:54:11.172484+01 | 1486277651.17248 |                 0 |               9 |                 36416 |                 1466 |            1946294 |       1249883 |            12482 |        50951225 |                     0 |     188163227 | 2017-02-05 07:07:06.023438+01

 2017-02-05 07:54:12.249701+01 | 1486277652.2497 |                 0 |               9 |                 36416 |                 1466 |            1946294 |       1250383 |            12487 |        50951225 |                     0 |     188207977 | 2017-02-05 07:07:06.023438+01

 2017-02-05 07:54:13.337757+01 | 1486277653.33776 |                 0 |               9 |                 36416 |                 1466 |            1946294 |       1250883 |            12492 |        50951225 |                     0 |     188257875 | 2017-02-05 07:07:06.023438+01

 2017-02-05 07:54:14.428872+01 | 1486277654.42887 |                 0 |               9 |                 36416 |                 1466 |            1946294 |       1251483 |            12498 |        50951225 |                     0 |     188316533 | 2017-02-05 07:07:06.023438+01

 2017-02-05 07:54:15.50751+01 | 1486277655.50751 |                 0 |               9 |                 36416 |                 1466 |            1946294 |       1251983 |            12503 |        50951225 |                     0 |     188365749 | 2017-02-05 07:07:06.023438+01

 2017-02-05 07:54:16.59208+01 | 1486277656.59208 |                 0 |               9 |                 36416 |                 1466 |            1946294 |       1252583 |            12509 |        50951225 |                     0 |     188424984 | 2017-02-05 07:07:06.023438+01

 2017-02-05 07:54:17.67705+01 | 1486277657.67705 |                 0 |               9 |                 36416 |                 1466 |            1946294 |       1253083 |            12514 |        50951225 |                     0 |     188473963 | 2017-02-05 07:07:06.023438+01

 2017-02-05 07:54:18.761961+01 | 1486277658.76196 |                 0 |               9 |                 36416 |                 1466 |            1946294 |       1253583 |            12519 |        50951225 |                     0 |     188521259 | 2017-02-05 07:07:06.023438+01

 2017-02-05 07:54:19.843902+01 | 1486277659.8439 |                 0 |               9 |                 36416 |                 1466 |            1946294 |       1254183 |            12525 |        51453514 |                     0 |     188575751 | 2017-02-05 07:07:06.023438+01

 2017-02-05 07:54:20.918553+01 | 1486277660.91855 |                 0 |               9 |                 36416 |                 1466 |            1946294 |       1254683 |            12530 |        51453514 |                     0 |     188624848 | 2017-02-05 07:07:06.023438+01

 2017-02-05 07:54:21.997799+01 | 1486277661.9978 |                 0 |               9 |                 36416 |                 1466 |            1946294 |       1255183 |            12535 |        51453514 |                     0 |     188670763 | 2017-02-05 07:07:06.023438+01

 2017-02-05 07:54:23.090767+01 | 1486277663.09077 |                 0 |               9 |                 36416 |                 1466 |            1946294 |       1255783 |            12541 |        51453514 |                     0 |     188727578 | 2017-02-05 07:07:06.023438+01

 2017-02-05 07:54:24.168363+01 | 1486277664.16836 |                 0 |               9 |                 36416 |                 1466 |            1946294 |       1256283 |            12546 |        51453514 |                     0 |     188772569 | 2017-02-05 07:07:06.023438+01

 2017-02-05 07:54:25.245456+01 | 1486277665.24546 |                 0 |               9 |                 36416 |                 1466 |            1946294 |       1256783 |            12551 |        51453514 |                     0 |     188821006 | 2017-02-05 07:07:06.023438+01

 2017-02-05 07:54:26.334531+01 | 1486277666.33453 |                 0 |               9 |                 36416 |                 1466 |            1946294 |       1257383 |            12557 |        51453514 |                     0 |     188881055 | 2017-02-05 07:07:06.023438+01

 2017-02-05 07:54:27.415645+01 | 1486277667.41564 |                 0 |               9 |                 36416 |                 1466 |            1946294 |       1257883 |            12562 |        51453514 |                     0 |     188929325 | 2017-02-05 07:07:06.023438+01

 2017-02-05 07:54:28.506003+01 | 1486277668.506 |                 0 |               9 |                 36416 |                 1466 |            1946294 |       1258383 |            12567 |        51453514 |                     0 |     188975652 | 2017-02-05 07:07:06.023438+01

 2017-02-05 07:54:29.594062+01 | 1486277669.59406 |                 0 |               9 |                 36416 |                 1466 |            1946294 |       1258983 |            12573 |        51453514 |                     0 |     189029795 | 2017-02-05 07:07:06.023438+01

 2017-02-05 07:54:30.673823+01 | 1486277670.67382 |                 0 |               9 |                 36416 |                 1466 |            1946294 |       1259483 |            12578 |        51453514 |                     0 |     189078763 | 2017-02-05 07:07:06.023438+01

 2017-02-05 07:54:31.765329+01 | 1486277671.76533 |                 0 |               9 |                 36416 |                 1466 |            1946294 |       1260083 |            12584 |        51453514 |                     0 |     189135178 | 2017-02-05 07:07:06.023438+01

 2017-02-05 07:54:32.846936+01 | 1486277672.84694 |                 0 |               9 |                 36416 |                 1466 |            1946294 |       1260583 |            12589 |        51453514 |                     0 |     189183977 | 2017-02-05 07:07:06.023438+01

 2017-02-05 07:54:33.918207+01 | 1486277673.91821 |                 0 |               9 |                 36416 |                 1466 |            1946294 |       1261083 |            12594 |        51453514 |                     0 |     189231475 | 2017-02-05 07:07:06.023438+01

 2017-02-05 07:54:34.9883+01 | 1486277674.9883 |                 0 |               9 |                 36416 |                 1466 |            1946294 |       1261683 |            12600 |        51453514 |                     0 |     189289713 | 2017-02-05 07:07:06.023438+01

 2017-02-05 07:54:36.075604+01 | 1486277676.0756 |                 0 |               9 |                 36416 |                 1466 |            1946294 |       1262183 |            12605 |        51453514 |                     0 |     189336036 | 2017-02-05 07:07:06.023438+01

 2017-02-05 07:54:37.169122+01 | 1486277677.16912 |                 0 |               9 |                 36416 |                 1466 |            1946294 |       1262683 |            12610 |        51453514 |                     0 |     189383544 | 2017-02-05 07:07:06.023438+01

 2017-02-05 07:54:38.249588+01 | 1486277678.24959 |                 0 |               9 |                 36416 |                 1466 |            1946294 |       1263283 |            12616 |        51453514 |                     0 |     189439916 | 2017-02-05 07:07:06.023438+01

 2017-02-05 07:54:39.329853+01 | 1486277679.32985 |                 0 |               9 |                 36416 |                 1466 |            1946294 |       1263783 |            12621 |        51453514 |                     0 |     189489403 | 2017-02-05 07:07:06.023438+01

 2017-02-05 07:54:40.41774+01 | 1486277680.41774 |                 0 |               9 |                 36416 |                 1466 |            1946294 |       1264383 |            12627 |        51453514 |                     0 |     189548783 | 2017-02-05 07:07:06.023438+01

 2017-02-05 07:54:41.511896+01 | 1486277681.5119 |                 0 |               9 |                 36416 |                 1466 |            1946294 |       1264883 |            12632 |        51453514 |                     0 |     189595596 | 2017-02-05 07:07:06.023438+01

 2017-02-05 07:54:42.591487+01 | 1486277682.59149 |                 0 |               9 |                 36416 |                 1466 |            1946294 |       1265383 |            12637 |        51453514 |                     0 |     189644513 | 2017-02-05 07:07:06.023438+01

 2017-02-05 07:54:43.665662+01 | 1486277683.66566 |                 0 |               9 |                 36416 |                 1466 |            1946294 |       1265983 |            12643 |        51453514 |                     0 |     189702741 | 2017-02-05 07:07:06.023438+01

 2017-02-05 07:54:44.748561+01 | 1486277684.74856 |                 0 |               9 |                 36416 |                 1466 |            1946294 |       1266483 |            12648 |        51453514 |                     0 |     189750135 | 2017-02-05 07:07:06.023438+01

 2017-02-05 07:54:45.826758+01 | 1486277685.82676 |                 0 |               9 |                 36416 |                 1466 |            1946294 |       1266983 |            12653 |        51453514 |                     0 |     189798603 | 2017-02-05 07:07:06.023438+01

 2017-02-05 07:54:46.911061+01 | 1486277686.91106 |                 0 |               9 |                 36416 |                 1466 |            1946294 |       1267583 |            12659 |        51453514 |                     0 |     189851414 | 2017-02-05 07:07:06.023438+01

 2017-02-05 07:54:47.999446+01 | 1486277687.99945 |                 0 |               9 |                 36416 |                 1466 |            1946294 |       1268083 |            12664 |        51453514 |                     0 |     189898773 | 2017-02-05 07:07:06.023438+01

 2017-02-05 07:54:49.082297+01 | 1486277689.0823 |                 0 |               9 |                 36416 |                 1466 |            1946294 |       1268683 |            12670 |        51453514 |                     0 |     189955278 | 2017-02-05 07:07:06.023438+01

 2017-02-05 07:54:50.168879+01 | 1486277690.16888 |                 0 |               9 |                 36416 |                 1466 |            1946294 |       1269183 |            12675 |        51453514 |                     0 |     190003134 | 2017-02-05 07:07:06.023438+01

 2017-02-05 07:54:51.259638+01 | 1486277691.25964 |                 0 |               9 |                 36416 |                 1466 |            1946294 |       1269683 |            12680 |        51453514 |                     0 |     190050977 | 2017-02-05 07:07:06.023438+01

 2017-02-05 07:54:52.353583+01 | 1486277692.35358 |                 0 |               9 |                 36416 |                 1466 |            1946294 |       1270283 |            12686 |        51453514 |                     0 |     190111165 | 2017-02-05 07:07:06.023438+01

 2017-02-05 07:54:53.439726+01 | 1486277693.43973 |                 0 |               9 |                 36416 |                 1466 |            1946294 |       1270783 |            12691 |        51453514 |                     0 |     190159522 | 2017-02-05 07:07:06.023438+01

 2017-02-05 07:54:54.521196+01 | 1486277694.5212 |                 0 |               9 |                 36416 |                 1466 |            1946294 |       1271283 |            12696 |        51453514 |                     0 |     190204272 | 2017-02-05 07:07:06.023438+01

 2017-02-05 07:54:55.589994+01 | 1486277695.58999 |                 0 |               9 |                 36416 |                 1466 |            1946294 |       1271883 |            12702 |        51453514 |                     0 |     190261724 | 2017-02-05 07:07:06.023438+01

 2017-02-05 07:54:56.662473+01 | 1486277696.66247 |                 0 |               9 |                 36416 |                 1466 |            1946294 |       1272383 |            12707 |        51453514 |                     0 |     190308833 | 2017-02-05 07:07:06.023438+01

 2017-02-05 07:54:57.743028+01 | 1486277697.74303 |                 0 |               9 |                 36416 |                 1466 |            1946294 |       1272883 |            12712 |        51453514 |                     0 |     190353695 | 2017-02-05 07:07:06.023438+01

 2017-02-05 07:54:58.825576+01 | 1486277698.82558 |                 0 |               9 |                 36416 |                 1466 |            1946294 |       1273483 |            12718 |        51453514 |                     0 |     190412603 | 2017-02-05 07:07:06.023438+01

 2017-02-05 07:54:59.892961+01 | 1486277699.89296 |                 0 |               9 |                 36416 |                 1466 |            1946294 |       1273983 |            12723 |        51453514 |                     0 |     190461651 | 2017-02-05 07:07:06.023438+01

 2017-02-05 07:55:00.974787+01 | 1486277700.97479 |                 0 |               9 |                 36416 |                 1466 |            1946294 |       1274483 |            12728 |        51453514 |                     0 |     190508953 | 2017-02-05 07:07:06.023438+01

 2017-02-05 07:55:02.064298+01 | 1486277702.0643 |                 0 |               9 |                 36416 |                 1466 |            1946294 |       1275083 |            12734 |        51453514 |                     0 |     190567520 | 2017-02-05 07:07:06.023438+01

 2017-02-05 07:55:03.160308+01 | 1486277703.16031 |                 0 |               9 |                 36416 |                 1466 |            1946294 |       1275583 |            12739 |        51956203 |                     0 |     190614510 | 2017-02-05 07:07:06.023438+01

 2017-02-05 07:55:04.254479+01 | 1486277704.25448 |                 0 |               9 |                 36416 |                 1466 |            1946294 |       1276183 |            12745 |        51956203 |                     0 |     190669316 | 2017-02-05 07:07:06.023438+01

 2017-02-05 07:55:05.344222+01 | 1486277705.34422 |                 0 |               9 |                 36416 |                 1466 |            1946294 |       1276683 |            12750 |        51956203 |                     0 |     190718819 | 2017-02-05 07:07:06.023438+01

 2017-02-05 07:55:06.433447+01 | 1486277706.43345 |                 0 |               9 |                 36416 |                 1466 |            1946294 |       1277183 |            12755 |        51956203 |                     0 |     190765420 | 2017-02-05 07:07:06.023438+01

 2017-02-05 07:55:07.528697+01 | 1486277707.5287 |                 0 |               9 |                 36416 |                 1466 |            1946294 |       1277783 |            12761 |        51956203 |                     0 |     190823585 | 2017-02-05 07:07:06.023438+01

 2017-02-05 07:55:08.623859+01 | 1486277708.62386 |                 0 |               9 |                 36416 |                 1466 |            1946294 |       1278283 |            12766 |        51956203 |                     0 |     190871510 | 2017-02-05 07:07:06.023438+01

 2017-02-05 07:55:09.699553+01 | 1486277709.69955 |                 0 |               9 |                 36416 |                 1466 |            1946294 |       1278883 |            12772 |        51956203 |                     0 |     190931111 | 2017-02-05 07:07:06.023438+01

 2017-02-05 07:55:10.783565+01 | 1486277710.78357 |                 0 |               9 |                 36416 |                 1466 |            1946294 |       1279383 |            12777 |        51956203 |                     0 |     190979143 | 2017-02-05 07:07:06.023438+01

 2017-02-05 07:55:11.872614+01 | 1486277711.87261 |                 0 |               9 |                 36416 |                 1466 |            1946294 |       1279883 |            12782 |        51956203 |                     0 |     191024777 | 2017-02-05 07:07:06.023438+01

 2017-02-05 07:55:12.960272+01 | 1486277712.96027 |                 0 |               9 |                 36416 |                 1466 |            1946294 |       1280483 |            12788 |        51956203 |                     0 |     191076066 | 2017-02-05 07:07:06.023438+01

 2017-02-05 07:55:14.053472+01 | 1486277714.05347 |                 0 |               9 |                 36416 |                 1466 |            1946294 |       1280983 |            12793 |        51956203 |                     0 |     191119600 | 2017-02-05 07:07:06.023438+01

 2017-02-05 07:55:15.143617+01 | 1486277715.14362 |                 0 |               9 |                 36416 |                 1466 |            1946294 |       1281583 |            12799 |        51956203 |                     0 |     191163101 | 2017-02-05 07:07:06.023438+01

 2017-02-05 07:55:16.223188+01 | 1486277716.22319 |                 0 |               9 |                 36416 |                 1466 |            1946294 |       1282083 |            12804 |        51956203 |                     0 |     191203327 | 2017-02-05 07:07:06.023438+01

 2017-02-05 07:55:17.31398+01 | 1486277717.31398 |                 0 |               9 |                 36416 |                 1466 |            1946294 |       1282583 |            12809 |        51956203 |                     0 |     191245554 | 2017-02-05 07:07:06.023438+01

 2017-02-05 07:55:18.408739+01 | 1486277718.40874 |                 0 |               9 |                 36416 |                 1466 |            1946294 |       1283183 |            12815 |        51956203 |                     0 |     191302548 | 2017-02-05 07:07:06.023438+01

 2017-02-05 07:55:19.493143+01 | 1486277719.49314 |                 0 |               9 |                 36416 |                 1466 |            1946294 |       1283683 |            12820 |        51956203 |                     0 |     191348963 | 2017-02-05 07:07:06.023438+01

 2017-02-05 07:55:20.573588+01 | 1486277720.57359 |                 0 |               9 |                 36416 |                 1466 |            1946294 |       1284283 |            12826 |        51956203 |                     0 |     191406277 | 2017-02-05 07:07:06.023438+01

 2017-02-05 07:55:21.646416+01 | 1486277721.64642 |                 0 |               9 |                 36416 |                 1466 |            1946294 |       1284783 |            12831 |        51956203 |                     0 |     191453546 | 2017-02-05 07:07:06.023438+01

 2017-02-05 07:55:22.732269+01 | 1486277722.73227 |                 0 |               9 |                 36416 |                 1466 |            1946294 |       1285283 |            12836 |        51956203 |                     0 |     191496585 | 2017-02-05 07:07:06.023438+01

 2017-02-05 07:55:23.814834+01 | 1486277723.81483 |                 0 |               9 |                 36416 |                 1466 |            1946294 |       1285883 |            12842 |        51956203 |                     0 |     191550866 | 2017-02-05 07:07:06.023438+01

 2017-02-05 07:55:24.894687+01 | 1486277724.89469 |                 0 |               9 |                 36416 |                 1466 |            1946294 |       1286383 |            12847 |        51956203 |                     0 |     191597585 | 2017-02-05 07:07:06.023438+01

 2017-02-05 07:55:25.974744+01 | 1486277725.97474 |                 0 |               9 |                 36416 |                 1466 |            1946294 |       1286883 |            12852 |        51956203 |                     0 |     191643164 | 2017-02-05 07:07:06.023438+01

 2017-02-05 07:55:27.060533+01 | 1486277727.06053 |                 0 |               9 |                 36416 |                 1466 |            1946294 |       1287483 |            12858 |        51956203 |                     0 |     191699800 | 2017-02-05 07:07:06.023438+01

 2017-02-05 07:55:28.134092+01 | 1486277728.13409 |                 0 |               9 |                 36416 |                 1466 |            1946294 |       1287983 |            12863 |        51956203 |                     0 |     191744520 | 2017-02-05 07:07:06.023438+01

 2017-02-05 07:55:29.224831+01 | 1486277729.22483 |                 0 |               9 |                 36416 |                 1466 |            1946294 |       1288483 |            12868 |        51956203 |                     0 |     191791143 | 2017-02-05 07:07:06.023438+01

 2017-02-05 07:55:30.294889+01 | 1486277730.29489 |                 0 |               9 |                 36416 |                 1466 |            1946294 |       1289083 |            12874 |        51956203 |                     0 |     191848767 | 2017-02-05 07:07:06.023438+01

 2017-02-05 07:55:31.381661+01 | 1486277731.38166 |                 0 |               9 |                 36416 |                 1466 |            1946294 |       1289583 |            12879 |        51956203 |                     0 |     191894180 | 2017-02-05 07:07:06.023438+01

 2017-02-05 07:55:32.463799+01 | 1486277732.4638 |                 0 |               9 |                 36416 |                 1466 |            1946294 |       1290183 |            12885 |        51956203 |                     0 |     191950301 | 2017-02-05 07:07:06.023438+01

 2017-02-05 07:55:33.54162+01 | 1486277733.54162 |                 0 |               9 |                 36416 |                 1466 |            1946294 |       1290683 |            12890 |        51956203 |                     0 |     191997553 | 2017-02-05 07:07:06.023438+01

 2017-02-05 07:55:34.621372+01 | 1486277734.62137 |                 0 |               9 |                 36416 |                 1466 |            1946294 |       1291183 |            12895 |        51956203 |                     0 |     192042282 | 2017-02-05 07:07:06.023438+01

 2017-02-05 07:55:35.708175+01 | 1486277735.70817 |                 0 |               9 |                 36416 |                 1466 |            1946294 |       1291783 |            12901 |        51956203 |                     0 |     192093114 | 2017-02-05 07:07:06.023438+01

 2017-02-05 07:55:36.785558+01 | 1486277736.78556 |                 0 |               9 |                 36416 |                 1466 |            1946294 |       1292283 |            12906 |        51956203 |                     0 |     192134331 | 2017-02-05 07:07:06.023438+01

 2017-02-05 07:55:37.849078+01 | 1486277737.84908 |                 0 |               9 |                 36416 |                 1466 |            1946294 |       1292683 |            12910 |        51956203 |                     0 |     192164577 | 2017-02-05 07:07:06.023438+01

 2017-02-05 07:55:38.937957+01 | 1486277738.93796 |                 0 |               9 |                 36416 |                 1466 |            1946294 |       1293383 |            12917 |        51956203 |                     0 |     192220231 | 2017-02-05 07:07:06.023438+01

 2017-02-05 07:55:40.02252+01 | 1486277740.02252 |                 0 |               9 |                 36416 |                 1466 |            1946294 |       1293883 |            12922 |        51956203 |                     0 |     192257811 | 2017-02-05 07:07:06.023438+01

 2017-02-05 07:55:41.102192+01 | 1486277741.10219 |                 0 |               9 |                 36416 |                 1466 |            1946294 |       1294383 |            12927 |        51956203 |                     0 |     192302318 | 2017-02-05 07:07:06.023438+01

 2017-02-05 07:55:42.190025+01 | 1486277742.19003 |                 0 |               9 |                 36416 |                 1466 |            1946294 |       1294983 |            12933 |        51956203 |                     0 |     192347734 | 2017-02-05 07:07:06.023438+01

 2017-02-05 07:55:43.26892+01 | 1486277743.26892 |                 0 |               9 |                 36416 |                 1466 |            1946294 |       1295483 |            12938 |        51956203 |                     0 |     192388087 | 2017-02-05 07:07:06.023438+01

 2017-02-05 07:55:44.351977+01 | 1486277744.35198 |                 0 |               9 |                 36416 |                 1466 |            1946294 |       1295983 |            12943 |        51956203 |                     0 |     192426072 | 2017-02-05 07:07:06.023438+01

 2017-02-05 07:55:45.433831+01 | 1486277745.43383 |                 0 |               9 |                 36416 |                 1466 |            1946294 |       1296583 |            12949 |        51956203 |                     0 |     192475943 | 2017-02-05 07:07:06.023438+01

 2017-02-05 07:55:46.518344+01 | 1486277746.51834 |                 0 |               9 |                 36416 |                 1466 |            1946294 |       1297083 |            12954 |        51956203 |                     0 |     192520465 | 2017-02-05 07:07:06.023438+01

 2017-02-05 07:55:47.60483+01 | 1486277747.60483 |                 0 |               9 |                 36416 |                 1466 |            1946294 |       1297583 |            12959 |        51956203 |                     0 |     192565909 | 2017-02-05 07:07:06.023438+01

 2017-02-05 07:55:48.688309+01 | 1486277748.68831 |                 0 |               9 |                 36416 |                 1466 |            1946294 |       1298183 |            12965 |        51956203 |                     0 |     192620460 | 2017-02-05 07:07:06.023438+01

 2017-02-05 07:55:49.768719+01 | 1486277749.76872 |                 0 |               9 |                 36416 |                 1466 |            1946294 |       1298683 |            12970 |        52457491 |                     0 |     192663644 | 2017-02-05 07:07:06.023438+01

 2017-02-05 07:55:50.860196+01 | 1486277750.8602 |                 0 |               9 |                 36416 |                 1466 |            1946294 |       1299283 |            12976 |        52457491 |                     0 |     192713761 | 2017-02-05 07:07:06.023438+01

 2017-02-05 07:55:51.949776+01 | 1486277751.94978 |                 0 |               9 |                 36416 |                 1466 |            1946294 |       1299783 |            12981 |        52457491 |                     0 |     192762389 | 2017-02-05 07:07:06.023438+01

 2017-02-05 07:55:53.028419+01 | 1486277753.02842 |                 0 |               9 |                 36416 |                 1466 |            1946294 |       1300283 |            12986 |        52457491 |                     0 |     192808810 | 2017-02-05 07:07:06.023438+01

 2017-02-05 07:55:54.115936+01 | 1486277754.11594 |                 0 |               9 |                 36416 |                 1466 |            1946294 |       1300883 |            12992 |        52457491 |                     0 |     192869746 | 2017-02-05 07:07:06.023438+01

 2017-02-05 07:55:55.192827+01 | 1486277755.19283 |                 0 |               9 |                 36416 |                 1466 |            1946294 |       1301383 |            12997 |        52457491 |                     0 |     192919814 | 2017-02-05 07:07:06.023438+01

 2017-02-05 07:55:56.277464+01 | 1486277756.27746 |                 0 |               9 |                 36416 |                 1466 |            1946294 |       1301883 |            13002 |        52457491 |                     0 |     192968164 | 2017-02-05 07:07:06.023438+01

 2017-02-05 07:55:57.360831+01 | 1486277757.36083 |                 0 |               9 |                 36416 |                 1466 |            1946294 |       1302483 |            13008 |        52457491 |                     0 |     193024477 | 2017-02-05 07:07:06.023438+01

 2017-02-05 07:55:58.446291+01 | 1486277758.44629 |                 0 |               9 |                 36416 |                 1466 |            1946294 |       1302983 |            13013 |        52457491 |                     0 |     193070748 | 2017-02-05 07:07:06.023438+01

 2017-02-05 07:55:59.521109+01 | 1486277759.52111 |                 0 |               9 |                 36416 |                 1466 |            1946294 |       1303583 |            13019 |        52457491 |                     0 |     193125655 | 2017-02-05 07:07:06.023438+01

 2017-02-05 07:56:00.610998+01 | 1486277760.611 |                 0 |               9 |                 36416 |                 1466 |            1946294 |       1304083 |            13024 |        52457491 |                     0 |     193168683 | 2017-02-05 07:07:06.023438+01

 2017-02-05 07:56:01.693937+01 | 1486277761.69394 |                 0 |               9 |                 36416 |                 1466 |            1946294 |       1304583 |            13029 |        52457491 |                     0 |     193216844 | 2017-02-05 07:07:06.023438+01

 2017-02-05 07:56:02.767805+01 | 1486277762.76781 |                 0 |               9 |                 36416 |                 1466 |            1946294 |       1305183 |            13035 |        52457491 |                     0 |     193273766 | 2017-02-05 07:07:06.023438+01

 2017-02-05 07:56:03.843821+01 | 1486277763.84382 |                 0 |               9 |                 36416 |                 1466 |            1946294 |       1305683 |            13040 |        52457491 |                     0 |     193322041 | 2017-02-05 07:07:06.023438+01

 2017-02-05 07:56:04.924308+01 | 1486277764.92431 |                 0 |               9 |                 36416 |                 1466 |            1946294 |       1306183 |            13045 |        52457491 |                     0 |     193369297 | 2017-02-05 07:07:06.023438+01

 2017-02-05 07:56:05.99833+01 | 1486277765.99833 |                 0 |               9 |                 36416 |                 1466 |            1946294 |       1306783 |            13051 |        52457491 |                     0 |     193427847 | 2017-02-05 07:07:06.023438+01

 2017-02-05 07:56:07.072935+01 | 1486277767.07294 |                 0 |               9 |                 36416 |                 1466 |            1946294 |       1307283 |            13056 |        52457491 |                     0 |     193474843 | 2017-02-05 07:07:06.023438+01

 2017-02-05 07:56:08.161601+01 | 1486277768.1616 |                 0 |               9 |                 36416 |                 1466 |            1946294 |       1307783 |            13061 |        52457491 |                     0 |     193521510 | 2017-02-05 07:07:06.023438+01

 2017-02-05 07:56:09.239289+01 | 1486277769.23929 |                 0 |               9 |                 36416 |                 1466 |            1946294 |       1308383 |            13067 |        52457491 |                     0 |     193575310 | 2017-02-05 07:07:06.023438+01

 2017-02-05 07:56:10.323345+01 | 1486277770.32334 |                 0 |               9 |                 36416 |                 1466 |            1946294 |       1308883 |            13072 |        52457491 |                     0 |     193611977 | 2017-02-05 07:07:06.023438+01

 2017-02-05 07:56:11.415203+01 | 1486277771.4152 |                 0 |               9 |                 36416 |                 1466 |            1946294 |       1309383 |            13077 |        52457491 |                     0 |     193646179 | 2017-02-05 07:07:06.023438+01

 2017-02-05 07:56:12.488671+01 | 1486277772.48867 |                 0 |               9 |                 36416 |                 1466 |            1946294 |       1309983 |            13083 |        52457491 |                     0 |     193695504 | 2017-02-05 07:07:06.023438+01

 2017-02-05 07:56:13.569027+01 | 1486277773.56903 |                 0 |               9 |                 36416 |                 1466 |            1946294 |       1310483 |            13088 |        52457491 |                     0 |     193737307 | 2017-02-05 07:07:06.023438+01

 2017-02-05 07:56:14.638695+01 | 1486277774.6387 |                 0 |               9 |                 36416 |                 1466 |            1946294 |       1310983 |            13093 |        52457491 |                     0 |     193781441 | 2017-02-05 07:07:06.023438+01

 2017-02-05 07:56:15.725604+01 | 1486277775.7256 |                 0 |               9 |                 36416 |                 1466 |            1946294 |       1311583 |            13099 |        52457491 |                     0 |     193834886 | 2017-02-05 07:07:06.023438+01

 2017-02-05 07:56:16.807775+01 | 1486277776.80778 |                 0 |               9 |                 36416 |                 1466 |            1946294 |       1312083 |            13104 |        52457491 |                     0 |     193879710 | 2017-02-05 07:07:06.023438+01

 2017-02-05 07:56:17.890934+01 | 1486277777.89093 |                 0 |               9 |                 36416 |                 1466 |            1946294 |       1312683 |            13110 |        52457491 |                     0 |     193935430 | 2017-02-05 07:07:06.023438+01

 2017-02-05 07:56:18.967716+01 | 1486277778.96772 |                 0 |               9 |                 36416 |                 1466 |            1946294 |       1313183 |            13115 |        52457491 |                     0 |     193980575 | 2017-02-05 07:07:06.023438+01

 2017-02-05 07:56:20.041739+01 | 1486277780.04174 |                 0 |               9 |                 36416 |                 1466 |            1946294 |       1313683 |            13120 |        52457491 |                     0 |     194026408 | 2017-02-05 07:07:06.023438+01

 2017-02-05 07:56:21.128622+01 | 1486277781.12862 |                 0 |               9 |                 36416 |                 1466 |            1946294 |       1314283 |            13126 |        52457491 |                     0 |     194082350 | 2017-02-05 07:07:06.023438+01

 2017-02-05 07:56:22.217092+01 | 1486277782.21709 |                 0 |               9 |                 36416 |                 1466 |            1946294 |       1314783 |            13131 |        52457491 |                     0 |     194129498 | 2017-02-05 07:07:06.023438+01

 2017-02-05 07:56:23.291341+01 | 1486277783.29134 |                 0 |               9 |                 36416 |                 1466 |            1946294 |       1315283 |            13136 |        52457491 |                     0 |     194178345 | 2017-02-05 07:07:06.023438+01

 2017-02-05 07:56:24.375726+01 | 1486277784.37573 |                 0 |               9 |                 36416 |                 1466 |            1946294 |       1315883 |            13142 |        52457491 |                     0 |     194234814 | 2017-02-05 07:07:06.023438+01

 2017-02-05 07:56:25.459341+01 | 1486277785.45934 |                 0 |               9 |                 36416 |                 1466 |            1946294 |       1316383 |            13147 |        52457491 |                     0 |     194281900 | 2017-02-05 07:07:06.023438+01

 2017-02-05 07:56:26.547289+01 | 1486277786.54729 |                 0 |               9 |                 36416 |                 1466 |            1946294 |       1316883 |            13152 |        52457491 |                     0 |     194327250 | 2017-02-05 07:07:06.023438+01

 2017-02-05 07:56:27.634237+01 | 1486277787.63424 |                 0 |               9 |                 36416 |                 1466 |            1946294 |       1317483 |            13158 |        52457491 |                     0 |     194379084 | 2017-02-05 07:07:06.023438+01

 2017-02-05 07:56:28.716315+01 | 1486277788.71632 |                 0 |               9 |                 36416 |                 1466 |            1946294 |       1317983 |            13163 |        52457491 |                     0 |     194425213 | 2017-02-05 07:07:06.023438+01

 2017-02-05 07:56:29.784337+01 | 1486277789.78434 |                 0 |               9 |                 36416 |                 1466 |            1946294 |       1318583 |            13169 |        52457491 |                     0 |     194482008 | 2017-02-05 07:07:06.023438+01

 2017-02-05 07:56:30.864887+01 | 1486277790.86489 |                 0 |               9 |                 36416 |                 1466 |            1946294 |       1319083 |            13174 |        52457491 |                     0 |     194530216 | 2017-02-05 07:07:06.023438+01

 2017-02-05 07:56:31.952011+01 | 1486277791.95201 |                 0 |               9 |                 36416 |                 1466 |            1946294 |       1319583 |            13179 |        52457491 |                     0 |     194577747 | 2017-02-05 07:07:06.023438+01

 2017-02-05 07:56:33.033363+01 | 1486277793.03336 |                 0 |               9 |                 36416 |                 1466 |            1946294 |       1320183 |            13185 |        52457491 |                     0 |     194633177 | 2017-02-05 07:07:06.023438+01

 2017-02-05 07:56:34.123258+01 | 1486277794.12326 |                 0 |               9 |                 36416 |                 1466 |            1946294 |       1320683 |            13190 |        52457491 |                     0 |     194679169 | 2017-02-05 07:07:06.023438+01

 2017-02-05 07:56:35.202782+01 | 1486277795.20278 |                 0 |               9 |                 36416 |                 1466 |            1946294 |       1321183 |            13195 |        52959379 |                     0 |     194725321 | 2017-02-05 07:07:06.023438+01

 2017-02-05 07:56:36.27644+01 | 1486277796.27644 |                 0 |               9 |                 36416 |                 1466 |            1946294 |       1321783 |            13201 |        52959379 |                     0 |     194781944 | 2017-02-05 07:07:06.023438+01

 2017-02-05 07:56:37.352974+01 | 1486277797.35297 |                 0 |               9 |                 36416 |                 1466 |            1946294 |       1322283 |            13206 |        52959379 |                     0 |     194829734 | 2017-02-05 07:07:06.023438+01

 2017-02-05 07:56:38.42498+01 | 1486277798.42498 |                 0 |               9 |                 36416 |                 1466 |            1946294 |       1322783 |            13211 |        52959379 |                     0 |     194875949 | 2017-02-05 07:07:06.023438+01

 2017-02-05 07:56:39.503325+01 | 1486277799.50332 |                 0 |               9 |                 36416 |                 1466 |            1946294 |       1323383 |            13217 |        52959379 |                     0 |     194926377 | 2017-02-05 07:07:06.023438+01

 2017-02-05 07:56:40.579897+01 | 1486277800.5799 |                 0 |               9 |                 36416 |                 1466 |            1946294 |       1323883 |            13222 |        52959379 |                     0 |     194973103 | 2017-02-05 07:07:06.023438+01

 2017-02-05 07:56:41.65194+01 | 1486277801.65194 |                 0 |               9 |                 36416 |                 1466 |            1946294 |       1324383 |            13227 |        52959379 |                     0 |     195022270 | 2017-02-05 07:07:06.023438+01

 2017-02-05 07:56:42.733813+01 | 1486277802.73381 |                 0 |               9 |                 36416 |                 1466 |            1946294 |       1324983 |            13233 |        52959379 |                     0 |     195079536 | 2017-02-05 07:07:06.023438+01

 2017-02-05 07:56:43.821261+01 | 1486277803.82126 |                 0 |               9 |                 36416 |                 1466 |            1946294 |       1325483 |            13238 |        52959379 |                     0 |     195126068 | 2017-02-05 07:07:06.023438+01

 2017-02-05 07:56:44.902753+01 | 1486277804.90275 |                 0 |               9 |                 36416 |                 1466 |            1946294 |       1325983 |            13243 |        52959379 |                     0 |     195171468 | 2017-02-05 07:07:06.023438+01

 2017-02-05 07:56:45.976126+01 | 1486277805.97613 |                 0 |               9 |                 36416 |                 1466 |            1946294 |       1326583 |            13249 |        52959379 |                     0 |     195228688 | 2017-02-05 07:07:06.023438+01

 2017-02-05 07:56:47.047495+01 | 1486277807.04749 |                 0 |               9 |                 36416 |                 1466 |            1946294 |       1327083 |            13254 |        52959379 |                     0 |     195276089 | 2017-02-05 07:07:06.023438+01

 2017-02-05 07:56:48.123864+01 | 1486277808.12386 |                 0 |               9 |                 36416 |                 1466 |            1946294 |       1327583 |            13259 |        52959379 |                     0 |     195323072 | 2017-02-05 07:07:06.023438+01

 2017-02-05 07:56:49.208261+01 | 1486277809.20826 |                 0 |               9 |                 36416 |                 1466 |            1946294 |       1328183 |            13265 |        52959379 |                     0 |     195378320 | 2017-02-05 07:07:06.023438+01

 2017-02-05 07:56:50.287186+01 | 1486277810.28719 |                 0 |               9 |                 36416 |                 1466 |            1946294 |       1328683 |            13270 |        52959379 |                     0 |     195423850 | 2017-02-05 07:07:06.023438+01

 2017-02-05 07:56:51.371538+01 | 1486277811.37154 |                 0 |               9 |                 36416 |                 1466 |            1946294 |       1329183 |            13275 |        52959379 |                     0 |     195468748 | 2017-02-05 07:07:06.023438+01

