 2017-02-03 15:51:32.141835+01 | 1486133492.14183 | pgbench_branches_pkey |            40960
 2017-02-03 15:51:32.141835+01 | 1486133492.14183 | pgbench_tellers_pkey  |           245760
 2017-02-03 15:51:32.141835+01 | 1486133492.14183 | pgbench_accounts_pkey |       2246197248

 2017-02-03 15:51:33.243763+01 | 1486133493.24376 | pgbench_branches_pkey |            40960
 2017-02-03 15:51:33.243763+01 | 1486133493.24376 | pgbench_tellers_pkey  |           245760
 2017-02-03 15:51:33.243763+01 | 1486133493.24376 | pgbench_accounts_pkey |       2246197248

 2017-02-03 15:51:34.334629+01 | 1486133494.33463 | pgbench_branches_pkey |            40960
 2017-02-03 15:51:34.334629+01 | 1486133494.33463 | pgbench_tellers_pkey  |           245760
 2017-02-03 15:51:34.334629+01 | 1486133494.33463 | pgbench_accounts_pkey |       2246197248

 2017-02-03 15:51:35.434439+01 | 1486133495.43444 | pgbench_branches_pkey |            40960
 2017-02-03 15:51:35.434439+01 | 1486133495.43444 | pgbench_tellers_pkey  |           245760
 2017-02-03 15:51:35.434439+01 | 1486133495.43444 | pgbench_accounts_pkey |       2246197248

 2017-02-03 15:51:36.53953+01 | 1486133496.53953 | pgbench_branches_pkey |            40960
 2017-02-03 15:51:36.53953+01 | 1486133496.53953 | pgbench_tellers_pkey  |           245760
 2017-02-03 15:51:36.53953+01 | 1486133496.53953 | pgbench_accounts_pkey |       2246197248

 2017-02-03 15:51:37.640938+01 | 1486133497.64094 | pgbench_branches_pkey |            40960
 2017-02-03 15:51:37.640938+01 | 1486133497.64094 | pgbench_tellers_pkey  |           245760
 2017-02-03 15:51:37.640938+01 | 1486133497.64094 | pgbench_accounts_pkey |       2246197248

 2017-02-03 15:51:38.739976+01 | 1486133498.73998 | pgbench_branches_pkey |            40960
 2017-02-03 15:51:38.739976+01 | 1486133498.73998 | pgbench_tellers_pkey  |           245760
 2017-02-03 15:51:38.739976+01 | 1486133498.73998 | pgbench_accounts_pkey |       2246197248

 2017-02-03 15:51:39.837347+01 | 1486133499.83735 | pgbench_branches_pkey |            40960
 2017-02-03 15:51:39.837347+01 | 1486133499.83735 | pgbench_tellers_pkey  |           245760
 2017-02-03 15:51:39.837347+01 | 1486133499.83735 | pgbench_accounts_pkey |       2246197248

 2017-02-03 15:51:40.922661+01 | 1486133500.92266 | pgbench_branches_pkey |            40960
 2017-02-03 15:51:40.922661+01 | 1486133500.92266 | pgbench_tellers_pkey  |           245760
 2017-02-03 15:51:40.922661+01 | 1486133500.92266 | pgbench_accounts_pkey |       2246197248

 2017-02-03 15:51:42.009253+01 | 1486133502.00925 | pgbench_branches_pkey |            40960
 2017-02-03 15:51:42.009253+01 | 1486133502.00925 | pgbench_tellers_pkey  |           245760
 2017-02-03 15:51:42.009253+01 | 1486133502.00925 | pgbench_accounts_pkey |       2246197248

 2017-02-03 15:51:43.097691+01 | 1486133503.09769 | pgbench_branches_pkey |            40960
 2017-02-03 15:51:43.097691+01 | 1486133503.09769 | pgbench_tellers_pkey  |           245760
 2017-02-03 15:51:43.097691+01 | 1486133503.09769 | pgbench_accounts_pkey |       2246197248

 2017-02-03 15:51:44.179365+01 | 1486133504.17936 | pgbench_branches_pkey |            40960
 2017-02-03 15:51:44.179365+01 | 1486133504.17936 | pgbench_tellers_pkey  |           245760
 2017-02-03 15:51:44.179365+01 | 1486133504.17936 | pgbench_accounts_pkey |       2246197248

 2017-02-03 15:51:45.272745+01 | 1486133505.27274 | pgbench_branches_pkey |            40960
 2017-02-03 15:51:45.272745+01 | 1486133505.27274 | pgbench_tellers_pkey  |           245760
 2017-02-03 15:51:45.272745+01 | 1486133505.27274 | pgbench_accounts_pkey |       2246197248

 2017-02-03 15:51:46.364941+01 | 1486133506.36494 | pgbench_branches_pkey |            40960
 2017-02-03 15:51:46.364941+01 | 1486133506.36494 | pgbench_tellers_pkey  |           245760
 2017-02-03 15:51:46.364941+01 | 1486133506.36494 | pgbench_accounts_pkey |       2246197248

 2017-02-03 15:51:47.465525+01 | 1486133507.46552 | pgbench_branches_pkey |            40960
 2017-02-03 15:51:47.465525+01 | 1486133507.46552 | pgbench_tellers_pkey  |           245760
 2017-02-03 15:51:47.465525+01 | 1486133507.46552 | pgbench_accounts_pkey |       2246197248

 2017-02-03 15:51:48.552185+01 | 1486133508.55219 | pgbench_branches_pkey |            40960
 2017-02-03 15:51:48.552185+01 | 1486133508.55219 | pgbench_tellers_pkey  |           245760
 2017-02-03 15:51:48.552185+01 | 1486133508.55219 | pgbench_accounts_pkey |       2246197248

 2017-02-03 15:51:49.632314+01 | 1486133509.63231 | pgbench_branches_pkey |            40960
 2017-02-03 15:51:49.632314+01 | 1486133509.63231 | pgbench_tellers_pkey  |           245760
 2017-02-03 15:51:49.632314+01 | 1486133509.63231 | pgbench_accounts_pkey |       2246197248

 2017-02-03 15:51:50.720692+01 | 1486133510.72069 | pgbench_branches_pkey |            40960
 2017-02-03 15:51:50.720692+01 | 1486133510.72069 | pgbench_tellers_pkey  |           245760
 2017-02-03 15:51:50.720692+01 | 1486133510.72069 | pgbench_accounts_pkey |       2246197248

 2017-02-03 15:51:51.811232+01 | 1486133511.81123 | pgbench_branches_pkey |            40960
 2017-02-03 15:51:51.811232+01 | 1486133511.81123 | pgbench_tellers_pkey  |           245760
 2017-02-03 15:51:51.811232+01 | 1486133511.81123 | pgbench_accounts_pkey |       2246197248

 2017-02-03 15:51:52.899811+01 | 1486133512.89981 | pgbench_branches_pkey |            40960
 2017-02-03 15:51:52.899811+01 | 1486133512.89981 | pgbench_tellers_pkey  |           245760
 2017-02-03 15:51:52.899811+01 | 1486133512.89981 | pgbench_accounts_pkey |       2246197248

 2017-02-03 15:51:53.992226+01 | 1486133513.99223 | pgbench_branches_pkey |            40960
 2017-02-03 15:51:53.992226+01 | 1486133513.99223 | pgbench_tellers_pkey  |           245760
 2017-02-03 15:51:53.992226+01 | 1486133513.99223 | pgbench_accounts_pkey |       2246197248

 2017-02-03 15:51:55.077797+01 | 1486133515.0778 | pgbench_branches_pkey |            40960
 2017-02-03 15:51:55.077797+01 | 1486133515.0778 | pgbench_tellers_pkey  |           245760
 2017-02-03 15:51:55.077797+01 | 1486133515.0778 | pgbench_accounts_pkey |       2246197248

 2017-02-03 15:51:56.16755+01 | 1486133516.16755 | pgbench_branches_pkey |            40960
 2017-02-03 15:51:56.16755+01 | 1486133516.16755 | pgbench_tellers_pkey  |           245760
 2017-02-03 15:51:56.16755+01 | 1486133516.16755 | pgbench_accounts_pkey |       2246197248

 2017-02-03 15:51:57.263802+01 | 1486133517.2638 | pgbench_branches_pkey |            40960
 2017-02-03 15:51:57.263802+01 | 1486133517.2638 | pgbench_tellers_pkey  |           245760
 2017-02-03 15:51:57.263802+01 | 1486133517.2638 | pgbench_accounts_pkey |       2246197248

 2017-02-03 15:51:58.355324+01 | 1486133518.35532 | pgbench_branches_pkey |            40960
 2017-02-03 15:51:58.355324+01 | 1486133518.35532 | pgbench_tellers_pkey  |           245760
 2017-02-03 15:51:58.355324+01 | 1486133518.35532 | pgbench_accounts_pkey |       2246197248

 2017-02-03 15:51:59.441596+01 | 1486133519.4416 | pgbench_branches_pkey |            40960
 2017-02-03 15:51:59.441596+01 | 1486133519.4416 | pgbench_tellers_pkey  |           245760
 2017-02-03 15:51:59.441596+01 | 1486133519.4416 | pgbench_accounts_pkey |       2246197248

 2017-02-03 15:52:00.543052+01 | 1486133520.54305 | pgbench_branches_pkey |            40960
 2017-02-03 15:52:00.543052+01 | 1486133520.54305 | pgbench_tellers_pkey  |           245760
 2017-02-03 15:52:00.543052+01 | 1486133520.54305 | pgbench_accounts_pkey |       2246197248

 2017-02-03 15:52:01.636371+01 | 1486133521.63637 | pgbench_branches_pkey |            40960
 2017-02-03 15:52:01.636371+01 | 1486133521.63637 | pgbench_tellers_pkey  |           245760
 2017-02-03 15:52:01.636371+01 | 1486133521.63637 | pgbench_accounts_pkey |       2246197248

 2017-02-03 15:52:02.738288+01 | 1486133522.73829 | pgbench_branches_pkey |            40960
 2017-02-03 15:52:02.738288+01 | 1486133522.73829 | pgbench_tellers_pkey  |           245760
 2017-02-03 15:52:02.738288+01 | 1486133522.73829 | pgbench_accounts_pkey |       2246197248

 2017-02-03 15:52:03.826826+01 | 1486133523.82683 | pgbench_branches_pkey |            40960
 2017-02-03 15:52:03.826826+01 | 1486133523.82683 | pgbench_tellers_pkey  |           245760
 2017-02-03 15:52:03.826826+01 | 1486133523.82683 | pgbench_accounts_pkey |       2246197248

 2017-02-03 15:52:04.921447+01 | 1486133524.92145 | pgbench_branches_pkey |            40960
 2017-02-03 15:52:04.921447+01 | 1486133524.92145 | pgbench_tellers_pkey  |           245760
 2017-02-03 15:52:04.921447+01 | 1486133524.92145 | pgbench_accounts_pkey |       2246197248

 2017-02-03 15:52:06.01552+01 | 1486133526.01552 | pgbench_branches_pkey |            40960
 2017-02-03 15:52:06.01552+01 | 1486133526.01552 | pgbench_tellers_pkey  |           245760
 2017-02-03 15:52:06.01552+01 | 1486133526.01552 | pgbench_accounts_pkey |       2246197248

 2017-02-03 15:52:07.107038+01 | 1486133527.10704 | pgbench_branches_pkey |            40960
 2017-02-03 15:52:07.107038+01 | 1486133527.10704 | pgbench_tellers_pkey  |           245760
 2017-02-03 15:52:07.107038+01 | 1486133527.10704 | pgbench_accounts_pkey |       2246197248

 2017-02-03 15:52:08.197507+01 | 1486133528.19751 | pgbench_branches_pkey |            40960
 2017-02-03 15:52:08.197507+01 | 1486133528.19751 | pgbench_tellers_pkey  |           245760
 2017-02-03 15:52:08.197507+01 | 1486133528.19751 | pgbench_accounts_pkey |       2246197248

 2017-02-03 15:52:09.29457+01 | 1486133529.29457 | pgbench_branches_pkey |            40960
 2017-02-03 15:52:09.29457+01 | 1486133529.29457 | pgbench_tellers_pkey  |           245760
 2017-02-03 15:52:09.29457+01 | 1486133529.29457 | pgbench_accounts_pkey |       2246197248

 2017-02-03 15:52:10.383562+01 | 1486133530.38356 | pgbench_branches_pkey |            40960
 2017-02-03 15:52:10.383562+01 | 1486133530.38356 | pgbench_tellers_pkey  |           245760
 2017-02-03 15:52:10.383562+01 | 1486133530.38356 | pgbench_accounts_pkey |       2246197248

 2017-02-03 15:52:11.475077+01 | 1486133531.47508 | pgbench_branches_pkey |            40960
 2017-02-03 15:52:11.475077+01 | 1486133531.47508 | pgbench_tellers_pkey  |           245760
 2017-02-03 15:52:11.475077+01 | 1486133531.47508 | pgbench_accounts_pkey |       2246197248

 2017-02-03 15:52:12.565423+01 | 1486133532.56542 | pgbench_branches_pkey |            40960
 2017-02-03 15:52:12.565423+01 | 1486133532.56542 | pgbench_tellers_pkey  |           245760
 2017-02-03 15:52:12.565423+01 | 1486133532.56542 | pgbench_accounts_pkey |       2246197248

 2017-02-03 15:52:13.653741+01 | 1486133533.65374 | pgbench_branches_pkey |            40960
 2017-02-03 15:52:13.653741+01 | 1486133533.65374 | pgbench_tellers_pkey  |           245760
 2017-02-03 15:52:13.653741+01 | 1486133533.65374 | pgbench_accounts_pkey |       2246197248

 2017-02-03 15:52:14.745268+01 | 1486133534.74527 | pgbench_branches_pkey |            40960
 2017-02-03 15:52:14.745268+01 | 1486133534.74527 | pgbench_tellers_pkey  |           245760
 2017-02-03 15:52:14.745268+01 | 1486133534.74527 | pgbench_accounts_pkey |       2246197248

 2017-02-03 15:52:15.845932+01 | 1486133535.84593 | pgbench_branches_pkey |            40960
 2017-02-03 15:52:15.845932+01 | 1486133535.84593 | pgbench_tellers_pkey  |           245760
 2017-02-03 15:52:15.845932+01 | 1486133535.84593 | pgbench_accounts_pkey |       2246197248

 2017-02-03 15:52:16.943525+01 | 1486133536.94353 | pgbench_branches_pkey |            40960
 2017-02-03 15:52:16.943525+01 | 1486133536.94353 | pgbench_tellers_pkey  |           245760
 2017-02-03 15:52:16.943525+01 | 1486133536.94353 | pgbench_accounts_pkey |       2246197248

 2017-02-03 15:52:18.040605+01 | 1486133538.04061 | pgbench_branches_pkey |            40960
 2017-02-03 15:52:18.040605+01 | 1486133538.04061 | pgbench_tellers_pkey  |           245760
 2017-02-03 15:52:18.040605+01 | 1486133538.04061 | pgbench_accounts_pkey |       2246197248

 2017-02-03 15:52:19.128902+01 | 1486133539.1289 | pgbench_branches_pkey |            40960
 2017-02-03 15:52:19.128902+01 | 1486133539.1289 | pgbench_tellers_pkey  |           245760
 2017-02-03 15:52:19.128902+01 | 1486133539.1289 | pgbench_accounts_pkey |       2246197248

 2017-02-03 15:52:20.226654+01 | 1486133540.22665 | pgbench_branches_pkey |            40960
 2017-02-03 15:52:20.226654+01 | 1486133540.22665 | pgbench_tellers_pkey  |           245760
 2017-02-03 15:52:20.226654+01 | 1486133540.22665 | pgbench_accounts_pkey |       2246197248

 2017-02-03 15:52:21.315768+01 | 1486133541.31577 | pgbench_branches_pkey |            40960
 2017-02-03 15:52:21.315768+01 | 1486133541.31577 | pgbench_tellers_pkey  |           245760
 2017-02-03 15:52:21.315768+01 | 1486133541.31577 | pgbench_accounts_pkey |       2246197248

 2017-02-03 15:52:22.415043+01 | 1486133542.41504 | pgbench_branches_pkey |            40960
 2017-02-03 15:52:22.415043+01 | 1486133542.41504 | pgbench_tellers_pkey  |           245760
 2017-02-03 15:52:22.415043+01 | 1486133542.41504 | pgbench_accounts_pkey |       2246197248

 2017-02-03 15:52:23.509258+01 | 1486133543.50926 | pgbench_branches_pkey |            40960
 2017-02-03 15:52:23.509258+01 | 1486133543.50926 | pgbench_tellers_pkey  |           245760
 2017-02-03 15:52:23.509258+01 | 1486133543.50926 | pgbench_accounts_pkey |       2246197248

 2017-02-03 15:52:24.604189+01 | 1486133544.60419 | pgbench_branches_pkey |            40960
 2017-02-03 15:52:24.604189+01 | 1486133544.60419 | pgbench_tellers_pkey  |           245760
 2017-02-03 15:52:24.604189+01 | 1486133544.60419 | pgbench_accounts_pkey |       2246197248

 2017-02-03 15:52:25.709273+01 | 1486133545.70927 | pgbench_branches_pkey |            40960
 2017-02-03 15:52:25.709273+01 | 1486133545.70927 | pgbench_tellers_pkey  |           245760
 2017-02-03 15:52:25.709273+01 | 1486133545.70927 | pgbench_accounts_pkey |       2246197248

 2017-02-03 15:52:26.798289+01 | 1486133546.79829 | pgbench_branches_pkey |            40960
 2017-02-03 15:52:26.798289+01 | 1486133546.79829 | pgbench_tellers_pkey  |           245760
 2017-02-03 15:52:26.798289+01 | 1486133546.79829 | pgbench_accounts_pkey |       2246197248

 2017-02-03 15:52:27.884151+01 | 1486133547.88415 | pgbench_branches_pkey |            40960
 2017-02-03 15:52:27.884151+01 | 1486133547.88415 | pgbench_tellers_pkey  |           245760
 2017-02-03 15:52:27.884151+01 | 1486133547.88415 | pgbench_accounts_pkey |       2246197248

 2017-02-03 15:52:28.959132+01 | 1486133548.95913 | pgbench_branches_pkey |            40960
 2017-02-03 15:52:28.959132+01 | 1486133548.95913 | pgbench_tellers_pkey  |           245760
 2017-02-03 15:52:28.959132+01 | 1486133548.95913 | pgbench_accounts_pkey |       2246197248

 2017-02-03 15:52:30.0608+01 | 1486133550.0608 | pgbench_branches_pkey |            40960
 2017-02-03 15:52:30.0608+01 | 1486133550.0608 | pgbench_tellers_pkey  |           245760
 2017-02-03 15:52:30.0608+01 | 1486133550.0608 | pgbench_accounts_pkey |       2246197248

 2017-02-03 15:52:31.155149+01 | 1486133551.15515 | pgbench_branches_pkey |            40960
 2017-02-03 15:52:31.155149+01 | 1486133551.15515 | pgbench_tellers_pkey  |           245760
 2017-02-03 15:52:31.155149+01 | 1486133551.15515 | pgbench_accounts_pkey |       2246197248

 2017-02-03 15:52:32.246029+01 | 1486133552.24603 | pgbench_branches_pkey |            40960
 2017-02-03 15:52:32.246029+01 | 1486133552.24603 | pgbench_tellers_pkey  |           245760
 2017-02-03 15:52:32.246029+01 | 1486133552.24603 | pgbench_accounts_pkey |       2246197248

 2017-02-03 15:52:33.339189+01 | 1486133553.33919 | pgbench_branches_pkey |            40960
 2017-02-03 15:52:33.339189+01 | 1486133553.33919 | pgbench_tellers_pkey  |           245760
 2017-02-03 15:52:33.339189+01 | 1486133553.33919 | pgbench_accounts_pkey |       2246197248

 2017-02-03 15:52:34.435652+01 | 1486133554.43565 | pgbench_branches_pkey |            40960
 2017-02-03 15:52:34.435652+01 | 1486133554.43565 | pgbench_tellers_pkey  |           245760
 2017-02-03 15:52:34.435652+01 | 1486133554.43565 | pgbench_accounts_pkey |       2246197248

 2017-02-03 15:52:35.528756+01 | 1486133555.52876 | pgbench_branches_pkey |            40960
 2017-02-03 15:52:35.528756+01 | 1486133555.52876 | pgbench_tellers_pkey  |           245760
 2017-02-03 15:52:35.528756+01 | 1486133555.52876 | pgbench_accounts_pkey |       2246197248

 2017-02-03 15:52:36.622668+01 | 1486133556.62267 | pgbench_branches_pkey |            40960
 2017-02-03 15:52:36.622668+01 | 1486133556.62267 | pgbench_tellers_pkey  |           245760
 2017-02-03 15:52:36.622668+01 | 1486133556.62267 | pgbench_accounts_pkey |       2246197248

 2017-02-03 15:52:37.717444+01 | 1486133557.71744 | pgbench_branches_pkey |            40960
 2017-02-03 15:52:37.717444+01 | 1486133557.71744 | pgbench_tellers_pkey  |           245760
 2017-02-03 15:52:37.717444+01 | 1486133557.71744 | pgbench_accounts_pkey |       2246197248

 2017-02-03 15:52:38.804895+01 | 1486133558.80489 | pgbench_branches_pkey |            40960
 2017-02-03 15:52:38.804895+01 | 1486133558.80489 | pgbench_tellers_pkey  |           245760
 2017-02-03 15:52:38.804895+01 | 1486133558.80489 | pgbench_accounts_pkey |       2246197248

 2017-02-03 15:52:39.896528+01 | 1486133559.89653 | pgbench_branches_pkey |            40960
 2017-02-03 15:52:39.896528+01 | 1486133559.89653 | pgbench_tellers_pkey  |           245760
 2017-02-03 15:52:39.896528+01 | 1486133559.89653 | pgbench_accounts_pkey |       2246197248

 2017-02-03 15:52:40.993299+01 | 1486133560.9933 | pgbench_branches_pkey |            40960
 2017-02-03 15:52:40.993299+01 | 1486133560.9933 | pgbench_tellers_pkey  |           245760
 2017-02-03 15:52:40.993299+01 | 1486133560.9933 | pgbench_accounts_pkey |       2246197248

 2017-02-03 15:52:42.088883+01 | 1486133562.08888 | pgbench_branches_pkey |            40960
 2017-02-03 15:52:42.088883+01 | 1486133562.08888 | pgbench_tellers_pkey  |           245760
 2017-02-03 15:52:42.088883+01 | 1486133562.08888 | pgbench_accounts_pkey |       2246197248

 2017-02-03 15:52:43.182534+01 | 1486133563.18253 | pgbench_branches_pkey |            40960
 2017-02-03 15:52:43.182534+01 | 1486133563.18253 | pgbench_tellers_pkey  |           245760
 2017-02-03 15:52:43.182534+01 | 1486133563.18253 | pgbench_accounts_pkey |       2246197248

 2017-02-03 15:52:44.27626+01 | 1486133564.27626 | pgbench_branches_pkey |            40960
 2017-02-03 15:52:44.27626+01 | 1486133564.27626 | pgbench_tellers_pkey  |           245760
 2017-02-03 15:52:44.27626+01 | 1486133564.27626 | pgbench_accounts_pkey |       2246197248

 2017-02-03 15:52:45.380915+01 | 1486133565.38091 | pgbench_branches_pkey |            40960
 2017-02-03 15:52:45.380915+01 | 1486133565.38091 | pgbench_tellers_pkey  |           245760
 2017-02-03 15:52:45.380915+01 | 1486133565.38091 | pgbench_accounts_pkey |       2246197248

 2017-02-03 15:52:46.474909+01 | 1486133566.47491 | pgbench_branches_pkey |            40960
 2017-02-03 15:52:46.474909+01 | 1486133566.47491 | pgbench_tellers_pkey  |           245760
 2017-02-03 15:52:46.474909+01 | 1486133566.47491 | pgbench_accounts_pkey |       2246197248

 2017-02-03 15:52:47.564868+01 | 1486133567.56487 | pgbench_branches_pkey |            40960
 2017-02-03 15:52:47.564868+01 | 1486133567.56487 | pgbench_tellers_pkey  |           245760
 2017-02-03 15:52:47.564868+01 | 1486133567.56487 | pgbench_accounts_pkey |       2246197248

 2017-02-03 15:52:48.666928+01 | 1486133568.66693 | pgbench_branches_pkey |            40960
 2017-02-03 15:52:48.666928+01 | 1486133568.66693 | pgbench_tellers_pkey  |           245760
 2017-02-03 15:52:48.666928+01 | 1486133568.66693 | pgbench_accounts_pkey |       2246197248

 2017-02-03 15:52:49.769303+01 | 1486133569.7693 | pgbench_branches_pkey |            40960
 2017-02-03 15:52:49.769303+01 | 1486133569.7693 | pgbench_tellers_pkey  |           245760
 2017-02-03 15:52:49.769303+01 | 1486133569.7693 | pgbench_accounts_pkey |       2246197248

 2017-02-03 15:52:50.874994+01 | 1486133570.87499 | pgbench_branches_pkey |            40960
 2017-02-03 15:52:50.874994+01 | 1486133570.87499 | pgbench_tellers_pkey  |           245760
 2017-02-03 15:52:50.874994+01 | 1486133570.87499 | pgbench_accounts_pkey |       2246197248

 2017-02-03 15:52:51.971941+01 | 1486133571.97194 | pgbench_branches_pkey |            40960
 2017-02-03 15:52:51.971941+01 | 1486133571.97194 | pgbench_tellers_pkey  |           245760
 2017-02-03 15:52:51.971941+01 | 1486133571.97194 | pgbench_accounts_pkey |       2246197248

 2017-02-03 15:52:53.053899+01 | 1486133573.0539 | pgbench_branches_pkey |            40960
 2017-02-03 15:52:53.053899+01 | 1486133573.0539 | pgbench_tellers_pkey  |           245760
 2017-02-03 15:52:53.053899+01 | 1486133573.0539 | pgbench_accounts_pkey |       2246197248

 2017-02-03 15:52:54.139755+01 | 1486133574.13976 | pgbench_branches_pkey |            40960
 2017-02-03 15:52:54.139755+01 | 1486133574.13976 | pgbench_tellers_pkey  |           245760
 2017-02-03 15:52:54.139755+01 | 1486133574.13976 | pgbench_accounts_pkey |       2246197248

 2017-02-03 15:52:55.220818+01 | 1486133575.22082 | pgbench_branches_pkey |            40960
 2017-02-03 15:52:55.220818+01 | 1486133575.22082 | pgbench_tellers_pkey  |           245760
 2017-02-03 15:52:55.220818+01 | 1486133575.22082 | pgbench_accounts_pkey |       2246197248

 2017-02-03 15:52:56.327609+01 | 1486133576.32761 | pgbench_branches_pkey |            40960
 2017-02-03 15:52:56.327609+01 | 1486133576.32761 | pgbench_tellers_pkey  |           245760
 2017-02-03 15:52:56.327609+01 | 1486133576.32761 | pgbench_accounts_pkey |       2246197248

 2017-02-03 15:52:57.422342+01 | 1486133577.42234 | pgbench_branches_pkey |            40960
 2017-02-03 15:52:57.422342+01 | 1486133577.42234 | pgbench_tellers_pkey  |           245760
 2017-02-03 15:52:57.422342+01 | 1486133577.42234 | pgbench_accounts_pkey |       2246197248

 2017-02-03 15:52:58.525646+01 | 1486133578.52565 | pgbench_branches_pkey |            40960
 2017-02-03 15:52:58.525646+01 | 1486133578.52565 | pgbench_tellers_pkey  |           245760
 2017-02-03 15:52:58.525646+01 | 1486133578.52565 | pgbench_accounts_pkey |       2246197248

 2017-02-03 15:52:59.609579+01 | 1486133579.60958 | pgbench_branches_pkey |            40960
 2017-02-03 15:52:59.609579+01 | 1486133579.60958 | pgbench_tellers_pkey  |           245760
 2017-02-03 15:52:59.609579+01 | 1486133579.60958 | pgbench_accounts_pkey |       2246197248

 2017-02-03 15:53:00.71249+01 | 1486133580.71249 | pgbench_branches_pkey |            40960
 2017-02-03 15:53:00.71249+01 | 1486133580.71249 | pgbench_tellers_pkey  |           245760
 2017-02-03 15:53:00.71249+01 | 1486133580.71249 | pgbench_accounts_pkey |       2246197248

 2017-02-03 15:53:01.806621+01 | 1486133581.80662 | pgbench_branches_pkey |            40960
 2017-02-03 15:53:01.806621+01 | 1486133581.80662 | pgbench_tellers_pkey  |           245760
 2017-02-03 15:53:01.806621+01 | 1486133581.80662 | pgbench_accounts_pkey |       2246197248

 2017-02-03 15:53:02.895267+01 | 1486133582.89527 | pgbench_branches_pkey |            40960
 2017-02-03 15:53:02.895267+01 | 1486133582.89527 | pgbench_tellers_pkey  |           245760
 2017-02-03 15:53:02.895267+01 | 1486133582.89527 | pgbench_accounts_pkey |       2246197248

 2017-02-03 15:53:03.987142+01 | 1486133583.98714 | pgbench_branches_pkey |            40960
 2017-02-03 15:53:03.987142+01 | 1486133583.98714 | pgbench_tellers_pkey  |           245760
 2017-02-03 15:53:03.987142+01 | 1486133583.98714 | pgbench_accounts_pkey |       2246197248

 2017-02-03 15:53:05.066542+01 | 1486133585.06654 | pgbench_branches_pkey |            40960
 2017-02-03 15:53:05.066542+01 | 1486133585.06654 | pgbench_tellers_pkey  |           245760
 2017-02-03 15:53:05.066542+01 | 1486133585.06654 | pgbench_accounts_pkey |       2246197248

 2017-02-03 15:53:06.152808+01 | 1486133586.15281 | pgbench_branches_pkey |            40960
 2017-02-03 15:53:06.152808+01 | 1486133586.15281 | pgbench_tellers_pkey  |           245760
 2017-02-03 15:53:06.152808+01 | 1486133586.15281 | pgbench_accounts_pkey |       2246197248

 2017-02-03 15:53:07.256677+01 | 1486133587.25668 | pgbench_branches_pkey |            40960
 2017-02-03 15:53:07.256677+01 | 1486133587.25668 | pgbench_tellers_pkey  |           245760
 2017-02-03 15:53:07.256677+01 | 1486133587.25668 | pgbench_accounts_pkey |       2246197248

 2017-02-03 15:53:08.345707+01 | 1486133588.34571 | pgbench_branches_pkey |            40960
 2017-02-03 15:53:08.345707+01 | 1486133588.34571 | pgbench_tellers_pkey  |           245760
 2017-02-03 15:53:08.345707+01 | 1486133588.34571 | pgbench_accounts_pkey |       2246197248

 2017-02-03 15:53:09.430752+01 | 1486133589.43075 | pgbench_branches_pkey |            40960
 2017-02-03 15:53:09.430752+01 | 1486133589.43075 | pgbench_tellers_pkey  |           245760
 2017-02-03 15:53:09.430752+01 | 1486133589.43075 | pgbench_accounts_pkey |       2246197248

 2017-02-03 15:53:10.521946+01 | 1486133590.52195 | pgbench_branches_pkey |            40960
 2017-02-03 15:53:10.521946+01 | 1486133590.52195 | pgbench_tellers_pkey  |           245760
 2017-02-03 15:53:10.521946+01 | 1486133590.52195 | pgbench_accounts_pkey |       2246197248

 2017-02-03 15:53:11.636095+01 | 1486133591.6361 | pgbench_branches_pkey |            40960
 2017-02-03 15:53:11.636095+01 | 1486133591.6361 | pgbench_tellers_pkey  |           245760
 2017-02-03 15:53:11.636095+01 | 1486133591.6361 | pgbench_accounts_pkey |       2246197248

 2017-02-03 15:53:12.72439+01 | 1486133592.72439 | pgbench_branches_pkey |            40960
 2017-02-03 15:53:12.72439+01 | 1486133592.72439 | pgbench_tellers_pkey  |           245760
 2017-02-03 15:53:12.72439+01 | 1486133592.72439 | pgbench_accounts_pkey |       2246197248

 2017-02-03 15:53:13.821918+01 | 1486133593.82192 | pgbench_branches_pkey |            40960
 2017-02-03 15:53:13.821918+01 | 1486133593.82192 | pgbench_tellers_pkey  |           245760
 2017-02-03 15:53:13.821918+01 | 1486133593.82192 | pgbench_accounts_pkey |       2246197248

 2017-02-03 15:53:14.91955+01 | 1486133594.91955 | pgbench_branches_pkey |            40960
 2017-02-03 15:53:14.91955+01 | 1486133594.91955 | pgbench_tellers_pkey  |           245760
 2017-02-03 15:53:14.91955+01 | 1486133594.91955 | pgbench_accounts_pkey |       2246197248

 2017-02-03 15:53:16.014046+01 | 1486133596.01405 | pgbench_branches_pkey |            40960
 2017-02-03 15:53:16.014046+01 | 1486133596.01405 | pgbench_tellers_pkey  |           245760
 2017-02-03 15:53:16.014046+01 | 1486133596.01405 | pgbench_accounts_pkey |       2246197248

 2017-02-03 15:53:17.107183+01 | 1486133597.10718 | pgbench_branches_pkey |            40960
 2017-02-03 15:53:17.107183+01 | 1486133597.10718 | pgbench_tellers_pkey  |           245760
 2017-02-03 15:53:17.107183+01 | 1486133597.10718 | pgbench_accounts_pkey |       2246197248

 2017-02-03 15:53:18.198954+01 | 1486133598.19895 | pgbench_branches_pkey |            40960
 2017-02-03 15:53:18.198954+01 | 1486133598.19895 | pgbench_tellers_pkey  |           245760
 2017-02-03 15:53:18.198954+01 | 1486133598.19895 | pgbench_accounts_pkey |       2246197248

 2017-02-03 15:53:19.292086+01 | 1486133599.29209 | pgbench_branches_pkey |            40960
 2017-02-03 15:53:19.292086+01 | 1486133599.29209 | pgbench_tellers_pkey  |           245760
 2017-02-03 15:53:19.292086+01 | 1486133599.29209 | pgbench_accounts_pkey |       2246197248

 2017-02-03 15:53:20.376619+01 | 1486133600.37662 | pgbench_branches_pkey |            40960
 2017-02-03 15:53:20.376619+01 | 1486133600.37662 | pgbench_tellers_pkey  |           245760
 2017-02-03 15:53:20.376619+01 | 1486133600.37662 | pgbench_accounts_pkey |       2246197248

 2017-02-03 15:53:21.474012+01 | 1486133601.47401 | pgbench_branches_pkey |            40960
 2017-02-03 15:53:21.474012+01 | 1486133601.47401 | pgbench_tellers_pkey  |           245760
 2017-02-03 15:53:21.474012+01 | 1486133601.47401 | pgbench_accounts_pkey |       2246197248

 2017-02-03 15:53:22.571339+01 | 1486133602.57134 | pgbench_branches_pkey |            40960
 2017-02-03 15:53:22.571339+01 | 1486133602.57134 | pgbench_tellers_pkey  |           245760
 2017-02-03 15:53:22.571339+01 | 1486133602.57134 | pgbench_accounts_pkey |       2246197248

 2017-02-03 15:53:23.676608+01 | 1486133603.67661 | pgbench_branches_pkey |            40960
 2017-02-03 15:53:23.676608+01 | 1486133603.67661 | pgbench_tellers_pkey  |           245760
 2017-02-03 15:53:23.676608+01 | 1486133603.67661 | pgbench_accounts_pkey |       2246197248

 2017-02-03 15:53:24.769126+01 | 1486133604.76913 | pgbench_branches_pkey |            40960
 2017-02-03 15:53:24.769126+01 | 1486133604.76913 | pgbench_tellers_pkey  |           245760
 2017-02-03 15:53:24.769126+01 | 1486133604.76913 | pgbench_accounts_pkey |       2246197248

 2017-02-03 15:53:25.871025+01 | 1486133605.87103 | pgbench_branches_pkey |            40960
 2017-02-03 15:53:25.871025+01 | 1486133605.87103 | pgbench_tellers_pkey  |           245760
 2017-02-03 15:53:25.871025+01 | 1486133605.87103 | pgbench_accounts_pkey |       2246197248

 2017-02-03 15:53:26.960054+01 | 1486133606.96005 | pgbench_branches_pkey |            40960
 2017-02-03 15:53:26.960054+01 | 1486133606.96005 | pgbench_tellers_pkey  |           245760
 2017-02-03 15:53:26.960054+01 | 1486133606.96005 | pgbench_accounts_pkey |       2246197248

 2017-02-03 15:53:28.054236+01 | 1486133608.05424 | pgbench_branches_pkey |            40960
 2017-02-03 15:53:28.054236+01 | 1486133608.05424 | pgbench_tellers_pkey  |           245760
 2017-02-03 15:53:28.054236+01 | 1486133608.05424 | pgbench_accounts_pkey |       2246197248

 2017-02-03 15:53:29.154017+01 | 1486133609.15402 | pgbench_branches_pkey |            40960
 2017-02-03 15:53:29.154017+01 | 1486133609.15402 | pgbench_tellers_pkey  |           245760
 2017-02-03 15:53:29.154017+01 | 1486133609.15402 | pgbench_accounts_pkey |       2246197248

 2017-02-03 15:53:30.249878+01 | 1486133610.24988 | pgbench_branches_pkey |            40960
 2017-02-03 15:53:30.249878+01 | 1486133610.24988 | pgbench_tellers_pkey  |           245760
 2017-02-03 15:53:30.249878+01 | 1486133610.24988 | pgbench_accounts_pkey |       2246197248

 2017-02-03 15:53:31.339129+01 | 1486133611.33913 | pgbench_branches_pkey |            40960
 2017-02-03 15:53:31.339129+01 | 1486133611.33913 | pgbench_tellers_pkey  |           245760
 2017-02-03 15:53:31.339129+01 | 1486133611.33913 | pgbench_accounts_pkey |       2246197248

 2017-02-03 15:53:32.433017+01 | 1486133612.43302 | pgbench_branches_pkey |            40960
 2017-02-03 15:53:32.433017+01 | 1486133612.43302 | pgbench_tellers_pkey  |           245760
 2017-02-03 15:53:32.433017+01 | 1486133612.43302 | pgbench_accounts_pkey |       2246197248

 2017-02-03 15:53:33.530561+01 | 1486133613.53056 | pgbench_branches_pkey |            40960
 2017-02-03 15:53:33.530561+01 | 1486133613.53056 | pgbench_tellers_pkey  |           245760
 2017-02-03 15:53:33.530561+01 | 1486133613.53056 | pgbench_accounts_pkey |       2246197248

 2017-02-03 15:53:34.628345+01 | 1486133614.62835 | pgbench_branches_pkey |            40960
 2017-02-03 15:53:34.628345+01 | 1486133614.62835 | pgbench_tellers_pkey  |           245760
 2017-02-03 15:53:34.628345+01 | 1486133614.62835 | pgbench_accounts_pkey |       2246197248

 2017-02-03 15:53:35.713822+01 | 1486133615.71382 | pgbench_branches_pkey |            40960
 2017-02-03 15:53:35.713822+01 | 1486133615.71382 | pgbench_tellers_pkey  |           245760
 2017-02-03 15:53:35.713822+01 | 1486133615.71382 | pgbench_accounts_pkey |       2246197248

 2017-02-03 15:53:36.814778+01 | 1486133616.81478 | pgbench_branches_pkey |            40960
 2017-02-03 15:53:36.814778+01 | 1486133616.81478 | pgbench_tellers_pkey  |           245760
 2017-02-03 15:53:36.814778+01 | 1486133616.81478 | pgbench_accounts_pkey |       2246197248

 2017-02-03 15:53:37.909654+01 | 1486133617.90965 | pgbench_branches_pkey |            40960
 2017-02-03 15:53:37.909654+01 | 1486133617.90965 | pgbench_tellers_pkey  |           245760
 2017-02-03 15:53:37.909654+01 | 1486133617.90965 | pgbench_accounts_pkey |       2246197248

 2017-02-03 15:53:38.998193+01 | 1486133618.99819 | pgbench_branches_pkey |            40960
 2017-02-03 15:53:38.998193+01 | 1486133618.99819 | pgbench_tellers_pkey  |           245760
 2017-02-03 15:53:38.998193+01 | 1486133618.99819 | pgbench_accounts_pkey |       2246197248

 2017-02-03 15:53:40.093482+01 | 1486133620.09348 | pgbench_branches_pkey |            40960
 2017-02-03 15:53:40.093482+01 | 1486133620.09348 | pgbench_tellers_pkey  |           245760
 2017-02-03 15:53:40.093482+01 | 1486133620.09348 | pgbench_accounts_pkey |       2246197248

 2017-02-03 15:53:41.200477+01 | 1486133621.20048 | pgbench_branches_pkey |            40960
 2017-02-03 15:53:41.200477+01 | 1486133621.20048 | pgbench_tellers_pkey  |           245760
 2017-02-03 15:53:41.200477+01 | 1486133621.20048 | pgbench_accounts_pkey |       2246197248

 2017-02-03 15:53:42.286306+01 | 1486133622.28631 | pgbench_branches_pkey |            40960
 2017-02-03 15:53:42.286306+01 | 1486133622.28631 | pgbench_tellers_pkey  |           245760
 2017-02-03 15:53:42.286306+01 | 1486133622.28631 | pgbench_accounts_pkey |       2246197248

 2017-02-03 15:53:43.368037+01 | 1486133623.36804 | pgbench_branches_pkey |            40960
 2017-02-03 15:53:43.368037+01 | 1486133623.36804 | pgbench_tellers_pkey  |           245760
 2017-02-03 15:53:43.368037+01 | 1486133623.36804 | pgbench_accounts_pkey |       2246197248

 2017-02-03 15:53:44.456571+01 | 1486133624.45657 | pgbench_branches_pkey |            40960
 2017-02-03 15:53:44.456571+01 | 1486133624.45657 | pgbench_tellers_pkey  |           245760
 2017-02-03 15:53:44.456571+01 | 1486133624.45657 | pgbench_accounts_pkey |       2246197248

 2017-02-03 15:53:45.553501+01 | 1486133625.5535 | pgbench_branches_pkey |            40960
 2017-02-03 15:53:45.553501+01 | 1486133625.5535 | pgbench_tellers_pkey  |           245760
 2017-02-03 15:53:45.553501+01 | 1486133625.5535 | pgbench_accounts_pkey |       2246197248

 2017-02-03 15:53:46.646746+01 | 1486133626.64675 | pgbench_branches_pkey |            40960
 2017-02-03 15:53:46.646746+01 | 1486133626.64675 | pgbench_tellers_pkey  |           245760
 2017-02-03 15:53:46.646746+01 | 1486133626.64675 | pgbench_accounts_pkey |       2246197248

 2017-02-03 15:53:47.747471+01 | 1486133627.74747 | pgbench_branches_pkey |            40960
 2017-02-03 15:53:47.747471+01 | 1486133627.74747 | pgbench_tellers_pkey  |           245760
 2017-02-03 15:53:47.747471+01 | 1486133627.74747 | pgbench_accounts_pkey |       2246197248

 2017-02-03 15:53:48.838015+01 | 1486133628.83802 | pgbench_branches_pkey |            40960
 2017-02-03 15:53:48.838015+01 | 1486133628.83802 | pgbench_tellers_pkey  |           245760
 2017-02-03 15:53:48.838015+01 | 1486133628.83802 | pgbench_accounts_pkey |       2246197248

 2017-02-03 15:53:49.936705+01 | 1486133629.93671 | pgbench_branches_pkey |            40960
 2017-02-03 15:53:49.936705+01 | 1486133629.93671 | pgbench_tellers_pkey  |           245760
 2017-02-03 15:53:49.936705+01 | 1486133629.93671 | pgbench_accounts_pkey |       2246197248

 2017-02-03 15:53:51.034452+01 | 1486133631.03445 | pgbench_branches_pkey |            40960
 2017-02-03 15:53:51.034452+01 | 1486133631.03445 | pgbench_tellers_pkey  |           245760
 2017-02-03 15:53:51.034452+01 | 1486133631.03445 | pgbench_accounts_pkey |       2246197248

 2017-02-03 15:53:52.132403+01 | 1486133632.1324 | pgbench_branches_pkey |            40960
 2017-02-03 15:53:52.132403+01 | 1486133632.1324 | pgbench_tellers_pkey  |           245760
 2017-02-03 15:53:52.132403+01 | 1486133632.1324 | pgbench_accounts_pkey |       2246197248

 2017-02-03 15:53:53.226645+01 | 1486133633.22664 | pgbench_branches_pkey |            40960
 2017-02-03 15:53:53.226645+01 | 1486133633.22664 | pgbench_tellers_pkey  |           245760
 2017-02-03 15:53:53.226645+01 | 1486133633.22664 | pgbench_accounts_pkey |       2246197248

 2017-02-03 15:53:54.329391+01 | 1486133634.32939 | pgbench_branches_pkey |            40960
 2017-02-03 15:53:54.329391+01 | 1486133634.32939 | pgbench_tellers_pkey  |           245760
 2017-02-03 15:53:54.329391+01 | 1486133634.32939 | pgbench_accounts_pkey |       2246197248

 2017-02-03 15:53:55.42922+01 | 1486133635.42922 | pgbench_branches_pkey |            40960
 2017-02-03 15:53:55.42922+01 | 1486133635.42922 | pgbench_tellers_pkey  |           245760
 2017-02-03 15:53:55.42922+01 | 1486133635.42922 | pgbench_accounts_pkey |       2246197248

 2017-02-03 15:53:56.515256+01 | 1486133636.51526 | pgbench_branches_pkey |            40960
 2017-02-03 15:53:56.515256+01 | 1486133636.51526 | pgbench_tellers_pkey  |           245760
 2017-02-03 15:53:56.515256+01 | 1486133636.51526 | pgbench_accounts_pkey |       2246197248

 2017-02-03 15:53:57.615165+01 | 1486133637.61516 | pgbench_branches_pkey |            40960
 2017-02-03 15:53:57.615165+01 | 1486133637.61516 | pgbench_tellers_pkey  |           245760
 2017-02-03 15:53:57.615165+01 | 1486133637.61516 | pgbench_accounts_pkey |       2246197248

 2017-02-03 15:53:58.705794+01 | 1486133638.70579 | pgbench_branches_pkey |            40960
 2017-02-03 15:53:58.705794+01 | 1486133638.70579 | pgbench_tellers_pkey  |           245760
 2017-02-03 15:53:58.705794+01 | 1486133638.70579 | pgbench_accounts_pkey |       2246197248

 2017-02-03 15:53:59.795326+01 | 1486133639.79533 | pgbench_branches_pkey |            40960
 2017-02-03 15:53:59.795326+01 | 1486133639.79533 | pgbench_tellers_pkey  |           245760
 2017-02-03 15:53:59.795326+01 | 1486133639.79533 | pgbench_accounts_pkey |       2246197248

 2017-02-03 15:54:00.889082+01 | 1486133640.88908 | pgbench_branches_pkey |            40960
 2017-02-03 15:54:00.889082+01 | 1486133640.88908 | pgbench_tellers_pkey  |           245760
 2017-02-03 15:54:00.889082+01 | 1486133640.88908 | pgbench_accounts_pkey |       2246197248

 2017-02-03 15:54:01.990547+01 | 1486133641.99055 | pgbench_branches_pkey |            40960
 2017-02-03 15:54:01.990547+01 | 1486133641.99055 | pgbench_tellers_pkey  |           245760
 2017-02-03 15:54:01.990547+01 | 1486133641.99055 | pgbench_accounts_pkey |       2246197248

 2017-02-03 15:54:03.079463+01 | 1486133643.07946 | pgbench_branches_pkey |            40960
 2017-02-03 15:54:03.079463+01 | 1486133643.07946 | pgbench_tellers_pkey  |           245760
 2017-02-03 15:54:03.079463+01 | 1486133643.07946 | pgbench_accounts_pkey |       2246197248

 2017-02-03 15:54:04.173541+01 | 1486133644.17354 | pgbench_branches_pkey |            40960
 2017-02-03 15:54:04.173541+01 | 1486133644.17354 | pgbench_tellers_pkey  |           245760
 2017-02-03 15:54:04.173541+01 | 1486133644.17354 | pgbench_accounts_pkey |       2246197248

 2017-02-03 15:54:05.26611+01 | 1486133645.26611 | pgbench_branches_pkey |            40960
 2017-02-03 15:54:05.26611+01 | 1486133645.26611 | pgbench_tellers_pkey  |           245760
 2017-02-03 15:54:05.26611+01 | 1486133645.26611 | pgbench_accounts_pkey |       2246197248

 2017-02-03 15:54:06.350049+01 | 1486133646.35005 | pgbench_branches_pkey |            40960
 2017-02-03 15:54:06.350049+01 | 1486133646.35005 | pgbench_tellers_pkey  |           245760
 2017-02-03 15:54:06.350049+01 | 1486133646.35005 | pgbench_accounts_pkey |       2246197248

 2017-02-03 15:54:07.436335+01 | 1486133647.43634 | pgbench_branches_pkey |            40960
 2017-02-03 15:54:07.436335+01 | 1486133647.43634 | pgbench_tellers_pkey  |           245760
 2017-02-03 15:54:07.436335+01 | 1486133647.43634 | pgbench_accounts_pkey |       2246197248

 2017-02-03 15:54:08.526983+01 | 1486133648.52698 | pgbench_branches_pkey |            40960
 2017-02-03 15:54:08.526983+01 | 1486133648.52698 | pgbench_tellers_pkey  |           245760
 2017-02-03 15:54:08.526983+01 | 1486133648.52698 | pgbench_accounts_pkey |       2246197248

 2017-02-03 15:54:09.618927+01 | 1486133649.61893 | pgbench_branches_pkey |            40960
 2017-02-03 15:54:09.618927+01 | 1486133649.61893 | pgbench_tellers_pkey  |           245760
 2017-02-03 15:54:09.618927+01 | 1486133649.61893 | pgbench_accounts_pkey |       2246197248

 2017-02-03 15:54:10.713391+01 | 1486133650.71339 | pgbench_branches_pkey |            40960
 2017-02-03 15:54:10.713391+01 | 1486133650.71339 | pgbench_tellers_pkey  |           245760
 2017-02-03 15:54:10.713391+01 | 1486133650.71339 | pgbench_accounts_pkey |       2246197248

 2017-02-03 15:54:11.813874+01 | 1486133651.81387 | pgbench_branches_pkey |            40960
 2017-02-03 15:54:11.813874+01 | 1486133651.81387 | pgbench_tellers_pkey  |           245760
 2017-02-03 15:54:11.813874+01 | 1486133651.81387 | pgbench_accounts_pkey |       2246197248

 2017-02-03 15:54:12.918943+01 | 1486133652.91894 | pgbench_branches_pkey |            40960
 2017-02-03 15:54:12.918943+01 | 1486133652.91894 | pgbench_tellers_pkey  |           245760
 2017-02-03 15:54:12.918943+01 | 1486133652.91894 | pgbench_accounts_pkey |       2246197248

 2017-02-03 15:54:14.029365+01 | 1486133654.02937 | pgbench_branches_pkey |            40960
 2017-02-03 15:54:14.029365+01 | 1486133654.02937 | pgbench_tellers_pkey  |           245760
 2017-02-03 15:54:14.029365+01 | 1486133654.02937 | pgbench_accounts_pkey |       2246197248

 2017-02-03 15:54:15.119802+01 | 1486133655.1198 | pgbench_branches_pkey |            40960
 2017-02-03 15:54:15.119802+01 | 1486133655.1198 | pgbench_tellers_pkey  |           245760
 2017-02-03 15:54:15.119802+01 | 1486133655.1198 | pgbench_accounts_pkey |       2246197248

 2017-02-03 15:54:16.202631+01 | 1486133656.20263 | pgbench_branches_pkey |            40960
 2017-02-03 15:54:16.202631+01 | 1486133656.20263 | pgbench_tellers_pkey  |           245760
 2017-02-03 15:54:16.202631+01 | 1486133656.20263 | pgbench_accounts_pkey |       2246197248

 2017-02-03 15:54:17.29142+01 | 1486133657.29142 | pgbench_branches_pkey |            40960
 2017-02-03 15:54:17.29142+01 | 1486133657.29142 | pgbench_tellers_pkey  |           245760
 2017-02-03 15:54:17.29142+01 | 1486133657.29142 | pgbench_accounts_pkey |       2246197248

 2017-02-03 15:54:18.391683+01 | 1486133658.39168 | pgbench_branches_pkey |            40960
 2017-02-03 15:54:18.391683+01 | 1486133658.39168 | pgbench_tellers_pkey  |           245760
 2017-02-03 15:54:18.391683+01 | 1486133658.39168 | pgbench_accounts_pkey |       2246197248

 2017-02-03 15:54:19.494551+01 | 1486133659.49455 | pgbench_branches_pkey |            40960
 2017-02-03 15:54:19.494551+01 | 1486133659.49455 | pgbench_tellers_pkey  |           245760
 2017-02-03 15:54:19.494551+01 | 1486133659.49455 | pgbench_accounts_pkey |       2246197248

 2017-02-03 15:54:20.581887+01 | 1486133660.58189 | pgbench_branches_pkey |            40960
 2017-02-03 15:54:20.581887+01 | 1486133660.58189 | pgbench_tellers_pkey  |           245760
 2017-02-03 15:54:20.581887+01 | 1486133660.58189 | pgbench_accounts_pkey |       2246197248

 2017-02-03 15:54:21.676409+01 | 1486133661.67641 | pgbench_branches_pkey |            40960
 2017-02-03 15:54:21.676409+01 | 1486133661.67641 | pgbench_tellers_pkey  |           245760
 2017-02-03 15:54:21.676409+01 | 1486133661.67641 | pgbench_accounts_pkey |       2246197248

 2017-02-03 15:54:22.773432+01 | 1486133662.77343 | pgbench_branches_pkey |            40960
 2017-02-03 15:54:22.773432+01 | 1486133662.77343 | pgbench_tellers_pkey  |           245760
 2017-02-03 15:54:22.773432+01 | 1486133662.77343 | pgbench_accounts_pkey |       2246197248

 2017-02-03 15:54:23.877696+01 | 1486133663.8777 | pgbench_branches_pkey |            40960
 2017-02-03 15:54:23.877696+01 | 1486133663.8777 | pgbench_tellers_pkey  |           245760
 2017-02-03 15:54:23.877696+01 | 1486133663.8777 | pgbench_accounts_pkey |       2246197248

 2017-02-03 15:54:24.966194+01 | 1486133664.96619 | pgbench_branches_pkey |            40960
 2017-02-03 15:54:24.966194+01 | 1486133664.96619 | pgbench_tellers_pkey  |           245760
 2017-02-03 15:54:24.966194+01 | 1486133664.96619 | pgbench_accounts_pkey |       2246197248

 2017-02-03 15:54:26.059858+01 | 1486133666.05986 | pgbench_branches_pkey |            40960
 2017-02-03 15:54:26.059858+01 | 1486133666.05986 | pgbench_tellers_pkey  |           245760
 2017-02-03 15:54:26.059858+01 | 1486133666.05986 | pgbench_accounts_pkey |       2246197248

 2017-02-03 15:54:27.153348+01 | 1486133667.15335 | pgbench_branches_pkey |            40960
 2017-02-03 15:54:27.153348+01 | 1486133667.15335 | pgbench_tellers_pkey  |           245760
 2017-02-03 15:54:27.153348+01 | 1486133667.15335 | pgbench_accounts_pkey |       2246197248

 2017-02-03 15:54:28.247414+01 | 1486133668.24741 | pgbench_branches_pkey |            40960
 2017-02-03 15:54:28.247414+01 | 1486133668.24741 | pgbench_tellers_pkey  |           245760
 2017-02-03 15:54:28.247414+01 | 1486133668.24741 | pgbench_accounts_pkey |       2246197248

 2017-02-03 15:54:29.335643+01 | 1486133669.33564 | pgbench_branches_pkey |            40960
 2017-02-03 15:54:29.335643+01 | 1486133669.33564 | pgbench_tellers_pkey  |           245760
 2017-02-03 15:54:29.335643+01 | 1486133669.33564 | pgbench_accounts_pkey |       2246197248

 2017-02-03 15:54:30.429921+01 | 1486133670.42992 | pgbench_branches_pkey |            40960
 2017-02-03 15:54:30.429921+01 | 1486133670.42992 | pgbench_tellers_pkey  |           245760
 2017-02-03 15:54:30.429921+01 | 1486133670.42992 | pgbench_accounts_pkey |       2246197248

 2017-02-03 15:54:31.521601+01 | 1486133671.5216 | pgbench_branches_pkey |            40960
 2017-02-03 15:54:31.521601+01 | 1486133671.5216 | pgbench_tellers_pkey  |           245760
 2017-02-03 15:54:31.521601+01 | 1486133671.5216 | pgbench_accounts_pkey |       2246197248

 2017-02-03 15:54:32.610607+01 | 1486133672.61061 | pgbench_branches_pkey |            40960
 2017-02-03 15:54:32.610607+01 | 1486133672.61061 | pgbench_tellers_pkey  |           245760
 2017-02-03 15:54:32.610607+01 | 1486133672.61061 | pgbench_accounts_pkey |       2246197248

 2017-02-03 15:54:33.71516+01 | 1486133673.71516 | pgbench_branches_pkey |            40960
 2017-02-03 15:54:33.71516+01 | 1486133673.71516 | pgbench_tellers_pkey  |           245760
 2017-02-03 15:54:33.71516+01 | 1486133673.71516 | pgbench_accounts_pkey |       2246197248

 2017-02-03 15:54:34.803022+01 | 1486133674.80302 | pgbench_branches_pkey |            40960
 2017-02-03 15:54:34.803022+01 | 1486133674.80302 | pgbench_tellers_pkey  |           245760
 2017-02-03 15:54:34.803022+01 | 1486133674.80302 | pgbench_accounts_pkey |       2246197248

 2017-02-03 15:54:35.907387+01 | 1486133675.90739 | pgbench_branches_pkey |            40960
 2017-02-03 15:54:35.907387+01 | 1486133675.90739 | pgbench_tellers_pkey  |           245760
 2017-02-03 15:54:35.907387+01 | 1486133675.90739 | pgbench_accounts_pkey |       2246197248

 2017-02-03 15:54:37.003442+01 | 1486133677.00344 | pgbench_branches_pkey |            40960
 2017-02-03 15:54:37.003442+01 | 1486133677.00344 | pgbench_tellers_pkey  |           245760
 2017-02-03 15:54:37.003442+01 | 1486133677.00344 | pgbench_accounts_pkey |       2246197248

 2017-02-03 15:54:38.101024+01 | 1486133678.10102 | pgbench_branches_pkey |            40960
 2017-02-03 15:54:38.101024+01 | 1486133678.10102 | pgbench_tellers_pkey  |           245760
 2017-02-03 15:54:38.101024+01 | 1486133678.10102 | pgbench_accounts_pkey |       2246197248

 2017-02-03 15:54:39.199786+01 | 1486133679.19979 | pgbench_branches_pkey |            40960
 2017-02-03 15:54:39.199786+01 | 1486133679.19979 | pgbench_tellers_pkey  |           245760
 2017-02-03 15:54:39.199786+01 | 1486133679.19979 | pgbench_accounts_pkey |       2246197248

 2017-02-03 15:54:40.288594+01 | 1486133680.28859 | pgbench_branches_pkey |            40960
 2017-02-03 15:54:40.288594+01 | 1486133680.28859 | pgbench_tellers_pkey  |           245760
 2017-02-03 15:54:40.288594+01 | 1486133680.28859 | pgbench_accounts_pkey |       2246197248

 2017-02-03 15:54:41.382186+01 | 1486133681.38219 | pgbench_branches_pkey |            40960
 2017-02-03 15:54:41.382186+01 | 1486133681.38219 | pgbench_tellers_pkey  |           245760
 2017-02-03 15:54:41.382186+01 | 1486133681.38219 | pgbench_accounts_pkey |       2246197248

 2017-02-03 15:54:42.472283+01 | 1486133682.47228 | pgbench_branches_pkey |            40960
 2017-02-03 15:54:42.472283+01 | 1486133682.47228 | pgbench_tellers_pkey  |           245760
 2017-02-03 15:54:42.472283+01 | 1486133682.47228 | pgbench_accounts_pkey |       2246197248

 2017-02-03 15:54:43.558396+01 | 1486133683.5584 | pgbench_branches_pkey |            40960
 2017-02-03 15:54:43.558396+01 | 1486133683.5584 | pgbench_tellers_pkey  |           245760
 2017-02-03 15:54:43.558396+01 | 1486133683.5584 | pgbench_accounts_pkey |       2246197248

 2017-02-03 15:54:44.661214+01 | 1486133684.66121 | pgbench_branches_pkey |            40960
 2017-02-03 15:54:44.661214+01 | 1486133684.66121 | pgbench_tellers_pkey  |           245760
 2017-02-03 15:54:44.661214+01 | 1486133684.66121 | pgbench_accounts_pkey |       2246197248

 2017-02-03 15:54:45.758168+01 | 1486133685.75817 | pgbench_branches_pkey |            40960
 2017-02-03 15:54:45.758168+01 | 1486133685.75817 | pgbench_tellers_pkey  |           245760
 2017-02-03 15:54:45.758168+01 | 1486133685.75817 | pgbench_accounts_pkey |       2246197248

 2017-02-03 15:54:46.855877+01 | 1486133686.85588 | pgbench_branches_pkey |            40960
 2017-02-03 15:54:46.855877+01 | 1486133686.85588 | pgbench_tellers_pkey  |           245760
 2017-02-03 15:54:46.855877+01 | 1486133686.85588 | pgbench_accounts_pkey |       2246197248

 2017-02-03 15:54:47.957343+01 | 1486133687.95734 | pgbench_branches_pkey |            40960
 2017-02-03 15:54:47.957343+01 | 1486133687.95734 | pgbench_tellers_pkey  |           245760
 2017-02-03 15:54:47.957343+01 | 1486133687.95734 | pgbench_accounts_pkey |       2246197248

 2017-02-03 15:54:49.054715+01 | 1486133689.05471 | pgbench_branches_pkey |            40960
 2017-02-03 15:54:49.054715+01 | 1486133689.05471 | pgbench_tellers_pkey  |           245760
 2017-02-03 15:54:49.054715+01 | 1486133689.05471 | pgbench_accounts_pkey |       2246197248

 2017-02-03 15:54:50.141692+01 | 1486133690.14169 | pgbench_branches_pkey |            40960
 2017-02-03 15:54:50.141692+01 | 1486133690.14169 | pgbench_tellers_pkey  |           245760
 2017-02-03 15:54:50.141692+01 | 1486133690.14169 | pgbench_accounts_pkey |       2246197248

 2017-02-03 15:54:51.231318+01 | 1486133691.23132 | pgbench_branches_pkey |            40960
 2017-02-03 15:54:51.231318+01 | 1486133691.23132 | pgbench_tellers_pkey  |           245760
 2017-02-03 15:54:51.231318+01 | 1486133691.23132 | pgbench_accounts_pkey |       2246197248

 2017-02-03 15:54:52.32293+01 | 1486133692.32293 | pgbench_branches_pkey |            40960
 2017-02-03 15:54:52.32293+01 | 1486133692.32293 | pgbench_tellers_pkey  |           245760
 2017-02-03 15:54:52.32293+01 | 1486133692.32293 | pgbench_accounts_pkey |       2246197248

 2017-02-03 15:54:53.412399+01 | 1486133693.4124 | pgbench_branches_pkey |            40960
 2017-02-03 15:54:53.412399+01 | 1486133693.4124 | pgbench_tellers_pkey  |           245760
 2017-02-03 15:54:53.412399+01 | 1486133693.4124 | pgbench_accounts_pkey |       2246197248

 2017-02-03 15:54:54.512725+01 | 1486133694.51273 | pgbench_branches_pkey |            40960
 2017-02-03 15:54:54.512725+01 | 1486133694.51273 | pgbench_tellers_pkey  |           245760
 2017-02-03 15:54:54.512725+01 | 1486133694.51273 | pgbench_accounts_pkey |       2246197248

 2017-02-03 15:54:55.599295+01 | 1486133695.59929 | pgbench_branches_pkey |            40960
 2017-02-03 15:54:55.599295+01 | 1486133695.59929 | pgbench_tellers_pkey  |           245760
 2017-02-03 15:54:55.599295+01 | 1486133695.59929 | pgbench_accounts_pkey |       2246197248

 2017-02-03 15:54:56.689735+01 | 1486133696.68973 | pgbench_branches_pkey |            40960
 2017-02-03 15:54:56.689735+01 | 1486133696.68973 | pgbench_tellers_pkey  |           245760
 2017-02-03 15:54:56.689735+01 | 1486133696.68973 | pgbench_accounts_pkey |       2246197248

 2017-02-03 15:54:57.784186+01 | 1486133697.78419 | pgbench_branches_pkey |            40960
 2017-02-03 15:54:57.784186+01 | 1486133697.78419 | pgbench_tellers_pkey  |           245760
 2017-02-03 15:54:57.784186+01 | 1486133697.78419 | pgbench_accounts_pkey |       2246197248

 2017-02-03 15:54:58.882786+01 | 1486133698.88279 | pgbench_branches_pkey |            40960
 2017-02-03 15:54:58.882786+01 | 1486133698.88279 | pgbench_tellers_pkey  |           245760
 2017-02-03 15:54:58.882786+01 | 1486133698.88279 | pgbench_accounts_pkey |       2246197248

 2017-02-03 15:54:59.976836+01 | 1486133699.97684 | pgbench_branches_pkey |            40960
 2017-02-03 15:54:59.976836+01 | 1486133699.97684 | pgbench_tellers_pkey  |           245760
 2017-02-03 15:54:59.976836+01 | 1486133699.97684 | pgbench_accounts_pkey |       2246197248

 2017-02-03 15:55:01.074242+01 | 1486133701.07424 | pgbench_branches_pkey |            40960
 2017-02-03 15:55:01.074242+01 | 1486133701.07424 | pgbench_tellers_pkey  |           245760
 2017-02-03 15:55:01.074242+01 | 1486133701.07424 | pgbench_accounts_pkey |       2246197248

 2017-02-03 15:55:02.169188+01 | 1486133702.16919 | pgbench_branches_pkey |            40960
 2017-02-03 15:55:02.169188+01 | 1486133702.16919 | pgbench_tellers_pkey  |           245760
 2017-02-03 15:55:02.169188+01 | 1486133702.16919 | pgbench_accounts_pkey |       2246197248

 2017-02-03 15:55:03.269814+01 | 1486133703.26981 | pgbench_branches_pkey |            40960
 2017-02-03 15:55:03.269814+01 | 1486133703.26981 | pgbench_tellers_pkey  |           245760
 2017-02-03 15:55:03.269814+01 | 1486133703.26981 | pgbench_accounts_pkey |       2246197248

 2017-02-03 15:55:04.354674+01 | 1486133704.35467 | pgbench_branches_pkey |            40960
 2017-02-03 15:55:04.354674+01 | 1486133704.35467 | pgbench_tellers_pkey  |           245760
 2017-02-03 15:55:04.354674+01 | 1486133704.35467 | pgbench_accounts_pkey |       2246197248

 2017-02-03 15:55:05.445838+01 | 1486133705.44584 | pgbench_branches_pkey |            40960
 2017-02-03 15:55:05.445838+01 | 1486133705.44584 | pgbench_tellers_pkey  |           245760
 2017-02-03 15:55:05.445838+01 | 1486133705.44584 | pgbench_accounts_pkey |       2246197248

 2017-02-03 15:55:06.547654+01 | 1486133706.54765 | pgbench_branches_pkey |            40960
 2017-02-03 15:55:06.547654+01 | 1486133706.54765 | pgbench_tellers_pkey  |           245760
 2017-02-03 15:55:06.547654+01 | 1486133706.54765 | pgbench_accounts_pkey |       2246197248

 2017-02-03 15:55:07.63929+01 | 1486133707.63929 | pgbench_branches_pkey |            40960
 2017-02-03 15:55:07.63929+01 | 1486133707.63929 | pgbench_tellers_pkey  |           245760
 2017-02-03 15:55:07.63929+01 | 1486133707.63929 | pgbench_accounts_pkey |       2246197248

 2017-02-03 15:55:08.733733+01 | 1486133708.73373 | pgbench_branches_pkey |            40960
 2017-02-03 15:55:08.733733+01 | 1486133708.73373 | pgbench_tellers_pkey  |           245760
 2017-02-03 15:55:08.733733+01 | 1486133708.73373 | pgbench_accounts_pkey |       2246197248

 2017-02-03 15:55:09.824471+01 | 1486133709.82447 | pgbench_branches_pkey |            40960
 2017-02-03 15:55:09.824471+01 | 1486133709.82447 | pgbench_tellers_pkey  |           245760
 2017-02-03 15:55:09.824471+01 | 1486133709.82447 | pgbench_accounts_pkey |       2246197248

 2017-02-03 15:55:10.914695+01 | 1486133710.9147 | pgbench_branches_pkey |            40960
 2017-02-03 15:55:10.914695+01 | 1486133710.9147 | pgbench_tellers_pkey  |           245760
 2017-02-03 15:55:10.914695+01 | 1486133710.9147 | pgbench_accounts_pkey |       2246197248

 2017-02-03 15:55:12.020243+01 | 1486133712.02024 | pgbench_branches_pkey |            40960
 2017-02-03 15:55:12.020243+01 | 1486133712.02024 | pgbench_tellers_pkey  |           245760
 2017-02-03 15:55:12.020243+01 | 1486133712.02024 | pgbench_accounts_pkey |       2246197248

 2017-02-03 15:55:13.111997+01 | 1486133713.112 | pgbench_branches_pkey |            40960
 2017-02-03 15:55:13.111997+01 | 1486133713.112 | pgbench_tellers_pkey  |           245760
 2017-02-03 15:55:13.111997+01 | 1486133713.112 | pgbench_accounts_pkey |       2246197248

 2017-02-03 15:55:14.206559+01 | 1486133714.20656 | pgbench_branches_pkey |            40960
 2017-02-03 15:55:14.206559+01 | 1486133714.20656 | pgbench_tellers_pkey  |           245760
 2017-02-03 15:55:14.206559+01 | 1486133714.20656 | pgbench_accounts_pkey |       2246197248

 2017-02-03 15:55:15.299458+01 | 1486133715.29946 | pgbench_branches_pkey |            40960
 2017-02-03 15:55:15.299458+01 | 1486133715.29946 | pgbench_tellers_pkey  |           245760
 2017-02-03 15:55:15.299458+01 | 1486133715.29946 | pgbench_accounts_pkey |       2246197248

 2017-02-03 15:55:16.386358+01 | 1486133716.38636 | pgbench_branches_pkey |            40960
 2017-02-03 15:55:16.386358+01 | 1486133716.38636 | pgbench_tellers_pkey  |           245760
 2017-02-03 15:55:16.386358+01 | 1486133716.38636 | pgbench_accounts_pkey |       2246197248

 2017-02-03 15:55:17.475801+01 | 1486133717.4758 | pgbench_branches_pkey |            40960
 2017-02-03 15:55:17.475801+01 | 1486133717.4758 | pgbench_tellers_pkey  |           245760
 2017-02-03 15:55:17.475801+01 | 1486133717.4758 | pgbench_accounts_pkey |       2246197248

 2017-02-03 15:55:18.570891+01 | 1486133718.57089 | pgbench_branches_pkey |            40960
 2017-02-03 15:55:18.570891+01 | 1486133718.57089 | pgbench_tellers_pkey  |           245760
 2017-02-03 15:55:18.570891+01 | 1486133718.57089 | pgbench_accounts_pkey |       2246197248

 2017-02-03 15:55:19.661113+01 | 1486133719.66111 | pgbench_branches_pkey |            40960
 2017-02-03 15:55:19.661113+01 | 1486133719.66111 | pgbench_tellers_pkey  |           245760
 2017-02-03 15:55:19.661113+01 | 1486133719.66111 | pgbench_accounts_pkey |       2246197248

 2017-02-03 15:55:20.748425+01 | 1486133720.74843 | pgbench_branches_pkey |            40960
 2017-02-03 15:55:20.748425+01 | 1486133720.74843 | pgbench_tellers_pkey  |           245760
 2017-02-03 15:55:20.748425+01 | 1486133720.74843 | pgbench_accounts_pkey |       2246197248

 2017-02-03 15:55:21.834651+01 | 1486133721.83465 | pgbench_branches_pkey |            40960
 2017-02-03 15:55:21.834651+01 | 1486133721.83465 | pgbench_tellers_pkey  |           245760
 2017-02-03 15:55:21.834651+01 | 1486133721.83465 | pgbench_accounts_pkey |       2246197248

 2017-02-03 15:55:22.93575+01 | 1486133722.93575 | pgbench_branches_pkey |            40960
 2017-02-03 15:55:22.93575+01 | 1486133722.93575 | pgbench_tellers_pkey  |           245760
 2017-02-03 15:55:22.93575+01 | 1486133722.93575 | pgbench_accounts_pkey |       2246197248

 2017-02-03 15:55:24.024406+01 | 1486133724.02441 | pgbench_branches_pkey |            40960
 2017-02-03 15:55:24.024406+01 | 1486133724.02441 | pgbench_tellers_pkey  |           245760
 2017-02-03 15:55:24.024406+01 | 1486133724.02441 | pgbench_accounts_pkey |       2246197248

 2017-02-03 15:55:25.11967+01 | 1486133725.11967 | pgbench_branches_pkey |            40960
 2017-02-03 15:55:25.11967+01 | 1486133725.11967 | pgbench_tellers_pkey  |           245760
 2017-02-03 15:55:25.11967+01 | 1486133725.11967 | pgbench_accounts_pkey |       2246197248

 2017-02-03 15:55:26.210828+01 | 1486133726.21083 | pgbench_branches_pkey |            40960
 2017-02-03 15:55:26.210828+01 | 1486133726.21083 | pgbench_tellers_pkey  |           245760
 2017-02-03 15:55:26.210828+01 | 1486133726.21083 | pgbench_accounts_pkey |       2246197248

 2017-02-03 15:55:27.304726+01 | 1486133727.30473 | pgbench_branches_pkey |            40960
 2017-02-03 15:55:27.304726+01 | 1486133727.30473 | pgbench_tellers_pkey  |           245760
 2017-02-03 15:55:27.304726+01 | 1486133727.30473 | pgbench_accounts_pkey |       2246197248

 2017-02-03 15:55:28.394326+01 | 1486133728.39433 | pgbench_branches_pkey |            40960
 2017-02-03 15:55:28.394326+01 | 1486133728.39433 | pgbench_tellers_pkey  |           245760
 2017-02-03 15:55:28.394326+01 | 1486133728.39433 | pgbench_accounts_pkey |       2246197248

 2017-02-03 15:55:29.488094+01 | 1486133729.48809 | pgbench_branches_pkey |            40960
 2017-02-03 15:55:29.488094+01 | 1486133729.48809 | pgbench_tellers_pkey  |           245760
 2017-02-03 15:55:29.488094+01 | 1486133729.48809 | pgbench_accounts_pkey |       2246197248

 2017-02-03 15:55:30.586175+01 | 1486133730.58617 | pgbench_branches_pkey |            40960
 2017-02-03 15:55:30.586175+01 | 1486133730.58617 | pgbench_tellers_pkey  |           245760
 2017-02-03 15:55:30.586175+01 | 1486133730.58617 | pgbench_accounts_pkey |       2246197248

 2017-02-03 15:55:31.677213+01 | 1486133731.67721 | pgbench_branches_pkey |            40960
 2017-02-03 15:55:31.677213+01 | 1486133731.67721 | pgbench_tellers_pkey  |           245760
 2017-02-03 15:55:31.677213+01 | 1486133731.67721 | pgbench_accounts_pkey |       2246197248

 2017-02-03 15:55:32.763358+01 | 1486133732.76336 | pgbench_branches_pkey |            40960
 2017-02-03 15:55:32.763358+01 | 1486133732.76336 | pgbench_tellers_pkey  |           245760
 2017-02-03 15:55:32.763358+01 | 1486133732.76336 | pgbench_accounts_pkey |       2246197248

 2017-02-03 15:55:33.846449+01 | 1486133733.84645 | pgbench_branches_pkey |            40960
 2017-02-03 15:55:33.846449+01 | 1486133733.84645 | pgbench_tellers_pkey  |           245760
 2017-02-03 15:55:33.846449+01 | 1486133733.84645 | pgbench_accounts_pkey |       2246197248

 2017-02-03 15:55:34.940153+01 | 1486133734.94015 | pgbench_branches_pkey |            40960
 2017-02-03 15:55:34.940153+01 | 1486133734.94015 | pgbench_tellers_pkey  |           245760
 2017-02-03 15:55:34.940153+01 | 1486133734.94015 | pgbench_accounts_pkey |       2246197248

 2017-02-03 15:55:36.043694+01 | 1486133736.04369 | pgbench_branches_pkey |            40960
 2017-02-03 15:55:36.043694+01 | 1486133736.04369 | pgbench_tellers_pkey  |           245760
 2017-02-03 15:55:36.043694+01 | 1486133736.04369 | pgbench_accounts_pkey |       2246197248

 2017-02-03 15:55:37.136092+01 | 1486133737.13609 | pgbench_branches_pkey |            40960
 2017-02-03 15:55:37.136092+01 | 1486133737.13609 | pgbench_tellers_pkey  |           245760
 2017-02-03 15:55:37.136092+01 | 1486133737.13609 | pgbench_accounts_pkey |       2246197248

 2017-02-03 15:55:38.218057+01 | 1486133738.21806 | pgbench_branches_pkey |            40960
 2017-02-03 15:55:38.218057+01 | 1486133738.21806 | pgbench_tellers_pkey  |           245760
 2017-02-03 15:55:38.218057+01 | 1486133738.21806 | pgbench_accounts_pkey |       2246197248

 2017-02-03 15:55:39.307409+01 | 1486133739.30741 | pgbench_branches_pkey |            40960
 2017-02-03 15:55:39.307409+01 | 1486133739.30741 | pgbench_tellers_pkey  |           245760
 2017-02-03 15:55:39.307409+01 | 1486133739.30741 | pgbench_accounts_pkey |       2246197248

 2017-02-03 15:55:40.399868+01 | 1486133740.39987 | pgbench_branches_pkey |            40960
 2017-02-03 15:55:40.399868+01 | 1486133740.39987 | pgbench_tellers_pkey  |           245760
 2017-02-03 15:55:40.399868+01 | 1486133740.39987 | pgbench_accounts_pkey |       2246197248

 2017-02-03 15:55:41.497529+01 | 1486133741.49753 | pgbench_branches_pkey |            40960
 2017-02-03 15:55:41.497529+01 | 1486133741.49753 | pgbench_tellers_pkey  |           245760
 2017-02-03 15:55:41.497529+01 | 1486133741.49753 | pgbench_accounts_pkey |       2246197248

 2017-02-03 15:55:42.596459+01 | 1486133742.59646 | pgbench_branches_pkey |            40960
 2017-02-03 15:55:42.596459+01 | 1486133742.59646 | pgbench_tellers_pkey  |           245760
 2017-02-03 15:55:42.596459+01 | 1486133742.59646 | pgbench_accounts_pkey |       2246197248

 2017-02-03 15:55:43.688022+01 | 1486133743.68802 | pgbench_branches_pkey |            40960
 2017-02-03 15:55:43.688022+01 | 1486133743.68802 | pgbench_tellers_pkey  |           245760
 2017-02-03 15:55:43.688022+01 | 1486133743.68802 | pgbench_accounts_pkey |       2246197248

 2017-02-03 15:55:44.779865+01 | 1486133744.77987 | pgbench_branches_pkey |            40960
 2017-02-03 15:55:44.779865+01 | 1486133744.77987 | pgbench_tellers_pkey  |           245760
 2017-02-03 15:55:44.779865+01 | 1486133744.77987 | pgbench_accounts_pkey |       2246197248

 2017-02-03 15:55:45.869922+01 | 1486133745.86992 | pgbench_branches_pkey |            40960
 2017-02-03 15:55:45.869922+01 | 1486133745.86992 | pgbench_tellers_pkey  |           245760
 2017-02-03 15:55:45.869922+01 | 1486133745.86992 | pgbench_accounts_pkey |       2246197248

 2017-02-03 15:55:46.977775+01 | 1486133746.97778 | pgbench_branches_pkey |            40960
 2017-02-03 15:55:46.977775+01 | 1486133746.97778 | pgbench_tellers_pkey  |           245760
 2017-02-03 15:55:46.977775+01 | 1486133746.97778 | pgbench_accounts_pkey |       2246197248

 2017-02-03 15:55:48.063006+01 | 1486133748.06301 | pgbench_branches_pkey |            40960
 2017-02-03 15:55:48.063006+01 | 1486133748.06301 | pgbench_tellers_pkey  |           245760
 2017-02-03 15:55:48.063006+01 | 1486133748.06301 | pgbench_accounts_pkey |       2246197248

 2017-02-03 15:55:49.158703+01 | 1486133749.1587 | pgbench_branches_pkey |            40960
 2017-02-03 15:55:49.158703+01 | 1486133749.1587 | pgbench_tellers_pkey  |           245760
 2017-02-03 15:55:49.158703+01 | 1486133749.1587 | pgbench_accounts_pkey |       2246197248

 2017-02-03 15:55:50.244342+01 | 1486133750.24434 | pgbench_branches_pkey |            40960
 2017-02-03 15:55:50.244342+01 | 1486133750.24434 | pgbench_tellers_pkey  |           245760
 2017-02-03 15:55:50.244342+01 | 1486133750.24434 | pgbench_accounts_pkey |       2246197248

 2017-02-03 15:55:51.334082+01 | 1486133751.33408 | pgbench_branches_pkey |            40960
 2017-02-03 15:55:51.334082+01 | 1486133751.33408 | pgbench_tellers_pkey  |           245760
 2017-02-03 15:55:51.334082+01 | 1486133751.33408 | pgbench_accounts_pkey |       2246197248

 2017-02-03 15:55:52.420595+01 | 1486133752.42059 | pgbench_branches_pkey |            40960
 2017-02-03 15:55:52.420595+01 | 1486133752.42059 | pgbench_tellers_pkey  |           245760
 2017-02-03 15:55:52.420595+01 | 1486133752.42059 | pgbench_accounts_pkey |       2246197248

 2017-02-03 15:55:53.517757+01 | 1486133753.51776 | pgbench_branches_pkey |            40960
 2017-02-03 15:55:53.517757+01 | 1486133753.51776 | pgbench_tellers_pkey  |           245760
 2017-02-03 15:55:53.517757+01 | 1486133753.51776 | pgbench_accounts_pkey |       2246197248

 2017-02-03 15:55:54.612185+01 | 1486133754.61219 | pgbench_branches_pkey |            40960
 2017-02-03 15:55:54.612185+01 | 1486133754.61219 | pgbench_tellers_pkey  |           245760
 2017-02-03 15:55:54.612185+01 | 1486133754.61219 | pgbench_accounts_pkey |       2246197248

 2017-02-03 15:55:55.703891+01 | 1486133755.70389 | pgbench_branches_pkey |            40960
 2017-02-03 15:55:55.703891+01 | 1486133755.70389 | pgbench_tellers_pkey  |           245760
 2017-02-03 15:55:55.703891+01 | 1486133755.70389 | pgbench_accounts_pkey |       2246197248

 2017-02-03 15:55:56.792478+01 | 1486133756.79248 | pgbench_branches_pkey |            40960
 2017-02-03 15:55:56.792478+01 | 1486133756.79248 | pgbench_tellers_pkey  |           245760
 2017-02-03 15:55:56.792478+01 | 1486133756.79248 | pgbench_accounts_pkey |       2246197248

 2017-02-03 15:55:57.887307+01 | 1486133757.88731 | pgbench_branches_pkey |            40960
 2017-02-03 15:55:57.887307+01 | 1486133757.88731 | pgbench_tellers_pkey  |           245760
 2017-02-03 15:55:57.887307+01 | 1486133757.88731 | pgbench_accounts_pkey |       2246197248

 2017-02-03 15:55:58.992377+01 | 1486133758.99238 | pgbench_branches_pkey |            40960
 2017-02-03 15:55:58.992377+01 | 1486133758.99238 | pgbench_tellers_pkey  |           245760
 2017-02-03 15:55:58.992377+01 | 1486133758.99238 | pgbench_accounts_pkey |       2246197248

 2017-02-03 15:56:00.088184+01 | 1486133760.08818 | pgbench_branches_pkey |            40960
 2017-02-03 15:56:00.088184+01 | 1486133760.08818 | pgbench_tellers_pkey  |           245760
 2017-02-03 15:56:00.088184+01 | 1486133760.08818 | pgbench_accounts_pkey |       2246197248

 2017-02-03 15:56:01.179042+01 | 1486133761.17904 | pgbench_branches_pkey |            40960
 2017-02-03 15:56:01.179042+01 | 1486133761.17904 | pgbench_tellers_pkey  |           245760
 2017-02-03 15:56:01.179042+01 | 1486133761.17904 | pgbench_accounts_pkey |       2246197248

 2017-02-03 15:56:02.280477+01 | 1486133762.28048 | pgbench_branches_pkey |            40960
 2017-02-03 15:56:02.280477+01 | 1486133762.28048 | pgbench_tellers_pkey  |           245760
 2017-02-03 15:56:02.280477+01 | 1486133762.28048 | pgbench_accounts_pkey |       2246197248

 2017-02-03 15:56:03.37445+01 | 1486133763.37445 | pgbench_branches_pkey |            40960
 2017-02-03 15:56:03.37445+01 | 1486133763.37445 | pgbench_tellers_pkey  |           245760
 2017-02-03 15:56:03.37445+01 | 1486133763.37445 | pgbench_accounts_pkey |       2246197248

 2017-02-03 15:56:04.4716+01 | 1486133764.4716 | pgbench_branches_pkey |            40960
 2017-02-03 15:56:04.4716+01 | 1486133764.4716 | pgbench_tellers_pkey  |           245760
 2017-02-03 15:56:04.4716+01 | 1486133764.4716 | pgbench_accounts_pkey |       2246197248

 2017-02-03 15:56:05.563199+01 | 1486133765.5632 | pgbench_branches_pkey |            40960
 2017-02-03 15:56:05.563199+01 | 1486133765.5632 | pgbench_tellers_pkey  |           245760
 2017-02-03 15:56:05.563199+01 | 1486133765.5632 | pgbench_accounts_pkey |       2246197248

 2017-02-03 15:56:06.649739+01 | 1486133766.64974 | pgbench_branches_pkey |            40960
 2017-02-03 15:56:06.649739+01 | 1486133766.64974 | pgbench_tellers_pkey  |           245760
 2017-02-03 15:56:06.649739+01 | 1486133766.64974 | pgbench_accounts_pkey |       2246197248

 2017-02-03 15:56:07.757939+01 | 1486133767.75794 | pgbench_branches_pkey |            40960
 2017-02-03 15:56:07.757939+01 | 1486133767.75794 | pgbench_tellers_pkey  |           245760
 2017-02-03 15:56:07.757939+01 | 1486133767.75794 | pgbench_accounts_pkey |       2246197248

 2017-02-03 15:56:08.842852+01 | 1486133768.84285 | pgbench_branches_pkey |            40960
 2017-02-03 15:56:08.842852+01 | 1486133768.84285 | pgbench_tellers_pkey  |           245760
 2017-02-03 15:56:08.842852+01 | 1486133768.84285 | pgbench_accounts_pkey |       2246197248

 2017-02-03 15:56:09.932963+01 | 1486133769.93296 | pgbench_branches_pkey |            40960
 2017-02-03 15:56:09.932963+01 | 1486133769.93296 | pgbench_tellers_pkey  |           245760
 2017-02-03 15:56:09.932963+01 | 1486133769.93296 | pgbench_accounts_pkey |       2246197248

 2017-02-03 15:56:11.031523+01 | 1486133771.03152 | pgbench_branches_pkey |            40960
 2017-02-03 15:56:11.031523+01 | 1486133771.03152 | pgbench_tellers_pkey  |           245760
 2017-02-03 15:56:11.031523+01 | 1486133771.03152 | pgbench_accounts_pkey |       2246197248

 2017-02-03 15:56:12.11984+01 | 1486133772.11984 | pgbench_branches_pkey |            40960
 2017-02-03 15:56:12.11984+01 | 1486133772.11984 | pgbench_tellers_pkey  |           245760
 2017-02-03 15:56:12.11984+01 | 1486133772.11984 | pgbench_accounts_pkey |       2246197248

 2017-02-03 15:56:13.22867+01 | 1486133773.22867 | pgbench_branches_pkey |            40960
 2017-02-03 15:56:13.22867+01 | 1486133773.22867 | pgbench_tellers_pkey  |           245760
 2017-02-03 15:56:13.22867+01 | 1486133773.22867 | pgbench_accounts_pkey |       2246197248

 2017-02-03 15:56:14.322827+01 | 1486133774.32283 | pgbench_branches_pkey |            40960
 2017-02-03 15:56:14.322827+01 | 1486133774.32283 | pgbench_tellers_pkey  |           245760
 2017-02-03 15:56:14.322827+01 | 1486133774.32283 | pgbench_accounts_pkey |       2246197248

 2017-02-03 15:56:15.422449+01 | 1486133775.42245 | pgbench_branches_pkey |            40960
 2017-02-03 15:56:15.422449+01 | 1486133775.42245 | pgbench_tellers_pkey  |           245760
 2017-02-03 15:56:15.422449+01 | 1486133775.42245 | pgbench_accounts_pkey |       2246197248

 2017-02-03 15:56:16.516922+01 | 1486133776.51692 | pgbench_branches_pkey |            40960
 2017-02-03 15:56:16.516922+01 | 1486133776.51692 | pgbench_tellers_pkey  |           245760
 2017-02-03 15:56:16.516922+01 | 1486133776.51692 | pgbench_accounts_pkey |       2246197248

 2017-02-03 15:56:17.623937+01 | 1486133777.62394 | pgbench_branches_pkey |            40960
 2017-02-03 15:56:17.623937+01 | 1486133777.62394 | pgbench_tellers_pkey  |           245760
 2017-02-03 15:56:17.623937+01 | 1486133777.62394 | pgbench_accounts_pkey |       2246197248

 2017-02-03 15:56:18.719586+01 | 1486133778.71959 | pgbench_branches_pkey |            40960
 2017-02-03 15:56:18.719586+01 | 1486133778.71959 | pgbench_tellers_pkey  |           245760
 2017-02-03 15:56:18.719586+01 | 1486133778.71959 | pgbench_accounts_pkey |       2246197248

 2017-02-03 15:56:19.817208+01 | 1486133779.81721 | pgbench_branches_pkey |            40960
 2017-02-03 15:56:19.817208+01 | 1486133779.81721 | pgbench_tellers_pkey  |           245760
 2017-02-03 15:56:19.817208+01 | 1486133779.81721 | pgbench_accounts_pkey |       2246197248

 2017-02-03 15:56:20.915849+01 | 1486133780.91585 | pgbench_branches_pkey |            40960
 2017-02-03 15:56:20.915849+01 | 1486133780.91585 | pgbench_tellers_pkey  |           245760
 2017-02-03 15:56:20.915849+01 | 1486133780.91585 | pgbench_accounts_pkey |       2246197248

 2017-02-03 15:56:22.01627+01 | 1486133782.01627 | pgbench_branches_pkey |            40960
 2017-02-03 15:56:22.01627+01 | 1486133782.01627 | pgbench_tellers_pkey  |           245760
 2017-02-03 15:56:22.01627+01 | 1486133782.01627 | pgbench_accounts_pkey |       2246197248

 2017-02-03 15:56:23.107104+01 | 1486133783.1071 | pgbench_branches_pkey |            40960
 2017-02-03 15:56:23.107104+01 | 1486133783.1071 | pgbench_tellers_pkey  |           245760
 2017-02-03 15:56:23.107104+01 | 1486133783.1071 | pgbench_accounts_pkey |       2246197248

 2017-02-03 15:56:24.209485+01 | 1486133784.20949 | pgbench_branches_pkey |            40960
 2017-02-03 15:56:24.209485+01 | 1486133784.20949 | pgbench_tellers_pkey  |           245760
 2017-02-03 15:56:24.209485+01 | 1486133784.20949 | pgbench_accounts_pkey |       2246197248

 2017-02-03 15:56:25.294022+01 | 1486133785.29402 | pgbench_branches_pkey |            40960
 2017-02-03 15:56:25.294022+01 | 1486133785.29402 | pgbench_tellers_pkey  |           245760
 2017-02-03 15:56:25.294022+01 | 1486133785.29402 | pgbench_accounts_pkey |       2246197248

 2017-02-03 15:56:26.41124+01 | 1486133786.41124 | pgbench_branches_pkey |            40960
 2017-02-03 15:56:26.41124+01 | 1486133786.41124 | pgbench_tellers_pkey  |           245760
 2017-02-03 15:56:26.41124+01 | 1486133786.41124 | pgbench_accounts_pkey |       2246197248

 2017-02-03 15:56:27.498798+01 | 1486133787.4988 | pgbench_branches_pkey |            40960
 2017-02-03 15:56:27.498798+01 | 1486133787.4988 | pgbench_tellers_pkey  |           245760
 2017-02-03 15:56:27.498798+01 | 1486133787.4988 | pgbench_accounts_pkey |       2246197248

 2017-02-03 15:56:28.592805+01 | 1486133788.5928 | pgbench_branches_pkey |            40960
 2017-02-03 15:56:28.592805+01 | 1486133788.5928 | pgbench_tellers_pkey  |           245760
 2017-02-03 15:56:28.592805+01 | 1486133788.5928 | pgbench_accounts_pkey |       2246197248

 2017-02-03 15:56:29.680898+01 | 1486133789.6809 | pgbench_branches_pkey |            40960
 2017-02-03 15:56:29.680898+01 | 1486133789.6809 | pgbench_tellers_pkey  |           245760
 2017-02-03 15:56:29.680898+01 | 1486133789.6809 | pgbench_accounts_pkey |       2246197248

 2017-02-03 15:56:30.768258+01 | 1486133790.76826 | pgbench_branches_pkey |            40960
 2017-02-03 15:56:30.768258+01 | 1486133790.76826 | pgbench_tellers_pkey  |           245760
 2017-02-03 15:56:30.768258+01 | 1486133790.76826 | pgbench_accounts_pkey |       2246197248

 2017-02-03 15:56:31.862064+01 | 1486133791.86206 | pgbench_branches_pkey |            40960
 2017-02-03 15:56:31.862064+01 | 1486133791.86206 | pgbench_tellers_pkey  |           245760
 2017-02-03 15:56:31.862064+01 | 1486133791.86206 | pgbench_accounts_pkey |       2246197248

