 2017-02-06 16:23:50.939694+01 | 1486394630.93969 | pgbench_accounts |       1391173632
 2017-02-06 16:23:50.939694+01 | 1486394630.93969 | pgbench_tellers  |          3063808
 2017-02-06 16:23:50.939694+01 | 1486394630.93969 | pgbench_history  |          1171456
 2017-02-06 16:23:50.939694+01 | 1486394630.93969 | pgbench_branches |          1490944

 2017-02-06 16:23:52.043798+01 | 1486394632.0438 | pgbench_accounts |       1391173632
 2017-02-06 16:23:52.043798+01 | 1486394632.0438 | pgbench_tellers  |          3063808
 2017-02-06 16:23:52.043798+01 | 1486394632.0438 | pgbench_history  |          1171456
 2017-02-06 16:23:52.043798+01 | 1486394632.0438 | pgbench_branches |          1490944

 2017-02-06 16:23:53.137335+01 | 1486394633.13734 | pgbench_accounts |       1391173632
 2017-02-06 16:23:53.137335+01 | 1486394633.13734 | pgbench_tellers  |          3063808
 2017-02-06 16:23:53.137335+01 | 1486394633.13734 | pgbench_history  |          4612096
 2017-02-06 16:23:53.137335+01 | 1486394633.13734 | pgbench_branches |          1490944

 2017-02-06 16:23:54.221057+01 | 1486394634.22106 | pgbench_accounts |       1391173632
 2017-02-06 16:23:54.221057+01 | 1486394634.22106 | pgbench_tellers  |          3063808
 2017-02-06 16:23:54.221057+01 | 1486394634.22106 | pgbench_history  |          4612096
 2017-02-06 16:23:54.221057+01 | 1486394634.22106 | pgbench_branches |          1490944

 2017-02-06 16:23:55.311725+01 | 1486394635.31172 | pgbench_accounts |       1391173632
 2017-02-06 16:23:55.311725+01 | 1486394635.31172 | pgbench_tellers  |          3063808
 2017-02-06 16:23:55.311725+01 | 1486394635.31172 | pgbench_history  |          4964352
 2017-02-06 16:23:55.311725+01 | 1486394635.31172 | pgbench_branches |          1490944

 2017-02-06 16:23:56.403041+01 | 1486394636.40304 | pgbench_accounts |       1391173632
 2017-02-06 16:23:56.403041+01 | 1486394636.40304 | pgbench_tellers  |          3063808
 2017-02-06 16:23:56.403041+01 | 1486394636.40304 | pgbench_history  |          6365184
 2017-02-06 16:23:56.403041+01 | 1486394636.40304 | pgbench_branches |          1490944

 2017-02-06 16:23:57.494124+01 | 1486394637.49412 | pgbench_accounts |       1391173632
 2017-02-06 16:23:57.494124+01 | 1486394637.49412 | pgbench_tellers  |          3063808
 2017-02-06 16:23:57.494124+01 | 1486394637.49412 | pgbench_history  |          7929856
 2017-02-06 16:23:57.494124+01 | 1486394637.49412 | pgbench_branches |          1490944

 2017-02-06 16:23:58.586867+01 | 1486394638.58687 | pgbench_accounts |       1391173632
 2017-02-06 16:23:58.586867+01 | 1486394638.58687 | pgbench_tellers  |          3063808
 2017-02-06 16:23:58.586867+01 | 1486394638.58687 | pgbench_history  |          9453568
 2017-02-06 16:23:58.586867+01 | 1486394638.58687 | pgbench_branches |          1490944

 2017-02-06 16:23:59.683046+01 | 1486394639.68305 | pgbench_accounts |       1391173632
 2017-02-06 16:23:59.683046+01 | 1486394639.68305 | pgbench_tellers  |          3063808
 2017-02-06 16:23:59.683046+01 | 1486394639.68305 | pgbench_history  |         11386880
 2017-02-06 16:23:59.683046+01 | 1486394639.68305 | pgbench_branches |          1490944

 2017-02-06 16:24:00.777302+01 | 1486394640.7773 | pgbench_accounts |       1391173632
 2017-02-06 16:24:00.777302+01 | 1486394640.7773 | pgbench_tellers  |          3063808
 2017-02-06 16:24:00.777302+01 | 1486394640.7773 | pgbench_history  |         12869632
 2017-02-06 16:24:00.777302+01 | 1486394640.7773 | pgbench_branches |          1490944

 2017-02-06 16:24:01.8541+01 | 1486394641.8541 | pgbench_accounts |       1391173632
 2017-02-06 16:24:01.8541+01 | 1486394641.8541 | pgbench_tellers  |          3063808
 2017-02-06 16:24:01.8541+01 | 1486394641.8541 | pgbench_history  |         14557184
 2017-02-06 16:24:01.8541+01 | 1486394641.8541 | pgbench_branches |          1490944

 2017-02-06 16:24:02.943181+01 | 1486394642.94318 | pgbench_accounts |       1391173632
 2017-02-06 16:24:02.943181+01 | 1486394642.94318 | pgbench_tellers  |          3063808
 2017-02-06 16:24:02.943181+01 | 1486394642.94318 | pgbench_history  |         16130048
 2017-02-06 16:24:02.943181+01 | 1486394642.94318 | pgbench_branches |          1490944

 2017-02-06 16:24:04.043368+01 | 1486394644.04337 | pgbench_accounts |       1391173632
 2017-02-06 16:24:04.043368+01 | 1486394644.04337 | pgbench_tellers  |          3063808
 2017-02-06 16:24:04.043368+01 | 1486394644.04337 | pgbench_history  |         17702912
 2017-02-06 16:24:04.043368+01 | 1486394644.04337 | pgbench_branches |          1490944

 2017-02-06 16:24:05.132496+01 | 1486394645.1325 | pgbench_accounts |       1391173632
 2017-02-06 16:24:05.132496+01 | 1486394645.1325 | pgbench_tellers  |          3063808
 2017-02-06 16:24:05.132496+01 | 1486394645.1325 | pgbench_history  |         20103168
 2017-02-06 16:24:05.132496+01 | 1486394645.1325 | pgbench_branches |          1490944

 2017-02-06 16:24:06.224962+01 | 1486394646.22496 | pgbench_accounts |       1391173632
 2017-02-06 16:24:06.224962+01 | 1486394646.22496 | pgbench_tellers  |          3063808
 2017-02-06 16:24:06.224962+01 | 1486394646.22496 | pgbench_history  |         21184512
 2017-02-06 16:24:06.224962+01 | 1486394646.22496 | pgbench_branches |          1490944

 2017-02-06 16:24:07.319575+01 | 1486394647.31958 | pgbench_accounts |       1391173632
 2017-02-06 16:24:07.319575+01 | 1486394647.31958 | pgbench_tellers  |          3063808
 2017-02-06 16:24:07.319575+01 | 1486394647.31958 | pgbench_history  |         22994944
 2017-02-06 16:24:07.319575+01 | 1486394647.31958 | pgbench_branches |          1490944

 2017-02-06 16:24:08.420361+01 | 1486394648.42036 | pgbench_accounts |       1391173632
 2017-02-06 16:24:08.420361+01 | 1486394648.42036 | pgbench_tellers  |          3063808
 2017-02-06 16:24:08.420361+01 | 1486394648.42036 | pgbench_history  |         24518656
 2017-02-06 16:24:08.420361+01 | 1486394648.42036 | pgbench_branches |          1490944

 2017-02-06 16:24:09.512341+01 | 1486394649.51234 | pgbench_accounts |       1391173632
 2017-02-06 16:24:09.512341+01 | 1486394649.51234 | pgbench_tellers  |          3063808
 2017-02-06 16:24:09.512341+01 | 1486394649.51234 | pgbench_history  |         26411008
 2017-02-06 16:24:09.512341+01 | 1486394649.51234 | pgbench_branches |          1490944

 2017-02-06 16:24:10.597355+01 | 1486394650.59735 | pgbench_accounts |       1391173632
 2017-02-06 16:24:10.597355+01 | 1486394650.59735 | pgbench_tellers  |          3063808
 2017-02-06 16:24:10.597355+01 | 1486394650.59735 | pgbench_history  |         27885568
 2017-02-06 16:24:10.597355+01 | 1486394650.59735 | pgbench_branches |          1490944

 2017-02-06 16:24:11.701354+01 | 1486394651.70135 | pgbench_accounts |       1391173632
 2017-02-06 16:24:11.701354+01 | 1486394651.70135 | pgbench_tellers  |          3063808
 2017-02-06 16:24:11.701354+01 | 1486394651.70135 | pgbench_history  |         29925376
 2017-02-06 16:24:11.701354+01 | 1486394651.70135 | pgbench_branches |          1490944

 2017-02-06 16:24:12.797254+01 | 1486394652.79725 | pgbench_accounts |       1391173632
 2017-02-06 16:24:12.797254+01 | 1486394652.79725 | pgbench_tellers  |          3063808
 2017-02-06 16:24:12.797254+01 | 1486394652.79725 | pgbench_history  |         30982144
 2017-02-06 16:24:12.797254+01 | 1486394652.79725 | pgbench_branches |          1490944

 2017-02-06 16:24:13.873642+01 | 1486394653.87364 | pgbench_accounts |       1391173632
 2017-02-06 16:24:13.873642+01 | 1486394653.87364 | pgbench_tellers  |          3063808
 2017-02-06 16:24:13.873642+01 | 1486394653.87364 | pgbench_history  |         33783808
 2017-02-06 16:24:13.873642+01 | 1486394653.87364 | pgbench_branches |          1490944

 2017-02-06 16:24:14.953234+01 | 1486394654.95323 | pgbench_accounts |       1391173632
 2017-02-06 16:24:14.953234+01 | 1486394654.95323 | pgbench_tellers  |          3063808
 2017-02-06 16:24:14.953234+01 | 1486394654.95323 | pgbench_history  |         34955264
 2017-02-06 16:24:14.953234+01 | 1486394654.95323 | pgbench_branches |          1490944

 2017-02-06 16:24:16.045409+01 | 1486394656.04541 | pgbench_accounts |       1391173632
 2017-02-06 16:24:16.045409+01 | 1486394656.04541 | pgbench_tellers  |          3063808
 2017-02-06 16:24:16.045409+01 | 1486394656.04541 | pgbench_history  |         36184064
 2017-02-06 16:24:16.045409+01 | 1486394656.04541 | pgbench_branches |          1490944

 2017-02-06 16:24:17.150106+01 | 1486394657.15011 | pgbench_accounts |       1391173632
 2017-02-06 16:24:17.150106+01 | 1486394657.15011 | pgbench_tellers  |          3063808
 2017-02-06 16:24:17.150106+01 | 1486394657.15011 | pgbench_history  |         38060032
 2017-02-06 16:24:17.150106+01 | 1486394657.15011 | pgbench_branches |          1490944

 2017-02-06 16:24:18.24062+01 | 1486394658.24062 | pgbench_accounts |       1391173632
 2017-02-06 16:24:18.24062+01 | 1486394658.24062 | pgbench_tellers  |          3063808
 2017-02-06 16:24:18.24062+01 | 1486394658.24062 | pgbench_history  |         39305216
 2017-02-06 16:24:18.24062+01 | 1486394658.24062 | pgbench_branches |          1490944

 2017-02-06 16:24:19.336946+01 | 1486394659.33695 | pgbench_accounts |       1391173632
 2017-02-06 16:24:19.336946+01 | 1486394659.33695 | pgbench_tellers  |          3063808
 2017-02-06 16:24:19.336946+01 | 1486394659.33695 | pgbench_history  |         41189376
 2017-02-06 16:24:19.336946+01 | 1486394659.33695 | pgbench_branches |          1490944

 2017-02-06 16:24:20.431199+01 | 1486394660.4312 | pgbench_accounts |       1391173632
 2017-02-06 16:24:20.431199+01 | 1486394660.4312 | pgbench_tellers  |          3063808
 2017-02-06 16:24:20.431199+01 | 1486394660.4312 | pgbench_history  |         42631168
 2017-02-06 16:24:20.431199+01 | 1486394660.4312 | pgbench_branches |          1490944

 2017-02-06 16:24:21.537507+01 | 1486394661.53751 | pgbench_accounts |       1391173632
 2017-02-06 16:24:21.537507+01 | 1486394661.53751 | pgbench_tellers  |          3063808
 2017-02-06 16:24:21.537507+01 | 1486394661.53751 | pgbench_history  |         44687360
 2017-02-06 16:24:21.537507+01 | 1486394661.53751 | pgbench_branches |          1490944

 2017-02-06 16:24:22.635274+01 | 1486394662.63527 | pgbench_accounts |       1391173632
 2017-02-06 16:24:22.635274+01 | 1486394662.63527 | pgbench_tellers  |          3063808
 2017-02-06 16:24:22.635274+01 | 1486394662.63527 | pgbench_history  |         45899776
 2017-02-06 16:24:22.635274+01 | 1486394662.63527 | pgbench_branches |          1490944

 2017-02-06 16:24:23.730947+01 | 1486394663.73095 | pgbench_accounts |       1391173632
 2017-02-06 16:24:23.730947+01 | 1486394663.73095 | pgbench_tellers  |          3063808
 2017-02-06 16:24:23.730947+01 | 1486394663.73095 | pgbench_history  |         47513600
 2017-02-06 16:24:23.730947+01 | 1486394663.73095 | pgbench_branches |          1490944

 2017-02-06 16:24:24.821133+01 | 1486394664.82113 | pgbench_accounts |       1391173632
 2017-02-06 16:24:24.821133+01 | 1486394664.82113 | pgbench_tellers  |          3063808
 2017-02-06 16:24:24.821133+01 | 1486394664.82113 | pgbench_history  |         49446912
 2017-02-06 16:24:24.821133+01 | 1486394664.82113 | pgbench_branches |          1490944

 2017-02-06 16:24:25.893588+01 | 1486394665.89359 | pgbench_accounts |       1391173632
 2017-02-06 16:24:25.893588+01 | 1486394665.89359 | pgbench_tellers  |          3063808
 2017-02-06 16:24:25.893588+01 | 1486394665.89359 | pgbench_history  |         50847744
 2017-02-06 16:24:25.893588+01 | 1486394665.89359 | pgbench_branches |          1490944

 2017-02-06 16:24:26.976961+01 | 1486394666.97696 | pgbench_accounts |       1391173632
 2017-02-06 16:24:26.976961+01 | 1486394666.97696 | pgbench_tellers  |          3063808
 2017-02-06 16:24:26.976961+01 | 1486394666.97696 | pgbench_history  |         52248576
 2017-02-06 16:24:26.976961+01 | 1486394666.97696 | pgbench_branches |          1490944

 2017-02-06 16:24:28.06502+01 | 1486394668.06502 | pgbench_accounts |       1391173632
 2017-02-06 16:24:28.06502+01 | 1486394668.06502 | pgbench_tellers  |          3063808
 2017-02-06 16:24:28.06502+01 | 1486394668.06502 | pgbench_history  |         53878784
 2017-02-06 16:24:28.06502+01 | 1486394668.06502 | pgbench_branches |          1490944

 2017-02-06 16:24:29.153702+01 | 1486394669.1537 | pgbench_accounts |       1391173632
 2017-02-06 16:24:29.153702+01 | 1486394669.1537 | pgbench_tellers  |          3063808
 2017-02-06 16:24:29.153702+01 | 1486394669.1537 | pgbench_history  |         55500800
 2017-02-06 16:24:29.153702+01 | 1486394669.1537 | pgbench_branches |          1490944

 2017-02-06 16:24:30.243005+01 | 1486394670.24301 | pgbench_accounts |       1391173632
 2017-02-06 16:24:30.243005+01 | 1486394670.24301 | pgbench_tellers  |          3063808
 2017-02-06 16:24:30.243005+01 | 1486394670.24301 | pgbench_history  |         57057280
 2017-02-06 16:24:30.243005+01 | 1486394670.24301 | pgbench_branches |          1490944

 2017-02-06 16:24:31.332742+01 | 1486394671.33274 | pgbench_accounts |       1391173632
 2017-02-06 16:24:31.332742+01 | 1486394671.33274 | pgbench_tellers  |          3063808
 2017-02-06 16:24:31.332742+01 | 1486394671.33274 | pgbench_history  |         58605568
 2017-02-06 16:24:31.332742+01 | 1486394671.33274 | pgbench_branches |          1490944

 2017-02-06 16:24:32.446234+01 | 1486394672.44623 | pgbench_accounts |       1391173632
 2017-02-06 16:24:32.446234+01 | 1486394672.44623 | pgbench_tellers  |          3063808
 2017-02-06 16:24:32.446234+01 | 1486394672.44623 | pgbench_history  |         62013440
 2017-02-06 16:24:32.446234+01 | 1486394672.44623 | pgbench_branches |          1490944

 2017-02-06 16:24:33.532269+01 | 1486394673.53227 | pgbench_accounts |       1391173632
 2017-02-06 16:24:33.532269+01 | 1486394673.53227 | pgbench_tellers  |          3063808
 2017-02-06 16:24:33.532269+01 | 1486394673.53227 | pgbench_history  |         62013440
 2017-02-06 16:24:33.532269+01 | 1486394673.53227 | pgbench_branches |          1490944

 2017-02-06 16:24:34.627348+01 | 1486394674.62735 | pgbench_accounts |       1391173632
 2017-02-06 16:24:34.627348+01 | 1486394674.62735 | pgbench_tellers  |          3063808
 2017-02-06 16:24:34.627348+01 | 1486394674.62735 | pgbench_history  |         63053824
 2017-02-06 16:24:34.627348+01 | 1486394674.62735 | pgbench_branches |          1490944

 2017-02-06 16:24:35.724858+01 | 1486394675.72486 | pgbench_accounts |       1391173632
 2017-02-06 16:24:35.724858+01 | 1486394675.72486 | pgbench_tellers  |          3063808
 2017-02-06 16:24:35.724858+01 | 1486394675.72486 | pgbench_history  |         64815104
 2017-02-06 16:24:35.724858+01 | 1486394675.72486 | pgbench_branches |          1490944

 2017-02-06 16:24:36.814422+01 | 1486394676.81442 | pgbench_accounts |       1391173632
 2017-02-06 16:24:36.814422+01 | 1486394676.81442 | pgbench_tellers  |          3063808
 2017-02-06 16:24:36.814422+01 | 1486394676.81442 | pgbench_history  |         66068480
 2017-02-06 16:24:36.814422+01 | 1486394676.81442 | pgbench_branches |          1490944

 2017-02-06 16:24:37.890612+01 | 1486394677.89061 | pgbench_accounts |       1391173632
 2017-02-06 16:24:37.890612+01 | 1486394677.89061 | pgbench_tellers  |          3063808
 2017-02-06 16:24:37.890612+01 | 1486394677.89061 | pgbench_history  |         67461120
 2017-02-06 16:24:37.890612+01 | 1486394677.89061 | pgbench_branches |          1490944

 2017-02-06 16:24:38.970331+01 | 1486394678.97033 | pgbench_accounts |       1391173632
 2017-02-06 16:24:38.970331+01 | 1486394678.97033 | pgbench_tellers  |          3063808
 2017-02-06 16:24:38.970331+01 | 1486394678.97033 | pgbench_history  |         69230592
 2017-02-06 16:24:38.970331+01 | 1486394678.97033 | pgbench_branches |          1490944

 2017-02-06 16:24:40.05999+01 | 1486394680.05999 | pgbench_accounts |       1391173632
 2017-02-06 16:24:40.05999+01 | 1486394680.05999 | pgbench_tellers  |          3063808
 2017-02-06 16:24:40.05999+01 | 1486394680.05999 | pgbench_history  |         70434816
 2017-02-06 16:24:40.05999+01 | 1486394680.05999 | pgbench_branches |          1490944

 2017-02-06 16:24:41.157854+01 | 1486394681.15785 | pgbench_accounts |       1391173632
 2017-02-06 16:24:41.157854+01 | 1486394681.15785 | pgbench_tellers  |          3063808
 2017-02-06 16:24:41.157854+01 | 1486394681.15785 | pgbench_history  |         72122368
 2017-02-06 16:24:41.157854+01 | 1486394681.15785 | pgbench_branches |          1490944

 2017-02-06 16:24:42.249569+01 | 1486394682.24957 | pgbench_accounts |       1391173632
 2017-02-06 16:24:42.249569+01 | 1486394682.24957 | pgbench_tellers  |          3063808
 2017-02-06 16:24:42.249569+01 | 1486394682.24957 | pgbench_history  |         73342976
 2017-02-06 16:24:42.249569+01 | 1486394682.24957 | pgbench_branches |          1490944

 2017-02-06 16:24:43.347886+01 | 1486394683.34789 | pgbench_accounts |       1391173632
 2017-02-06 16:24:43.347886+01 | 1486394683.34789 | pgbench_tellers  |          3063808
 2017-02-06 16:24:43.347886+01 | 1486394683.34789 | pgbench_history  |         75055104
 2017-02-06 16:24:43.347886+01 | 1486394683.34789 | pgbench_branches |          1490944

 2017-02-06 16:24:44.448571+01 | 1486394684.44857 | pgbench_accounts |       1391173632
 2017-02-06 16:24:44.448571+01 | 1486394684.44857 | pgbench_tellers  |          3063808
 2017-02-06 16:24:44.448571+01 | 1486394684.44857 | pgbench_history  |         76578816
 2017-02-06 16:24:44.448571+01 | 1486394684.44857 | pgbench_branches |          1490944

 2017-02-06 16:24:45.54182+01 | 1486394685.54182 | pgbench_accounts |       1391173632
 2017-02-06 16:24:45.54182+01 | 1486394685.54182 | pgbench_tellers  |          3063808
 2017-02-06 16:24:45.54182+01 | 1486394685.54182 | pgbench_history  |         78790656
 2017-02-06 16:24:45.54182+01 | 1486394685.54182 | pgbench_branches |          1490944

 2017-02-06 16:24:46.640643+01 | 1486394686.64064 | pgbench_accounts |       1391173632
 2017-02-06 16:24:46.640643+01 | 1486394686.64064 | pgbench_tellers  |          3063808
 2017-02-06 16:24:46.640643+01 | 1486394686.64064 | pgbench_history  |         80150528
 2017-02-06 16:24:46.640643+01 | 1486394686.64064 | pgbench_branches |          1490944

 2017-02-06 16:24:47.72642+01 | 1486394687.72642 | pgbench_accounts |       1391173632
 2017-02-06 16:24:47.72642+01 | 1486394687.72642 | pgbench_tellers  |          3063808
 2017-02-06 16:24:47.72642+01 | 1486394687.72642 | pgbench_history  |         81707008
 2017-02-06 16:24:47.72642+01 | 1486394687.72642 | pgbench_branches |          1490944

 2017-02-06 16:24:48.818574+01 | 1486394688.81857 | pgbench_accounts |       1391173632
 2017-02-06 16:24:48.818574+01 | 1486394688.81857 | pgbench_tellers  |          3063808
 2017-02-06 16:24:48.818574+01 | 1486394688.81857 | pgbench_history  |         83607552
 2017-02-06 16:24:48.818574+01 | 1486394688.81857 | pgbench_branches |          1490944

 2017-02-06 16:24:49.901326+01 | 1486394689.90133 | pgbench_accounts |       1391173632
 2017-02-06 16:24:49.901326+01 | 1486394689.90133 | pgbench_tellers  |          3063808
 2017-02-06 16:24:49.901326+01 | 1486394689.90133 | pgbench_history  |         84992000
 2017-02-06 16:24:49.901326+01 | 1486394689.90133 | pgbench_branches |          1490944

 2017-02-06 16:24:50.983384+01 | 1486394690.98338 | pgbench_accounts |       1391173632
 2017-02-06 16:24:50.983384+01 | 1486394690.98338 | pgbench_tellers  |          3063808
 2017-02-06 16:24:50.983384+01 | 1486394690.98338 | pgbench_history  |         87040000
 2017-02-06 16:24:50.983384+01 | 1486394690.98338 | pgbench_branches |          1490944

 2017-02-06 16:24:52.069748+01 | 1486394692.06975 | pgbench_accounts |       1391173632
 2017-02-06 16:24:52.069748+01 | 1486394692.06975 | pgbench_tellers  |          3063808
 2017-02-06 16:24:52.069748+01 | 1486394692.06975 | pgbench_history  |         89194496
 2017-02-06 16:24:52.069748+01 | 1486394692.06975 | pgbench_branches |          1490944

 2017-02-06 16:24:53.169662+01 | 1486394693.16966 | pgbench_accounts |       1391173632
 2017-02-06 16:24:53.169662+01 | 1486394693.16966 | pgbench_tellers  |          3063808
 2017-02-06 16:24:53.169662+01 | 1486394693.16966 | pgbench_history  |         89710592
 2017-02-06 16:24:53.169662+01 | 1486394693.16966 | pgbench_branches |          1490944

 2017-02-06 16:24:54.265453+01 | 1486394694.26545 | pgbench_accounts |       1391173632
 2017-02-06 16:24:54.265453+01 | 1486394694.26545 | pgbench_tellers  |          3063808
 2017-02-06 16:24:54.265453+01 | 1486394694.26545 | pgbench_history  |         91447296
 2017-02-06 16:24:54.265453+01 | 1486394694.26545 | pgbench_branches |          1490944

 2017-02-06 16:24:55.356174+01 | 1486394695.35617 | pgbench_accounts |       1391173632
 2017-02-06 16:24:55.356174+01 | 1486394695.35617 | pgbench_tellers  |          3063808
 2017-02-06 16:24:55.356174+01 | 1486394695.35617 | pgbench_history  |         94257152
 2017-02-06 16:24:55.356174+01 | 1486394695.35617 | pgbench_branches |          1490944

 2017-02-06 16:24:56.451813+01 | 1486394696.45181 | pgbench_accounts |       1391173632
 2017-02-06 16:24:56.451813+01 | 1486394696.45181 | pgbench_tellers  |          3063808
 2017-02-06 16:24:56.451813+01 | 1486394696.45181 | pgbench_history  |         94773248
 2017-02-06 16:24:56.451813+01 | 1486394696.45181 | pgbench_branches |          1490944

 2017-02-06 16:24:57.5419+01 | 1486394697.5419 | pgbench_accounts |       1391173632
 2017-02-06 16:24:57.5419+01 | 1486394697.5419 | pgbench_tellers  |          3063808
 2017-02-06 16:24:57.5419+01 | 1486394697.5419 | pgbench_history  |         96509952
 2017-02-06 16:24:57.5419+01 | 1486394697.5419 | pgbench_branches |          1490944

 2017-02-06 16:24:58.635816+01 | 1486394698.63582 | pgbench_accounts |       1391173632
 2017-02-06 16:24:58.635816+01 | 1486394698.63582 | pgbench_tellers  |          3063808
 2017-02-06 16:24:58.635816+01 | 1486394698.63582 | pgbench_history  |         97730560
 2017-02-06 16:24:58.635816+01 | 1486394698.63582 | pgbench_branches |          1490944

 2017-02-06 16:24:59.731329+01 | 1486394699.73133 | pgbench_accounts |       1391173632
 2017-02-06 16:24:59.731329+01 | 1486394699.73133 | pgbench_tellers  |          3063808
 2017-02-06 16:24:59.731329+01 | 1486394699.73133 | pgbench_history  |        102637568
 2017-02-06 16:24:59.731329+01 | 1486394699.73133 | pgbench_branches |          1490944

 2017-02-06 16:25:00.824615+01 | 1486394700.82462 | pgbench_accounts |       1391173632
 2017-02-06 16:25:00.824615+01 | 1486394700.82462 | pgbench_tellers  |          3063808
 2017-02-06 16:25:00.824615+01 | 1486394700.82462 | pgbench_history  |        102637568
 2017-02-06 16:25:00.824615+01 | 1486394700.82462 | pgbench_branches |          1490944

 2017-02-06 16:25:01.911046+01 | 1486394701.91105 | pgbench_accounts |       1391173632
 2017-02-06 16:25:01.911046+01 | 1486394701.91105 | pgbench_tellers  |          3063808
 2017-02-06 16:25:01.911046+01 | 1486394701.91105 | pgbench_history  |        102637568
 2017-02-06 16:25:01.911046+01 | 1486394701.91105 | pgbench_branches |          1490944

 2017-02-06 16:25:02.992017+01 | 1486394702.99202 | pgbench_accounts |       1391173632
 2017-02-06 16:25:02.992017+01 | 1486394702.99202 | pgbench_tellers  |          3063808
 2017-02-06 16:25:02.992017+01 | 1486394702.99202 | pgbench_history  |        104816640
 2017-02-06 16:25:02.992017+01 | 1486394702.99202 | pgbench_branches |          1490944

 2017-02-06 16:25:04.081069+01 | 1486394704.08107 | pgbench_accounts |       1391173632
 2017-02-06 16:25:04.081069+01 | 1486394704.08107 | pgbench_tellers  |          3063808
 2017-02-06 16:25:04.081069+01 | 1486394704.08107 | pgbench_history  |        105824256
 2017-02-06 16:25:04.081069+01 | 1486394704.08107 | pgbench_branches |          1490944

 2017-02-06 16:25:05.17865+01 | 1486394705.17865 | pgbench_accounts |       1391173632
 2017-02-06 16:25:05.17865+01 | 1486394705.17865 | pgbench_tellers  |          3063808
 2017-02-06 16:25:05.17865+01 | 1486394705.17865 | pgbench_history  |        107724800
 2017-02-06 16:25:05.17865+01 | 1486394705.17865 | pgbench_branches |          1490944

 2017-02-06 16:25:06.28009+01 | 1486394706.28009 | pgbench_accounts |       1391173632
 2017-02-06 16:25:06.28009+01 | 1486394706.28009 | pgbench_tellers  |          3063808
 2017-02-06 16:25:06.28009+01 | 1486394706.28009 | pgbench_history  |        109322240
 2017-02-06 16:25:06.28009+01 | 1486394706.28009 | pgbench_branches |          1490944

 2017-02-06 16:25:07.376082+01 | 1486394707.37608 | pgbench_accounts |       1391173632
 2017-02-06 16:25:07.376082+01 | 1486394707.37608 | pgbench_tellers  |          3063808
 2017-02-06 16:25:07.376082+01 | 1486394707.37608 | pgbench_history  |        110682112
 2017-02-06 16:25:07.376082+01 | 1486394707.37608 | pgbench_branches |          1490944

 2017-02-06 16:25:08.473878+01 | 1486394708.47388 | pgbench_accounts |       1391173632
 2017-02-06 16:25:08.473878+01 | 1486394708.47388 | pgbench_tellers  |          3063808
 2017-02-06 16:25:08.473878+01 | 1486394708.47388 | pgbench_history  |        112590848
 2017-02-06 16:25:08.473878+01 | 1486394708.47388 | pgbench_branches |          1490944

 2017-02-06 16:25:09.569144+01 | 1486394709.56914 | pgbench_accounts |       1391173632
 2017-02-06 16:25:09.569144+01 | 1486394709.56914 | pgbench_tellers  |          3063808
 2017-02-06 16:25:09.569144+01 | 1486394709.56914 | pgbench_history  |        116056064
 2017-02-06 16:25:09.569144+01 | 1486394709.56914 | pgbench_branches |          1490944

 2017-02-06 16:25:10.665198+01 | 1486394710.6652 | pgbench_accounts |       1391173632
 2017-02-06 16:25:10.665198+01 | 1486394710.6652 | pgbench_tellers  |          3063808
 2017-02-06 16:25:10.665198+01 | 1486394710.6652 | pgbench_history  |        116056064
 2017-02-06 16:25:10.665198+01 | 1486394710.6652 | pgbench_branches |          1490944

 2017-02-06 16:25:11.772459+01 | 1486394711.77246 | pgbench_accounts |       1391173632
 2017-02-06 16:25:11.772459+01 | 1486394711.77246 | pgbench_tellers  |          3063808
 2017-02-06 16:25:11.772459+01 | 1486394711.77246 | pgbench_history  |        116932608
 2017-02-06 16:25:11.772459+01 | 1486394711.77246 | pgbench_branches |          1490944

 2017-02-06 16:25:12.85945+01 | 1486394712.85945 | pgbench_accounts |       1391173632
 2017-02-06 16:25:12.85945+01 | 1486394712.85945 | pgbench_tellers  |          3063808
 2017-02-06 16:25:12.85945+01 | 1486394712.85945 | pgbench_history  |        118497280
 2017-02-06 16:25:12.85945+01 | 1486394712.85945 | pgbench_branches |          1490944

 2017-02-06 16:25:13.943484+01 | 1486394713.94348 | pgbench_accounts |       1391173632
 2017-02-06 16:25:13.943484+01 | 1486394713.94348 | pgbench_tellers  |          3063808
 2017-02-06 16:25:13.943484+01 | 1486394713.94348 | pgbench_history  |        120209408
 2017-02-06 16:25:13.943484+01 | 1486394713.94348 | pgbench_branches |          1490944

 2017-02-06 16:25:15.02907+01 | 1486394715.02907 | pgbench_accounts |       1391173632
 2017-02-06 16:25:15.02907+01 | 1486394715.02907 | pgbench_tellers  |          3063808
 2017-02-06 16:25:15.02907+01 | 1486394715.02907 | pgbench_history  |        121634816
 2017-02-06 16:25:15.02907+01 | 1486394715.02907 | pgbench_branches |          1490944

 2017-02-06 16:25:16.114508+01 | 1486394716.11451 | pgbench_accounts |       1391173632
 2017-02-06 16:25:16.114508+01 | 1486394716.11451 | pgbench_tellers  |          3063808
 2017-02-06 16:25:16.114508+01 | 1486394716.11451 | pgbench_history  |        123756544
 2017-02-06 16:25:16.114508+01 | 1486394716.11451 | pgbench_branches |          1490944

 2017-02-06 16:25:17.209908+01 | 1486394717.20991 | pgbench_accounts |       1391173632
 2017-02-06 16:25:17.209908+01 | 1486394717.20991 | pgbench_tellers  |          3063808
 2017-02-06 16:25:17.209908+01 | 1486394717.20991 | pgbench_history  |        125444096
 2017-02-06 16:25:17.209908+01 | 1486394717.20991 | pgbench_branches |          1490944

 2017-02-06 16:25:18.309626+01 | 1486394718.30963 | pgbench_accounts |       1391173632
 2017-02-06 16:25:18.309626+01 | 1486394718.30963 | pgbench_tellers  |          3063808
 2017-02-06 16:25:18.309626+01 | 1486394718.30963 | pgbench_history  |        126828544
 2017-02-06 16:25:18.309626+01 | 1486394718.30963 | pgbench_branches |          1490944

 2017-02-06 16:25:19.406742+01 | 1486394719.40674 | pgbench_accounts |       1391173632
 2017-02-06 16:25:19.406742+01 | 1486394719.40674 | pgbench_tellers  |          3063808
 2017-02-06 16:25:19.406742+01 | 1486394719.40674 | pgbench_history  |        130834432
 2017-02-06 16:25:19.406742+01 | 1486394719.40674 | pgbench_branches |          1490944

 2017-02-06 16:25:20.49757+01 | 1486394720.49757 | pgbench_accounts |       1391173632
 2017-02-06 16:25:20.49757+01 | 1486394720.49757 | pgbench_tellers  |          3063808
 2017-02-06 16:25:20.49757+01 | 1486394720.49757 | pgbench_history  |        130834432
 2017-02-06 16:25:20.49757+01 | 1486394720.49757 | pgbench_branches |          1490944

 2017-02-06 16:25:21.605597+01 | 1486394721.6056 | pgbench_accounts |       1391173632
 2017-02-06 16:25:21.605597+01 | 1486394721.6056 | pgbench_tellers  |          3063808
 2017-02-06 16:25:21.605597+01 | 1486394721.6056 | pgbench_history  |        133152768
 2017-02-06 16:25:21.605597+01 | 1486394721.6056 | pgbench_branches |          1490944

 2017-02-06 16:25:22.707862+01 | 1486394722.70786 | pgbench_accounts |       1391173632
 2017-02-06 16:25:22.707862+01 | 1486394722.70786 | pgbench_tellers  |          3063808
 2017-02-06 16:25:22.707862+01 | 1486394722.70786 | pgbench_history  |        134651904
 2017-02-06 16:25:22.707862+01 | 1486394722.70786 | pgbench_branches |          1490944

 2017-02-06 16:25:23.803584+01 | 1486394723.80358 | pgbench_accounts |       1391173632
 2017-02-06 16:25:23.803584+01 | 1486394723.80358 | pgbench_tellers  |          3063808
 2017-02-06 16:25:23.803584+01 | 1486394723.80358 | pgbench_history  |        135987200
 2017-02-06 16:25:23.803584+01 | 1486394723.80358 | pgbench_branches |          1490944

 2017-02-06 16:25:24.890229+01 | 1486394724.89023 | pgbench_accounts |       1391173632
 2017-02-06 16:25:24.890229+01 | 1486394724.89023 | pgbench_tellers  |          3063808
 2017-02-06 16:25:24.890229+01 | 1486394724.89023 | pgbench_history  |        136839168
 2017-02-06 16:25:24.890229+01 | 1486394724.89023 | pgbench_branches |          1490944

 2017-02-06 16:25:25.967089+01 | 1486394725.96709 | pgbench_accounts |       1391173632
 2017-02-06 16:25:25.967089+01 | 1486394725.96709 | pgbench_tellers  |          3063808
 2017-02-06 16:25:25.967089+01 | 1486394725.96709 | pgbench_history  |        138059776
 2017-02-06 16:25:25.967089+01 | 1486394725.96709 | pgbench_branches |          1490944

 2017-02-06 16:25:27.073157+01 | 1486394727.07316 | pgbench_accounts |       1391173632
 2017-02-06 16:25:27.073157+01 | 1486394727.07316 | pgbench_tellers  |          3063808
 2017-02-06 16:25:27.073157+01 | 1486394727.07316 | pgbench_history  |        139780096
 2017-02-06 16:25:27.073157+01 | 1486394727.07316 | pgbench_branches |          1490944

 2017-02-06 16:25:28.163608+01 | 1486394728.16361 | pgbench_accounts |       1391173632
 2017-02-06 16:25:28.163608+01 | 1486394728.16361 | pgbench_tellers  |          3063808
 2017-02-06 16:25:28.163608+01 | 1486394728.16361 | pgbench_history  |        141303808
 2017-02-06 16:25:28.163608+01 | 1486394728.16361 | pgbench_branches |          1490944

 2017-02-06 16:25:29.26383+01 | 1486394729.26383 | pgbench_accounts |       1391173632
 2017-02-06 16:25:29.26383+01 | 1486394729.26383 | pgbench_tellers  |          3063808
 2017-02-06 16:25:29.26383+01 | 1486394729.26383 | pgbench_history  |        142860288
 2017-02-06 16:25:29.26383+01 | 1486394729.26383 | pgbench_branches |          1490944

 2017-02-06 16:25:30.359085+01 | 1486394730.35909 | pgbench_accounts |       1391173632
 2017-02-06 16:25:30.359085+01 | 1486394730.35909 | pgbench_tellers  |          3063808
 2017-02-06 16:25:30.359085+01 | 1486394730.35909 | pgbench_history  |        144908288
 2017-02-06 16:25:30.359085+01 | 1486394730.35909 | pgbench_branches |          1490944

 2017-02-06 16:25:31.457052+01 | 1486394731.45705 | pgbench_accounts |       1391173632
 2017-02-06 16:25:31.457052+01 | 1486394731.45705 | pgbench_tellers  |          3063808
 2017-02-06 16:25:31.457052+01 | 1486394731.45705 | pgbench_history  |        147046400
 2017-02-06 16:25:31.457052+01 | 1486394731.45705 | pgbench_branches |          1490944

 2017-02-06 16:25:32.54087+01 | 1486394732.54087 | pgbench_accounts |       1391173632
 2017-02-06 16:25:32.54087+01 | 1486394732.54087 | pgbench_tellers  |          3063808
 2017-02-06 16:25:32.54087+01 | 1486394732.54087 | pgbench_history  |        147939328
 2017-02-06 16:25:32.54087+01 | 1486394732.54087 | pgbench_branches |          1490944

 2017-02-06 16:25:33.642072+01 | 1486394733.64207 | pgbench_accounts |       1391173632
 2017-02-06 16:25:33.642072+01 | 1486394733.64207 | pgbench_tellers  |          3063808
 2017-02-06 16:25:33.642072+01 | 1486394733.64207 | pgbench_history  |        149536768
 2017-02-06 16:25:33.642072+01 | 1486394733.64207 | pgbench_branches |          1490944

 2017-02-06 16:25:34.750796+01 | 1486394734.7508 | pgbench_accounts |       1391173632
 2017-02-06 16:25:34.750796+01 | 1486394734.7508 | pgbench_tellers  |          3063808
 2017-02-06 16:25:34.750796+01 | 1486394734.7508 | pgbench_history  |        151085056
 2017-02-06 16:25:34.750796+01 | 1486394734.7508 | pgbench_branches |          1490944

 2017-02-06 16:25:35.85657+01 | 1486394735.85657 | pgbench_accounts |       1391173632
 2017-02-06 16:25:35.85657+01 | 1486394735.85657 | pgbench_tellers  |          3063808
 2017-02-06 16:25:35.85657+01 | 1486394735.85657 | pgbench_history  |        152805376
 2017-02-06 16:25:35.85657+01 | 1486394735.85657 | pgbench_branches |          1490944

 2017-02-06 16:25:36.933197+01 | 1486394736.9332 | pgbench_accounts |       1391173632
 2017-02-06 16:25:36.933197+01 | 1486394736.9332 | pgbench_tellers  |          3063808
 2017-02-06 16:25:36.933197+01 | 1486394736.9332 | pgbench_history  |        154329088
 2017-02-06 16:25:36.933197+01 | 1486394736.9332 | pgbench_branches |          1490944

 2017-02-06 16:25:38.01505+01 | 1486394738.01505 | pgbench_accounts |       1391173632
 2017-02-06 16:25:38.01505+01 | 1486394738.01505 | pgbench_tellers  |          3063808
 2017-02-06 16:25:38.01505+01 | 1486394738.01505 | pgbench_history  |        155721728
 2017-02-06 16:25:38.01505+01 | 1486394738.01505 | pgbench_branches |          1490944

 2017-02-06 16:25:39.097639+01 | 1486394739.09764 | pgbench_accounts |       1391173632
 2017-02-06 16:25:39.097639+01 | 1486394739.09764 | pgbench_tellers  |          3063808
 2017-02-06 16:25:39.097639+01 | 1486394739.09764 | pgbench_history  |        157294592
 2017-02-06 16:25:39.097639+01 | 1486394739.09764 | pgbench_branches |          1490944

 2017-02-06 16:25:40.190461+01 | 1486394740.19046 | pgbench_accounts |       1391173632
 2017-02-06 16:25:40.190461+01 | 1486394740.19046 | pgbench_tellers  |          3063808
 2017-02-06 16:25:40.190461+01 | 1486394740.19046 | pgbench_history  |        159219712
 2017-02-06 16:25:40.190461+01 | 1486394740.19046 | pgbench_branches |          1490944

 2017-02-06 16:25:41.290395+01 | 1486394741.2904 | pgbench_accounts |       1391173632
 2017-02-06 16:25:41.290395+01 | 1486394741.2904 | pgbench_tellers  |          3063808
 2017-02-06 16:25:41.290395+01 | 1486394741.2904 | pgbench_history  |        160825344
 2017-02-06 16:25:41.290395+01 | 1486394741.2904 | pgbench_branches |          1490944

 2017-02-06 16:25:42.390863+01 | 1486394742.39086 | pgbench_accounts |       1391173632
 2017-02-06 16:25:42.390863+01 | 1486394742.39086 | pgbench_tellers  |          3063808
 2017-02-06 16:25:42.390863+01 | 1486394742.39086 | pgbench_history  |        162873344
 2017-02-06 16:25:42.390863+01 | 1486394742.39086 | pgbench_branches |          1490944

 2017-02-06 16:25:43.496719+01 | 1486394743.49672 | pgbench_accounts |       1391173632
 2017-02-06 16:25:43.496719+01 | 1486394743.49672 | pgbench_tellers  |          3063808
 2017-02-06 16:25:43.496719+01 | 1486394743.49672 | pgbench_history  |        164077568
 2017-02-06 16:25:43.496719+01 | 1486394743.49672 | pgbench_branches |          1490944

 2017-02-06 16:25:44.590355+01 | 1486394744.59035 | pgbench_accounts |       1391173632
 2017-02-06 16:25:44.590355+01 | 1486394744.59035 | pgbench_tellers  |          3063808
 2017-02-06 16:25:44.590355+01 | 1486394744.59035 | pgbench_history  |        165576704
 2017-02-06 16:25:44.590355+01 | 1486394744.59035 | pgbench_branches |          1490944

 2017-02-06 16:25:45.693218+01 | 1486394745.69322 | pgbench_accounts |       1391173632
 2017-02-06 16:25:45.693218+01 | 1486394745.69322 | pgbench_tellers  |          3063808
 2017-02-06 16:25:45.693218+01 | 1486394745.69322 | pgbench_history  |        166813696
 2017-02-06 16:25:45.693218+01 | 1486394745.69322 | pgbench_branches |          1490944

 2017-02-06 16:25:46.779404+01 | 1486394746.7794 | pgbench_accounts |       1391173632
 2017-02-06 16:25:46.779404+01 | 1486394746.7794 | pgbench_tellers  |          3063808
 2017-02-06 16:25:46.779404+01 | 1486394746.7794 | pgbench_history  |        169484288
 2017-02-06 16:25:46.779404+01 | 1486394746.7794 | pgbench_branches |          1490944

 2017-02-06 16:25:47.882194+01 | 1486394747.88219 | pgbench_accounts |       1391173632
 2017-02-06 16:25:47.882194+01 | 1486394747.88219 | pgbench_tellers  |          3063808
 2017-02-06 16:25:47.882194+01 | 1486394747.88219 | pgbench_history  |        170164224
 2017-02-06 16:25:47.882194+01 | 1486394747.88219 | pgbench_branches |          1490944

 2017-02-06 16:25:48.972224+01 | 1486394748.97222 | pgbench_accounts |       1391173632
 2017-02-06 16:25:48.972224+01 | 1486394748.97222 | pgbench_tellers  |          3063808
 2017-02-06 16:25:48.972224+01 | 1486394748.97222 | pgbench_history  |        171737088
 2017-02-06 16:25:48.972224+01 | 1486394748.97222 | pgbench_branches |          1490944

 2017-02-06 16:25:50.055218+01 | 1486394750.05522 | pgbench_accounts |       1391173632
 2017-02-06 16:25:50.055218+01 | 1486394750.05522 | pgbench_tellers  |          3063808
 2017-02-06 16:25:50.055218+01 | 1486394750.05522 | pgbench_history  |        172908544
 2017-02-06 16:25:50.055218+01 | 1486394750.05522 | pgbench_branches |          1490944

 2017-02-06 16:25:51.141315+01 | 1486394751.14131 | pgbench_accounts |       1391173632
 2017-02-06 16:25:51.141315+01 | 1486394751.14131 | pgbench_tellers  |          3063808
 2017-02-06 16:25:51.141315+01 | 1486394751.14131 | pgbench_history  |        174809088
 2017-02-06 16:25:51.141315+01 | 1486394751.14131 | pgbench_branches |          1490944

 2017-02-06 16:25:52.233594+01 | 1486394752.23359 | pgbench_accounts |       1391173632
 2017-02-06 16:25:52.233594+01 | 1486394752.23359 | pgbench_tellers  |          3063808
 2017-02-06 16:25:52.233594+01 | 1486394752.23359 | pgbench_history  |        176668672
 2017-02-06 16:25:52.233594+01 | 1486394752.23359 | pgbench_branches |          1490944

 2017-02-06 16:25:53.340102+01 | 1486394753.3401 | pgbench_accounts |       1391173632
 2017-02-06 16:25:53.340102+01 | 1486394753.3401 | pgbench_tellers  |          3063808
 2017-02-06 16:25:53.340102+01 | 1486394753.3401 | pgbench_history  |        177840128
 2017-02-06 16:25:53.340102+01 | 1486394753.3401 | pgbench_branches |          1490944

 2017-02-06 16:25:54.440286+01 | 1486394754.44029 | pgbench_accounts |       1391173632
 2017-02-06 16:25:54.440286+01 | 1486394754.44029 | pgbench_tellers  |          3063808
 2017-02-06 16:25:54.440286+01 | 1486394754.44029 | pgbench_history  |        179527680
 2017-02-06 16:25:54.440286+01 | 1486394754.44029 | pgbench_branches |          1490944

 2017-02-06 16:25:55.528291+01 | 1486394755.52829 | pgbench_accounts |       1391173632
 2017-02-06 16:25:55.528291+01 | 1486394755.52829 | pgbench_tellers  |          3063808
 2017-02-06 16:25:55.528291+01 | 1486394755.52829 | pgbench_history  |        180862976
 2017-02-06 16:25:55.528291+01 | 1486394755.52829 | pgbench_branches |          1490944

 2017-02-06 16:25:56.618978+01 | 1486394756.61898 | pgbench_accounts |       1391173632
 2017-02-06 16:25:56.618978+01 | 1486394756.61898 | pgbench_tellers  |          3063808
 2017-02-06 16:25:56.618978+01 | 1486394756.61898 | pgbench_history  |        184352768
 2017-02-06 16:25:56.618978+01 | 1486394756.61898 | pgbench_branches |          1490944

 2017-02-06 16:25:57.717465+01 | 1486394757.71746 | pgbench_accounts |       1391173632
 2017-02-06 16:25:57.717465+01 | 1486394757.71746 | pgbench_tellers  |          3063808
 2017-02-06 16:25:57.717465+01 | 1486394757.71746 | pgbench_history  |        184352768
 2017-02-06 16:25:57.717465+01 | 1486394757.71746 | pgbench_branches |          1490944

 2017-02-06 16:25:58.812512+01 | 1486394758.81251 | pgbench_accounts |       1391173632
 2017-02-06 16:25:58.812512+01 | 1486394758.81251 | pgbench_tellers  |          3063808
 2017-02-06 16:25:58.812512+01 | 1486394758.81251 | pgbench_history  |        187539456
 2017-02-06 16:25:58.812512+01 | 1486394758.81251 | pgbench_branches |          1490944

 2017-02-06 16:25:59.90728+01 | 1486394759.90728 | pgbench_accounts |       1391173632
 2017-02-06 16:25:59.90728+01 | 1486394759.90728 | pgbench_tellers  |          3063808
 2017-02-06 16:25:59.90728+01 | 1486394759.90728 | pgbench_history  |        187539456
 2017-02-06 16:25:59.90728+01 | 1486394759.90728 | pgbench_branches |          1490944

 2017-02-06 16:26:00.986953+01 | 1486394760.98695 | pgbench_accounts |       1391173632
 2017-02-06 16:26:00.986953+01 | 1486394760.98695 | pgbench_tellers  |          3063808
 2017-02-06 16:26:00.986953+01 | 1486394760.98695 | pgbench_history  |        189251584
 2017-02-06 16:26:00.986953+01 | 1486394760.98695 | pgbench_branches |          1490944

 2017-02-06 16:26:02.072283+01 | 1486394762.07228 | pgbench_accounts |       1391173632
 2017-02-06 16:26:02.072283+01 | 1486394762.07228 | pgbench_tellers  |          3063808
 2017-02-06 16:26:02.072283+01 | 1486394762.07228 | pgbench_history  |        192118784
 2017-02-06 16:26:02.072283+01 | 1486394762.07228 | pgbench_branches |          1490944

 2017-02-06 16:26:03.152156+01 | 1486394763.15216 | pgbench_accounts |       1391173632
 2017-02-06 16:26:03.152156+01 | 1486394763.15216 | pgbench_tellers  |          3063808
 2017-02-06 16:26:03.152156+01 | 1486394763.15216 | pgbench_history  |        192118784
 2017-02-06 16:26:03.152156+01 | 1486394763.15216 | pgbench_branches |          1490944

 2017-02-06 16:26:04.235931+01 | 1486394764.23593 | pgbench_accounts |       1391173632
 2017-02-06 16:26:04.235931+01 | 1486394764.23593 | pgbench_tellers  |          3063808
 2017-02-06 16:26:04.235931+01 | 1486394764.23593 | pgbench_history  |        194314240
 2017-02-06 16:26:04.235931+01 | 1486394764.23593 | pgbench_branches |          1490944

 2017-02-06 16:26:05.336022+01 | 1486394765.33602 | pgbench_accounts |       1391173632
 2017-02-06 16:26:05.336022+01 | 1486394765.33602 | pgbench_tellers  |          3063808
 2017-02-06 16:26:05.336022+01 | 1486394765.33602 | pgbench_history  |        195198976
 2017-02-06 16:26:05.336022+01 | 1486394765.33602 | pgbench_branches |          1490944

 2017-02-06 16:26:06.44497+01 | 1486394766.44497 | pgbench_accounts |       1391173632
 2017-02-06 16:26:06.44497+01 | 1486394766.44497 | pgbench_tellers  |          3063808
 2017-02-06 16:26:06.44497+01 | 1486394766.44497 | pgbench_history  |        196616192
 2017-02-06 16:26:06.44497+01 | 1486394766.44497 | pgbench_branches |          1490944

 2017-02-06 16:26:07.546982+01 | 1486394767.54698 | pgbench_accounts |       1391173632
 2017-02-06 16:26:07.546982+01 | 1486394767.54698 | pgbench_tellers  |          3063808
 2017-02-06 16:26:07.546982+01 | 1486394767.54698 | pgbench_history  |        198656000
 2017-02-06 16:26:07.546982+01 | 1486394767.54698 | pgbench_branches |          1490944

 2017-02-06 16:26:08.638606+01 | 1486394768.63861 | pgbench_accounts |       1391173632
 2017-02-06 16:26:08.638606+01 | 1486394768.63861 | pgbench_tellers  |          3063808
 2017-02-06 16:26:08.638606+01 | 1486394768.63861 | pgbench_history  |        199925760
 2017-02-06 16:26:08.638606+01 | 1486394768.63861 | pgbench_branches |          1490944

 2017-02-06 16:26:09.727752+01 | 1486394769.72775 | pgbench_accounts |       1391173632
 2017-02-06 16:26:09.727752+01 | 1486394769.72775 | pgbench_tellers  |          3063808
 2017-02-06 16:26:09.727752+01 | 1486394769.72775 | pgbench_history  |        201523200
 2017-02-06 16:26:09.727752+01 | 1486394769.72775 | pgbench_branches |          1490944

 2017-02-06 16:26:10.822756+01 | 1486394770.82276 | pgbench_accounts |       1391173632
 2017-02-06 16:26:10.822756+01 | 1486394770.82276 | pgbench_tellers  |          3063808
 2017-02-06 16:26:10.822756+01 | 1486394770.82276 | pgbench_history  |        203071488
 2017-02-06 16:26:10.822756+01 | 1486394770.82276 | pgbench_branches |          1490944

 2017-02-06 16:26:11.921827+01 | 1486394771.92183 | pgbench_accounts |       1391173632
 2017-02-06 16:26:11.921827+01 | 1486394771.92183 | pgbench_tellers  |          3063808
 2017-02-06 16:26:11.921827+01 | 1486394771.92183 | pgbench_history  |        204840960
 2017-02-06 16:26:11.921827+01 | 1486394771.92183 | pgbench_branches |          1490944

 2017-02-06 16:26:13.003447+01 | 1486394773.00345 | pgbench_accounts |       1391173632
 2017-02-06 16:26:13.003447+01 | 1486394773.00345 | pgbench_tellers  |          3063808
 2017-02-06 16:26:13.003447+01 | 1486394773.00345 | pgbench_history  |        206389248
 2017-02-06 16:26:13.003447+01 | 1486394773.00345 | pgbench_branches |          1490944

 2017-02-06 16:26:14.088906+01 | 1486394774.08891 | pgbench_accounts |       1391173632
 2017-02-06 16:26:14.088906+01 | 1486394774.08891 | pgbench_tellers  |          3063808
 2017-02-06 16:26:14.088906+01 | 1486394774.08891 | pgbench_history  |        207953920
 2017-02-06 16:26:14.088906+01 | 1486394774.08891 | pgbench_branches |          1490944

 2017-02-06 16:26:15.166425+01 | 1486394775.16642 | pgbench_accounts |       1391173632
 2017-02-06 16:26:15.166425+01 | 1486394775.16642 | pgbench_tellers  |          3063808
 2017-02-06 16:26:15.166425+01 | 1486394775.16642 | pgbench_history  |        209313792
 2017-02-06 16:26:15.166425+01 | 1486394775.16642 | pgbench_branches |          1490944

 2017-02-06 16:26:16.253136+01 | 1486394776.25314 | pgbench_accounts |       1391173632
 2017-02-06 16:26:16.253136+01 | 1486394776.25314 | pgbench_tellers  |          3063808
 2017-02-06 16:26:16.253136+01 | 1486394776.25314 | pgbench_history  |        211116032
 2017-02-06 16:26:16.253136+01 | 1486394776.25314 | pgbench_branches |          1490944

 2017-02-06 16:26:17.35163+01 | 1486394777.35163 | pgbench_accounts |       1391173632
 2017-02-06 16:26:17.35163+01 | 1486394777.35163 | pgbench_tellers  |          3063808
 2017-02-06 16:26:17.35163+01 | 1486394777.35163 | pgbench_history  |        214990848
 2017-02-06 16:26:17.35163+01 | 1486394777.35163 | pgbench_branches |          1490944

 2017-02-06 16:26:18.449895+01 | 1486394778.44989 | pgbench_accounts |       1391173632
 2017-02-06 16:26:18.449895+01 | 1486394778.44989 | pgbench_tellers  |          3063808
 2017-02-06 16:26:18.449895+01 | 1486394778.44989 | pgbench_history  |        214990848
 2017-02-06 16:26:18.449895+01 | 1486394778.44989 | pgbench_branches |          1490944

 2017-02-06 16:26:19.535388+01 | 1486394779.53539 | pgbench_accounts |       1391173632
 2017-02-06 16:26:19.535388+01 | 1486394779.53539 | pgbench_tellers  |          3063808
 2017-02-06 16:26:19.535388+01 | 1486394779.53539 | pgbench_history  |        216023040
 2017-02-06 16:26:19.535388+01 | 1486394779.53539 | pgbench_branches |          1490944

 2017-02-06 16:26:20.62645+01 | 1486394780.62645 | pgbench_accounts |       1391173632
 2017-02-06 16:26:20.62645+01 | 1486394780.62645 | pgbench_tellers  |          3063808
 2017-02-06 16:26:20.62645+01 | 1486394780.62645 | pgbench_history  |        220545024
 2017-02-06 16:26:20.62645+01 | 1486394780.62645 | pgbench_branches |          1490944

 2017-02-06 16:26:21.72552+01 | 1486394781.72552 | pgbench_accounts |       1391173632
 2017-02-06 16:26:21.72552+01 | 1486394781.72552 | pgbench_tellers  |          3063808
 2017-02-06 16:26:21.72552+01 | 1486394781.72552 | pgbench_history  |        220545024
 2017-02-06 16:26:21.72552+01 | 1486394781.72552 | pgbench_branches |          1490944

 2017-02-06 16:26:22.820301+01 | 1486394782.8203 | pgbench_accounts |       1391173632
 2017-02-06 16:26:22.820301+01 | 1486394782.8203 | pgbench_tellers  |          3063808
 2017-02-06 16:26:22.820301+01 | 1486394782.8203 | pgbench_history  |        220545024
 2017-02-06 16:26:22.820301+01 | 1486394782.8203 | pgbench_branches |          1490944

 2017-02-06 16:26:23.917849+01 | 1486394783.91785 | pgbench_accounts |       1391173632
 2017-02-06 16:26:23.917849+01 | 1486394783.91785 | pgbench_tellers  |          3063808
 2017-02-06 16:26:23.917849+01 | 1486394783.91785 | pgbench_history  |        222208000
 2017-02-06 16:26:23.917849+01 | 1486394783.91785 | pgbench_branches |          1490944

 2017-02-06 16:26:24.997765+01 | 1486394784.99777 | pgbench_accounts |       1391173632
 2017-02-06 16:26:24.997765+01 | 1486394784.99777 | pgbench_tellers  |          3063808
 2017-02-06 16:26:24.997765+01 | 1486394784.99777 | pgbench_history  |        223756288
 2017-02-06 16:26:24.997765+01 | 1486394784.99777 | pgbench_branches |          1490944

 2017-02-06 16:26:26.077375+01 | 1486394786.07737 | pgbench_accounts |       1391173632
 2017-02-06 16:26:26.077375+01 | 1486394786.07737 | pgbench_tellers  |          3063808
 2017-02-06 16:26:26.077375+01 | 1486394786.07737 | pgbench_history  |        225312768
 2017-02-06 16:26:26.077375+01 | 1486394786.07737 | pgbench_branches |          1490944

 2017-02-06 16:26:27.161111+01 | 1486394787.16111 | pgbench_accounts |       1391173632
 2017-02-06 16:26:27.161111+01 | 1486394787.16111 | pgbench_tellers  |          3063808
 2017-02-06 16:26:27.161111+01 | 1486394787.16111 | pgbench_history  |        227033088
 2017-02-06 16:26:27.161111+01 | 1486394787.16111 | pgbench_branches |          1490944

 2017-02-06 16:26:28.236346+01 | 1486394788.23635 | pgbench_accounts |       1391173632
 2017-02-06 16:26:28.236346+01 | 1486394788.23635 | pgbench_tellers  |          3063808
 2017-02-06 16:26:28.236346+01 | 1486394788.23635 | pgbench_history  |        228261888
 2017-02-06 16:26:28.236346+01 | 1486394788.23635 | pgbench_branches |          1490944

 2017-02-06 16:26:29.321812+01 | 1486394789.32181 | pgbench_accounts |       1391173632
 2017-02-06 16:26:29.321812+01 | 1486394789.32181 | pgbench_tellers  |          3063808
 2017-02-06 16:26:29.321812+01 | 1486394789.32181 | pgbench_history  |        230604800
 2017-02-06 16:26:29.321812+01 | 1486394789.32181 | pgbench_branches |          1490944

 2017-02-06 16:26:30.424622+01 | 1486394790.42462 | pgbench_accounts |       1391173632
 2017-02-06 16:26:30.424622+01 | 1486394790.42462 | pgbench_tellers  |          3063808
 2017-02-06 16:26:30.424622+01 | 1486394790.42462 | pgbench_history  |        231473152
 2017-02-06 16:26:30.424622+01 | 1486394790.42462 | pgbench_branches |          1490944

 2017-02-06 16:26:31.521303+01 | 1486394791.5213 | pgbench_accounts |       1391173632
 2017-02-06 16:26:31.521303+01 | 1486394791.5213 | pgbench_tellers  |          3063808
 2017-02-06 16:26:31.521303+01 | 1486394791.5213 | pgbench_history  |        233259008
 2017-02-06 16:26:31.521303+01 | 1486394791.5213 | pgbench_branches |          1490944

 2017-02-06 16:26:32.625838+01 | 1486394792.62584 | pgbench_accounts |       1391173632
 2017-02-06 16:26:32.625838+01 | 1486394792.62584 | pgbench_tellers  |          3063808
 2017-02-06 16:26:32.625838+01 | 1486394792.62584 | pgbench_history  |        234684416
 2017-02-06 16:26:32.625838+01 | 1486394792.62584 | pgbench_branches |          1490944

 2017-02-06 16:26:33.724704+01 | 1486394793.7247 | pgbench_accounts |       1391173632
 2017-02-06 16:26:33.724704+01 | 1486394793.7247 | pgbench_tellers  |          3063808
 2017-02-06 16:26:33.724704+01 | 1486394793.7247 | pgbench_history  |        236396544
 2017-02-06 16:26:33.724704+01 | 1486394793.7247 | pgbench_branches |          1490944

 2017-02-06 16:26:34.811464+01 | 1486394794.81146 | pgbench_accounts |       1391173632
 2017-02-06 16:26:34.811464+01 | 1486394794.81146 | pgbench_tellers  |          3063808
 2017-02-06 16:26:34.811464+01 | 1486394794.81146 | pgbench_history  |        238190592
 2017-02-06 16:26:34.811464+01 | 1486394794.81146 | pgbench_branches |          1490944

 2017-02-06 16:26:35.901991+01 | 1486394795.90199 | pgbench_accounts |       1391173632
 2017-02-06 16:26:35.901991+01 | 1486394795.90199 | pgbench_tellers  |          3063808
 2017-02-06 16:26:35.901991+01 | 1486394795.90199 | pgbench_history  |        239689728
 2017-02-06 16:26:35.901991+01 | 1486394795.90199 | pgbench_branches |          1490944

 2017-02-06 16:26:36.994041+01 | 1486394796.99404 | pgbench_accounts |       1391173632
 2017-02-06 16:26:36.994041+01 | 1486394796.99404 | pgbench_tellers  |          3063808
 2017-02-06 16:26:36.994041+01 | 1486394796.99404 | pgbench_history  |        241106944
 2017-02-06 16:26:36.994041+01 | 1486394796.99404 | pgbench_branches |          1490944

 2017-02-06 16:26:38.077743+01 | 1486394798.07774 | pgbench_accounts |       1391173632
 2017-02-06 16:26:38.077743+01 | 1486394798.07774 | pgbench_tellers  |          3063808
 2017-02-06 16:26:38.077743+01 | 1486394798.07774 | pgbench_history  |        244498432
 2017-02-06 16:26:38.077743+01 | 1486394798.07774 | pgbench_branches |          1490944

 2017-02-06 16:26:39.159336+01 | 1486394799.15934 | pgbench_accounts |       1391173632
 2017-02-06 16:26:39.159336+01 | 1486394799.15934 | pgbench_tellers  |          3063808
 2017-02-06 16:26:39.159336+01 | 1486394799.15934 | pgbench_history  |        244498432
 2017-02-06 16:26:39.159336+01 | 1486394799.15934 | pgbench_branches |          1490944

 2017-02-06 16:26:40.237203+01 | 1486394800.2372 | pgbench_accounts |       1391173632
 2017-02-06 16:26:40.237203+01 | 1486394800.2372 | pgbench_tellers  |          3063808
 2017-02-06 16:26:40.237203+01 | 1486394800.2372 | pgbench_history  |        245751808
 2017-02-06 16:26:40.237203+01 | 1486394800.2372 | pgbench_branches |          1490944

 2017-02-06 16:26:41.326194+01 | 1486394801.32619 | pgbench_accounts |       1391173632
 2017-02-06 16:26:41.326194+01 | 1486394801.32619 | pgbench_tellers  |          3063808
 2017-02-06 16:26:41.326194+01 | 1486394801.32619 | pgbench_history  |        247111680
 2017-02-06 16:26:41.326194+01 | 1486394801.32619 | pgbench_branches |          1507328

 2017-02-06 16:26:42.422105+01 | 1486394802.42211 | pgbench_accounts |       1391173632
 2017-02-06 16:26:42.422105+01 | 1486394802.42211 | pgbench_tellers  |          3063808
 2017-02-06 16:26:42.422105+01 | 1486394802.42211 | pgbench_history  |        248676352
 2017-02-06 16:26:42.422105+01 | 1486394802.42211 | pgbench_branches |          1507328

 2017-02-06 16:26:43.526809+01 | 1486394803.52681 | pgbench_accounts |       1391173632
 2017-02-06 16:26:43.526809+01 | 1486394803.52681 | pgbench_tellers  |          3063808
 2017-02-06 16:26:43.526809+01 | 1486394803.52681 | pgbench_history  |        250716160
 2017-02-06 16:26:43.526809+01 | 1486394803.52681 | pgbench_branches |          1507328

 2017-02-06 16:26:44.621497+01 | 1486394804.6215 | pgbench_accounts |       1391173632
 2017-02-06 16:26:44.621497+01 | 1486394804.6215 | pgbench_tellers  |          3063808
 2017-02-06 16:26:44.621497+01 | 1486394804.6215 | pgbench_history  |        251961344
 2017-02-06 16:26:44.621497+01 | 1486394804.6215 | pgbench_branches |          1507328

 2017-02-06 16:26:45.721399+01 | 1486394805.7214 | pgbench_accounts |       1391173632
 2017-02-06 16:26:45.721399+01 | 1486394805.7214 | pgbench_tellers  |          3063808
 2017-02-06 16:26:45.721399+01 | 1486394805.7214 | pgbench_history  |        254009344
 2017-02-06 16:26:45.721399+01 | 1486394805.7214 | pgbench_branches |          1507328

 2017-02-06 16:26:46.815235+01 | 1486394806.81523 | pgbench_accounts |       1391173632
 2017-02-06 16:26:46.815235+01 | 1486394806.81523 | pgbench_tellers  |          3063808
 2017-02-06 16:26:46.815235+01 | 1486394806.81523 | pgbench_history  |        255205376
 2017-02-06 16:26:46.815235+01 | 1486394806.81523 | pgbench_branches |          1507328

 2017-02-06 16:26:47.919934+01 | 1486394807.91993 | pgbench_accounts |       1391173632
 2017-02-06 16:26:47.919934+01 | 1486394807.91993 | pgbench_tellers  |          3063808
 2017-02-06 16:26:47.919934+01 | 1486394807.91993 | pgbench_history  |        257900544
 2017-02-06 16:26:47.919934+01 | 1486394807.91993 | pgbench_branches |          1507328

 2017-02-06 16:26:49.001883+01 | 1486394809.00188 | pgbench_accounts |       1391173632
 2017-02-06 16:26:49.001883+01 | 1486394809.00188 | pgbench_tellers  |          3063808
 2017-02-06 16:26:49.001883+01 | 1486394809.00188 | pgbench_history  |        259096576
 2017-02-06 16:26:49.001883+01 | 1486394809.00188 | pgbench_branches |          1507328

 2017-02-06 16:26:50.085647+01 | 1486394810.08565 | pgbench_accounts |       1391173632
 2017-02-06 16:26:50.085647+01 | 1486394810.08565 | pgbench_tellers  |          3063808
 2017-02-06 16:26:50.085647+01 | 1486394810.08565 | pgbench_history  |        259801088
 2017-02-06 16:26:50.085647+01 | 1486394810.08565 | pgbench_branches |          1507328

 2017-02-06 16:26:51.166789+01 | 1486394811.16679 | pgbench_accounts |       1391173632
 2017-02-06 16:26:51.166789+01 | 1486394811.16679 | pgbench_tellers  |          3063808
 2017-02-06 16:26:51.166789+01 | 1486394811.16679 | pgbench_history  |        261414912
 2017-02-06 16:26:51.166789+01 | 1486394811.16679 | pgbench_branches |          1507328

 2017-02-06 16:26:52.25215+01 | 1486394812.25215 | pgbench_accounts |       1391173632
 2017-02-06 16:26:52.25215+01 | 1486394812.25215 | pgbench_tellers  |          3063808
 2017-02-06 16:26:52.25215+01 | 1486394812.25215 | pgbench_history  |        262938624
 2017-02-06 16:26:52.25215+01 | 1486394812.25215 | pgbench_branches |          1507328

 2017-02-06 16:26:53.347702+01 | 1486394813.3477 | pgbench_accounts |       1391173632
 2017-02-06 16:26:53.347702+01 | 1486394813.3477 | pgbench_tellers  |          3063808
 2017-02-06 16:26:53.347702+01 | 1486394813.3477 | pgbench_history  |        264478720
 2017-02-06 16:26:53.347702+01 | 1486394813.3477 | pgbench_branches |          1507328

 2017-02-06 16:26:54.439347+01 | 1486394814.43935 | pgbench_accounts |       1391173632
 2017-02-06 16:26:54.439347+01 | 1486394814.43935 | pgbench_tellers  |          3063808
 2017-02-06 16:26:54.439347+01 | 1486394814.43935 | pgbench_history  |        266215424
 2017-02-06 16:26:54.439347+01 | 1486394814.43935 | pgbench_branches |          1507328

 2017-02-06 16:26:55.54267+01 | 1486394815.54267 | pgbench_accounts |       1391173632
 2017-02-06 16:26:55.54267+01 | 1486394815.54267 | pgbench_tellers  |          3063808
 2017-02-06 16:26:55.54267+01 | 1486394815.54267 | pgbench_history  |        267902976
 2017-02-06 16:26:55.54267+01 | 1486394815.54267 | pgbench_branches |          1507328

 2017-02-06 16:26:56.636069+01 | 1486394816.63607 | pgbench_accounts |       1391173632
 2017-02-06 16:26:56.636069+01 | 1486394816.63607 | pgbench_tellers  |          3063808
 2017-02-06 16:26:56.636069+01 | 1486394816.63607 | pgbench_history  |        269918208
 2017-02-06 16:26:56.636069+01 | 1486394816.63607 | pgbench_branches |          1507328

 2017-02-06 16:26:57.737672+01 | 1486394817.73767 | pgbench_accounts |       1391173632
 2017-02-06 16:26:57.737672+01 | 1486394817.73767 | pgbench_tellers  |          3063808
 2017-02-06 16:26:57.737672+01 | 1486394817.73767 | pgbench_history  |        271138816
 2017-02-06 16:26:57.737672+01 | 1486394817.73767 | pgbench_branches |          1507328

 2017-02-06 16:26:58.83852+01 | 1486394818.83852 | pgbench_accounts |       1391173632
 2017-02-06 16:26:58.83852+01 | 1486394818.83852 | pgbench_tellers  |          3063808
 2017-02-06 16:26:58.83852+01 | 1486394818.83852 | pgbench_history  |        272556032
 2017-02-06 16:26:58.83852+01 | 1486394818.83852 | pgbench_branches |          1507328

 2017-02-06 16:26:59.92576+01 | 1486394819.92576 | pgbench_accounts |       1391173632
 2017-02-06 16:26:59.92576+01 | 1486394819.92576 | pgbench_tellers  |          3063808
 2017-02-06 16:26:59.92576+01 | 1486394819.92576 | pgbench_history  |        273809408
 2017-02-06 16:26:59.92576+01 | 1486394819.92576 | pgbench_branches |          1507328

 2017-02-06 16:27:01.013808+01 | 1486394821.01381 | pgbench_accounts |       1391173632
 2017-02-06 16:27:01.013808+01 | 1486394821.01381 | pgbench_tellers  |          3063808
 2017-02-06 16:27:01.013808+01 | 1486394821.01381 | pgbench_history  |        275374080
 2017-02-06 16:27:01.013808+01 | 1486394821.01381 | pgbench_branches |          1507328

 2017-02-06 16:27:02.092746+01 | 1486394822.09275 | pgbench_accounts |       1391173632
 2017-02-06 16:27:02.092746+01 | 1486394822.09275 | pgbench_tellers  |          3063808
 2017-02-06 16:27:02.092746+01 | 1486394822.09275 | pgbench_history  |        277028864
 2017-02-06 16:27:02.092746+01 | 1486394822.09275 | pgbench_branches |          1507328

 2017-02-06 16:27:03.174024+01 | 1486394823.17402 | pgbench_accounts |       1391173632
 2017-02-06 16:27:03.174024+01 | 1486394823.17402 | pgbench_tellers  |          3063808
 2017-02-06 16:27:03.174024+01 | 1486394823.17402 | pgbench_history  |        278904832
 2017-02-06 16:27:03.174024+01 | 1486394823.17402 | pgbench_branches |          1507328

 2017-02-06 16:27:04.261508+01 | 1486394824.26151 | pgbench_accounts |       1391173632
 2017-02-06 16:27:04.261508+01 | 1486394824.26151 | pgbench_tellers  |          3063808
 2017-02-06 16:27:04.261508+01 | 1486394824.26151 | pgbench_history  |        280240128
 2017-02-06 16:27:04.261508+01 | 1486394824.26151 | pgbench_branches |          1507328

 2017-02-06 16:27:05.342497+01 | 1486394825.3425 | pgbench_accounts |       1391173632
 2017-02-06 16:27:05.342497+01 | 1486394825.3425 | pgbench_tellers  |          3063808
 2017-02-06 16:27:05.342497+01 | 1486394825.3425 | pgbench_history  |        281698304
 2017-02-06 16:27:05.342497+01 | 1486394825.3425 | pgbench_branches |          1507328

 2017-02-06 16:27:06.43374+01 | 1486394826.43374 | pgbench_accounts |       1391173632
 2017-02-06 16:27:06.43374+01 | 1486394826.43374 | pgbench_tellers  |          3063808
 2017-02-06 16:27:06.43374+01 | 1486394826.43374 | pgbench_history  |        283738112
 2017-02-06 16:27:06.43374+01 | 1486394826.43374 | pgbench_branches |          1507328

 2017-02-06 16:27:07.537227+01 | 1486394827.53723 | pgbench_accounts |       1391173632
 2017-02-06 16:27:07.537227+01 | 1486394827.53723 | pgbench_tellers  |          3063808
 2017-02-06 16:27:07.537227+01 | 1486394827.53723 | pgbench_history  |        285073408
 2017-02-06 16:27:07.537227+01 | 1486394827.53723 | pgbench_branches |          1507328

 2017-02-06 16:27:08.639859+01 | 1486394828.63986 | pgbench_accounts |       1391173632
 2017-02-06 16:27:08.639859+01 | 1486394828.63986 | pgbench_tellers  |          3063808
 2017-02-06 16:27:08.639859+01 | 1486394828.63986 | pgbench_history  |        286433280
 2017-02-06 16:27:08.639859+01 | 1486394828.63986 | pgbench_branches |          1507328

 2017-02-06 16:27:09.728065+01 | 1486394829.72807 | pgbench_accounts |       1391173632
 2017-02-06 16:27:09.728065+01 | 1486394829.72807 | pgbench_tellers  |          3063808
 2017-02-06 16:27:09.728065+01 | 1486394829.72807 | pgbench_history  |        289456128
 2017-02-06 16:27:09.728065+01 | 1486394829.72807 | pgbench_branches |          1507328

 2017-02-06 16:27:10.842209+01 | 1486394830.84221 | pgbench_accounts |       1391173632
 2017-02-06 16:27:10.842209+01 | 1486394830.84221 | pgbench_tellers  |          3063808
 2017-02-06 16:27:10.842209+01 | 1486394830.84221 | pgbench_history  |        290791424
 2017-02-06 16:27:10.842209+01 | 1486394830.84221 | pgbench_branches |          1507328

 2017-02-06 16:27:11.932541+01 | 1486394831.93254 | pgbench_accounts |       1391173632
 2017-02-06 16:27:11.932541+01 | 1486394831.93254 | pgbench_tellers  |          3063808
 2017-02-06 16:27:11.932541+01 | 1486394831.93254 | pgbench_history  |        293773312
 2017-02-06 16:27:11.932541+01 | 1486394831.93254 | pgbench_branches |          1507328

 2017-02-06 16:27:13.018692+01 | 1486394833.01869 | pgbench_accounts |       1391173632
 2017-02-06 16:27:13.018692+01 | 1486394833.01869 | pgbench_tellers  |          3063808
 2017-02-06 16:27:13.018692+01 | 1486394833.01869 | pgbench_history  |        293773312
 2017-02-06 16:27:13.018692+01 | 1486394833.01869 | pgbench_branches |          1507328

 2017-02-06 16:27:14.09377+01 | 1486394834.09377 | pgbench_accounts |       1391173632
 2017-02-06 16:27:14.09377+01 | 1486394834.09377 | pgbench_tellers  |          3063808
 2017-02-06 16:27:14.09377+01 | 1486394834.09377 | pgbench_history  |        294453248
 2017-02-06 16:27:14.09377+01 | 1486394834.09377 | pgbench_branches |          1507328

 2017-02-06 16:27:15.180101+01 | 1486394835.1801 | pgbench_accounts |       1391173632
 2017-02-06 16:27:15.180101+01 | 1486394835.1801 | pgbench_tellers  |          3063808
 2017-02-06 16:27:15.180101+01 | 1486394835.1801 | pgbench_history  |        295813120
 2017-02-06 16:27:15.180101+01 | 1486394835.1801 | pgbench_branches |          1507328

 2017-02-06 16:27:16.26548+01 | 1486394836.26548 | pgbench_accounts |       1391173632
 2017-02-06 16:27:16.26548+01 | 1486394836.26548 | pgbench_tellers  |          3063808
 2017-02-06 16:27:16.26548+01 | 1486394836.26548 | pgbench_history  |        297500672
 2017-02-06 16:27:16.26548+01 | 1486394836.26548 | pgbench_branches |          1507328

 2017-02-06 16:27:17.352435+01 | 1486394837.35244 | pgbench_accounts |       1391173632
 2017-02-06 16:27:17.352435+01 | 1486394837.35244 | pgbench_tellers  |          3063808
 2017-02-06 16:27:17.352435+01 | 1486394837.35244 | pgbench_history  |        298926080
 2017-02-06 16:27:17.352435+01 | 1486394837.35244 | pgbench_branches |          1507328

 2017-02-06 16:27:18.443253+01 | 1486394838.44325 | pgbench_accounts |       1391173632
 2017-02-06 16:27:18.443253+01 | 1486394838.44325 | pgbench_tellers  |          3063808
 2017-02-06 16:27:18.443253+01 | 1486394838.44325 | pgbench_history  |        300474368
 2017-02-06 16:27:18.443253+01 | 1486394838.44325 | pgbench_branches |          1507328

 2017-02-06 16:27:19.538099+01 | 1486394839.5381 | pgbench_accounts |       1391173632
 2017-02-06 16:27:19.538099+01 | 1486394839.5381 | pgbench_tellers  |          3063808
 2017-02-06 16:27:19.538099+01 | 1486394839.5381 | pgbench_history  |        302235648
 2017-02-06 16:27:19.538099+01 | 1486394839.5381 | pgbench_branches |          1507328

 2017-02-06 16:27:20.636033+01 | 1486394840.63603 | pgbench_accounts |       1391173632
 2017-02-06 16:27:20.636033+01 | 1486394840.63603 | pgbench_tellers  |          3063808
 2017-02-06 16:27:20.636033+01 | 1486394840.63603 | pgbench_history  |        303456256
 2017-02-06 16:27:20.636033+01 | 1486394840.63603 | pgbench_branches |          1507328

 2017-02-06 16:27:21.73234+01 | 1486394841.73234 | pgbench_accounts |       1391173632
 2017-02-06 16:27:21.73234+01 | 1486394841.73234 | pgbench_tellers  |          3063808
 2017-02-06 16:27:21.73234+01 | 1486394841.73234 | pgbench_history  |        305192960
 2017-02-06 16:27:21.73234+01 | 1486394841.73234 | pgbench_branches |          1507328

 2017-02-06 16:27:22.831298+01 | 1486394842.8313 | pgbench_accounts |       1391173632
 2017-02-06 16:27:22.831298+01 | 1486394842.8313 | pgbench_tellers  |          3063808
 2017-02-06 16:27:22.831298+01 | 1486394842.8313 | pgbench_history  |        306765824
 2017-02-06 16:27:22.831298+01 | 1486394842.8313 | pgbench_branches |          1507328

 2017-02-06 16:27:23.92868+01 | 1486394843.92868 | pgbench_accounts |       1391173632
 2017-02-06 16:27:23.92868+01 | 1486394843.92868 | pgbench_tellers  |          3063808
 2017-02-06 16:27:23.92868+01 | 1486394843.92868 | pgbench_history  |        308174848
 2017-02-06 16:27:23.92868+01 | 1486394843.92868 | pgbench_branches |          1507328

 2017-02-06 16:27:25.02582+01 | 1486394845.02582 | pgbench_accounts |       1391173632
 2017-02-06 16:27:25.02582+01 | 1486394845.02582 | pgbench_tellers  |          3063808
 2017-02-06 16:27:25.02582+01 | 1486394845.02582 | pgbench_history  |        309936128
 2017-02-06 16:27:25.02582+01 | 1486394845.02582 | pgbench_branches |          1507328

 2017-02-06 16:27:26.105379+01 | 1486394846.10538 | pgbench_accounts |       1391173632
 2017-02-06 16:27:26.105379+01 | 1486394846.10538 | pgbench_tellers  |          3063808
 2017-02-06 16:27:26.105379+01 | 1486394846.10538 | pgbench_history  |        311148544
 2017-02-06 16:27:26.105379+01 | 1486394846.10538 | pgbench_branches |          1507328

 2017-02-06 16:27:27.187582+01 | 1486394847.18758 | pgbench_accounts |       1391173632
 2017-02-06 16:27:27.187582+01 | 1486394847.18758 | pgbench_tellers  |          3063808
 2017-02-06 16:27:27.187582+01 | 1486394847.18758 | pgbench_history  |        312508416
 2017-02-06 16:27:27.187582+01 | 1486394847.18758 | pgbench_branches |          1507328

 2017-02-06 16:27:28.274475+01 | 1486394848.27448 | pgbench_accounts |       1391173632
 2017-02-06 16:27:28.274475+01 | 1486394848.27448 | pgbench_tellers  |          3063808
 2017-02-06 16:27:28.274475+01 | 1486394848.27448 | pgbench_history  |        314736640
 2017-02-06 16:27:28.274475+01 | 1486394848.27448 | pgbench_branches |          1507328

 2017-02-06 16:27:29.357567+01 | 1486394849.35757 | pgbench_accounts |       1391173632
 2017-02-06 16:27:29.357567+01 | 1486394849.35757 | pgbench_tellers  |          3063808
 2017-02-06 16:27:29.357567+01 | 1486394849.35757 | pgbench_history  |        315768832
 2017-02-06 16:27:29.357567+01 | 1486394849.35757 | pgbench_branches |          1507328

 2017-02-06 16:27:30.443983+01 | 1486394850.44398 | pgbench_accounts |       1391173632
 2017-02-06 16:27:30.443983+01 | 1486394850.44398 | pgbench_tellers  |          3063808
 2017-02-06 16:27:30.443983+01 | 1486394850.44398 | pgbench_history  |        317063168
 2017-02-06 16:27:30.443983+01 | 1486394850.44398 | pgbench_branches |          1507328

 2017-02-06 16:27:31.543641+01 | 1486394851.54364 | pgbench_accounts |       1391173632
 2017-02-06 16:27:31.543641+01 | 1486394851.54364 | pgbench_tellers  |          3063808
 2017-02-06 16:27:31.543641+01 | 1486394851.54364 | pgbench_history  |        318611456
 2017-02-06 16:27:31.543641+01 | 1486394851.54364 | pgbench_branches |          1507328

 2017-02-06 16:27:32.635197+01 | 1486394852.6352 | pgbench_accounts |       1391173632
 2017-02-06 16:27:32.635197+01 | 1486394852.6352 | pgbench_tellers  |          3063808
 2017-02-06 16:27:32.635197+01 | 1486394852.6352 | pgbench_history  |        320028672
 2017-02-06 16:27:32.635197+01 | 1486394852.6352 | pgbench_branches |          1507328

 2017-02-06 16:27:33.725504+01 | 1486394853.7255 | pgbench_accounts |       1391173632
 2017-02-06 16:27:33.725504+01 | 1486394853.7255 | pgbench_tellers  |          3063808
 2017-02-06 16:27:33.725504+01 | 1486394853.7255 | pgbench_history  |        322289664
 2017-02-06 16:27:33.725504+01 | 1486394853.7255 | pgbench_branches |          1507328

 2017-02-06 16:27:34.81602+01 | 1486394854.81602 | pgbench_accounts |       1391173632
 2017-02-06 16:27:34.81602+01 | 1486394854.81602 | pgbench_tellers  |          3063808
 2017-02-06 16:27:34.81602+01 | 1486394854.81602 | pgbench_history  |        323674112
 2017-02-06 16:27:34.81602+01 | 1486394854.81602 | pgbench_branches |          1507328

 2017-02-06 16:27:35.921584+01 | 1486394855.92158 | pgbench_accounts |       1391173632
 2017-02-06 16:27:35.921584+01 | 1486394855.92158 | pgbench_tellers  |          3063808
 2017-02-06 16:27:35.921584+01 | 1486394855.92158 | pgbench_history  |        324878336
 2017-02-06 16:27:35.921584+01 | 1486394855.92158 | pgbench_branches |          1507328

 2017-02-06 16:27:37.01518+01 | 1486394857.01518 | pgbench_accounts |       1391173632
 2017-02-06 16:27:37.01518+01 | 1486394857.01518 | pgbench_tellers  |          3063808
 2017-02-06 16:27:37.01518+01 | 1486394857.01518 | pgbench_history  |        326270976
 2017-02-06 16:27:37.01518+01 | 1486394857.01518 | pgbench_branches |          1507328

 2017-02-06 16:27:38.095173+01 | 1486394858.09517 | pgbench_accounts |       1391173632
 2017-02-06 16:27:38.095173+01 | 1486394858.09517 | pgbench_tellers  |          3063808
 2017-02-06 16:27:38.095173+01 | 1486394858.09517 | pgbench_history  |        327499776
 2017-02-06 16:27:38.095173+01 | 1486394858.09517 | pgbench_branches |          1507328

 2017-02-06 16:27:39.168782+01 | 1486394859.16878 | pgbench_accounts |       1391173632
 2017-02-06 16:27:39.168782+01 | 1486394859.16878 | pgbench_tellers  |          3063808
 2017-02-06 16:27:39.168782+01 | 1486394859.16878 | pgbench_history  |        329097216
 2017-02-06 16:27:39.168782+01 | 1486394859.16878 | pgbench_branches |          1507328

 2017-02-06 16:27:40.252049+01 | 1486394860.25205 | pgbench_accounts |       1391173632
 2017-02-06 16:27:40.252049+01 | 1486394860.25205 | pgbench_tellers  |          3063808
 2017-02-06 16:27:40.252049+01 | 1486394860.25205 | pgbench_history  |        330489856
 2017-02-06 16:27:40.252049+01 | 1486394860.25205 | pgbench_branches |          1507328

 2017-02-06 16:27:41.342286+01 | 1486394861.34229 | pgbench_accounts |       1391173632
 2017-02-06 16:27:41.342286+01 | 1486394861.34229 | pgbench_tellers  |          3063808
 2017-02-06 16:27:41.342286+01 | 1486394861.34229 | pgbench_history  |        332201984
 2017-02-06 16:27:41.342286+01 | 1486394861.34229 | pgbench_branches |          1507328

 2017-02-06 16:27:42.42895+01 | 1486394862.42895 | pgbench_accounts |       1391173632
 2017-02-06 16:27:42.42895+01 | 1486394862.42895 | pgbench_tellers  |          3063808
 2017-02-06 16:27:42.42895+01 | 1486394862.42895 | pgbench_history  |        334716928
 2017-02-06 16:27:42.42895+01 | 1486394862.42895 | pgbench_branches |          1507328

 2017-02-06 16:27:43.525018+01 | 1486394863.52502 | pgbench_accounts |       1391173632
 2017-02-06 16:27:43.525018+01 | 1486394863.52502 | pgbench_tellers  |          3063808
 2017-02-06 16:27:43.525018+01 | 1486394863.52502 | pgbench_history  |        334716928
 2017-02-06 16:27:43.525018+01 | 1486394863.52502 | pgbench_branches |          1507328

 2017-02-06 16:27:44.620612+01 | 1486394864.62061 | pgbench_accounts |       1391173632
 2017-02-06 16:27:44.620612+01 | 1486394864.62061 | pgbench_tellers  |          3063808
 2017-02-06 16:27:44.620612+01 | 1486394864.62061 | pgbench_history  |        337575936
 2017-02-06 16:27:44.620612+01 | 1486394864.62061 | pgbench_branches |          1507328

 2017-02-06 16:27:45.72437+01 | 1486394865.72437 | pgbench_accounts |       1391173632
 2017-02-06 16:27:45.72437+01 | 1486394865.72437 | pgbench_tellers  |          3063808
 2017-02-06 16:27:45.72437+01 | 1486394865.72437 | pgbench_history  |        337928192
 2017-02-06 16:27:45.72437+01 | 1486394865.72437 | pgbench_branches |          1507328

 2017-02-06 16:27:46.820285+01 | 1486394866.82029 | pgbench_accounts |       1391173632
 2017-02-06 16:27:46.820285+01 | 1486394866.82029 | pgbench_tellers  |          3063808
 2017-02-06 16:27:46.820285+01 | 1486394866.82029 | pgbench_history  |        340131840
 2017-02-06 16:27:46.820285+01 | 1486394866.82029 | pgbench_branches |          1507328

 2017-02-06 16:27:47.913614+01 | 1486394867.91361 | pgbench_accounts |       1391173632
 2017-02-06 16:27:47.913614+01 | 1486394867.91361 | pgbench_tellers  |          3063808
 2017-02-06 16:27:47.913614+01 | 1486394867.91361 | pgbench_history  |        340811776
 2017-02-06 16:27:47.913614+01 | 1486394867.91361 | pgbench_branches |          1507328

 2017-02-06 16:27:49.017793+01 | 1486394869.01779 | pgbench_accounts |       1391173632
 2017-02-06 16:27:49.017793+01 | 1486394869.01779 | pgbench_tellers  |          3063808
 2017-02-06 16:27:49.017793+01 | 1486394869.01779 | pgbench_history  |        342335488
 2017-02-06 16:27:49.017793+01 | 1486394869.01779 | pgbench_branches |          1507328

 2017-02-06 16:27:50.102097+01 | 1486394870.1021 | pgbench_accounts |       1391173632
 2017-02-06 16:27:50.102097+01 | 1486394870.1021 | pgbench_tellers  |          3063808
 2017-02-06 16:27:50.102097+01 | 1486394870.1021 | pgbench_history  |        343883776
 2017-02-06 16:27:50.102097+01 | 1486394870.1021 | pgbench_branches |          1507328

 2017-02-06 16:27:51.182968+01 | 1486394871.18297 | pgbench_accounts |       1391173632
 2017-02-06 16:27:51.182968+01 | 1486394871.18297 | pgbench_tellers  |          3063808
 2017-02-06 16:27:51.182968+01 | 1486394871.18297 | pgbench_history  |        345276416
 2017-02-06 16:27:51.182968+01 | 1486394871.18297 | pgbench_branches |          1507328

 2017-02-06 16:27:52.261334+01 | 1486394872.26133 | pgbench_accounts |       1391173632
 2017-02-06 16:27:52.261334+01 | 1486394872.26133 | pgbench_tellers  |          3063808
 2017-02-06 16:27:52.261334+01 | 1486394872.26133 | pgbench_history  |        346824704
 2017-02-06 16:27:52.261334+01 | 1486394872.26133 | pgbench_branches |          1507328

 2017-02-06 16:27:53.348248+01 | 1486394873.34825 | pgbench_accounts |       1391173632
 2017-02-06 16:27:53.348248+01 | 1486394873.34825 | pgbench_tellers  |          3063808
 2017-02-06 16:27:53.348248+01 | 1486394873.34825 | pgbench_history  |        348192768
 2017-02-06 16:27:53.348248+01 | 1486394873.34825 | pgbench_branches |          1507328

 2017-02-06 16:27:54.430454+01 | 1486394874.43045 | pgbench_accounts |       1391173632
 2017-02-06 16:27:54.430454+01 | 1486394874.43045 | pgbench_tellers  |          3063808
 2017-02-06 16:27:54.430454+01 | 1486394874.43045 | pgbench_history  |        349716480
 2017-02-06 16:27:54.430454+01 | 1486394874.43045 | pgbench_branches |          1507328

 2017-02-06 16:27:55.512571+01 | 1486394875.51257 | pgbench_accounts |       1391173632
 2017-02-06 16:27:55.512571+01 | 1486394875.51257 | pgbench_tellers  |          3063808
 2017-02-06 16:27:55.512571+01 | 1486394875.51257 | pgbench_history  |        350937088
 2017-02-06 16:27:55.512571+01 | 1486394875.51257 | pgbench_branches |          1507328

 2017-02-06 16:27:56.603184+01 | 1486394876.60318 | pgbench_accounts |       1391173632
 2017-02-06 16:27:56.603184+01 | 1486394876.60318 | pgbench_tellers  |          3063808
 2017-02-06 16:27:56.603184+01 | 1486394876.60318 | pgbench_history  |        352477184
 2017-02-06 16:27:56.603184+01 | 1486394876.60318 | pgbench_branches |          1507328

 2017-02-06 16:27:57.690867+01 | 1486394877.69087 | pgbench_accounts |       1391173632
 2017-02-06 16:27:57.690867+01 | 1486394877.69087 | pgbench_tellers  |          3063808
 2017-02-06 16:27:57.690867+01 | 1486394877.69087 | pgbench_history  |        353738752
 2017-02-06 16:27:57.690867+01 | 1486394877.69087 | pgbench_branches |          1507328

 2017-02-06 16:27:58.794317+01 | 1486394878.79432 | pgbench_accounts |       1391173632
 2017-02-06 16:27:58.794317+01 | 1486394878.79432 | pgbench_tellers  |          3063808
 2017-02-06 16:27:58.794317+01 | 1486394878.79432 | pgbench_history  |        354983936
 2017-02-06 16:27:58.794317+01 | 1486394878.79432 | pgbench_branches |          1507328

 2017-02-06 16:27:59.884637+01 | 1486394879.88464 | pgbench_accounts |       1391173632
 2017-02-06 16:27:59.884637+01 | 1486394879.88464 | pgbench_tellers  |          3063808
 2017-02-06 16:27:59.884637+01 | 1486394879.88464 | pgbench_history  |        356442112
 2017-02-06 16:27:59.884637+01 | 1486394879.88464 | pgbench_branches |          1507328

 2017-02-06 16:28:00.977724+01 | 1486394880.97772 | pgbench_accounts |       1391173632
 2017-02-06 16:28:00.977724+01 | 1486394880.97772 | pgbench_tellers  |          3063808
 2017-02-06 16:28:00.977724+01 | 1486394880.97772 | pgbench_history  |        357883904
 2017-02-06 16:28:00.977724+01 | 1486394880.97772 | pgbench_branches |          1507328

 2017-02-06 16:28:02.062825+01 | 1486394882.06282 | pgbench_accounts |       1391173632
 2017-02-06 16:28:02.062825+01 | 1486394882.06282 | pgbench_tellers  |          3063808
 2017-02-06 16:28:02.062825+01 | 1486394882.06282 | pgbench_history  |        359505920
 2017-02-06 16:28:02.062825+01 | 1486394882.06282 | pgbench_branches |          1507328

 2017-02-06 16:28:03.142706+01 | 1486394883.14271 | pgbench_accounts |       1391173632
 2017-02-06 16:28:03.142706+01 | 1486394883.14271 | pgbench_tellers  |          3063808
 2017-02-06 16:28:03.142706+01 | 1486394883.14271 | pgbench_history  |        360701952
 2017-02-06 16:28:03.142706+01 | 1486394883.14271 | pgbench_branches |          1507328

 2017-02-06 16:28:04.234258+01 | 1486394884.23426 | pgbench_accounts |       1391173632
 2017-02-06 16:28:04.234258+01 | 1486394884.23426 | pgbench_tellers  |          3063808
 2017-02-06 16:28:04.234258+01 | 1486394884.23426 | pgbench_history  |        362225664
 2017-02-06 16:28:04.234258+01 | 1486394884.23426 | pgbench_branches |          1507328

 2017-02-06 16:28:05.312881+01 | 1486394885.31288 | pgbench_accounts |       1391173632
 2017-02-06 16:28:05.312881+01 | 1486394885.31288 | pgbench_tellers  |          3063808
 2017-02-06 16:28:05.312881+01 | 1486394885.31288 | pgbench_history  |        363995136
 2017-02-06 16:28:05.312881+01 | 1486394885.31288 | pgbench_branches |          1507328

 2017-02-06 16:28:06.389331+01 | 1486394886.38933 | pgbench_accounts |       1391173632
 2017-02-06 16:28:06.389331+01 | 1486394886.38933 | pgbench_tellers  |          3063808
 2017-02-06 16:28:06.389331+01 | 1486394886.38933 | pgbench_history  |        365051904
 2017-02-06 16:28:06.389331+01 | 1486394886.38933 | pgbench_branches |          1507328

 2017-02-06 16:28:07.475166+01 | 1486394887.47517 | pgbench_accounts |       1391173632
 2017-02-06 16:28:07.475166+01 | 1486394887.47517 | pgbench_tellers  |          3063808
 2017-02-06 16:28:07.475166+01 | 1486394887.47517 | pgbench_history  |        366485504
 2017-02-06 16:28:07.475166+01 | 1486394887.47517 | pgbench_branches |          1507328

 2017-02-06 16:28:08.565704+01 | 1486394888.5657 | pgbench_accounts |       1391173632
 2017-02-06 16:28:08.565704+01 | 1486394888.5657 | pgbench_tellers  |          3063808
 2017-02-06 16:28:08.565704+01 | 1486394888.5657 | pgbench_history  |        370704384
 2017-02-06 16:28:08.565704+01 | 1486394888.5657 | pgbench_branches |          1507328

 2017-02-06 16:28:09.662558+01 | 1486394889.66256 | pgbench_accounts |       1391173632
 2017-02-06 16:28:09.662558+01 | 1486394889.66256 | pgbench_tellers  |          3063808
 2017-02-06 16:28:09.662558+01 | 1486394889.66256 | pgbench_history  |        370704384
 2017-02-06 16:28:09.662558+01 | 1486394889.66256 | pgbench_branches |          1507328

 2017-02-06 16:28:10.758364+01 | 1486394890.75836 | pgbench_accounts |       1391173632
 2017-02-06 16:28:10.758364+01 | 1486394890.75836 | pgbench_tellers  |          3063808
 2017-02-06 16:28:10.758364+01 | 1486394890.75836 | pgbench_history  |        371712000
 2017-02-06 16:28:10.758364+01 | 1486394890.75836 | pgbench_branches |          1507328

 2017-02-06 16:28:11.869626+01 | 1486394891.86963 | pgbench_accounts |       1391173632
 2017-02-06 16:28:11.869626+01 | 1486394891.86963 | pgbench_tellers  |          3063808
 2017-02-06 16:28:11.869626+01 | 1486394891.86963 | pgbench_history  |        373276672
 2017-02-06 16:28:11.869626+01 | 1486394891.86963 | pgbench_branches |          1507328

 2017-02-06 16:28:12.959067+01 | 1486394892.95907 | pgbench_accounts |       1391173632
 2017-02-06 16:28:12.959067+01 | 1486394892.95907 | pgbench_tellers  |          3063808
 2017-02-06 16:28:12.959067+01 | 1486394892.95907 | pgbench_history  |        375128064
 2017-02-06 16:28:12.959067+01 | 1486394892.95907 | pgbench_branches |          1507328

 2017-02-06 16:28:14.052153+01 | 1486394894.05215 | pgbench_accounts |       1391173632
 2017-02-06 16:28:14.052153+01 | 1486394894.05215 | pgbench_tellers  |          3063808
 2017-02-06 16:28:14.052153+01 | 1486394894.05215 | pgbench_history  |        375980032
 2017-02-06 16:28:14.052153+01 | 1486394894.05215 | pgbench_branches |          1507328

 2017-02-06 16:28:15.136633+01 | 1486394895.13663 | pgbench_accounts |       1391173632
 2017-02-06 16:28:15.136633+01 | 1486394895.13663 | pgbench_tellers  |          3063808
 2017-02-06 16:28:15.136633+01 | 1486394895.13663 | pgbench_history  |        377044992
 2017-02-06 16:28:15.136633+01 | 1486394895.13663 | pgbench_branches |          1507328

 2017-02-06 16:28:16.224491+01 | 1486394896.22449 | pgbench_accounts |       1391173632
 2017-02-06 16:28:16.224491+01 | 1486394896.22449 | pgbench_tellers  |          3063808
 2017-02-06 16:28:16.224491+01 | 1486394896.22449 | pgbench_history  |        382132224
 2017-02-06 16:28:16.224491+01 | 1486394896.22449 | pgbench_branches |          1507328

 2017-02-06 16:28:17.304761+01 | 1486394897.30476 | pgbench_accounts |       1391173632
 2017-02-06 16:28:17.304761+01 | 1486394897.30476 | pgbench_tellers  |          3063808
 2017-02-06 16:28:17.304761+01 | 1486394897.30476 | pgbench_history  |        382132224
 2017-02-06 16:28:17.304761+01 | 1486394897.30476 | pgbench_branches |          1507328

 2017-02-06 16:28:18.387384+01 | 1486394898.38738 | pgbench_accounts |       1391173632
 2017-02-06 16:28:18.387384+01 | 1486394898.38738 | pgbench_tellers  |          3063808
 2017-02-06 16:28:18.387384+01 | 1486394898.38738 | pgbench_history  |        382132224
 2017-02-06 16:28:18.387384+01 | 1486394898.38738 | pgbench_branches |          1507328

 2017-02-06 16:28:19.472074+01 | 1486394899.47207 | pgbench_accounts |       1391173632
 2017-02-06 16:28:19.472074+01 | 1486394899.47207 | pgbench_tellers  |          3063808
 2017-02-06 16:28:19.472074+01 | 1486394899.47207 | pgbench_history  |        382976000
 2017-02-06 16:28:19.472074+01 | 1486394899.47207 | pgbench_branches |          1507328

 2017-02-06 16:28:20.565554+01 | 1486394900.56555 | pgbench_accounts |       1391173632
 2017-02-06 16:28:20.565554+01 | 1486394900.56555 | pgbench_tellers  |          3063808
 2017-02-06 16:28:20.565554+01 | 1486394900.56555 | pgbench_history  |        385155072
 2017-02-06 16:28:20.565554+01 | 1486394900.56555 | pgbench_branches |          1507328

 2017-02-06 16:28:21.649621+01 | 1486394901.64962 | pgbench_accounts |       1391173632
 2017-02-06 16:28:21.649621+01 | 1486394901.64962 | pgbench_tellers  |          3063808
 2017-02-06 16:28:21.649621+01 | 1486394901.64962 | pgbench_history  |        386203648
 2017-02-06 16:28:21.649621+01 | 1486394901.64962 | pgbench_branches |          1507328

 2017-02-06 16:28:22.745313+01 | 1486394902.74531 | pgbench_accounts |       1391173632
 2017-02-06 16:28:22.745313+01 | 1486394902.74531 | pgbench_tellers  |          3063808
 2017-02-06 16:28:22.745313+01 | 1486394902.74531 | pgbench_history  |        388030464
 2017-02-06 16:28:22.745313+01 | 1486394902.74531 | pgbench_branches |          1507328

 2017-02-06 16:28:23.844954+01 | 1486394903.84495 | pgbench_accounts |       1391173632
 2017-02-06 16:28:23.844954+01 | 1486394903.84495 | pgbench_tellers  |          3063808
 2017-02-06 16:28:23.844954+01 | 1486394903.84495 | pgbench_history  |        389251072
 2017-02-06 16:28:23.844954+01 | 1486394903.84495 | pgbench_branches |          1507328

 2017-02-06 16:28:24.943308+01 | 1486394904.94331 | pgbench_accounts |       1391173632
 2017-02-06 16:28:24.943308+01 | 1486394904.94331 | pgbench_tellers  |          3063808
 2017-02-06 16:28:24.943308+01 | 1486394904.94331 | pgbench_history  |        392716288
 2017-02-06 16:28:24.943308+01 | 1486394904.94331 | pgbench_branches |          1507328

 2017-02-06 16:28:26.02544+01 | 1486394906.02544 | pgbench_accounts |       1391173632
 2017-02-06 16:28:26.02544+01 | 1486394906.02544 | pgbench_tellers  |          3063808
 2017-02-06 16:28:26.02544+01 | 1486394906.02544 | pgbench_history  |        392716288
 2017-02-06 16:28:26.02544+01 | 1486394906.02544 | pgbench_branches |          1507328

 2017-02-06 16:28:27.120514+01 | 1486394907.12051 | pgbench_accounts |       1391173632
 2017-02-06 16:28:27.120514+01 | 1486394907.12051 | pgbench_tellers  |          3063808
 2017-02-06 16:28:27.120514+01 | 1486394907.12051 | pgbench_history  |        393748480
 2017-02-06 16:28:27.120514+01 | 1486394907.12051 | pgbench_branches |          1507328

 2017-02-06 16:28:28.201618+01 | 1486394908.20162 | pgbench_accounts |       1391173632
 2017-02-06 16:28:28.201618+01 | 1486394908.20162 | pgbench_tellers  |          3063808
 2017-02-06 16:28:28.201618+01 | 1486394908.20162 | pgbench_history  |        395132928
 2017-02-06 16:28:28.201618+01 | 1486394908.20162 | pgbench_branches |          1507328

 2017-02-06 16:28:29.283666+01 | 1486394909.28367 | pgbench_accounts |       1391173632
 2017-02-06 16:28:29.283666+01 | 1486394909.28367 | pgbench_tellers  |          3063808
 2017-02-06 16:28:29.283666+01 | 1486394909.28367 | pgbench_history  |        396451840
 2017-02-06 16:28:29.283666+01 | 1486394909.28367 | pgbench_branches |          1507328

 2017-02-06 16:28:30.364795+01 | 1486394910.36479 | pgbench_accounts |       1391173632
 2017-02-06 16:28:30.364795+01 | 1486394910.36479 | pgbench_tellers  |          3063808
 2017-02-06 16:28:30.364795+01 | 1486394910.36479 | pgbench_history  |        397713408
 2017-02-06 16:28:30.364795+01 | 1486394910.36479 | pgbench_branches |          1507328

 2017-02-06 16:28:31.446997+01 | 1486394911.447 | pgbench_accounts |       1391173632
 2017-02-06 16:28:31.446997+01 | 1486394911.447 | pgbench_tellers  |          3063808
 2017-02-06 16:28:31.446997+01 | 1486394911.447 | pgbench_history  |        399425536
 2017-02-06 16:28:31.446997+01 | 1486394911.447 | pgbench_branches |          1507328

 2017-02-06 16:28:32.535021+01 | 1486394912.53502 | pgbench_accounts |       1391173632
 2017-02-06 16:28:32.535021+01 | 1486394912.53502 | pgbench_tellers  |          3063808
 2017-02-06 16:28:32.535021+01 | 1486394912.53502 | pgbench_history  |        400957440
 2017-02-06 16:28:32.535021+01 | 1486394912.53502 | pgbench_branches |          1507328

 2017-02-06 16:28:33.624077+01 | 1486394913.62408 | pgbench_accounts |       1391173632
 2017-02-06 16:28:33.624077+01 | 1486394913.62408 | pgbench_tellers  |          3063808
 2017-02-06 16:28:33.624077+01 | 1486394913.62408 | pgbench_history  |        402350080
 2017-02-06 16:28:33.624077+01 | 1486394913.62408 | pgbench_branches |          1507328

 2017-02-06 16:28:34.71615+01 | 1486394914.71615 | pgbench_accounts |       1391173632
 2017-02-06 16:28:34.71615+01 | 1486394914.71615 | pgbench_tellers  |          3063808
 2017-02-06 16:28:34.71615+01 | 1486394914.71615 | pgbench_history  |        404496384
 2017-02-06 16:28:34.71615+01 | 1486394914.71615 | pgbench_branches |          1507328

 2017-02-06 16:28:35.798491+01 | 1486394915.79849 | pgbench_accounts |       1391173632
 2017-02-06 16:28:35.798491+01 | 1486394915.79849 | pgbench_tellers  |          3063808
 2017-02-06 16:28:35.798491+01 | 1486394915.79849 | pgbench_history  |        405520384
 2017-02-06 16:28:35.798491+01 | 1486394915.79849 | pgbench_branches |          1507328

 2017-02-06 16:28:36.893271+01 | 1486394916.89327 | pgbench_accounts |       1391173632
 2017-02-06 16:28:36.893271+01 | 1486394916.89327 | pgbench_tellers  |          3063808
 2017-02-06 16:28:36.893271+01 | 1486394916.89327 | pgbench_history  |        406904832
 2017-02-06 16:28:36.893271+01 | 1486394916.89327 | pgbench_branches |          1507328

 2017-02-06 16:28:37.998952+01 | 1486394917.99895 | pgbench_accounts |       1391173632
 2017-02-06 16:28:37.998952+01 | 1486394917.99895 | pgbench_tellers  |          3063808
 2017-02-06 16:28:37.998952+01 | 1486394917.99895 | pgbench_history  |        408633344
 2017-02-06 16:28:37.998952+01 | 1486394917.99895 | pgbench_branches |          1507328

 2017-02-06 16:28:39.083142+01 | 1486394919.08314 | pgbench_accounts |       1391173632
 2017-02-06 16:28:39.083142+01 | 1486394919.08314 | pgbench_tellers  |          3063808
 2017-02-06 16:28:39.083142+01 | 1486394919.08314 | pgbench_history  |        410075136
 2017-02-06 16:28:39.083142+01 | 1486394919.08314 | pgbench_branches |          1507328

 2017-02-06 16:28:40.166253+01 | 1486394920.16625 | pgbench_accounts |       1391173632
 2017-02-06 16:28:40.166253+01 | 1486394920.16625 | pgbench_tellers  |          3063808
 2017-02-06 16:28:40.166253+01 | 1486394920.16625 | pgbench_history  |        411623424
 2017-02-06 16:28:40.166253+01 | 1486394920.16625 | pgbench_branches |          1507328

 2017-02-06 16:28:41.24675+01 | 1486394921.24675 | pgbench_accounts |       1391173632
 2017-02-06 16:28:41.24675+01 | 1486394921.24675 | pgbench_tellers  |          3063808
 2017-02-06 16:28:41.24675+01 | 1486394921.24675 | pgbench_history  |        412819456
 2017-02-06 16:28:41.24675+01 | 1486394921.24675 | pgbench_branches |          1507328

 2017-02-06 16:28:42.333816+01 | 1486394922.33382 | pgbench_accounts |       1391173632
 2017-02-06 16:28:42.333816+01 | 1486394922.33382 | pgbench_tellers  |          3063808
 2017-02-06 16:28:42.333816+01 | 1486394922.33382 | pgbench_history  |        414408704
 2017-02-06 16:28:42.333816+01 | 1486394922.33382 | pgbench_branches |          1507328

 2017-02-06 16:28:43.415065+01 | 1486394923.41507 | pgbench_accounts |       1391173632
 2017-02-06 16:28:43.415065+01 | 1486394923.41507 | pgbench_tellers  |          3063808
 2017-02-06 16:28:43.415065+01 | 1486394923.41507 | pgbench_history  |        416120832
 2017-02-06 16:28:43.415065+01 | 1486394923.41507 | pgbench_branches |          1507328

 2017-02-06 16:28:44.500463+01 | 1486394924.50046 | pgbench_accounts |       1391173632
 2017-02-06 16:28:44.500463+01 | 1486394924.50046 | pgbench_tellers  |          3063808
 2017-02-06 16:28:44.500463+01 | 1486394924.50046 | pgbench_history  |        417669120
 2017-02-06 16:28:44.500463+01 | 1486394924.50046 | pgbench_branches |          1507328

 2017-02-06 16:28:45.58969+01 | 1486394925.58969 | pgbench_accounts |       1391173632
 2017-02-06 16:28:45.58969+01 | 1486394925.58969 | pgbench_tellers  |          3063808
 2017-02-06 16:28:45.58969+01 | 1486394925.58969 | pgbench_history  |        422354944
 2017-02-06 16:28:45.58969+01 | 1486394925.58969 | pgbench_branches |          1507328

 2017-02-06 16:28:46.684615+01 | 1486394926.68461 | pgbench_accounts |       1391173632
 2017-02-06 16:28:46.684615+01 | 1486394926.68461 | pgbench_tellers  |          3063808
 2017-02-06 16:28:46.684615+01 | 1486394926.68461 | pgbench_history  |        422354944
 2017-02-06 16:28:46.684615+01 | 1486394926.68461 | pgbench_branches |          1507328

 2017-02-06 16:28:47.776742+01 | 1486394927.77674 | pgbench_accounts |       1391173632
 2017-02-06 16:28:47.776742+01 | 1486394927.77674 | pgbench_tellers  |          3063808
 2017-02-06 16:28:47.776742+01 | 1486394927.77674 | pgbench_history  |        422354944
 2017-02-06 16:28:47.776742+01 | 1486394927.77674 | pgbench_branches |          1507328

 2017-02-06 16:28:48.884363+01 | 1486394928.88436 | pgbench_accounts |       1391173632
 2017-02-06 16:28:48.884363+01 | 1486394928.88436 | pgbench_tellers  |          3063808
 2017-02-06 16:28:48.884363+01 | 1486394928.88436 | pgbench_history  |        424067072
 2017-02-06 16:28:48.884363+01 | 1486394928.88436 | pgbench_branches |          1507328

 2017-02-06 16:28:49.986398+01 | 1486394929.9864 | pgbench_accounts |       1391173632
 2017-02-06 16:28:49.986398+01 | 1486394929.9864 | pgbench_tellers  |          3063808
 2017-02-06 16:28:49.986398+01 | 1486394929.9864 | pgbench_history  |        425459712
 2017-02-06 16:28:49.986398+01 | 1486394929.9864 | pgbench_branches |          1507328

