 2017-02-05 15:07:05.423323+01 | 1486303625.42332 | pgbench_accounts |      13768179712
 2017-02-05 15:07:05.423323+01 | 1486303625.42332 | pgbench_tellers  |           450560
 2017-02-05 15:07:05.423323+01 | 1486303625.42332 | pgbench_history  |                0
 2017-02-05 15:07:05.423323+01 | 1486303625.42332 | pgbench_branches |            40960

 2017-02-05 15:07:07.367493+01 | 1486303627.36749 | pgbench_accounts |      13768179712
 2017-02-05 15:07:07.367493+01 | 1486303627.36749 | pgbench_tellers  |           450560
 2017-02-05 15:07:07.367493+01 | 1486303627.36749 | pgbench_history  |          2097152
 2017-02-05 15:07:07.367493+01 | 1486303627.36749 | pgbench_branches |            40960

 2017-02-05 15:07:08.461934+01 | 1486303628.46193 | pgbench_accounts |      13768179712
 2017-02-05 15:07:08.461934+01 | 1486303628.46193 | pgbench_tellers  |           450560
 2017-02-05 15:07:08.461934+01 | 1486303628.46193 | pgbench_history  |          4579328
 2017-02-05 15:07:08.461934+01 | 1486303628.46193 | pgbench_branches |            40960

 2017-02-05 15:07:09.546422+01 | 1486303629.54642 | pgbench_accounts |      13768179712
 2017-02-05 15:07:09.546422+01 | 1486303629.54642 | pgbench_tellers  |           450560
 2017-02-05 15:07:09.546422+01 | 1486303629.54642 | pgbench_history  |          5775360
 2017-02-05 15:07:09.546422+01 | 1486303629.54642 | pgbench_branches |            40960

 2017-02-05 15:07:10.626576+01 | 1486303630.62658 | pgbench_accounts |      13768179712
 2017-02-05 15:07:10.626576+01 | 1486303630.62658 | pgbench_tellers  |           450560
 2017-02-05 15:07:10.626576+01 | 1486303630.62658 | pgbench_history  |          7651328
 2017-02-05 15:07:10.626576+01 | 1486303630.62658 | pgbench_branches |            40960

 2017-02-05 15:07:11.708982+01 | 1486303631.70898 | pgbench_accounts |      13768179712
 2017-02-05 15:07:11.708982+01 | 1486303631.70898 | pgbench_tellers  |           450560
 2017-02-05 15:07:11.708982+01 | 1486303631.70898 | pgbench_history  |         11001856
 2017-02-05 15:07:11.708982+01 | 1486303631.70898 | pgbench_branches |            40960

 2017-02-05 15:07:12.791641+01 | 1486303632.79164 | pgbench_accounts |      13768179712
 2017-02-05 15:07:12.791641+01 | 1486303632.79164 | pgbench_tellers  |           450560
 2017-02-05 15:07:12.791641+01 | 1486303632.79164 | pgbench_history  |         12222464
 2017-02-05 15:07:12.791641+01 | 1486303632.79164 | pgbench_branches |            40960

 2017-02-05 15:07:13.875679+01 | 1486303633.87568 | pgbench_accounts |      13768179712
 2017-02-05 15:07:13.875679+01 | 1486303633.87568 | pgbench_tellers  |           450560
 2017-02-05 15:07:13.875679+01 | 1486303633.87568 | pgbench_history  |         14295040
 2017-02-05 15:07:13.875679+01 | 1486303633.87568 | pgbench_branches |            40960

 2017-02-05 15:07:14.958663+01 | 1486303634.95866 | pgbench_accounts |      13768179712
 2017-02-05 15:07:14.958663+01 | 1486303634.95866 | pgbench_tellers  |           450560
 2017-02-05 15:07:14.958663+01 | 1486303634.95866 | pgbench_history  |         16687104
 2017-02-05 15:07:14.958663+01 | 1486303634.95866 | pgbench_branches |            40960

 2017-02-05 15:07:16.03635+01 | 1486303636.03635 | pgbench_accounts |      13768179712
 2017-02-05 15:07:16.03635+01 | 1486303636.03635 | pgbench_tellers  |           450560
 2017-02-05 15:07:16.03635+01 | 1486303636.03635 | pgbench_history  |         19103744
 2017-02-05 15:07:16.03635+01 | 1486303636.03635 | pgbench_branches |            40960

 2017-02-05 15:07:17.117172+01 | 1486303637.11717 | pgbench_accounts |      13768179712
 2017-02-05 15:07:17.117172+01 | 1486303637.11717 | pgbench_tellers  |           450560
 2017-02-05 15:07:17.117172+01 | 1486303637.11717 | pgbench_history  |         21258240
 2017-02-05 15:07:17.117172+01 | 1486303637.11717 | pgbench_branches |            40960

 2017-02-05 15:07:18.193591+01 | 1486303638.19359 | pgbench_accounts |      13768179712
 2017-02-05 15:07:18.193591+01 | 1486303638.19359 | pgbench_tellers  |           450560
 2017-02-05 15:07:18.193591+01 | 1486303638.19359 | pgbench_history  |         23977984
 2017-02-05 15:07:18.193591+01 | 1486303638.19359 | pgbench_branches |            40960

 2017-02-05 15:07:19.271657+01 | 1486303639.27166 | pgbench_accounts |      13768179712
 2017-02-05 15:07:19.271657+01 | 1486303639.27166 | pgbench_tellers  |           450560
 2017-02-05 15:07:19.271657+01 | 1486303639.27166 | pgbench_history  |         26017792
 2017-02-05 15:07:19.271657+01 | 1486303639.27166 | pgbench_branches |            40960

 2017-02-05 15:07:20.34755+01 | 1486303640.34755 | pgbench_accounts |      13768179712
 2017-02-05 15:07:20.34755+01 | 1486303640.34755 | pgbench_tellers  |           450560
 2017-02-05 15:07:20.34755+01 | 1486303640.34755 | pgbench_history  |         28311552
 2017-02-05 15:07:20.34755+01 | 1486303640.34755 | pgbench_branches |            40960

 2017-02-05 15:07:21.430616+01 | 1486303641.43062 | pgbench_accounts |      13768179712
 2017-02-05 15:07:21.430616+01 | 1486303641.43062 | pgbench_tellers  |           450560
 2017-02-05 15:07:21.430616+01 | 1486303641.43062 | pgbench_history  |         31080448
 2017-02-05 15:07:21.430616+01 | 1486303641.43062 | pgbench_branches |            40960

 2017-02-05 15:07:22.508803+01 | 1486303642.5088 | pgbench_accounts |      13768179712
 2017-02-05 15:07:22.508803+01 | 1486303642.5088 | pgbench_tellers  |           450560
 2017-02-05 15:07:22.508803+01 | 1486303642.5088 | pgbench_history  |         33095680
 2017-02-05 15:07:22.508803+01 | 1486303642.5088 | pgbench_branches |            40960

 2017-02-05 15:07:23.583529+01 | 1486303643.58353 | pgbench_accounts |      13768179712
 2017-02-05 15:07:23.583529+01 | 1486303643.58353 | pgbench_tellers  |           450560
 2017-02-05 15:07:23.583529+01 | 1486303643.58353 | pgbench_history  |         35979264
 2017-02-05 15:07:23.583529+01 | 1486303643.58353 | pgbench_branches |            40960

 2017-02-05 15:07:24.654477+01 | 1486303644.65448 | pgbench_accounts |      13768179712
 2017-02-05 15:07:24.654477+01 | 1486303644.65448 | pgbench_tellers  |           450560
 2017-02-05 15:07:24.654477+01 | 1486303644.65448 | pgbench_history  |         38699008
 2017-02-05 15:07:24.654477+01 | 1486303644.65448 | pgbench_branches |            40960

 2017-02-05 15:07:25.731348+01 | 1486303645.73135 | pgbench_accounts |      13768179712
 2017-02-05 15:07:25.731348+01 | 1486303645.73135 | pgbench_tellers  |           450560
 2017-02-05 15:07:25.731348+01 | 1486303645.73135 | pgbench_history  |         41041920
 2017-02-05 15:07:25.731348+01 | 1486303645.73135 | pgbench_branches |            40960

 2017-02-05 15:07:26.811986+01 | 1486303646.81199 | pgbench_accounts |      13768179712
 2017-02-05 15:07:26.811986+01 | 1486303646.81199 | pgbench_tellers  |           450560
 2017-02-05 15:07:26.811986+01 | 1486303646.81199 | pgbench_history  |         43147264
 2017-02-05 15:07:26.811986+01 | 1486303646.81199 | pgbench_branches |            40960

 2017-02-05 15:07:27.887056+01 | 1486303647.88706 | pgbench_accounts |      13768179712
 2017-02-05 15:07:27.887056+01 | 1486303647.88706 | pgbench_tellers  |           450560
 2017-02-05 15:07:27.887056+01 | 1486303647.88706 | pgbench_history  |         45334528
 2017-02-05 15:07:27.887056+01 | 1486303647.88706 | pgbench_branches |            40960

 2017-02-05 15:07:28.958539+01 | 1486303648.95854 | pgbench_accounts |      13768179712
 2017-02-05 15:07:28.958539+01 | 1486303648.95854 | pgbench_tellers  |           450560
 2017-02-05 15:07:28.958539+01 | 1486303648.95854 | pgbench_history  |         47349760
 2017-02-05 15:07:28.958539+01 | 1486303648.95854 | pgbench_branches |            40960

 2017-02-05 15:07:30.037492+01 | 1486303650.03749 | pgbench_accounts |      13768179712
 2017-02-05 15:07:30.037492+01 | 1486303650.03749 | pgbench_tellers  |           450560
 2017-02-05 15:07:30.037492+01 | 1486303650.03749 | pgbench_history  |         49225728
 2017-02-05 15:07:30.037492+01 | 1486303650.03749 | pgbench_branches |            40960

 2017-02-05 15:07:31.107775+01 | 1486303651.10777 | pgbench_accounts |      13768179712
 2017-02-05 15:07:31.107775+01 | 1486303651.10777 | pgbench_tellers  |           450560
 2017-02-05 15:07:31.107775+01 | 1486303651.10777 | pgbench_history  |         51757056
 2017-02-05 15:07:31.107775+01 | 1486303651.10777 | pgbench_branches |            40960

 2017-02-05 15:07:32.182456+01 | 1486303652.18246 | pgbench_accounts |      13768179712
 2017-02-05 15:07:32.182456+01 | 1486303652.18246 | pgbench_tellers  |           450560
 2017-02-05 15:07:32.182456+01 | 1486303652.18246 | pgbench_history  |         54804480
 2017-02-05 15:07:32.182456+01 | 1486303652.18246 | pgbench_branches |            40960

 2017-02-05 15:07:33.252628+01 | 1486303653.25263 | pgbench_accounts |      13768179712
 2017-02-05 15:07:33.252628+01 | 1486303653.25263 | pgbench_tellers  |           450560
 2017-02-05 15:07:33.252628+01 | 1486303653.25263 | pgbench_history  |         55836672
 2017-02-05 15:07:33.252628+01 | 1486303653.25263 | pgbench_branches |            40960

 2017-02-05 15:07:34.33047+01 | 1486303654.33047 | pgbench_accounts |      13768179712
 2017-02-05 15:07:34.33047+01 | 1486303654.33047 | pgbench_tellers  |           450560
 2017-02-05 15:07:34.33047+01 | 1486303654.33047 | pgbench_history  |         58155008
 2017-02-05 15:07:34.33047+01 | 1486303654.33047 | pgbench_branches |            40960

 2017-02-05 15:07:35.409136+01 | 1486303655.40914 | pgbench_accounts |      13768179712
 2017-02-05 15:07:35.409136+01 | 1486303655.40914 | pgbench_tellers  |           450560
 2017-02-05 15:07:35.409136+01 | 1486303655.40914 | pgbench_history  |         61390848
 2017-02-05 15:07:35.409136+01 | 1486303655.40914 | pgbench_branches |            40960

 2017-02-05 15:07:36.483167+01 | 1486303656.48317 | pgbench_accounts |      13768179712
 2017-02-05 15:07:36.483167+01 | 1486303656.48317 | pgbench_tellers  |           450560
 2017-02-05 15:07:36.483167+01 | 1486303656.48317 | pgbench_history  |         63299584
 2017-02-05 15:07:36.483167+01 | 1486303656.48317 | pgbench_branches |            40960

 2017-02-05 15:07:37.560954+01 | 1486303657.56095 | pgbench_accounts |      13768179712
 2017-02-05 15:07:37.560954+01 | 1486303657.56095 | pgbench_tellers  |           450560
 2017-02-05 15:07:37.560954+01 | 1486303657.56095 | pgbench_history  |         65347584
 2017-02-05 15:07:37.560954+01 | 1486303657.56095 | pgbench_branches |            40960

 2017-02-05 15:07:38.634594+01 | 1486303658.63459 | pgbench_accounts |      13768179712
 2017-02-05 15:07:38.634594+01 | 1486303658.63459 | pgbench_tellers  |           450560
 2017-02-05 15:07:38.634594+01 | 1486303658.63459 | pgbench_history  |         67772416
 2017-02-05 15:07:38.634594+01 | 1486303658.63459 | pgbench_branches |            40960

 2017-02-05 15:07:39.714264+01 | 1486303659.71426 | pgbench_accounts |      13768179712
 2017-02-05 15:07:39.714264+01 | 1486303659.71426 | pgbench_tellers  |           450560
 2017-02-05 15:07:39.714264+01 | 1486303659.71426 | pgbench_history  |         70418432
 2017-02-05 15:07:39.714264+01 | 1486303659.71426 | pgbench_branches |            40960

 2017-02-05 15:07:40.790539+01 | 1486303660.79054 | pgbench_accounts |      13768179712
 2017-02-05 15:07:40.790539+01 | 1486303660.79054 | pgbench_tellers  |           450560
 2017-02-05 15:07:40.790539+01 | 1486303660.79054 | pgbench_history  |         72622080
 2017-02-05 15:07:40.790539+01 | 1486303660.79054 | pgbench_branches |            40960

 2017-02-05 15:07:41.874163+01 | 1486303661.87416 | pgbench_accounts |      13768179712
 2017-02-05 15:07:41.874163+01 | 1486303661.87416 | pgbench_tellers  |           450560
 2017-02-05 15:07:41.874163+01 | 1486303661.87416 | pgbench_history  |         76161024
 2017-02-05 15:07:41.874163+01 | 1486303661.87416 | pgbench_branches |            40960

 2017-02-05 15:07:42.950317+01 | 1486303662.95032 | pgbench_accounts |      13768179712
 2017-02-05 15:07:42.950317+01 | 1486303662.95032 | pgbench_tellers  |           450560
 2017-02-05 15:07:42.950317+01 | 1486303662.95032 | pgbench_history  |         77881344
 2017-02-05 15:07:42.950317+01 | 1486303662.95032 | pgbench_branches |            40960

 2017-02-05 15:07:44.025219+01 | 1486303664.02522 | pgbench_accounts |      13768179712
 2017-02-05 15:07:44.025219+01 | 1486303664.02522 | pgbench_tellers  |           450560
 2017-02-05 15:07:44.025219+01 | 1486303664.02522 | pgbench_history  |         81747968
 2017-02-05 15:07:44.025219+01 | 1486303664.02522 | pgbench_branches |            40960

 2017-02-05 15:07:45.104661+01 | 1486303665.10466 | pgbench_accounts |      13768179712
 2017-02-05 15:07:45.104661+01 | 1486303665.10466 | pgbench_tellers  |           450560
 2017-02-05 15:07:45.104661+01 | 1486303665.10466 | pgbench_history  |         83599360
 2017-02-05 15:07:45.104661+01 | 1486303665.10466 | pgbench_branches |            40960

 2017-02-05 15:07:46.175056+01 | 1486303666.17506 | pgbench_accounts |      13768179712
 2017-02-05 15:07:46.175056+01 | 1486303666.17506 | pgbench_tellers  |           450560
 2017-02-05 15:07:46.175056+01 | 1486303666.17506 | pgbench_history  |         85336064
 2017-02-05 15:07:46.175056+01 | 1486303666.17506 | pgbench_branches |            40960

 2017-02-05 15:07:47.250459+01 | 1486303667.25046 | pgbench_accounts |      13768179712
 2017-02-05 15:07:47.250459+01 | 1486303667.25046 | pgbench_tellers  |           450560
 2017-02-05 15:07:47.250459+01 | 1486303667.25046 | pgbench_history  |         87891968
 2017-02-05 15:07:47.250459+01 | 1486303667.25046 | pgbench_branches |            40960

 2017-02-05 15:07:48.322617+01 | 1486303668.32262 | pgbench_accounts |      13768179712
 2017-02-05 15:07:48.322617+01 | 1486303668.32262 | pgbench_tellers  |           450560
 2017-02-05 15:07:48.322617+01 | 1486303668.32262 | pgbench_history  |         90939392
 2017-02-05 15:07:48.322617+01 | 1486303668.32262 | pgbench_branches |            40960

 2017-02-05 15:07:49.396291+01 | 1486303669.39629 | pgbench_accounts |      13768179712
 2017-02-05 15:07:49.396291+01 | 1486303669.39629 | pgbench_tellers  |           450560
 2017-02-05 15:07:49.396291+01 | 1486303669.39629 | pgbench_history  |         93331456
 2017-02-05 15:07:49.396291+01 | 1486303669.39629 | pgbench_branches |            40960

 2017-02-05 15:07:50.47214+01 | 1486303670.47214 | pgbench_accounts |      13768179712
 2017-02-05 15:07:50.47214+01 | 1486303670.47214 | pgbench_tellers  |           450560
 2017-02-05 15:07:50.47214+01 | 1486303670.47214 | pgbench_history  |         95887360
 2017-02-05 15:07:50.47214+01 | 1486303670.47214 | pgbench_branches |            40960

 2017-02-05 15:07:51.548998+01 | 1486303671.549 | pgbench_accounts |      13768179712
 2017-02-05 15:07:51.548998+01 | 1486303671.549 | pgbench_tellers  |           450560
 2017-02-05 15:07:51.548998+01 | 1486303671.549 | pgbench_history  |         98091008
 2017-02-05 15:07:51.548998+01 | 1486303671.549 | pgbench_branches |            40960

 2017-02-05 15:07:52.628581+01 | 1486303672.62858 | pgbench_accounts |      13768179712
 2017-02-05 15:07:52.628581+01 | 1486303672.62858 | pgbench_tellers  |           450560
 2017-02-05 15:07:52.628581+01 | 1486303672.62858 | pgbench_history  |        100597760
 2017-02-05 15:07:52.628581+01 | 1486303672.62858 | pgbench_branches |            40960

 2017-02-05 15:07:53.709103+01 | 1486303673.7091 | pgbench_accounts |      13768179712
 2017-02-05 15:07:53.709103+01 | 1486303673.7091 | pgbench_tellers  |           450560
 2017-02-05 15:07:53.709103+01 | 1486303673.7091 | pgbench_history  |        103137280
 2017-02-05 15:07:53.709103+01 | 1486303673.7091 | pgbench_branches |            40960

 2017-02-05 15:07:54.786409+01 | 1486303674.78641 | pgbench_accounts |      13768179712
 2017-02-05 15:07:54.786409+01 | 1486303674.78641 | pgbench_tellers  |           450560
 2017-02-05 15:07:54.786409+01 | 1486303674.78641 | pgbench_history  |        105668608
 2017-02-05 15:07:54.786409+01 | 1486303674.78641 | pgbench_branches |            40960

 2017-02-05 15:07:55.865954+01 | 1486303675.86595 | pgbench_accounts |      13768179712
 2017-02-05 15:07:55.865954+01 | 1486303675.86595 | pgbench_tellers  |           450560
 2017-02-05 15:07:55.865954+01 | 1486303675.86595 | pgbench_history  |        107847680
 2017-02-05 15:07:55.865954+01 | 1486303675.86595 | pgbench_branches |            40960

 2017-02-05 15:07:56.94699+01 | 1486303676.94699 | pgbench_accounts |      13768179712
 2017-02-05 15:07:56.94699+01 | 1486303676.94699 | pgbench_tellers  |           450560
 2017-02-05 15:07:56.94699+01 | 1486303676.94699 | pgbench_history  |        110895104
 2017-02-05 15:07:56.94699+01 | 1486303676.94699 | pgbench_branches |            40960

 2017-02-05 15:07:58.026966+01 | 1486303678.02697 | pgbench_accounts |      13768179712
 2017-02-05 15:07:58.026966+01 | 1486303678.02697 | pgbench_tellers  |           450560
 2017-02-05 15:07:58.026966+01 | 1486303678.02697 | pgbench_history  |        112934912
 2017-02-05 15:07:58.026966+01 | 1486303678.02697 | pgbench_branches |            40960

 2017-02-05 15:07:59.105496+01 | 1486303679.1055 | pgbench_accounts |      13768179712
 2017-02-05 15:07:59.105496+01 | 1486303679.1055 | pgbench_tellers  |           450560
 2017-02-05 15:07:59.105496+01 | 1486303679.1055 | pgbench_history  |        115138560
 2017-02-05 15:07:59.105496+01 | 1486303679.1055 | pgbench_branches |            40960

 2017-02-05 15:08:00.187954+01 | 1486303680.18795 | pgbench_accounts |      13768179712
 2017-02-05 15:08:00.187954+01 | 1486303680.18795 | pgbench_tellers  |           450560
 2017-02-05 15:08:00.187954+01 | 1486303680.18795 | pgbench_history  |        117481472
 2017-02-05 15:08:00.187954+01 | 1486303680.18795 | pgbench_branches |            40960

 2017-02-05 15:08:01.269096+01 | 1486303681.2691 | pgbench_accounts |      13768179712
 2017-02-05 15:08:01.269096+01 | 1486303681.2691 | pgbench_tellers  |           450560
 2017-02-05 15:08:01.269096+01 | 1486303681.2691 | pgbench_history  |        120619008
 2017-02-05 15:08:01.269096+01 | 1486303681.2691 | pgbench_branches |            40960

 2017-02-05 15:08:02.350245+01 | 1486303682.35024 | pgbench_accounts |      13768179712
 2017-02-05 15:08:02.350245+01 | 1486303682.35024 | pgbench_tellers  |           450560
 2017-02-05 15:08:02.350245+01 | 1486303682.35024 | pgbench_history  |        122519552
 2017-02-05 15:08:02.350245+01 | 1486303682.35024 | pgbench_branches |            40960

 2017-02-05 15:08:03.428488+01 | 1486303683.42849 | pgbench_accounts |      13768179712
 2017-02-05 15:08:03.428488+01 | 1486303683.42849 | pgbench_tellers  |           450560
 2017-02-05 15:08:03.428488+01 | 1486303683.42849 | pgbench_history  |        124755968
 2017-02-05 15:08:03.428488+01 | 1486303683.42849 | pgbench_branches |            40960

 2017-02-05 15:08:04.507081+01 | 1486303684.50708 | pgbench_accounts |      13768179712
 2017-02-05 15:08:04.507081+01 | 1486303684.50708 | pgbench_tellers  |           450560
 2017-02-05 15:08:04.507081+01 | 1486303684.50708 | pgbench_history  |        127008768
 2017-02-05 15:08:04.507081+01 | 1486303684.50708 | pgbench_branches |            40960

 2017-02-05 15:08:05.58651+01 | 1486303685.58651 | pgbench_accounts |      13768179712
 2017-02-05 15:08:05.58651+01 | 1486303685.58651 | pgbench_tellers  |           450560
 2017-02-05 15:08:05.58651+01 | 1486303685.58651 | pgbench_history  |        129736704
 2017-02-05 15:08:05.58651+01 | 1486303685.58651 | pgbench_branches |            40960

 2017-02-05 15:08:06.665711+01 | 1486303686.66571 | pgbench_accounts |      13768179712
 2017-02-05 15:08:06.665711+01 | 1486303686.66571 | pgbench_tellers  |           450560
 2017-02-05 15:08:06.665711+01 | 1486303686.66571 | pgbench_history  |        131948544
 2017-02-05 15:08:06.665711+01 | 1486303686.66571 | pgbench_branches |            40960

 2017-02-05 15:08:07.738089+01 | 1486303687.73809 | pgbench_accounts |      13768179712
 2017-02-05 15:08:07.738089+01 | 1486303687.73809 | pgbench_tellers  |           450560
 2017-02-05 15:08:07.738089+01 | 1486303687.73809 | pgbench_history  |        134619136
 2017-02-05 15:08:07.738089+01 | 1486303687.73809 | pgbench_branches |            40960

 2017-02-05 15:08:08.81746+01 | 1486303688.81746 | pgbench_accounts |      13768179712
 2017-02-05 15:08:08.81746+01 | 1486303688.81746 | pgbench_tellers  |           450560
 2017-02-05 15:08:08.81746+01 | 1486303688.81746 | pgbench_history  |        137314304
 2017-02-05 15:08:08.81746+01 | 1486303688.81746 | pgbench_branches |            40960

 2017-02-05 15:08:09.896183+01 | 1486303689.89618 | pgbench_accounts |      13768179712
 2017-02-05 15:08:09.896183+01 | 1486303689.89618 | pgbench_tellers  |           450560
 2017-02-05 15:08:09.896183+01 | 1486303689.89618 | pgbench_history  |        139821056
 2017-02-05 15:08:09.896183+01 | 1486303689.89618 | pgbench_branches |            40960

 2017-02-05 15:08:10.9762+01 | 1486303690.9762 | pgbench_accounts |      13768179712
 2017-02-05 15:08:10.9762+01 | 1486303690.9762 | pgbench_tellers  |           450560
 2017-02-05 15:08:10.9762+01 | 1486303690.9762 | pgbench_history  |        142163968
 2017-02-05 15:08:10.9762+01 | 1486303690.9762 | pgbench_branches |            40960

 2017-02-05 15:08:12.052632+01 | 1486303692.05263 | pgbench_accounts |      13768179712
 2017-02-05 15:08:12.052632+01 | 1486303692.05263 | pgbench_tellers  |           450560
 2017-02-05 15:08:12.052632+01 | 1486303692.05263 | pgbench_history  |        143851520
 2017-02-05 15:08:12.052632+01 | 1486303692.05263 | pgbench_branches |            40960

 2017-02-05 15:08:13.124153+01 | 1486303693.12415 | pgbench_accounts |      13768179712
 2017-02-05 15:08:13.124153+01 | 1486303693.12415 | pgbench_tellers  |           450560
 2017-02-05 15:08:13.124153+01 | 1486303693.12415 | pgbench_history  |        147095552
 2017-02-05 15:08:13.124153+01 | 1486303693.12415 | pgbench_branches |            40960

 2017-02-05 15:08:14.201444+01 | 1486303694.20144 | pgbench_accounts |      13768179712
 2017-02-05 15:08:14.201444+01 | 1486303694.20144 | pgbench_tellers  |           450560
 2017-02-05 15:08:14.201444+01 | 1486303694.20144 | pgbench_history  |        149987328
 2017-02-05 15:08:14.201444+01 | 1486303694.20144 | pgbench_branches |            40960

 2017-02-05 15:08:15.279342+01 | 1486303695.27934 | pgbench_accounts |      13768179712
 2017-02-05 15:08:15.279342+01 | 1486303695.27934 | pgbench_tellers  |           450560
 2017-02-05 15:08:15.279342+01 | 1486303695.27934 | pgbench_history  |        151707648
 2017-02-05 15:08:15.279342+01 | 1486303695.27934 | pgbench_branches |            40960

 2017-02-05 15:08:16.354143+01 | 1486303696.35414 | pgbench_accounts |      13768179712
 2017-02-05 15:08:16.354143+01 | 1486303696.35414 | pgbench_tellers  |           450560
 2017-02-05 15:08:16.354143+01 | 1486303696.35414 | pgbench_history  |        154427392
 2017-02-05 15:08:16.354143+01 | 1486303696.35414 | pgbench_branches |            40960

 2017-02-05 15:08:17.428775+01 | 1486303697.42878 | pgbench_accounts |      13768179712
 2017-02-05 15:08:17.428775+01 | 1486303697.42878 | pgbench_tellers  |           450560
 2017-02-05 15:08:17.428775+01 | 1486303697.42878 | pgbench_history  |        158130176
 2017-02-05 15:08:17.428775+01 | 1486303697.42878 | pgbench_branches |            40960

 2017-02-05 15:08:18.502255+01 | 1486303698.50225 | pgbench_accounts |      13768179712
 2017-02-05 15:08:18.502255+01 | 1486303698.50225 | pgbench_tellers  |           450560
 2017-02-05 15:08:18.502255+01 | 1486303698.50225 | pgbench_history  |        159653888
 2017-02-05 15:08:18.502255+01 | 1486303698.50225 | pgbench_branches |            40960

 2017-02-05 15:08:19.58942+01 | 1486303699.58942 | pgbench_accounts |      13768179712
 2017-02-05 15:08:19.58942+01 | 1486303699.58942 | pgbench_tellers  |           450560
 2017-02-05 15:08:19.58942+01 | 1486303699.58942 | pgbench_history  |        162185216
 2017-02-05 15:08:19.58942+01 | 1486303699.58942 | pgbench_branches |            40960

 2017-02-05 15:08:20.665326+01 | 1486303700.66533 | pgbench_accounts |      13768179712
 2017-02-05 15:08:20.665326+01 | 1486303700.66533 | pgbench_tellers  |           450560
 2017-02-05 15:08:20.665326+01 | 1486303700.66533 | pgbench_history  |        165208064
 2017-02-05 15:08:20.665326+01 | 1486303700.66533 | pgbench_branches |            40960

 2017-02-05 15:08:21.74407+01 | 1486303701.74407 | pgbench_accounts |      13768179712
 2017-02-05 15:08:21.74407+01 | 1486303701.74407 | pgbench_tellers  |           450560
 2017-02-05 15:08:21.74407+01 | 1486303701.74407 | pgbench_history  |        166608896
 2017-02-05 15:08:21.74407+01 | 1486303701.74407 | pgbench_branches |            40960

 2017-02-05 15:08:22.823292+01 | 1486303702.82329 | pgbench_accounts |      13768179712
 2017-02-05 15:08:22.823292+01 | 1486303702.82329 | pgbench_tellers  |           450560
 2017-02-05 15:08:22.823292+01 | 1486303702.82329 | pgbench_history  |        169902080
 2017-02-05 15:08:22.823292+01 | 1486303702.82329 | pgbench_branches |            40960

 2017-02-05 15:08:23.907645+01 | 1486303703.90764 | pgbench_accounts |      13768179712
 2017-02-05 15:08:23.907645+01 | 1486303703.90764 | pgbench_tellers  |           450560
 2017-02-05 15:08:23.907645+01 | 1486303703.90764 | pgbench_history  |        171769856
 2017-02-05 15:08:23.907645+01 | 1486303703.90764 | pgbench_branches |            40960

 2017-02-05 15:08:24.991631+01 | 1486303704.99163 | pgbench_accounts |      13768179712
 2017-02-05 15:08:24.991631+01 | 1486303704.99163 | pgbench_tellers  |           450560
 2017-02-05 15:08:24.991631+01 | 1486303704.99163 | pgbench_history  |        174194688
 2017-02-05 15:08:24.991631+01 | 1486303704.99163 | pgbench_branches |            40960

 2017-02-05 15:08:26.071539+01 | 1486303706.07154 | pgbench_accounts |      13768179712
 2017-02-05 15:08:26.071539+01 | 1486303706.07154 | pgbench_tellers  |           450560
 2017-02-05 15:08:26.071539+01 | 1486303706.07154 | pgbench_history  |        177078272
 2017-02-05 15:08:26.071539+01 | 1486303706.07154 | pgbench_branches |            40960

 2017-02-05 15:08:27.147525+01 | 1486303707.14753 | pgbench_accounts |      13768179712
 2017-02-05 15:08:27.147525+01 | 1486303707.14753 | pgbench_tellers  |           450560
 2017-02-05 15:08:27.147525+01 | 1486303707.14753 | pgbench_history  |        180322304
 2017-02-05 15:08:27.147525+01 | 1486303707.14753 | pgbench_branches |            40960

 2017-02-05 15:08:28.225576+01 | 1486303708.22558 | pgbench_accounts |      13768179712
 2017-02-05 15:08:28.225576+01 | 1486303708.22558 | pgbench_tellers  |           450560
 2017-02-05 15:08:28.225576+01 | 1486303708.22558 | pgbench_history  |        182534144
 2017-02-05 15:08:28.225576+01 | 1486303708.22558 | pgbench_branches |            40960

 2017-02-05 15:08:29.299852+01 | 1486303709.29985 | pgbench_accounts |      13768179712
 2017-02-05 15:08:29.299852+01 | 1486303709.29985 | pgbench_tellers  |           450560
 2017-02-05 15:08:29.299852+01 | 1486303709.29985 | pgbench_history  |        184365056
 2017-02-05 15:08:29.299852+01 | 1486303709.29985 | pgbench_branches |            40960

 2017-02-05 15:08:30.379111+01 | 1486303710.37911 | pgbench_accounts |      13768179712
 2017-02-05 15:08:30.379111+01 | 1486303710.37911 | pgbench_tellers  |           450560
 2017-02-05 15:08:30.379111+01 | 1486303710.37911 | pgbench_history  |        186523648
 2017-02-05 15:08:30.379111+01 | 1486303710.37911 | pgbench_branches |            40960

 2017-02-05 15:08:31.45841+01 | 1486303711.45841 | pgbench_accounts |      13768179712
 2017-02-05 15:08:31.45841+01 | 1486303711.45841 | pgbench_tellers  |           450560
 2017-02-05 15:08:31.45841+01 | 1486303711.45841 | pgbench_history  |        189054976
 2017-02-05 15:08:31.45841+01 | 1486303711.45841 | pgbench_branches |            40960

 2017-02-05 15:08:32.536416+01 | 1486303712.53642 | pgbench_accounts |      13768179712
 2017-02-05 15:08:32.536416+01 | 1486303712.53642 | pgbench_tellers  |           450560
 2017-02-05 15:08:32.536416+01 | 1486303712.53642 | pgbench_history  |        191455232
 2017-02-05 15:08:32.536416+01 | 1486303712.53642 | pgbench_branches |            40960

 2017-02-05 15:08:33.614279+01 | 1486303713.61428 | pgbench_accounts |      13768179712
 2017-02-05 15:08:33.614279+01 | 1486303713.61428 | pgbench_tellers  |           450560
 2017-02-05 15:08:33.614279+01 | 1486303713.61428 | pgbench_history  |        193003520
 2017-02-05 15:08:33.614279+01 | 1486303713.61428 | pgbench_branches |            40960

 2017-02-05 15:08:34.689078+01 | 1486303714.68908 | pgbench_accounts |      13768179712
 2017-02-05 15:08:34.689078+01 | 1486303714.68908 | pgbench_tellers  |           450560
 2017-02-05 15:08:34.689078+01 | 1486303714.68908 | pgbench_history  |        195207168
 2017-02-05 15:08:34.689078+01 | 1486303714.68908 | pgbench_branches |            40960

 2017-02-05 15:08:35.767561+01 | 1486303715.76756 | pgbench_accounts |      13768179712
 2017-02-05 15:08:35.767561+01 | 1486303715.76756 | pgbench_tellers  |           450560
 2017-02-05 15:08:35.767561+01 | 1486303715.76756 | pgbench_history  |        197255168
 2017-02-05 15:08:35.767561+01 | 1486303715.76756 | pgbench_branches |            40960

 2017-02-05 15:08:36.840465+01 | 1486303716.84047 | pgbench_accounts |      13768179712
 2017-02-05 15:08:36.840465+01 | 1486303716.84047 | pgbench_tellers  |           450560
 2017-02-05 15:08:36.840465+01 | 1486303716.84047 | pgbench_history  |        200171520
 2017-02-05 15:08:36.840465+01 | 1486303716.84047 | pgbench_branches |            40960

 2017-02-05 15:08:37.915168+01 | 1486303717.91517 | pgbench_accounts |      13768179712
 2017-02-05 15:08:37.915168+01 | 1486303717.91517 | pgbench_tellers  |           450560
 2017-02-05 15:08:37.915168+01 | 1486303717.91517 | pgbench_history  |        201375744
 2017-02-05 15:08:37.915168+01 | 1486303717.91517 | pgbench_branches |            40960

 2017-02-05 15:08:38.989201+01 | 1486303718.9892 | pgbench_accounts |      13768179712
 2017-02-05 15:08:38.989201+01 | 1486303718.9892 | pgbench_tellers  |           450560
 2017-02-05 15:08:38.989201+01 | 1486303718.9892 | pgbench_history  |        204562432
 2017-02-05 15:08:38.989201+01 | 1486303718.9892 | pgbench_branches |            40960

 2017-02-05 15:08:40.069478+01 | 1486303720.06948 | pgbench_accounts |      13768179712
 2017-02-05 15:08:40.069478+01 | 1486303720.06948 | pgbench_tellers  |           450560
 2017-02-05 15:08:40.069478+01 | 1486303720.06948 | pgbench_history  |        206086144
 2017-02-05 15:08:40.069478+01 | 1486303720.06948 | pgbench_branches |            40960

 2017-02-05 15:08:41.14693+01 | 1486303721.14693 | pgbench_accounts |      13768179712
 2017-02-05 15:08:41.14693+01 | 1486303721.14693 | pgbench_tellers  |           450560
 2017-02-05 15:08:41.14693+01 | 1486303721.14693 | pgbench_history  |        208699392
 2017-02-05 15:08:41.14693+01 | 1486303721.14693 | pgbench_branches |            40960

 2017-02-05 15:08:42.222584+01 | 1486303722.22258 | pgbench_accounts |      13768179712
 2017-02-05 15:08:42.222584+01 | 1486303722.22258 | pgbench_tellers  |           450560
 2017-02-05 15:08:42.222584+01 | 1486303722.22258 | pgbench_history  |        211230720
 2017-02-05 15:08:42.222584+01 | 1486303722.22258 | pgbench_branches |            40960

 2017-02-05 15:08:43.30112+01 | 1486303723.30112 | pgbench_accounts |      13768179712
 2017-02-05 15:08:43.30112+01 | 1486303723.30112 | pgbench_tellers  |           450560
 2017-02-05 15:08:43.30112+01 | 1486303723.30112 | pgbench_history  |        214556672
 2017-02-05 15:08:43.30112+01 | 1486303723.30112 | pgbench_branches |            40960

 2017-02-05 15:08:44.380272+01 | 1486303724.38027 | pgbench_accounts |      13768179712
 2017-02-05 15:08:44.380272+01 | 1486303724.38027 | pgbench_tellers  |           450560
 2017-02-05 15:08:44.380272+01 | 1486303724.38027 | pgbench_history  |        215924736
 2017-02-05 15:08:44.380272+01 | 1486303724.38027 | pgbench_branches |            40960

 2017-02-05 15:08:45.455852+01 | 1486303725.45585 | pgbench_accounts |      13768179712
 2017-02-05 15:08:45.455852+01 | 1486303725.45585 | pgbench_tellers  |           450560
 2017-02-05 15:08:45.455852+01 | 1486303725.45585 | pgbench_history  |        218808320
 2017-02-05 15:08:45.455852+01 | 1486303725.45585 | pgbench_branches |            40960

 2017-02-05 15:08:46.53728+01 | 1486303726.53728 | pgbench_accounts |      13768179712
 2017-02-05 15:08:46.53728+01 | 1486303726.53728 | pgbench_tellers  |           450560
 2017-02-05 15:08:46.53728+01 | 1486303726.53728 | pgbench_history  |        221036544
 2017-02-05 15:08:46.53728+01 | 1486303726.53728 | pgbench_branches |            40960

 2017-02-05 15:08:47.614564+01 | 1486303727.61456 | pgbench_accounts |      13768179712
 2017-02-05 15:08:47.614564+01 | 1486303727.61456 | pgbench_tellers  |           450560
 2017-02-05 15:08:47.614564+01 | 1486303727.61456 | pgbench_history  |        223240192
 2017-02-05 15:08:47.614564+01 | 1486303727.61456 | pgbench_branches |            40960

 2017-02-05 15:08:48.69065+01 | 1486303728.69065 | pgbench_accounts |      13768179712
 2017-02-05 15:08:48.69065+01 | 1486303728.69065 | pgbench_tellers  |           450560
 2017-02-05 15:08:48.69065+01 | 1486303728.69065 | pgbench_history  |        225984512
 2017-02-05 15:08:48.69065+01 | 1486303728.69065 | pgbench_branches |            40960

 2017-02-05 15:08:49.77006+01 | 1486303729.77006 | pgbench_accounts |      13768179712
 2017-02-05 15:08:49.77006+01 | 1486303729.77006 | pgbench_tellers  |           450560
 2017-02-05 15:08:49.77006+01 | 1486303729.77006 | pgbench_history  |        228515840
 2017-02-05 15:08:49.77006+01 | 1486303729.77006 | pgbench_branches |            40960

 2017-02-05 15:08:50.846377+01 | 1486303730.84638 | pgbench_accounts |      13768179712
 2017-02-05 15:08:50.846377+01 | 1486303730.84638 | pgbench_tellers  |           450560
 2017-02-05 15:08:50.846377+01 | 1486303730.84638 | pgbench_history  |        230907904
 2017-02-05 15:08:50.846377+01 | 1486303730.84638 | pgbench_branches |            40960

 2017-02-05 15:08:51.936172+01 | 1486303731.93617 | pgbench_accounts |      13768179712
 2017-02-05 15:08:51.936172+01 | 1486303731.93617 | pgbench_tellers  |           450560
 2017-02-05 15:08:51.936172+01 | 1486303731.93617 | pgbench_history  |        233766912
 2017-02-05 15:08:51.936172+01 | 1486303731.93617 | pgbench_branches |            40960

 2017-02-05 15:08:53.012564+01 | 1486303733.01256 | pgbench_accounts |      13768179712
 2017-02-05 15:08:53.012564+01 | 1486303733.01256 | pgbench_tellers  |           450560
 2017-02-05 15:08:53.012564+01 | 1486303733.01256 | pgbench_history  |        235814912
 2017-02-05 15:08:53.012564+01 | 1486303733.01256 | pgbench_branches |            40960

 2017-02-05 15:08:54.087421+01 | 1486303734.08742 | pgbench_accounts |      13768179712
 2017-02-05 15:08:54.087421+01 | 1486303734.08742 | pgbench_tellers  |           450560
 2017-02-05 15:08:54.087421+01 | 1486303734.08742 | pgbench_history  |        238534656
 2017-02-05 15:08:54.087421+01 | 1486303734.08742 | pgbench_branches |            40960

 2017-02-05 15:08:55.166496+01 | 1486303735.1665 | pgbench_accounts |      13768179712
 2017-02-05 15:08:55.166496+01 | 1486303735.1665 | pgbench_tellers  |           450560
 2017-02-05 15:08:55.166496+01 | 1486303735.1665 | pgbench_history  |        241885184
 2017-02-05 15:08:55.166496+01 | 1486303735.1665 | pgbench_branches |            40960

 2017-02-05 15:08:56.244434+01 | 1486303736.24443 | pgbench_accounts |      13768179712
 2017-02-05 15:08:56.244434+01 | 1486303736.24443 | pgbench_tellers  |           450560
 2017-02-05 15:08:56.244434+01 | 1486303736.24443 | pgbench_history  |        242958336
 2017-02-05 15:08:56.244434+01 | 1486303736.24443 | pgbench_branches |            40960

 2017-02-05 15:08:57.317186+01 | 1486303737.31719 | pgbench_accounts |      13768179712
 2017-02-05 15:08:57.317186+01 | 1486303737.31719 | pgbench_tellers  |           450560
 2017-02-05 15:08:57.317186+01 | 1486303737.31719 | pgbench_history  |        245678080
 2017-02-05 15:08:57.317186+01 | 1486303737.31719 | pgbench_branches |            40960

 2017-02-05 15:08:58.393114+01 | 1486303738.39311 | pgbench_accounts |      13768179712
 2017-02-05 15:08:58.393114+01 | 1486303738.39311 | pgbench_tellers  |           450560
 2017-02-05 15:08:58.393114+01 | 1486303738.39311 | pgbench_history  |        248209408
 2017-02-05 15:08:58.393114+01 | 1486303738.39311 | pgbench_branches |            40960

 2017-02-05 15:08:59.470291+01 | 1486303739.47029 | pgbench_accounts |      13768179712
 2017-02-05 15:08:59.470291+01 | 1486303739.47029 | pgbench_tellers  |           450560
 2017-02-05 15:08:59.470291+01 | 1486303739.47029 | pgbench_history  |        250437632
 2017-02-05 15:08:59.470291+01 | 1486303739.47029 | pgbench_branches |            40960

 2017-02-05 15:09:00.547459+01 | 1486303740.54746 | pgbench_accounts |      13768179712
 2017-02-05 15:09:00.547459+01 | 1486303740.54746 | pgbench_tellers  |           450560
 2017-02-05 15:09:00.547459+01 | 1486303740.54746 | pgbench_history  |        253681664
 2017-02-05 15:09:00.547459+01 | 1486303740.54746 | pgbench_branches |            40960

 2017-02-05 15:09:01.627332+01 | 1486303741.62733 | pgbench_accounts |      13768179712
 2017-02-05 15:09:01.627332+01 | 1486303741.62733 | pgbench_tellers  |           450560
 2017-02-05 15:09:01.627332+01 | 1486303741.62733 | pgbench_history  |        255885312
 2017-02-05 15:09:01.627332+01 | 1486303741.62733 | pgbench_branches |            40960

 2017-02-05 15:09:02.701236+01 | 1486303742.70124 | pgbench_accounts |      13768179712
 2017-02-05 15:09:02.701236+01 | 1486303742.70124 | pgbench_tellers  |           450560
 2017-02-05 15:09:02.701236+01 | 1486303742.70124 | pgbench_history  |        258596864
 2017-02-05 15:09:02.701236+01 | 1486303742.70124 | pgbench_branches |            40960

 2017-02-05 15:09:03.778565+01 | 1486303743.77856 | pgbench_accounts |      13768179712
 2017-02-05 15:09:03.778565+01 | 1486303743.77856 | pgbench_tellers  |           450560
 2017-02-05 15:09:03.778565+01 | 1486303743.77856 | pgbench_history  |        260620288
 2017-02-05 15:09:03.778565+01 | 1486303743.77856 | pgbench_branches |            40960

 2017-02-05 15:09:04.851631+01 | 1486303744.85163 | pgbench_accounts |      13768179712
 2017-02-05 15:09:04.851631+01 | 1486303744.85163 | pgbench_tellers  |           450560
 2017-02-05 15:09:04.851631+01 | 1486303744.85163 | pgbench_history  |        262848512
 2017-02-05 15:09:04.851631+01 | 1486303744.85163 | pgbench_branches |            40960

 2017-02-05 15:09:05.929089+01 | 1486303745.92909 | pgbench_accounts |      13768179712
 2017-02-05 15:09:05.929089+01 | 1486303745.92909 | pgbench_tellers  |           450560
 2017-02-05 15:09:05.929089+01 | 1486303745.92909 | pgbench_history  |        265748480
 2017-02-05 15:09:05.929089+01 | 1486303745.92909 | pgbench_branches |            40960

 2017-02-05 15:09:07.002253+01 | 1486303747.00225 | pgbench_accounts |      13768179712
 2017-02-05 15:09:07.002253+01 | 1486303747.00225 | pgbench_tellers  |           450560
 2017-02-05 15:09:07.002253+01 | 1486303747.00225 | pgbench_history  |        267960320
 2017-02-05 15:09:07.002253+01 | 1486303747.00225 | pgbench_branches |            40960

 2017-02-05 15:09:08.088558+01 | 1486303748.08856 | pgbench_accounts |      13768179712
 2017-02-05 15:09:08.088558+01 | 1486303748.08856 | pgbench_tellers  |           450560
 2017-02-05 15:09:08.088558+01 | 1486303748.08856 | pgbench_history  |        271015936
 2017-02-05 15:09:08.088558+01 | 1486303748.08856 | pgbench_branches |            40960

 2017-02-05 15:09:09.164028+01 | 1486303749.16403 | pgbench_accounts |      13768179712
 2017-02-05 15:09:09.164028+01 | 1486303749.16403 | pgbench_tellers  |           450560
 2017-02-05 15:09:09.164028+01 | 1486303749.16403 | pgbench_history  |        272941056
 2017-02-05 15:09:09.164028+01 | 1486303749.16403 | pgbench_branches |            40960

 2017-02-05 15:09:10.242071+01 | 1486303750.24207 | pgbench_accounts |      13768179712
 2017-02-05 15:09:10.242071+01 | 1486303750.24207 | pgbench_tellers  |           450560
 2017-02-05 15:09:10.242071+01 | 1486303750.24207 | pgbench_history  |        275308544
 2017-02-05 15:09:10.242071+01 | 1486303750.24207 | pgbench_branches |            40960

 2017-02-05 15:09:11.318177+01 | 1486303751.31818 | pgbench_accounts |      13768179712
 2017-02-05 15:09:11.318177+01 | 1486303751.31818 | pgbench_tellers  |           450560
 2017-02-05 15:09:11.318177+01 | 1486303751.31818 | pgbench_history  |        277733376
 2017-02-05 15:09:11.318177+01 | 1486303751.31818 | pgbench_branches |            40960

 2017-02-05 15:09:12.395295+01 | 1486303752.39529 | pgbench_accounts |      13768179712
 2017-02-05 15:09:12.395295+01 | 1486303752.39529 | pgbench_tellers  |           450560
 2017-02-05 15:09:12.395295+01 | 1486303752.39529 | pgbench_history  |        280649728
 2017-02-05 15:09:12.395295+01 | 1486303752.39529 | pgbench_branches |            40960

 2017-02-05 15:09:13.46742+01 | 1486303753.46742 | pgbench_accounts |      13768179712
 2017-02-05 15:09:13.46742+01 | 1486303753.46742 | pgbench_tellers  |           450560
 2017-02-05 15:09:13.46742+01 | 1486303753.46742 | pgbench_history  |        282910720
 2017-02-05 15:09:13.46742+01 | 1486303753.46742 | pgbench_branches |            40960

 2017-02-05 15:09:14.5506+01 | 1486303754.5506 | pgbench_accounts |      13768179712
 2017-02-05 15:09:14.5506+01 | 1486303754.5506 | pgbench_tellers  |           450560
 2017-02-05 15:09:14.5506+01 | 1486303754.5506 | pgbench_history  |        285278208
 2017-02-05 15:09:14.5506+01 | 1486303754.5506 | pgbench_branches |            40960

 2017-02-05 15:09:15.62878+01 | 1486303755.62878 | pgbench_accounts |      13768179712
 2017-02-05 15:09:15.62878+01 | 1486303755.62878 | pgbench_tellers  |           450560
 2017-02-05 15:09:15.62878+01 | 1486303755.62878 | pgbench_history  |        288325632
 2017-02-05 15:09:15.62878+01 | 1486303755.62878 | pgbench_branches |            40960

 2017-02-05 15:09:16.711548+01 | 1486303756.71155 | pgbench_accounts |      13768179712
 2017-02-05 15:09:16.711548+01 | 1486303756.71155 | pgbench_tellers  |           450560
 2017-02-05 15:09:16.711548+01 | 1486303756.71155 | pgbench_history  |        290643968
 2017-02-05 15:09:16.711548+01 | 1486303756.71155 | pgbench_branches |            40960

 2017-02-05 15:09:17.794983+01 | 1486303757.79498 | pgbench_accounts |      13768179712
 2017-02-05 15:09:17.794983+01 | 1486303757.79498 | pgbench_tellers  |           450560
 2017-02-05 15:09:17.794983+01 | 1486303757.79498 | pgbench_history  |        292331520
 2017-02-05 15:09:17.794983+01 | 1486303757.79498 | pgbench_branches |            40960

 2017-02-05 15:09:18.872056+01 | 1486303758.87206 | pgbench_accounts |      13768179712
 2017-02-05 15:09:18.872056+01 | 1486303758.87206 | pgbench_tellers  |           450560
 2017-02-05 15:09:18.872056+01 | 1486303758.87206 | pgbench_history  |        294731776
 2017-02-05 15:09:18.872056+01 | 1486303758.87206 | pgbench_branches |            40960

 2017-02-05 15:09:19.948723+01 | 1486303759.94872 | pgbench_accounts |      13768179712
 2017-02-05 15:09:19.948723+01 | 1486303759.94872 | pgbench_tellers  |           450560
 2017-02-05 15:09:19.948723+01 | 1486303759.94872 | pgbench_history  |        297656320
 2017-02-05 15:09:19.948723+01 | 1486303759.94872 | pgbench_branches |            40960

 2017-02-05 15:09:21.030792+01 | 1486303761.03079 | pgbench_accounts |      13768179712
 2017-02-05 15:09:21.030792+01 | 1486303761.03079 | pgbench_tellers  |           450560
 2017-02-05 15:09:21.030792+01 | 1486303761.03079 | pgbench_history  |        300564480
 2017-02-05 15:09:21.030792+01 | 1486303761.03079 | pgbench_branches |            40960

 2017-02-05 15:09:22.112542+01 | 1486303762.11254 | pgbench_accounts |      13768179712
 2017-02-05 15:09:22.112542+01 | 1486303762.11254 | pgbench_tellers  |           450560
 2017-02-05 15:09:22.112542+01 | 1486303762.11254 | pgbench_history  |        302276608
 2017-02-05 15:09:22.112542+01 | 1486303762.11254 | pgbench_branches |            40960

 2017-02-05 15:09:23.190437+01 | 1486303763.19044 | pgbench_accounts |      13768179712
 2017-02-05 15:09:23.190437+01 | 1486303763.19044 | pgbench_tellers  |           450560
 2017-02-05 15:09:23.190437+01 | 1486303763.19044 | pgbench_history  |        304783360
 2017-02-05 15:09:23.190437+01 | 1486303763.19044 | pgbench_branches |            40960

 2017-02-05 15:09:24.267135+01 | 1486303764.26713 | pgbench_accounts |      13768179712
 2017-02-05 15:09:24.267135+01 | 1486303764.26713 | pgbench_tellers  |           450560
 2017-02-05 15:09:24.267135+01 | 1486303764.26713 | pgbench_history  |        306987008
 2017-02-05 15:09:24.267135+01 | 1486303764.26713 | pgbench_branches |            40960

 2017-02-05 15:09:25.338856+01 | 1486303765.33886 | pgbench_accounts |      13768179712
 2017-02-05 15:09:25.338856+01 | 1486303765.33886 | pgbench_tellers  |           450560
 2017-02-05 15:09:25.338856+01 | 1486303765.33886 | pgbench_history  |        309878784
 2017-02-05 15:09:25.338856+01 | 1486303765.33886 | pgbench_branches |            40960

 2017-02-05 15:09:26.421231+01 | 1486303766.42123 | pgbench_accounts |      13768179712
 2017-02-05 15:09:26.421231+01 | 1486303766.42123 | pgbench_tellers  |           450560
 2017-02-05 15:09:26.421231+01 | 1486303766.42123 | pgbench_history  |        311623680
 2017-02-05 15:09:26.421231+01 | 1486303766.42123 | pgbench_branches |            40960

 2017-02-05 15:09:27.50422+01 | 1486303767.50422 | pgbench_accounts |      13768179712
 2017-02-05 15:09:27.50422+01 | 1486303767.50422 | pgbench_tellers  |           450560
 2017-02-05 15:09:27.50422+01 | 1486303767.50422 | pgbench_history  |        314900480
 2017-02-05 15:09:27.50422+01 | 1486303767.50422 | pgbench_branches |            40960

 2017-02-05 15:09:28.584953+01 | 1486303768.58495 | pgbench_accounts |      13768179712
 2017-02-05 15:09:28.584953+01 | 1486303768.58495 | pgbench_tellers  |           450560
 2017-02-05 15:09:28.584953+01 | 1486303768.58495 | pgbench_history  |        316751872
 2017-02-05 15:09:28.584953+01 | 1486303768.58495 | pgbench_branches |            40960

 2017-02-05 15:09:29.670123+01 | 1486303769.67012 | pgbench_accounts |      13768179712
 2017-02-05 15:09:29.670123+01 | 1486303769.67012 | pgbench_tellers  |           450560
 2017-02-05 15:09:29.670123+01 | 1486303769.67012 | pgbench_history  |        319447040
 2017-02-05 15:09:29.670123+01 | 1486303769.67012 | pgbench_branches |            40960

 2017-02-05 15:09:30.744306+01 | 1486303770.74431 | pgbench_accounts |      13768179712
 2017-02-05 15:09:30.744306+01 | 1486303770.74431 | pgbench_tellers  |           450560
 2017-02-05 15:09:30.744306+01 | 1486303770.74431 | pgbench_history  |        321814528
 2017-02-05 15:09:30.744306+01 | 1486303770.74431 | pgbench_branches |            40960

 2017-02-05 15:09:31.820311+01 | 1486303771.82031 | pgbench_accounts |      13768179712
 2017-02-05 15:09:31.820311+01 | 1486303771.82031 | pgbench_tellers  |           450560
 2017-02-05 15:09:31.820311+01 | 1486303771.82031 | pgbench_history  |        324370432
 2017-02-05 15:09:31.820311+01 | 1486303771.82031 | pgbench_branches |            40960

 2017-02-05 15:09:32.898226+01 | 1486303772.89823 | pgbench_accounts |      13768179712
 2017-02-05 15:09:32.898226+01 | 1486303772.89823 | pgbench_tellers  |           450560
 2017-02-05 15:09:32.898226+01 | 1486303772.89823 | pgbench_history  |        326557696
 2017-02-05 15:09:32.898226+01 | 1486303772.89823 | pgbench_branches |            40960

 2017-02-05 15:09:33.976255+01 | 1486303773.97625 | pgbench_accounts |      13768179712
 2017-02-05 15:09:33.976255+01 | 1486303773.97625 | pgbench_tellers  |           450560
 2017-02-05 15:09:33.976255+01 | 1486303773.97625 | pgbench_history  |        329465856
 2017-02-05 15:09:33.976255+01 | 1486303773.97625 | pgbench_branches |            40960

 2017-02-05 15:09:35.04687+01 | 1486303775.04687 | pgbench_accounts |      13768179712
 2017-02-05 15:09:35.04687+01 | 1486303775.04687 | pgbench_tellers  |           450560
 2017-02-05 15:09:35.04687+01 | 1486303775.04687 | pgbench_history  |        332218368
 2017-02-05 15:09:35.04687+01 | 1486303775.04687 | pgbench_branches |            40960

 2017-02-05 15:09:36.121793+01 | 1486303776.12179 | pgbench_accounts |      13768179712
 2017-02-05 15:09:36.121793+01 | 1486303776.12179 | pgbench_tellers  |           450560
 2017-02-05 15:09:36.121793+01 | 1486303776.12179 | pgbench_history  |        334422016
 2017-02-05 15:09:36.121793+01 | 1486303776.12179 | pgbench_branches |            40960

 2017-02-05 15:09:37.198365+01 | 1486303777.19836 | pgbench_accounts |      13768179712
 2017-02-05 15:09:37.198365+01 | 1486303777.19836 | pgbench_tellers  |           450560
 2017-02-05 15:09:37.198365+01 | 1486303777.19836 | pgbench_history  |        336830464
 2017-02-05 15:09:37.198365+01 | 1486303777.19836 | pgbench_branches |            40960

 2017-02-05 15:09:38.275161+01 | 1486303778.27516 | pgbench_accounts |      13768179712
 2017-02-05 15:09:38.275161+01 | 1486303778.27516 | pgbench_tellers  |           450560
 2017-02-05 15:09:38.275161+01 | 1486303778.27516 | pgbench_history  |        338714624
 2017-02-05 15:09:38.275161+01 | 1486303778.27516 | pgbench_branches |            40960

 2017-02-05 15:09:39.350035+01 | 1486303779.35003 | pgbench_accounts |      13768179712
 2017-02-05 15:09:39.350035+01 | 1486303779.35003 | pgbench_tellers  |           450560
 2017-02-05 15:09:39.350035+01 | 1486303779.35003 | pgbench_history  |        341483520
 2017-02-05 15:09:39.350035+01 | 1486303779.35003 | pgbench_branches |            40960

 2017-02-05 15:09:40.423163+01 | 1486303780.42316 | pgbench_accounts |      13768179712
 2017-02-05 15:09:40.423163+01 | 1486303780.42316 | pgbench_tellers  |           450560
 2017-02-05 15:09:40.423163+01 | 1486303780.42316 | pgbench_history  |        343670784
 2017-02-05 15:09:40.423163+01 | 1486303780.42316 | pgbench_branches |            40960

 2017-02-05 15:09:41.500354+01 | 1486303781.50035 | pgbench_accounts |      13768179712
 2017-02-05 15:09:41.500354+01 | 1486303781.50035 | pgbench_tellers  |           450560
 2017-02-05 15:09:41.500354+01 | 1486303781.50035 | pgbench_history  |        347070464
 2017-02-05 15:09:41.500354+01 | 1486303781.50035 | pgbench_branches |            40960

 2017-02-05 15:09:42.576204+01 | 1486303782.5762 | pgbench_accounts |      13768179712
 2017-02-05 15:09:42.576204+01 | 1486303782.5762 | pgbench_tellers  |           450560
 2017-02-05 15:09:42.576204+01 | 1486303782.5762 | pgbench_history  |        349249536
 2017-02-05 15:09:42.576204+01 | 1486303782.5762 | pgbench_branches |            40960

 2017-02-05 15:09:43.653306+01 | 1486303783.65331 | pgbench_accounts |      13768179712
 2017-02-05 15:09:43.653306+01 | 1486303783.65331 | pgbench_tellers  |           450560
 2017-02-05 15:09:43.653306+01 | 1486303783.65331 | pgbench_history  |        351944704
 2017-02-05 15:09:43.653306+01 | 1486303783.65331 | pgbench_branches |            40960

 2017-02-05 15:09:44.726928+01 | 1486303784.72693 | pgbench_accounts |      13768179712
 2017-02-05 15:09:44.726928+01 | 1486303784.72693 | pgbench_tellers  |           450560
 2017-02-05 15:09:44.726928+01 | 1486303784.72693 | pgbench_history  |        353984512
 2017-02-05 15:09:44.726928+01 | 1486303784.72693 | pgbench_branches |            40960

 2017-02-05 15:09:45.805292+01 | 1486303785.80529 | pgbench_accounts |      13768179712
 2017-02-05 15:09:45.805292+01 | 1486303785.80529 | pgbench_tellers  |           450560
 2017-02-05 15:09:45.805292+01 | 1486303785.80529 | pgbench_history  |        356843520
 2017-02-05 15:09:45.805292+01 | 1486303785.80529 | pgbench_branches |            40960

 2017-02-05 15:09:46.880738+01 | 1486303786.88074 | pgbench_accounts |      13768179712
 2017-02-05 15:09:46.880738+01 | 1486303786.88074 | pgbench_tellers  |           450560
 2017-02-05 15:09:46.880738+01 | 1486303786.88074 | pgbench_history  |        358531072
 2017-02-05 15:09:46.880738+01 | 1486303786.88074 | pgbench_branches |            40960

 2017-02-05 15:09:47.955716+01 | 1486303787.95572 | pgbench_accounts |      13768179712
 2017-02-05 15:09:47.955716+01 | 1486303787.95572 | pgbench_tellers  |           450560
 2017-02-05 15:09:47.955716+01 | 1486303787.95572 | pgbench_history  |        362561536
 2017-02-05 15:09:47.955716+01 | 1486303787.95572 | pgbench_branches |            40960

 2017-02-05 15:09:49.031864+01 | 1486303789.03186 | pgbench_accounts |      13768179712
 2017-02-05 15:09:49.031864+01 | 1486303789.03186 | pgbench_tellers  |           450560
 2017-02-05 15:09:49.031864+01 | 1486303789.03186 | pgbench_history  |        363757568
 2017-02-05 15:09:49.031864+01 | 1486303789.03186 | pgbench_branches |            40960

 2017-02-05 15:09:50.105962+01 | 1486303790.10596 | pgbench_accounts |      13768179712
 2017-02-05 15:09:50.105962+01 | 1486303790.10596 | pgbench_tellers  |           450560
 2017-02-05 15:09:50.105962+01 | 1486303790.10596 | pgbench_history  |        366616576
 2017-02-05 15:09:50.105962+01 | 1486303790.10596 | pgbench_branches |            40960

 2017-02-05 15:09:51.181058+01 | 1486303791.18106 | pgbench_accounts |      13768179712
 2017-02-05 15:09:51.181058+01 | 1486303791.18106 | pgbench_tellers  |           450560
 2017-02-05 15:09:51.181058+01 | 1486303791.18106 | pgbench_history  |        369180672
 2017-02-05 15:09:51.181058+01 | 1486303791.18106 | pgbench_branches |            40960

 2017-02-05 15:09:52.255053+01 | 1486303792.25505 | pgbench_accounts |      13768179712
 2017-02-05 15:09:52.255053+01 | 1486303792.25505 | pgbench_tellers  |           450560
 2017-02-05 15:09:52.255053+01 | 1486303792.25505 | pgbench_history  |        371572736
 2017-02-05 15:09:52.255053+01 | 1486303792.25505 | pgbench_branches |            40960

 2017-02-05 15:09:53.337651+01 | 1486303793.33765 | pgbench_accounts |      13768179712
 2017-02-05 15:09:53.337651+01 | 1486303793.33765 | pgbench_tellers  |           450560
 2017-02-05 15:09:53.337651+01 | 1486303793.33765 | pgbench_history  |        374292480
 2017-02-05 15:09:53.337651+01 | 1486303793.33765 | pgbench_branches |            40960

 2017-02-05 15:09:54.420299+01 | 1486303794.4203 | pgbench_accounts |      13768179712
 2017-02-05 15:09:54.420299+01 | 1486303794.4203 | pgbench_tellers  |           450560
 2017-02-05 15:09:54.420299+01 | 1486303794.4203 | pgbench_history  |        376504320
 2017-02-05 15:09:54.420299+01 | 1486303794.4203 | pgbench_branches |            40960

 2017-02-05 15:09:55.493858+01 | 1486303795.49386 | pgbench_accounts |      13768179712
 2017-02-05 15:09:55.493858+01 | 1486303795.49386 | pgbench_tellers  |           450560
 2017-02-05 15:09:55.493858+01 | 1486303795.49386 | pgbench_history  |        379183104
 2017-02-05 15:09:55.493858+01 | 1486303795.49386 | pgbench_branches |            40960

 2017-02-05 15:09:56.561631+01 | 1486303796.56163 | pgbench_accounts |      13768179712
 2017-02-05 15:09:56.561631+01 | 1486303796.56163 | pgbench_tellers  |           450560
 2017-02-05 15:09:56.561631+01 | 1486303796.56163 | pgbench_history  |        381100032
 2017-02-05 15:09:56.561631+01 | 1486303796.56163 | pgbench_branches |            40960

 2017-02-05 15:09:57.634387+01 | 1486303797.63439 | pgbench_accounts |      13768179712
 2017-02-05 15:09:57.634387+01 | 1486303797.63439 | pgbench_tellers  |           450560
 2017-02-05 15:09:57.634387+01 | 1486303797.63439 | pgbench_history  |        383328256
 2017-02-05 15:09:57.634387+01 | 1486303797.63439 | pgbench_branches |            40960

 2017-02-05 15:09:58.708003+01 | 1486303798.708 | pgbench_accounts |      13768179712
 2017-02-05 15:09:58.708003+01 | 1486303798.708 | pgbench_tellers  |           450560
 2017-02-05 15:09:58.708003+01 | 1486303798.708 | pgbench_history  |        385204224
 2017-02-05 15:09:58.708003+01 | 1486303798.708 | pgbench_branches |            40960

 2017-02-05 15:09:59.78778+01 | 1486303799.78778 | pgbench_accounts |      13768179712
 2017-02-05 15:09:59.78778+01 | 1486303799.78778 | pgbench_tellers  |           450560
 2017-02-05 15:09:59.78778+01 | 1486303799.78778 | pgbench_history  |        387407872
 2017-02-05 15:09:59.78778+01 | 1486303799.78778 | pgbench_branches |            40960

 2017-02-05 15:10:00.861147+01 | 1486303800.86115 | pgbench_accounts |      13768179712
 2017-02-05 15:10:00.861147+01 | 1486303800.86115 | pgbench_tellers  |           450560
 2017-02-05 15:10:00.861147+01 | 1486303800.86115 | pgbench_history  |        389472256
 2017-02-05 15:10:00.861147+01 | 1486303800.86115 | pgbench_branches |            40960

 2017-02-05 15:10:01.93629+01 | 1486303801.93629 | pgbench_accounts |      13768179712
 2017-02-05 15:10:01.93629+01 | 1486303801.93629 | pgbench_tellers  |           450560
 2017-02-05 15:10:01.93629+01 | 1486303801.93629 | pgbench_history  |        391675904
 2017-02-05 15:10:01.93629+01 | 1486303801.93629 | pgbench_branches |            40960

 2017-02-05 15:10:03.012664+01 | 1486303803.01266 | pgbench_accounts |      13768179712
 2017-02-05 15:10:03.012664+01 | 1486303803.01266 | pgbench_tellers  |           450560
 2017-02-05 15:10:03.012664+01 | 1486303803.01266 | pgbench_history  |        393715712
 2017-02-05 15:10:03.012664+01 | 1486303803.01266 | pgbench_branches |            40960

 2017-02-05 15:10:04.08642+01 | 1486303804.08642 | pgbench_accounts |      13768179712
 2017-02-05 15:10:04.08642+01 | 1486303804.08642 | pgbench_tellers  |           450560
 2017-02-05 15:10:04.08642+01 | 1486303804.08642 | pgbench_history  |        395870208
 2017-02-05 15:10:04.08642+01 | 1486303804.08642 | pgbench_branches |            40960

 2017-02-05 15:10:05.163086+01 | 1486303805.16309 | pgbench_accounts |      13768179712
 2017-02-05 15:10:05.163086+01 | 1486303805.16309 | pgbench_tellers  |           450560
 2017-02-05 15:10:05.163086+01 | 1486303805.16309 | pgbench_history  |        397582336
 2017-02-05 15:10:05.163086+01 | 1486303805.16309 | pgbench_branches |            40960

 2017-02-05 15:10:06.240009+01 | 1486303806.24001 | pgbench_accounts |      13768179712
 2017-02-05 15:10:06.240009+01 | 1486303806.24001 | pgbench_tellers  |           450560
 2017-02-05 15:10:06.240009+01 | 1486303806.24001 | pgbench_history  |        399794176
 2017-02-05 15:10:06.240009+01 | 1486303806.24001 | pgbench_branches |            40960

 2017-02-05 15:10:07.313645+01 | 1486303807.31364 | pgbench_accounts |      13768179712
 2017-02-05 15:10:07.313645+01 | 1486303807.31364 | pgbench_tellers  |           450560
 2017-02-05 15:10:07.313645+01 | 1486303807.31364 | pgbench_history  |        402276352
 2017-02-05 15:10:07.313645+01 | 1486303807.31364 | pgbench_branches |            40960

 2017-02-05 15:10:08.392251+01 | 1486303808.39225 | pgbench_accounts |      13768179712
 2017-02-05 15:10:08.392251+01 | 1486303808.39225 | pgbench_tellers  |           450560
 2017-02-05 15:10:08.392251+01 | 1486303808.39225 | pgbench_history  |        404144128
 2017-02-05 15:10:08.392251+01 | 1486303808.39225 | pgbench_branches |            40960

 2017-02-05 15:10:09.470202+01 | 1486303809.4702 | pgbench_accounts |      13768179712
 2017-02-05 15:10:09.470202+01 | 1486303809.4702 | pgbench_tellers  |           450560
 2017-02-05 15:10:09.470202+01 | 1486303809.4702 | pgbench_history  |        406183936
 2017-02-05 15:10:09.470202+01 | 1486303809.4702 | pgbench_branches |            40960

 2017-02-05 15:10:10.544716+01 | 1486303810.54472 | pgbench_accounts |      13768179712
 2017-02-05 15:10:10.544716+01 | 1486303810.54472 | pgbench_tellers  |           450560
 2017-02-05 15:10:10.544716+01 | 1486303810.54472 | pgbench_history  |        408739840
 2017-02-05 15:10:10.544716+01 | 1486303810.54472 | pgbench_branches |            40960

 2017-02-05 15:10:11.618143+01 | 1486303811.61814 | pgbench_accounts |      13768179712
 2017-02-05 15:10:11.618143+01 | 1486303811.61814 | pgbench_tellers  |           450560
 2017-02-05 15:10:11.618143+01 | 1486303811.61814 | pgbench_history  |        410591232
 2017-02-05 15:10:11.618143+01 | 1486303811.61814 | pgbench_branches |            40960

 2017-02-05 15:10:12.692034+01 | 1486303812.69203 | pgbench_accounts |      13768179712
 2017-02-05 15:10:12.692034+01 | 1486303812.69203 | pgbench_tellers  |           450560
 2017-02-05 15:10:12.692034+01 | 1486303812.69203 | pgbench_history  |        411951104
 2017-02-05 15:10:12.692034+01 | 1486303812.69203 | pgbench_branches |            40960

 2017-02-05 15:10:13.763441+01 | 1486303813.76344 | pgbench_accounts |      13768179712
 2017-02-05 15:10:13.763441+01 | 1486303813.76344 | pgbench_tellers  |           450560
 2017-02-05 15:10:13.763441+01 | 1486303813.76344 | pgbench_history  |        415047680
 2017-02-05 15:10:13.763441+01 | 1486303813.76344 | pgbench_branches |            40960

 2017-02-05 15:10:14.837088+01 | 1486303814.83709 | pgbench_accounts |      13768179712
 2017-02-05 15:10:14.837088+01 | 1486303814.83709 | pgbench_tellers  |           450560
 2017-02-05 15:10:14.837088+01 | 1486303814.83709 | pgbench_history  |        416874496
 2017-02-05 15:10:14.837088+01 | 1486303814.83709 | pgbench_branches |            40960

 2017-02-05 15:10:15.913464+01 | 1486303815.91346 | pgbench_accounts |      13768179712
 2017-02-05 15:10:15.913464+01 | 1486303815.91346 | pgbench_tellers  |           450560
 2017-02-05 15:10:15.913464+01 | 1486303815.91346 | pgbench_history  |        418775040
 2017-02-05 15:10:15.913464+01 | 1486303815.91346 | pgbench_branches |            40960

 2017-02-05 15:10:16.984693+01 | 1486303816.98469 | pgbench_accounts |      13768179712
 2017-02-05 15:10:16.984693+01 | 1486303816.98469 | pgbench_tellers  |           450560
 2017-02-05 15:10:16.984693+01 | 1486303816.98469 | pgbench_history  |        421494784
 2017-02-05 15:10:16.984693+01 | 1486303816.98469 | pgbench_branches |            40960

 2017-02-05 15:10:18.06338+01 | 1486303818.06338 | pgbench_accounts |      13768179712
 2017-02-05 15:10:18.06338+01 | 1486303818.06338 | pgbench_tellers  |           450560
 2017-02-05 15:10:18.06338+01 | 1486303818.06338 | pgbench_history  |        423952384
 2017-02-05 15:10:18.06338+01 | 1486303818.06338 | pgbench_branches |            40960

 2017-02-05 15:10:19.150049+01 | 1486303819.15005 | pgbench_accounts |      13768179712
 2017-02-05 15:10:19.150049+01 | 1486303819.15005 | pgbench_tellers  |           450560
 2017-02-05 15:10:19.150049+01 | 1486303819.15005 | pgbench_history  |        426516480
 2017-02-05 15:10:19.150049+01 | 1486303819.15005 | pgbench_branches |            40960

 2017-02-05 15:10:20.229131+01 | 1486303820.22913 | pgbench_accounts |      13768179712
 2017-02-05 15:10:20.229131+01 | 1486303820.22913 | pgbench_tellers  |           450560
 2017-02-05 15:10:20.229131+01 | 1486303820.22913 | pgbench_history  |        428384256
 2017-02-05 15:10:20.229131+01 | 1486303820.22913 | pgbench_branches |            40960

 2017-02-05 15:10:21.30337+01 | 1486303821.30337 | pgbench_accounts |      13768179712
 2017-02-05 15:10:21.30337+01 | 1486303821.30337 | pgbench_tellers  |           450560
 2017-02-05 15:10:21.30337+01 | 1486303821.30337 | pgbench_history  |        431595520
 2017-02-05 15:10:21.30337+01 | 1486303821.30337 | pgbench_branches |            40960

 2017-02-05 15:10:22.376566+01 | 1486303822.37657 | pgbench_accounts |      13768179712
 2017-02-05 15:10:22.376566+01 | 1486303822.37657 | pgbench_tellers  |           450560
 2017-02-05 15:10:22.376566+01 | 1486303822.37657 | pgbench_history  |        433668096
 2017-02-05 15:10:22.376566+01 | 1486303822.37657 | pgbench_branches |            40960

 2017-02-05 15:10:23.449163+01 | 1486303823.44916 | pgbench_accounts |      13768179712
 2017-02-05 15:10:23.449163+01 | 1486303823.44916 | pgbench_tellers  |           450560
 2017-02-05 15:10:23.449163+01 | 1486303823.44916 | pgbench_history  |        435896320
 2017-02-05 15:10:23.449163+01 | 1486303823.44916 | pgbench_branches |            40960

 2017-02-05 15:10:24.528379+01 | 1486303824.52838 | pgbench_accounts |      13768179712
 2017-02-05 15:10:24.528379+01 | 1486303824.52838 | pgbench_tellers  |           450560
 2017-02-05 15:10:24.528379+01 | 1486303824.52838 | pgbench_history  |        439648256
 2017-02-05 15:10:24.528379+01 | 1486303824.52838 | pgbench_branches |            40960

 2017-02-05 15:10:25.606919+01 | 1486303825.60692 | pgbench_accounts |      13768179712
 2017-02-05 15:10:25.606919+01 | 1486303825.60692 | pgbench_tellers  |           450560
 2017-02-05 15:10:25.606919+01 | 1486303825.60692 | pgbench_history  |        440877056
 2017-02-05 15:10:25.606919+01 | 1486303825.60692 | pgbench_branches |            40960

 2017-02-05 15:10:26.693327+01 | 1486303826.69333 | pgbench_accounts |      13768179712
 2017-02-05 15:10:26.693327+01 | 1486303826.69333 | pgbench_tellers  |           450560
 2017-02-05 15:10:26.693327+01 | 1486303826.69333 | pgbench_history  |        443228160
 2017-02-05 15:10:26.693327+01 | 1486303826.69333 | pgbench_branches |            40960

 2017-02-05 15:10:27.768053+01 | 1486303827.76805 | pgbench_accounts |      13768179712
 2017-02-05 15:10:27.768053+01 | 1486303827.76805 | pgbench_tellers  |           450560
 2017-02-05 15:10:27.768053+01 | 1486303827.76805 | pgbench_history  |        445784064
 2017-02-05 15:10:27.768053+01 | 1486303827.76805 | pgbench_branches |            40960

 2017-02-05 15:10:28.844211+01 | 1486303828.84421 | pgbench_accounts |      13768179712
 2017-02-05 15:10:28.844211+01 | 1486303828.84421 | pgbench_tellers  |           450560
 2017-02-05 15:10:28.844211+01 | 1486303828.84421 | pgbench_history  |        448176128
 2017-02-05 15:10:28.844211+01 | 1486303828.84421 | pgbench_branches |            40960

 2017-02-05 15:10:29.920116+01 | 1486303829.92012 | pgbench_accounts |      13768179712
 2017-02-05 15:10:29.920116+01 | 1486303829.92012 | pgbench_tellers  |           450560
 2017-02-05 15:10:29.920116+01 | 1486303829.92012 | pgbench_history  |        450215936
 2017-02-05 15:10:29.920116+01 | 1486303829.92012 | pgbench_branches |            40960

 2017-02-05 15:10:30.99314+01 | 1486303830.99314 | pgbench_accounts |      13768179712
 2017-02-05 15:10:30.99314+01 | 1486303830.99314 | pgbench_tellers  |           450560
 2017-02-05 15:10:30.99314+01 | 1486303830.99314 | pgbench_history  |        453025792
 2017-02-05 15:10:30.99314+01 | 1486303830.99314 | pgbench_branches |            40960

 2017-02-05 15:10:32.073485+01 | 1486303832.07348 | pgbench_accounts |      13768179712
 2017-02-05 15:10:32.073485+01 | 1486303832.07348 | pgbench_tellers  |           450560
 2017-02-05 15:10:32.073485+01 | 1486303832.07348 | pgbench_history  |        456245248
 2017-02-05 15:10:32.073485+01 | 1486303832.07348 | pgbench_branches |            40960

 2017-02-05 15:10:33.148636+01 | 1486303833.14864 | pgbench_accounts |      13768179712
 2017-02-05 15:10:33.148636+01 | 1486303833.14864 | pgbench_tellers  |           450560
 2017-02-05 15:10:33.148636+01 | 1486303833.14864 | pgbench_history  |        457613312
 2017-02-05 15:10:33.148636+01 | 1486303833.14864 | pgbench_branches |            40960

 2017-02-05 15:10:34.221365+01 | 1486303834.22136 | pgbench_accounts |      13768179712
 2017-02-05 15:10:34.221365+01 | 1486303834.22136 | pgbench_tellers  |           450560
 2017-02-05 15:10:34.221365+01 | 1486303834.22136 | pgbench_history  |        459718656
 2017-02-05 15:10:34.221365+01 | 1486303834.22136 | pgbench_branches |            40960

 2017-02-05 15:10:35.301671+01 | 1486303835.30167 | pgbench_accounts |      13768179712
 2017-02-05 15:10:35.301671+01 | 1486303835.30167 | pgbench_tellers  |           450560
 2017-02-05 15:10:35.301671+01 | 1486303835.30167 | pgbench_history  |        463560704
 2017-02-05 15:10:35.301671+01 | 1486303835.30167 | pgbench_branches |            40960

 2017-02-05 15:10:36.375249+01 | 1486303836.37525 | pgbench_accounts |      13768179712
 2017-02-05 15:10:36.375249+01 | 1486303836.37525 | pgbench_tellers  |           450560
 2017-02-05 15:10:36.375249+01 | 1486303836.37525 | pgbench_history  |        464732160
 2017-02-05 15:10:36.375249+01 | 1486303836.37525 | pgbench_branches |            40960

 2017-02-05 15:10:37.450508+01 | 1486303837.45051 | pgbench_accounts |      13768179712
 2017-02-05 15:10:37.450508+01 | 1486303837.45051 | pgbench_tellers  |           450560
 2017-02-05 15:10:37.450508+01 | 1486303837.45051 | pgbench_history  |        467566592
 2017-02-05 15:10:37.450508+01 | 1486303837.45051 | pgbench_branches |            40960

 2017-02-05 15:10:38.523889+01 | 1486303838.52389 | pgbench_accounts |      13768179712
 2017-02-05 15:10:38.523889+01 | 1486303838.52389 | pgbench_tellers  |           450560
 2017-02-05 15:10:38.523889+01 | 1486303838.52389 | pgbench_history  |        469770240
 2017-02-05 15:10:38.523889+01 | 1486303838.52389 | pgbench_branches |            40960

 2017-02-05 15:10:39.598249+01 | 1486303839.59825 | pgbench_accounts |      13768179712
 2017-02-05 15:10:39.598249+01 | 1486303839.59825 | pgbench_tellers  |           450560
 2017-02-05 15:10:39.598249+01 | 1486303839.59825 | pgbench_history  |        471998464
 2017-02-05 15:10:39.598249+01 | 1486303839.59825 | pgbench_branches |            40960

 2017-02-05 15:10:40.671139+01 | 1486303840.67114 | pgbench_accounts |      13768179712
 2017-02-05 15:10:40.671139+01 | 1486303840.67114 | pgbench_tellers  |           450560
 2017-02-05 15:10:40.671139+01 | 1486303840.67114 | pgbench_history  |        473571328
 2017-02-05 15:10:40.671139+01 | 1486303840.67114 | pgbench_branches |            40960

 2017-02-05 15:10:41.746714+01 | 1486303841.74671 | pgbench_accounts |      13768179712
 2017-02-05 15:10:41.746714+01 | 1486303841.74671 | pgbench_tellers  |           450560
 2017-02-05 15:10:41.746714+01 | 1486303841.74671 | pgbench_history  |        476274688
 2017-02-05 15:10:41.746714+01 | 1486303841.74671 | pgbench_branches |            40960

 2017-02-05 15:10:42.821351+01 | 1486303842.82135 | pgbench_accounts |      13768179712
 2017-02-05 15:10:42.821351+01 | 1486303842.82135 | pgbench_tellers  |           450560
 2017-02-05 15:10:42.821351+01 | 1486303842.82135 | pgbench_history  |        478666752
 2017-02-05 15:10:42.821351+01 | 1486303842.82135 | pgbench_branches |            40960

 2017-02-05 15:10:43.896834+01 | 1486303843.89683 | pgbench_accounts |      13768179712
 2017-02-05 15:10:43.896834+01 | 1486303843.89683 | pgbench_tellers  |           450560
 2017-02-05 15:10:43.896834+01 | 1486303843.89683 | pgbench_history  |        481427456
 2017-02-05 15:10:43.896834+01 | 1486303843.89683 | pgbench_branches |            40960

 2017-02-05 15:10:44.973868+01 | 1486303844.97387 | pgbench_accounts |      13768179712
 2017-02-05 15:10:44.973868+01 | 1486303844.97387 | pgbench_tellers  |           450560
 2017-02-05 15:10:44.973868+01 | 1486303844.97387 | pgbench_history  |        483803136
 2017-02-05 15:10:44.973868+01 | 1486303844.97387 | pgbench_branches |            40960

 2017-02-05 15:10:46.047676+01 | 1486303846.04768 | pgbench_accounts |      13768179712
 2017-02-05 15:10:46.047676+01 | 1486303846.04768 | pgbench_tellers  |           450560
 2017-02-05 15:10:46.047676+01 | 1486303846.04768 | pgbench_history  |        487333888
 2017-02-05 15:10:46.047676+01 | 1486303846.04768 | pgbench_branches |            40960

 2017-02-05 15:10:47.125704+01 | 1486303847.1257 | pgbench_accounts |      13768179712
 2017-02-05 15:10:47.125704+01 | 1486303847.1257 | pgbench_tellers  |           450560
 2017-02-05 15:10:47.125704+01 | 1486303847.1257 | pgbench_history  |        488718336
 2017-02-05 15:10:47.125704+01 | 1486303847.1257 | pgbench_branches |            40960

 2017-02-05 15:10:48.207611+01 | 1486303848.20761 | pgbench_accounts |      13768179712
 2017-02-05 15:10:48.207611+01 | 1486303848.20761 | pgbench_tellers  |           450560
 2017-02-05 15:10:48.207611+01 | 1486303848.20761 | pgbench_history  |        491577344
 2017-02-05 15:10:48.207611+01 | 1486303848.20761 | pgbench_branches |            40960

 2017-02-05 15:10:49.286727+01 | 1486303849.28673 | pgbench_accounts |      13768179712
 2017-02-05 15:10:49.286727+01 | 1486303849.28673 | pgbench_tellers  |           450560
 2017-02-05 15:10:49.286727+01 | 1486303849.28673 | pgbench_history  |        493453312
 2017-02-05 15:10:49.286727+01 | 1486303849.28673 | pgbench_branches |            40960

 2017-02-05 15:10:50.36109+01 | 1486303850.36109 | pgbench_accounts |      13768179712
 2017-02-05 15:10:50.36109+01 | 1486303850.36109 | pgbench_tellers  |           450560
 2017-02-05 15:10:50.36109+01 | 1486303850.36109 | pgbench_history  |        496451584
 2017-02-05 15:10:50.36109+01 | 1486303850.36109 | pgbench_branches |            40960

 2017-02-05 15:10:51.437656+01 | 1486303851.43766 | pgbench_accounts |      13768179712
 2017-02-05 15:10:51.437656+01 | 1486303851.43766 | pgbench_tellers  |           450560
 2017-02-05 15:10:51.437656+01 | 1486303851.43766 | pgbench_history  |        498171904
 2017-02-05 15:10:51.437656+01 | 1486303851.43766 | pgbench_branches |            40960

 2017-02-05 15:10:52.512623+01 | 1486303852.51262 | pgbench_accounts |      13768179712
 2017-02-05 15:10:52.512623+01 | 1486303852.51262 | pgbench_tellers  |           450560
 2017-02-05 15:10:52.512623+01 | 1486303852.51262 | pgbench_history  |        500916224
 2017-02-05 15:10:52.512623+01 | 1486303852.51262 | pgbench_branches |            40960

 2017-02-05 15:10:53.588782+01 | 1486303853.58878 | pgbench_accounts |      13768179712
 2017-02-05 15:10:53.588782+01 | 1486303853.58878 | pgbench_tellers  |           450560
 2017-02-05 15:10:53.588782+01 | 1486303853.58878 | pgbench_history  |        503144448
 2017-02-05 15:10:53.588782+01 | 1486303853.58878 | pgbench_branches |            40960

 2017-02-05 15:10:54.663764+01 | 1486303854.66376 | pgbench_accounts |      13768179712
 2017-02-05 15:10:54.663764+01 | 1486303854.66376 | pgbench_tellers  |           450560
 2017-02-05 15:10:54.663764+01 | 1486303854.66376 | pgbench_history  |        506585088
 2017-02-05 15:10:54.663764+01 | 1486303854.66376 | pgbench_branches |            40960

 2017-02-05 15:10:55.739045+01 | 1486303855.73904 | pgbench_accounts |      13768179712
 2017-02-05 15:10:55.739045+01 | 1486303855.73904 | pgbench_tellers  |           450560
 2017-02-05 15:10:55.739045+01 | 1486303855.73904 | pgbench_history  |        508411904
 2017-02-05 15:10:55.739045+01 | 1486303855.73904 | pgbench_branches |            40960

 2017-02-05 15:10:56.812185+01 | 1486303856.81219 | pgbench_accounts |      13768179712
 2017-02-05 15:10:56.812185+01 | 1486303856.81219 | pgbench_tellers  |           450560
 2017-02-05 15:10:56.812185+01 | 1486303856.81219 | pgbench_history  |        510918656
 2017-02-05 15:10:56.812185+01 | 1486303856.81219 | pgbench_branches |            40960

 2017-02-05 15:10:57.88602+01 | 1486303857.88602 | pgbench_accounts |      13768179712
 2017-02-05 15:10:57.88602+01 | 1486303857.88602 | pgbench_tellers  |           450560
 2017-02-05 15:10:57.88602+01 | 1486303857.88602 | pgbench_history  |        513114112
 2017-02-05 15:10:57.88602+01 | 1486303857.88602 | pgbench_branches |            40960

 2017-02-05 15:10:58.958811+01 | 1486303858.95881 | pgbench_accounts |      13768179712
 2017-02-05 15:10:58.958811+01 | 1486303858.95881 | pgbench_tellers  |           450560
 2017-02-05 15:10:58.958811+01 | 1486303858.95881 | pgbench_history  |        515317760
 2017-02-05 15:10:58.958811+01 | 1486303858.95881 | pgbench_branches |            40960

 2017-02-05 15:11:00.044814+01 | 1486303860.04481 | pgbench_accounts |      13768179712
 2017-02-05 15:11:00.044814+01 | 1486303860.04481 | pgbench_tellers  |           450560
 2017-02-05 15:11:00.044814+01 | 1486303860.04481 | pgbench_history  |        518176768
 2017-02-05 15:11:00.044814+01 | 1486303860.04481 | pgbench_branches |            40960

 2017-02-05 15:11:01.121071+01 | 1486303861.12107 | pgbench_accounts |      13768179712
 2017-02-05 15:11:01.121071+01 | 1486303861.12107 | pgbench_tellers  |           450560
 2017-02-05 15:11:01.121071+01 | 1486303861.12107 | pgbench_history  |        520568832
 2017-02-05 15:11:01.121071+01 | 1486303861.12107 | pgbench_branches |            40960

 2017-02-05 15:11:02.192199+01 | 1486303862.1922 | pgbench_accounts |      13768179712
 2017-02-05 15:11:02.192199+01 | 1486303862.1922 | pgbench_tellers  |           450560
 2017-02-05 15:11:02.192199+01 | 1486303862.1922 | pgbench_history  |        522969088
 2017-02-05 15:11:02.192199+01 | 1486303862.1922 | pgbench_branches |            40960

 2017-02-05 15:11:03.267268+01 | 1486303863.26727 | pgbench_accounts |      13768179712
 2017-02-05 15:11:03.267268+01 | 1486303863.26727 | pgbench_tellers  |           450560
 2017-02-05 15:11:03.267268+01 | 1486303863.26727 | pgbench_history  |        525033472
 2017-02-05 15:11:03.267268+01 | 1486303863.26727 | pgbench_branches |            40960

 2017-02-05 15:11:04.34171+01 | 1486303864.34171 | pgbench_accounts |      13768179712
 2017-02-05 15:11:04.34171+01 | 1486303864.34171 | pgbench_tellers  |           450560
 2017-02-05 15:11:04.34171+01 | 1486303864.34171 | pgbench_history  |        527400960
 2017-02-05 15:11:04.34171+01 | 1486303864.34171 | pgbench_branches |            40960

 2017-02-05 15:11:05.416132+01 | 1486303865.41613 | pgbench_accounts |      13768179712
 2017-02-05 15:11:05.416132+01 | 1486303865.41613 | pgbench_tellers  |           450560
 2017-02-05 15:11:05.416132+01 | 1486303865.41613 | pgbench_history  |        529440768
 2017-02-05 15:11:05.416132+01 | 1486303865.41613 | pgbench_branches |            40960

 2017-02-05 15:11:06.493858+01 | 1486303866.49386 | pgbench_accounts |      13768179712
 2017-02-05 15:11:06.493858+01 | 1486303866.49386 | pgbench_tellers  |           450560
 2017-02-05 15:11:06.493858+01 | 1486303866.49386 | pgbench_history  |        531972096
 2017-02-05 15:11:06.493858+01 | 1486303866.49386 | pgbench_branches |            40960

 2017-02-05 15:11:07.57341+01 | 1486303867.57341 | pgbench_accounts |      13768179712
 2017-02-05 15:11:07.57341+01 | 1486303867.57341 | pgbench_tellers  |           450560
 2017-02-05 15:11:07.57341+01 | 1486303867.57341 | pgbench_history  |        534044672
 2017-02-05 15:11:07.57341+01 | 1486303867.57341 | pgbench_branches |            40960

 2017-02-05 15:11:08.648427+01 | 1486303868.64843 | pgbench_accounts |      13768179712
 2017-02-05 15:11:08.648427+01 | 1486303868.64843 | pgbench_tellers  |           450560
 2017-02-05 15:11:08.648427+01 | 1486303868.64843 | pgbench_history  |        535756800
 2017-02-05 15:11:08.648427+01 | 1486303868.64843 | pgbench_branches |            40960

 2017-02-05 15:11:09.72662+01 | 1486303869.72662 | pgbench_accounts |      13768179712
 2017-02-05 15:11:09.72662+01 | 1486303869.72662 | pgbench_tellers  |           450560
 2017-02-05 15:11:09.72662+01 | 1486303869.72662 | pgbench_history  |        538451968
 2017-02-05 15:11:09.72662+01 | 1486303869.72662 | pgbench_branches |            40960

 2017-02-05 15:11:10.802518+01 | 1486303870.80252 | pgbench_accounts |      13768179712
 2017-02-05 15:11:10.802518+01 | 1486303870.80252 | pgbench_tellers  |           450560
 2017-02-05 15:11:10.802518+01 | 1486303870.80252 | pgbench_history  |        540164096
 2017-02-05 15:11:10.802518+01 | 1486303870.80252 | pgbench_branches |            40960

 2017-02-05 15:11:11.876403+01 | 1486303871.8764 | pgbench_accounts |      13768179712
 2017-02-05 15:11:11.876403+01 | 1486303871.8764 | pgbench_tellers  |           450560
 2017-02-05 15:11:11.876403+01 | 1486303871.8764 | pgbench_history  |        542179328
 2017-02-05 15:11:11.876403+01 | 1486303871.8764 | pgbench_branches |            40960

 2017-02-05 15:11:12.947121+01 | 1486303872.94712 | pgbench_accounts |      13768179712
 2017-02-05 15:11:12.947121+01 | 1486303872.94712 | pgbench_tellers  |           450560
 2017-02-05 15:11:12.947121+01 | 1486303872.94712 | pgbench_history  |        544227328
 2017-02-05 15:11:12.947121+01 | 1486303872.94712 | pgbench_branches |            40960

 2017-02-05 15:11:14.024004+01 | 1486303874.024 | pgbench_accounts |      13768179712
 2017-02-05 15:11:14.024004+01 | 1486303874.024 | pgbench_tellers  |           450560
 2017-02-05 15:11:14.024004+01 | 1486303874.024 | pgbench_history  |        546406400
 2017-02-05 15:11:14.024004+01 | 1486303874.024 | pgbench_branches |            40960

 2017-02-05 15:11:15.098152+01 | 1486303875.09815 | pgbench_accounts |      13768179712
 2017-02-05 15:11:15.098152+01 | 1486303875.09815 | pgbench_tellers  |           450560
 2017-02-05 15:11:15.098152+01 | 1486303875.09815 | pgbench_history  |        549101568
 2017-02-05 15:11:15.098152+01 | 1486303875.09815 | pgbench_branches |            40960

 2017-02-05 15:11:16.170005+01 | 1486303876.17001 | pgbench_accounts |      13768179712
 2017-02-05 15:11:16.170005+01 | 1486303876.17001 | pgbench_tellers  |           450560
 2017-02-05 15:11:16.170005+01 | 1486303876.17001 | pgbench_history  |        551116800
 2017-02-05 15:11:16.170005+01 | 1486303876.17001 | pgbench_branches |            40960

 2017-02-05 15:11:17.249132+01 | 1486303877.24913 | pgbench_accounts |      13768179712
 2017-02-05 15:11:17.249132+01 | 1486303877.24913 | pgbench_tellers  |           450560
 2017-02-05 15:11:17.249132+01 | 1486303877.24913 | pgbench_history  |        553295872
 2017-02-05 15:11:17.249132+01 | 1486303877.24913 | pgbench_branches |            40960

 2017-02-05 15:11:18.329496+01 | 1486303878.3295 | pgbench_accounts |      13768179712
 2017-02-05 15:11:18.329496+01 | 1486303878.3295 | pgbench_tellers  |           450560
 2017-02-05 15:11:18.329496+01 | 1486303878.3295 | pgbench_history  |        555991040
 2017-02-05 15:11:18.329496+01 | 1486303878.3295 | pgbench_branches |            40960

 2017-02-05 15:11:19.408541+01 | 1486303879.40854 | pgbench_accounts |      13768179712
 2017-02-05 15:11:19.408541+01 | 1486303879.40854 | pgbench_tellers  |           450560
 2017-02-05 15:11:19.408541+01 | 1486303879.40854 | pgbench_history  |        558022656
 2017-02-05 15:11:19.408541+01 | 1486303879.40854 | pgbench_branches |            40960

 2017-02-05 15:11:20.482068+01 | 1486303880.48207 | pgbench_accounts |      13768179712
 2017-02-05 15:11:20.482068+01 | 1486303880.48207 | pgbench_tellers  |           450560
 2017-02-05 15:11:20.482068+01 | 1486303880.48207 | pgbench_history  |        559063040
 2017-02-05 15:11:20.482068+01 | 1486303880.48207 | pgbench_branches |            40960

 2017-02-05 15:11:21.554433+01 | 1486303881.55443 | pgbench_accounts |      13768179712
 2017-02-05 15:11:21.554433+01 | 1486303881.55443 | pgbench_tellers  |           450560
 2017-02-05 15:11:21.554433+01 | 1486303881.55443 | pgbench_history  |        561152000
 2017-02-05 15:11:21.554433+01 | 1486303881.55443 | pgbench_branches |            40960

 2017-02-05 15:11:22.629816+01 | 1486303882.62982 | pgbench_accounts |      13768179712
 2017-02-05 15:11:22.629816+01 | 1486303882.62982 | pgbench_tellers  |           450560
 2017-02-05 15:11:22.629816+01 | 1486303882.62982 | pgbench_history  |        563331072
 2017-02-05 15:11:22.629816+01 | 1486303882.62982 | pgbench_branches |            40960

 2017-02-05 15:11:23.702924+01 | 1486303883.70292 | pgbench_accounts |      13768179712
 2017-02-05 15:11:23.702924+01 | 1486303883.70292 | pgbench_tellers  |           450560
 2017-02-05 15:11:23.702924+01 | 1486303883.70292 | pgbench_history  |        566493184
 2017-02-05 15:11:23.702924+01 | 1486303883.70292 | pgbench_branches |            40960

 2017-02-05 15:11:24.776473+01 | 1486303884.77647 | pgbench_accounts |      13768179712
 2017-02-05 15:11:24.776473+01 | 1486303884.77647 | pgbench_tellers  |           450560
 2017-02-05 15:11:24.776473+01 | 1486303884.77647 | pgbench_history  |        568156160
 2017-02-05 15:11:24.776473+01 | 1486303884.77647 | pgbench_branches |            40960

 2017-02-05 15:11:25.849093+01 | 1486303885.84909 | pgbench_accounts |      13768179712
 2017-02-05 15:11:25.849093+01 | 1486303885.84909 | pgbench_tellers  |           450560
 2017-02-05 15:11:25.849093+01 | 1486303885.84909 | pgbench_history  |        569868288
 2017-02-05 15:11:25.849093+01 | 1486303885.84909 | pgbench_branches |            40960

 2017-02-05 15:11:26.921688+01 | 1486303886.92169 | pgbench_accounts |      13768179712
 2017-02-05 15:11:26.921688+01 | 1486303886.92169 | pgbench_tellers  |           450560
 2017-02-05 15:11:26.921688+01 | 1486303886.92169 | pgbench_history  |        571719680
 2017-02-05 15:11:26.921688+01 | 1486303886.92169 | pgbench_branches |            40960

 2017-02-05 15:11:27.994539+01 | 1486303887.99454 | pgbench_accounts |      13768179712
 2017-02-05 15:11:27.994539+01 | 1486303887.99454 | pgbench_tellers  |           450560
 2017-02-05 15:11:27.994539+01 | 1486303887.99454 | pgbench_history  |        574611456
 2017-02-05 15:11:27.994539+01 | 1486303887.99454 | pgbench_branches |            40960

 2017-02-05 15:11:29.067182+01 | 1486303889.06718 | pgbench_accounts |      13768179712
 2017-02-05 15:11:29.067182+01 | 1486303889.06718 | pgbench_tellers  |           450560
 2017-02-05 15:11:29.067182+01 | 1486303889.06718 | pgbench_history  |        575946752
 2017-02-05 15:11:29.067182+01 | 1486303889.06718 | pgbench_branches |            40960

 2017-02-05 15:11:30.146157+01 | 1486303890.14616 | pgbench_accounts |      13768179712
 2017-02-05 15:11:30.146157+01 | 1486303890.14616 | pgbench_tellers  |           450560
 2017-02-05 15:11:30.146157+01 | 1486303890.14616 | pgbench_history  |        578502656
 2017-02-05 15:11:30.146157+01 | 1486303890.14616 | pgbench_branches |            40960

 2017-02-05 15:11:31.219713+01 | 1486303891.21971 | pgbench_accounts |      13768179712
 2017-02-05 15:11:31.219713+01 | 1486303891.21971 | pgbench_tellers  |           450560
 2017-02-05 15:11:31.219713+01 | 1486303891.21971 | pgbench_history  |        580730880
 2017-02-05 15:11:31.219713+01 | 1486303891.21971 | pgbench_branches |            40960

 2017-02-05 15:11:32.294756+01 | 1486303892.29476 | pgbench_accounts |      13768179712
 2017-02-05 15:11:32.294756+01 | 1486303892.29476 | pgbench_tellers  |           450560
 2017-02-05 15:11:32.294756+01 | 1486303892.29476 | pgbench_history  |        582959104
 2017-02-05 15:11:32.294756+01 | 1486303892.29476 | pgbench_branches |            40960

 2017-02-05 15:11:33.37004+01 | 1486303893.37004 | pgbench_accounts |      13768179712
 2017-02-05 15:11:33.37004+01 | 1486303893.37004 | pgbench_tellers  |           450560
 2017-02-05 15:11:33.37004+01 | 1486303893.37004 | pgbench_history  |        585383936
 2017-02-05 15:11:33.37004+01 | 1486303893.37004 | pgbench_branches |            40960

 2017-02-05 15:11:34.438866+01 | 1486303894.43887 | pgbench_accounts |      13768179712
 2017-02-05 15:11:34.438866+01 | 1486303894.43887 | pgbench_tellers  |           450560
 2017-02-05 15:11:34.438866+01 | 1486303894.43887 | pgbench_history  |        587685888
 2017-02-05 15:11:34.438866+01 | 1486303894.43887 | pgbench_branches |            40960

 2017-02-05 15:11:35.520908+01 | 1486303895.52091 | pgbench_accounts |      13768179712
 2017-02-05 15:11:35.520908+01 | 1486303895.52091 | pgbench_tellers  |           450560
 2017-02-05 15:11:35.520908+01 | 1486303895.52091 | pgbench_history  |        590569472
 2017-02-05 15:11:35.520908+01 | 1486303895.52091 | pgbench_branches |            40960

 2017-02-05 15:11:36.595624+01 | 1486303896.59562 | pgbench_accounts |      13768179712
 2017-02-05 15:11:36.595624+01 | 1486303896.59562 | pgbench_tellers  |           450560
 2017-02-05 15:11:36.595624+01 | 1486303896.59562 | pgbench_history  |        592592896
 2017-02-05 15:11:36.595624+01 | 1486303896.59562 | pgbench_branches |            40960

 2017-02-05 15:11:37.669887+01 | 1486303897.66989 | pgbench_accounts |      13768179712
 2017-02-05 15:11:37.669887+01 | 1486303897.66989 | pgbench_tellers  |           450560
 2017-02-05 15:11:37.669887+01 | 1486303897.66989 | pgbench_history  |        595451904
 2017-02-05 15:11:37.669887+01 | 1486303897.66989 | pgbench_branches |            40960

 2017-02-05 15:11:38.746122+01 | 1486303898.74612 | pgbench_accounts |      13768179712
 2017-02-05 15:11:38.746122+01 | 1486303898.74612 | pgbench_tellers  |           450560
 2017-02-05 15:11:38.746122+01 | 1486303898.74612 | pgbench_history  |        597352448
 2017-02-05 15:11:38.746122+01 | 1486303898.74612 | pgbench_branches |            40960

 2017-02-05 15:11:39.825959+01 | 1486303899.82596 | pgbench_accounts |      13768179712
 2017-02-05 15:11:39.825959+01 | 1486303899.82596 | pgbench_tellers  |           450560
 2017-02-05 15:11:39.825959+01 | 1486303899.82596 | pgbench_history  |        599719936
 2017-02-05 15:11:39.825959+01 | 1486303899.82596 | pgbench_branches |            40960

 2017-02-05 15:11:40.90451+01 | 1486303900.90451 | pgbench_accounts |      13768179712
 2017-02-05 15:11:40.90451+01 | 1486303900.90451 | pgbench_tellers  |           450560
 2017-02-05 15:11:40.90451+01 | 1486303900.90451 | pgbench_history  |        602464256
 2017-02-05 15:11:40.90451+01 | 1486303900.90451 | pgbench_branches |            40960

 2017-02-05 15:11:41.978366+01 | 1486303901.97837 | pgbench_accounts |      13768179712
 2017-02-05 15:11:41.978366+01 | 1486303901.97837 | pgbench_tellers  |           450560
 2017-02-05 15:11:41.978366+01 | 1486303901.97837 | pgbench_history  |        604856320
 2017-02-05 15:11:41.978366+01 | 1486303901.97837 | pgbench_branches |            40960

 2017-02-05 15:11:43.05517+01 | 1486303903.05517 | pgbench_accounts |      13768179712
 2017-02-05 15:11:43.05517+01 | 1486303903.05517 | pgbench_tellers  |           450560
 2017-02-05 15:11:43.05517+01 | 1486303903.05517 | pgbench_history  |        609263616
 2017-02-05 15:11:43.05517+01 | 1486303903.05517 | pgbench_branches |            40960

 2017-02-05 15:11:44.127748+01 | 1486303904.12775 | pgbench_accounts |      13768179712
 2017-02-05 15:11:44.127748+01 | 1486303904.12775 | pgbench_tellers  |           450560
 2017-02-05 15:11:44.127748+01 | 1486303904.12775 | pgbench_history  |        612073472
 2017-02-05 15:11:44.127748+01 | 1486303904.12775 | pgbench_branches |            40960

 2017-02-05 15:11:45.202397+01 | 1486303905.2024 | pgbench_accounts |      13768179712
 2017-02-05 15:11:45.202397+01 | 1486303905.2024 | pgbench_tellers  |           450560
 2017-02-05 15:11:45.202397+01 | 1486303905.2024 | pgbench_history  |        612073472
 2017-02-05 15:11:45.202397+01 | 1486303905.2024 | pgbench_branches |            40960

 2017-02-05 15:11:46.279592+01 | 1486303906.27959 | pgbench_accounts |      13768179712
 2017-02-05 15:11:46.279592+01 | 1486303906.27959 | pgbench_tellers  |           450560
 2017-02-05 15:11:46.279592+01 | 1486303906.27959 | pgbench_history  |        614137856
 2017-02-05 15:11:46.279592+01 | 1486303906.27959 | pgbench_branches |            40960

 2017-02-05 15:11:47.360669+01 | 1486303907.36067 | pgbench_accounts |      13768179712
 2017-02-05 15:11:47.360669+01 | 1486303907.36067 | pgbench_tellers  |           450560
 2017-02-05 15:11:47.360669+01 | 1486303907.36067 | pgbench_history  |        617488384
 2017-02-05 15:11:47.360669+01 | 1486303907.36067 | pgbench_branches |            40960

 2017-02-05 15:11:48.438816+01 | 1486303908.43882 | pgbench_accounts |      13768179712
 2017-02-05 15:11:48.438816+01 | 1486303908.43882 | pgbench_tellers  |           450560
 2017-02-05 15:11:48.438816+01 | 1486303908.43882 | pgbench_history  |        619503616
 2017-02-05 15:11:48.438816+01 | 1486303908.43882 | pgbench_branches |            40960

 2017-02-05 15:11:49.514123+01 | 1486303909.51412 | pgbench_accounts |      13768179712
 2017-02-05 15:11:49.514123+01 | 1486303909.51412 | pgbench_tellers  |           450560
 2017-02-05 15:11:49.514123+01 | 1486303909.51412 | pgbench_history  |        622804992
 2017-02-05 15:11:49.514123+01 | 1486303909.51412 | pgbench_branches |            40960

 2017-02-05 15:11:50.588674+01 | 1486303910.58867 | pgbench_accounts |      13768179712
 2017-02-05 15:11:50.588674+01 | 1486303910.58867 | pgbench_tellers  |           450560
 2017-02-05 15:11:50.588674+01 | 1486303910.58867 | pgbench_history  |        624197632
 2017-02-05 15:11:50.588674+01 | 1486303910.58867 | pgbench_branches |            40960

 2017-02-05 15:11:51.666777+01 | 1486303911.66678 | pgbench_accounts |      13768179712
 2017-02-05 15:11:51.666777+01 | 1486303911.66678 | pgbench_tellers  |           450560
 2017-02-05 15:11:51.666777+01 | 1486303911.66678 | pgbench_history  |        626270208
 2017-02-05 15:11:51.666777+01 | 1486303911.66678 | pgbench_branches |            40960

 2017-02-05 15:11:52.743921+01 | 1486303912.74392 | pgbench_accounts |      13768179712
 2017-02-05 15:11:52.743921+01 | 1486303912.74392 | pgbench_tellers  |           450560
 2017-02-05 15:11:52.743921+01 | 1486303912.74392 | pgbench_history  |        628637696
 2017-02-05 15:11:52.743921+01 | 1486303912.74392 | pgbench_branches |            40960

 2017-02-05 15:11:53.816898+01 | 1486303913.8169 | pgbench_accounts |      13768179712
 2017-02-05 15:11:53.816898+01 | 1486303913.8169 | pgbench_tellers  |           450560
 2017-02-05 15:11:53.816898+01 | 1486303913.8169 | pgbench_history  |        630890496
 2017-02-05 15:11:53.816898+01 | 1486303913.8169 | pgbench_branches |            40960

 2017-02-05 15:11:54.891734+01 | 1486303914.89173 | pgbench_accounts |      13768179712
 2017-02-05 15:11:54.891734+01 | 1486303914.89173 | pgbench_tellers  |           450560
 2017-02-05 15:11:54.891734+01 | 1486303914.89173 | pgbench_history  |        633634816
 2017-02-05 15:11:54.891734+01 | 1486303914.89173 | pgbench_branches |            40960

 2017-02-05 15:11:55.969004+01 | 1486303915.969 | pgbench_accounts |      13768179712
 2017-02-05 15:11:55.969004+01 | 1486303915.969 | pgbench_tellers  |           450560
 2017-02-05 15:11:55.969004+01 | 1486303915.969 | pgbench_history  |        635830272
 2017-02-05 15:11:55.969004+01 | 1486303915.969 | pgbench_branches |            40960

 2017-02-05 15:11:57.048636+01 | 1486303917.04864 | pgbench_accounts |      13768179712
 2017-02-05 15:11:57.048636+01 | 1486303917.04864 | pgbench_tellers  |           450560
 2017-02-05 15:11:57.048636+01 | 1486303917.04864 | pgbench_history  |        638533632
 2017-02-05 15:11:57.048636+01 | 1486303917.04864 | pgbench_branches |            40960

 2017-02-05 15:11:58.123593+01 | 1486303918.12359 | pgbench_accounts |      13768179712
 2017-02-05 15:11:58.123593+01 | 1486303918.12359 | pgbench_tellers  |           450560
 2017-02-05 15:11:58.123593+01 | 1486303918.12359 | pgbench_history  |        640417792
 2017-02-05 15:11:58.123593+01 | 1486303918.12359 | pgbench_branches |            40960

 2017-02-05 15:11:59.194728+01 | 1486303919.19473 | pgbench_accounts |      13768179712
 2017-02-05 15:11:59.194728+01 | 1486303919.19473 | pgbench_tellers  |           450560
 2017-02-05 15:11:59.194728+01 | 1486303919.19473 | pgbench_history  |        642629632
 2017-02-05 15:11:59.194728+01 | 1486303919.19473 | pgbench_branches |            40960

 2017-02-05 15:12:00.268295+01 | 1486303920.2683 | pgbench_accounts |      13768179712
 2017-02-05 15:12:00.268295+01 | 1486303920.2683 | pgbench_tellers  |           450560
 2017-02-05 15:12:00.268295+01 | 1486303920.2683 | pgbench_history  |        645324800
 2017-02-05 15:12:00.268295+01 | 1486303920.2683 | pgbench_branches |            40960

 2017-02-05 15:12:01.34462+01 | 1486303921.34462 | pgbench_accounts |      13768179712
 2017-02-05 15:12:01.34462+01 | 1486303921.34462 | pgbench_tellers  |           450560
 2017-02-05 15:12:01.34462+01 | 1486303921.34462 | pgbench_history  |        649191424
 2017-02-05 15:12:01.34462+01 | 1486303921.34462 | pgbench_branches |            40960

 2017-02-05 15:12:02.421041+01 | 1486303922.42104 | pgbench_accounts |      13768179712
 2017-02-05 15:12:02.421041+01 | 1486303922.42104 | pgbench_tellers  |           450560
 2017-02-05 15:12:02.421041+01 | 1486303922.42104 | pgbench_history  |        650362880
 2017-02-05 15:12:02.421041+01 | 1486303922.42104 | pgbench_branches |            40960

 2017-02-05 15:12:03.50727+01 | 1486303923.50727 | pgbench_accounts |      13768179712
 2017-02-05 15:12:03.50727+01 | 1486303923.50727 | pgbench_tellers  |           450560
 2017-02-05 15:12:03.50727+01 | 1486303923.50727 | pgbench_history  |        653066240
 2017-02-05 15:12:03.50727+01 | 1486303923.50727 | pgbench_branches |            40960

 2017-02-05 15:12:04.582635+01 | 1486303924.58263 | pgbench_accounts |      13768179712
 2017-02-05 15:12:04.582635+01 | 1486303924.58263 | pgbench_tellers  |           450560
 2017-02-05 15:12:04.582635+01 | 1486303924.58263 | pgbench_history  |        655294464
 2017-02-05 15:12:04.582635+01 | 1486303924.58263 | pgbench_branches |            40960

 2017-02-05 15:12:05.656102+01 | 1486303925.6561 | pgbench_accounts |      13768179712
 2017-02-05 15:12:05.656102+01 | 1486303925.6561 | pgbench_tellers  |           450560
 2017-02-05 15:12:05.656102+01 | 1486303925.6561 | pgbench_history  |        658038784
 2017-02-05 15:12:05.656102+01 | 1486303925.6561 | pgbench_branches |            40960

