 2017-02-04 19:18:52.911381+01 | 1486232332.91138 | pgbench_accounts |       1379270656
 2017-02-04 19:18:52.911381+01 | 1486232332.91138 | pgbench_tellers  |          4235264
 2017-02-04 19:18:52.911381+01 | 1486232332.91138 | pgbench_history  |                0
 2017-02-04 19:18:52.911381+01 | 1486232332.91138 | pgbench_branches |          1875968

 2017-02-04 19:18:54.002963+01 | 1486232334.00296 | pgbench_accounts |       1379270656
 2017-02-04 19:18:54.002963+01 | 1486232334.00296 | pgbench_tellers  |          4235264
 2017-02-04 19:18:54.002963+01 | 1486232334.00296 | pgbench_history  |          1523712
 2017-02-04 19:18:54.002963+01 | 1486232334.00296 | pgbench_branches |          1875968

 2017-02-04 19:18:55.083049+01 | 1486232335.08305 | pgbench_accounts |       1379270656
 2017-02-04 19:18:55.083049+01 | 1486232335.08305 | pgbench_tellers  |          4235264
 2017-02-04 19:18:55.083049+01 | 1486232335.08305 | pgbench_history  |          3538944
 2017-02-04 19:18:55.083049+01 | 1486232335.08305 | pgbench_branches |          1875968

 2017-02-04 19:18:56.170897+01 | 1486232336.1709 | pgbench_accounts |       1379270656
 2017-02-04 19:18:56.170897+01 | 1486232336.1709 | pgbench_tellers  |          4235264
 2017-02-04 19:18:56.170897+01 | 1486232336.1709 | pgbench_history  |          5259264
 2017-02-04 19:18:56.170897+01 | 1486232336.1709 | pgbench_branches |          1875968

 2017-02-04 19:18:57.248165+01 | 1486232337.24816 | pgbench_accounts |       1379270656
 2017-02-04 19:18:57.248165+01 | 1486232337.24816 | pgbench_tellers  |          4235264
 2017-02-04 19:18:57.248165+01 | 1486232337.24816 | pgbench_history  |          7634944
 2017-02-04 19:18:57.248165+01 | 1486232337.24816 | pgbench_branches |          1875968

 2017-02-04 19:18:58.328394+01 | 1486232338.32839 | pgbench_accounts |       1379270656
 2017-02-04 19:18:58.328394+01 | 1486232338.32839 | pgbench_tellers  |          4235264
 2017-02-04 19:18:58.328394+01 | 1486232338.32839 | pgbench_history  |          8699904
 2017-02-04 19:18:58.328394+01 | 1486232338.32839 | pgbench_branches |          1875968

 2017-02-04 19:18:59.414514+01 | 1486232339.41451 | pgbench_accounts |       1379270656
 2017-02-04 19:18:59.414514+01 | 1486232339.41451 | pgbench_tellers  |          4235264
 2017-02-04 19:18:59.414514+01 | 1486232339.41451 | pgbench_history  |         10756096
 2017-02-04 19:18:59.414514+01 | 1486232339.41451 | pgbench_branches |          1875968

 2017-02-04 19:19:00.490595+01 | 1486232340.4906 | pgbench_accounts |       1379270656
 2017-02-04 19:19:00.490595+01 | 1486232340.4906 | pgbench_tellers  |          4235264
 2017-02-04 19:19:00.490595+01 | 1486232340.4906 | pgbench_history  |         12443648
 2017-02-04 19:19:00.490595+01 | 1486232340.4906 | pgbench_branches |          1875968

 2017-02-04 19:19:01.568525+01 | 1486232341.56853 | pgbench_accounts |       1379270656
 2017-02-04 19:19:01.568525+01 | 1486232341.56853 | pgbench_tellers  |          4235264
 2017-02-04 19:19:01.568525+01 | 1486232341.56853 | pgbench_history  |         15360000
 2017-02-04 19:19:01.568525+01 | 1486232341.56853 | pgbench_branches |          1875968

 2017-02-04 19:19:02.642263+01 | 1486232342.64226 | pgbench_accounts |       1379270656
 2017-02-04 19:19:02.642263+01 | 1486232342.64226 | pgbench_tellers  |          4235264
 2017-02-04 19:19:02.642263+01 | 1486232342.64226 | pgbench_history  |         16605184
 2017-02-04 19:19:02.642263+01 | 1486232342.64226 | pgbench_branches |          1875968

 2017-02-04 19:19:03.720617+01 | 1486232343.72062 | pgbench_accounts |       1379270656
 2017-02-04 19:19:03.720617+01 | 1486232343.72062 | pgbench_tellers  |          4235264
 2017-02-04 19:19:03.720617+01 | 1486232343.72062 | pgbench_history  |         18972672
 2017-02-04 19:19:03.720617+01 | 1486232343.72062 | pgbench_branches |          1875968

 2017-02-04 19:19:04.796968+01 | 1486232344.79697 | pgbench_accounts |       1379270656
 2017-02-04 19:19:04.796968+01 | 1486232344.79697 | pgbench_tellers  |          4235264
 2017-02-04 19:19:04.796968+01 | 1486232344.79697 | pgbench_history  |         20684800
 2017-02-04 19:19:04.796968+01 | 1486232344.79697 | pgbench_branches |          1875968

 2017-02-04 19:19:05.874827+01 | 1486232345.87483 | pgbench_accounts |       1379270656
 2017-02-04 19:19:05.874827+01 | 1486232345.87483 | pgbench_tellers  |          4235264
 2017-02-04 19:19:05.874827+01 | 1486232345.87483 | pgbench_history  |         23085056
 2017-02-04 19:19:05.874827+01 | 1486232345.87483 | pgbench_branches |          1875968

 2017-02-04 19:19:06.953113+01 | 1486232346.95311 | pgbench_accounts |       1379270656
 2017-02-04 19:19:06.953113+01 | 1486232346.95311 | pgbench_tellers  |          4235264
 2017-02-04 19:19:06.953113+01 | 1486232346.95311 | pgbench_history  |         24821760
 2017-02-04 19:19:06.953113+01 | 1486232346.95311 | pgbench_branches |          1875968

 2017-02-04 19:19:08.02875+01 | 1486232348.02875 | pgbench_accounts |       1379270656
 2017-02-04 19:19:08.02875+01 | 1486232348.02875 | pgbench_tellers  |          4235264
 2017-02-04 19:19:08.02875+01 | 1486232348.02875 | pgbench_history  |         26722304
 2017-02-04 19:19:08.02875+01 | 1486232348.02875 | pgbench_branches |          1875968

 2017-02-04 19:19:09.106694+01 | 1486232349.10669 | pgbench_accounts |       1379270656
 2017-02-04 19:19:09.106694+01 | 1486232349.10669 | pgbench_tellers  |          4235264
 2017-02-04 19:19:09.106694+01 | 1486232349.10669 | pgbench_history  |         28786688
 2017-02-04 19:19:09.106694+01 | 1486232349.10669 | pgbench_branches |          1875968

 2017-02-04 19:19:10.187183+01 | 1486232350.18718 | pgbench_accounts |       1379270656
 2017-02-04 19:19:10.187183+01 | 1486232350.18718 | pgbench_tellers  |          4235264
 2017-02-04 19:19:10.187183+01 | 1486232350.18718 | pgbench_history  |         30826496
 2017-02-04 19:19:10.187183+01 | 1486232350.18718 | pgbench_branches |          1875968

 2017-02-04 19:19:11.263184+01 | 1486232351.26318 | pgbench_accounts |       1379270656
 2017-02-04 19:19:11.263184+01 | 1486232351.26318 | pgbench_tellers  |          4235264
 2017-02-04 19:19:11.263184+01 | 1486232351.26318 | pgbench_history  |         32890880
 2017-02-04 19:19:11.263184+01 | 1486232351.26318 | pgbench_branches |          1875968

 2017-02-04 19:19:12.341646+01 | 1486232352.34165 | pgbench_accounts |       1379270656
 2017-02-04 19:19:12.341646+01 | 1486232352.34165 | pgbench_tellers  |          4235264
 2017-02-04 19:19:12.341646+01 | 1486232352.34165 | pgbench_history  |         35282944
 2017-02-04 19:19:12.341646+01 | 1486232352.34165 | pgbench_branches |          1875968

 2017-02-04 19:19:13.420345+01 | 1486232353.42035 | pgbench_accounts |       1379270656
 2017-02-04 19:19:13.420345+01 | 1486232353.42035 | pgbench_tellers  |          4235264
 2017-02-04 19:19:13.420345+01 | 1486232353.42035 | pgbench_history  |         36995072
 2017-02-04 19:19:13.420345+01 | 1486232353.42035 | pgbench_branches |          1875968

 2017-02-04 19:19:14.493021+01 | 1486232354.49302 | pgbench_accounts |       1379270656
 2017-02-04 19:19:14.493021+01 | 1486232354.49302 | pgbench_tellers  |          4235264
 2017-02-04 19:19:14.493021+01 | 1486232354.49302 | pgbench_history  |         38871040
 2017-02-04 19:19:14.493021+01 | 1486232354.49302 | pgbench_branches |          1875968

 2017-02-04 19:19:15.567728+01 | 1486232355.56773 | pgbench_accounts |       1379270656
 2017-02-04 19:19:15.567728+01 | 1486232355.56773 | pgbench_tellers  |          4235264
 2017-02-04 19:19:15.567728+01 | 1486232355.56773 | pgbench_history  |         41082880
 2017-02-04 19:19:15.567728+01 | 1486232355.56773 | pgbench_branches |          1875968

 2017-02-04 19:19:16.654765+01 | 1486232356.65476 | pgbench_accounts |       1379270656
 2017-02-04 19:19:16.654765+01 | 1486232356.65476 | pgbench_tellers  |          4235264
 2017-02-04 19:19:16.654765+01 | 1486232356.65476 | pgbench_history  |         42704896
 2017-02-04 19:19:16.654765+01 | 1486232356.65476 | pgbench_branches |          1875968

 2017-02-04 19:19:17.736351+01 | 1486232357.73635 | pgbench_accounts |       1379270656
 2017-02-04 19:19:17.736351+01 | 1486232357.73635 | pgbench_tellers  |          4235264
 2017-02-04 19:19:17.736351+01 | 1486232357.73635 | pgbench_history  |         44720128
 2017-02-04 19:19:17.736351+01 | 1486232357.73635 | pgbench_branches |          1875968

 2017-02-04 19:19:18.816515+01 | 1486232358.81651 | pgbench_accounts |       1379270656
 2017-02-04 19:19:18.816515+01 | 1486232358.81651 | pgbench_tellers  |          4235264
 2017-02-04 19:19:18.816515+01 | 1486232358.81651 | pgbench_history  |         46596096
 2017-02-04 19:19:18.816515+01 | 1486232358.81651 | pgbench_branches |          1875968

 2017-02-04 19:19:19.895225+01 | 1486232359.89523 | pgbench_accounts |       1379270656
 2017-02-04 19:19:19.895225+01 | 1486232359.89523 | pgbench_tellers  |          4235264
 2017-02-04 19:19:19.895225+01 | 1486232359.89523 | pgbench_history  |         48988160
 2017-02-04 19:19:19.895225+01 | 1486232359.89523 | pgbench_branches |          1875968

 2017-02-04 19:19:20.973149+01 | 1486232360.97315 | pgbench_accounts |       1379270656
 2017-02-04 19:19:20.973149+01 | 1486232360.97315 | pgbench_tellers  |          4235264
 2017-02-04 19:19:20.973149+01 | 1486232360.97315 | pgbench_history  |         51494912
 2017-02-04 19:19:20.973149+01 | 1486232360.97315 | pgbench_branches |          1875968

 2017-02-04 19:19:22.046799+01 | 1486232362.0468 | pgbench_accounts |       1379270656
 2017-02-04 19:19:22.046799+01 | 1486232362.0468 | pgbench_tellers  |          4235264
 2017-02-04 19:19:22.046799+01 | 1486232362.0468 | pgbench_history  |         52715520
 2017-02-04 19:19:22.046799+01 | 1486232362.0468 | pgbench_branches |          1875968

 2017-02-04 19:19:23.119913+01 | 1486232363.11991 | pgbench_accounts |       1379270656
 2017-02-04 19:19:23.119913+01 | 1486232363.11991 | pgbench_tellers  |          4235264
 2017-02-04 19:19:23.119913+01 | 1486232363.11991 | pgbench_history  |         54951936
 2017-02-04 19:19:23.119913+01 | 1486232363.11991 | pgbench_branches |          1875968

 2017-02-04 19:19:24.195127+01 | 1486232364.19513 | pgbench_accounts |       1379270656
 2017-02-04 19:19:24.195127+01 | 1486232364.19513 | pgbench_tellers  |          4235264
 2017-02-04 19:19:24.195127+01 | 1486232364.19513 | pgbench_history  |         57860096
 2017-02-04 19:19:24.195127+01 | 1486232364.19513 | pgbench_branches |          1875968

 2017-02-04 19:19:25.270639+01 | 1486232365.27064 | pgbench_accounts |       1379270656
 2017-02-04 19:19:25.270639+01 | 1486232365.27064 | pgbench_tellers  |          4235264
 2017-02-04 19:19:25.270639+01 | 1486232365.27064 | pgbench_history  |         58957824
 2017-02-04 19:19:25.270639+01 | 1486232365.27064 | pgbench_branches |          1875968

 2017-02-04 19:19:26.339701+01 | 1486232366.3397 | pgbench_accounts |       1379270656
 2017-02-04 19:19:26.339701+01 | 1486232366.3397 | pgbench_tellers  |          4235264
 2017-02-04 19:19:26.339701+01 | 1486232366.3397 | pgbench_history  |         60751872
 2017-02-04 19:19:26.339701+01 | 1486232366.3397 | pgbench_branches |          1875968

 2017-02-04 19:19:27.411691+01 | 1486232367.41169 | pgbench_accounts |       1379270656
 2017-02-04 19:19:27.411691+01 | 1486232367.41169 | pgbench_tellers  |          4235264
 2017-02-04 19:19:27.411691+01 | 1486232367.41169 | pgbench_history  |         62464000
 2017-02-04 19:19:27.411691+01 | 1486232367.41169 | pgbench_branches |          1875968

 2017-02-04 19:19:28.485448+01 | 1486232368.48545 | pgbench_accounts |       1379270656
 2017-02-04 19:19:28.485448+01 | 1486232368.48545 | pgbench_tellers  |          4235264
 2017-02-04 19:19:28.485448+01 | 1486232368.48545 | pgbench_history  |         65241088
 2017-02-04 19:19:28.485448+01 | 1486232368.48545 | pgbench_branches |          1875968

 2017-02-04 19:19:29.565438+01 | 1486232369.56544 | pgbench_accounts |       1379270656
 2017-02-04 19:19:29.565438+01 | 1486232369.56544 | pgbench_tellers  |          4235264
 2017-02-04 19:19:29.565438+01 | 1486232369.56544 | pgbench_history  |         66764800
 2017-02-04 19:19:29.565438+01 | 1486232369.56544 | pgbench_branches |          1875968

 2017-02-04 19:19:30.643969+01 | 1486232370.64397 | pgbench_accounts |       1379270656
 2017-02-04 19:19:30.643969+01 | 1486232370.64397 | pgbench_tellers  |          4235264
 2017-02-04 19:19:30.643969+01 | 1486232370.64397 | pgbench_history  |         68640768
 2017-02-04 19:19:30.643969+01 | 1486232370.64397 | pgbench_branches |          1875968

 2017-02-04 19:19:31.722187+01 | 1486232371.72219 | pgbench_accounts |       1379270656
 2017-02-04 19:19:31.722187+01 | 1486232371.72219 | pgbench_tellers  |          4235264
 2017-02-04 19:19:31.722187+01 | 1486232371.72219 | pgbench_history  |         71172096
 2017-02-04 19:19:31.722187+01 | 1486232371.72219 | pgbench_branches |          1875968

 2017-02-04 19:19:32.801896+01 | 1486232372.8019 | pgbench_accounts |       1379270656
 2017-02-04 19:19:32.801896+01 | 1486232372.8019 | pgbench_tellers  |          4235264
 2017-02-04 19:19:32.801896+01 | 1486232372.8019 | pgbench_history  |         73220096
 2017-02-04 19:19:32.801896+01 | 1486232372.8019 | pgbench_branches |          1875968

 2017-02-04 19:19:33.879271+01 | 1486232373.87927 | pgbench_accounts |       1379270656
 2017-02-04 19:19:33.879271+01 | 1486232373.87927 | pgbench_tellers  |          4235264
 2017-02-04 19:19:33.879271+01 | 1486232373.87927 | pgbench_history  |         75284480
 2017-02-04 19:19:33.879271+01 | 1486232373.87927 | pgbench_branches |          1875968

 2017-02-04 19:19:34.95946+01 | 1486232374.95946 | pgbench_accounts |       1379270656
 2017-02-04 19:19:34.95946+01 | 1486232374.95946 | pgbench_tellers  |          4235264
 2017-02-04 19:19:34.95946+01 | 1486232374.95946 | pgbench_history  |         77955072
 2017-02-04 19:19:34.95946+01 | 1486232374.95946 | pgbench_branches |          1875968

 2017-02-04 19:19:36.032743+01 | 1486232376.03274 | pgbench_accounts |       1379270656
 2017-02-04 19:19:36.032743+01 | 1486232376.03274 | pgbench_tellers  |          4235264
 2017-02-04 19:19:36.032743+01 | 1486232376.03274 | pgbench_history  |         79003648
 2017-02-04 19:19:36.032743+01 | 1486232376.03274 | pgbench_branches |          1875968

 2017-02-04 19:19:37.111131+01 | 1486232377.11113 | pgbench_accounts |       1379270656
 2017-02-04 19:19:37.111131+01 | 1486232377.11113 | pgbench_tellers  |          4235264
 2017-02-04 19:19:37.111131+01 | 1486232377.11113 | pgbench_history  |         81567744
 2017-02-04 19:19:37.111131+01 | 1486232377.11113 | pgbench_branches |          1875968

 2017-02-04 19:19:38.185673+01 | 1486232378.18567 | pgbench_accounts |       1379270656
 2017-02-04 19:19:38.185673+01 | 1486232378.18567 | pgbench_tellers  |          4235264
 2017-02-04 19:19:38.185673+01 | 1486232378.18567 | pgbench_history  |         86777856
 2017-02-04 19:19:38.185673+01 | 1486232378.18567 | pgbench_branches |          1875968

 2017-02-04 19:19:39.262819+01 | 1486232379.26282 | pgbench_accounts |       1379270656
 2017-02-04 19:19:39.262819+01 | 1486232379.26282 | pgbench_tellers  |          4235264
 2017-02-04 19:19:39.262819+01 | 1486232379.26282 | pgbench_history  |         86777856
 2017-02-04 19:19:39.262819+01 | 1486232379.26282 | pgbench_branches |          1875968

 2017-02-04 19:19:40.33635+01 | 1486232380.33635 | pgbench_accounts |       1379270656
 2017-02-04 19:19:40.33635+01 | 1486232380.33635 | pgbench_tellers  |          4235264
 2017-02-04 19:19:40.33635+01 | 1486232380.33635 | pgbench_history  |         87130112
 2017-02-04 19:19:40.33635+01 | 1486232380.33635 | pgbench_branches |          1875968

 2017-02-04 19:19:41.413081+01 | 1486232381.41308 | pgbench_accounts |       1379270656
 2017-02-04 19:19:41.413081+01 | 1486232381.41308 | pgbench_tellers  |          4235264
 2017-02-04 19:19:41.413081+01 | 1486232381.41308 | pgbench_history  |         89333760
 2017-02-04 19:19:41.413081+01 | 1486232381.41308 | pgbench_branches |          1875968

 2017-02-04 19:19:42.495617+01 | 1486232382.49562 | pgbench_accounts |       1379270656
 2017-02-04 19:19:42.495617+01 | 1486232382.49562 | pgbench_tellers  |          4235264
 2017-02-04 19:19:42.495617+01 | 1486232382.49562 | pgbench_history  |         91422720
 2017-02-04 19:19:42.495617+01 | 1486232382.49562 | pgbench_branches |          1875968

 2017-02-04 19:19:43.591132+01 | 1486232383.59113 | pgbench_accounts |       1379270656
 2017-02-04 19:19:43.591132+01 | 1486232383.59113 | pgbench_tellers  |          4235264
 2017-02-04 19:19:43.591132+01 | 1486232383.59113 | pgbench_history  |         93929472
 2017-02-04 19:19:43.591132+01 | 1486232383.59113 | pgbench_branches |          1875968

 2017-02-04 19:19:44.677011+01 | 1486232384.67701 | pgbench_accounts |       1379270656
 2017-02-04 19:19:44.677011+01 | 1486232384.67701 | pgbench_tellers  |          4235264
 2017-02-04 19:19:44.677011+01 | 1486232384.67701 | pgbench_history  |         94822400
 2017-02-04 19:19:44.677011+01 | 1486232384.67701 | pgbench_branches |          1875968

 2017-02-04 19:19:45.752087+01 | 1486232385.75209 | pgbench_accounts |       1379270656
 2017-02-04 19:19:45.752087+01 | 1486232385.75209 | pgbench_tellers  |          4235264
 2017-02-04 19:19:45.752087+01 | 1486232385.75209 | pgbench_history  |         97189888
 2017-02-04 19:19:45.752087+01 | 1486232385.75209 | pgbench_branches |          1875968

 2017-02-04 19:19:46.833278+01 | 1486232386.83328 | pgbench_accounts |       1379270656
 2017-02-04 19:19:46.833278+01 | 1486232386.83328 | pgbench_tellers  |          4235264
 2017-02-04 19:19:46.833278+01 | 1486232386.83328 | pgbench_history  |         98713600
 2017-02-04 19:19:46.833278+01 | 1486232386.83328 | pgbench_branches |          1875968

 2017-02-04 19:19:47.916722+01 | 1486232387.91672 | pgbench_accounts |       1379270656
 2017-02-04 19:19:47.916722+01 | 1486232387.91672 | pgbench_tellers  |          4235264
 2017-02-04 19:19:47.916722+01 | 1486232387.91672 | pgbench_history  |        100614144
 2017-02-04 19:19:47.916722+01 | 1486232387.91672 | pgbench_branches |          1875968

 2017-02-04 19:19:48.989275+01 | 1486232388.98927 | pgbench_accounts |       1379270656
 2017-02-04 19:19:48.989275+01 | 1486232388.98927 | pgbench_tellers  |          4235264
 2017-02-04 19:19:48.989275+01 | 1486232388.98927 | pgbench_history  |        101974016
 2017-02-04 19:19:48.989275+01 | 1486232388.98927 | pgbench_branches |          1875968

 2017-02-04 19:19:50.070281+01 | 1486232390.07028 | pgbench_accounts |       1379270656
 2017-02-04 19:19:50.070281+01 | 1486232390.07028 | pgbench_tellers  |          4235264
 2017-02-04 19:19:50.070281+01 | 1486232390.07028 | pgbench_history  |        103686144
 2017-02-04 19:19:50.070281+01 | 1486232390.07028 | pgbench_branches |          1875968

 2017-02-04 19:19:51.155349+01 | 1486232391.15535 | pgbench_accounts |       1379270656
 2017-02-04 19:19:51.155349+01 | 1486232391.15535 | pgbench_tellers  |          4235264
 2017-02-04 19:19:51.155349+01 | 1486232391.15535 | pgbench_history  |        105447424
 2017-02-04 19:19:51.155349+01 | 1486232391.15535 | pgbench_branches |          1875968

 2017-02-04 19:19:52.235993+01 | 1486232392.23599 | pgbench_accounts |       1379270656
 2017-02-04 19:19:52.235993+01 | 1486232392.23599 | pgbench_tellers  |          4235264
 2017-02-04 19:19:52.235993+01 | 1486232392.23599 | pgbench_history  |        107716608
 2017-02-04 19:19:52.235993+01 | 1486232392.23599 | pgbench_branches |          1875968

 2017-02-04 19:19:53.315334+01 | 1486232393.31533 | pgbench_accounts |       1379270656
 2017-02-04 19:19:53.315334+01 | 1486232393.31533 | pgbench_tellers  |          4235264
 2017-02-04 19:19:53.315334+01 | 1486232393.31533 | pgbench_history  |        108912640
 2017-02-04 19:19:53.315334+01 | 1486232393.31533 | pgbench_branches |          1875968

 2017-02-04 19:19:54.38739+01 | 1486232394.38739 | pgbench_accounts |       1379270656
 2017-02-04 19:19:54.38739+01 | 1486232394.38739 | pgbench_tellers  |          4235264
 2017-02-04 19:19:54.38739+01 | 1486232394.38739 | pgbench_history  |        111280128
 2017-02-04 19:19:54.38739+01 | 1486232394.38739 | pgbench_branches |          1875968

 2017-02-04 19:19:55.46636+01 | 1486232395.46636 | pgbench_accounts |       1379270656
 2017-02-04 19:19:55.46636+01 | 1486232395.46636 | pgbench_tellers  |          4235264
 2017-02-04 19:19:55.46636+01 | 1486232395.46636 | pgbench_history  |        112836608
 2017-02-04 19:19:55.46636+01 | 1486232395.46636 | pgbench_branches |          1875968

 2017-02-04 19:19:56.545135+01 | 1486232396.54514 | pgbench_accounts |       1379270656
 2017-02-04 19:19:56.545135+01 | 1486232396.54514 | pgbench_tellers  |          4235264
 2017-02-04 19:19:56.545135+01 | 1486232396.54514 | pgbench_history  |        116383744
 2017-02-04 19:19:56.545135+01 | 1486232396.54514 | pgbench_branches |          1875968

 2017-02-04 19:19:57.619987+01 | 1486232397.61999 | pgbench_accounts |       1379270656
 2017-02-04 19:19:57.619987+01 | 1486232397.61999 | pgbench_tellers  |          4235264
 2017-02-04 19:19:57.619987+01 | 1486232397.61999 | pgbench_history  |        117063680
 2017-02-04 19:19:57.619987+01 | 1486232397.61999 | pgbench_branches |          1875968

 2017-02-04 19:19:58.699626+01 | 1486232398.69963 | pgbench_accounts |       1379270656
 2017-02-04 19:19:58.699626+01 | 1486232398.69963 | pgbench_tellers  |          4235264
 2017-02-04 19:19:58.699626+01 | 1486232398.69963 | pgbench_history  |        119103488
 2017-02-04 19:19:58.699626+01 | 1486232398.69963 | pgbench_branches |          1875968

 2017-02-04 19:19:59.778175+01 | 1486232399.77818 | pgbench_accounts |       1379270656
 2017-02-04 19:19:59.778175+01 | 1486232399.77818 | pgbench_tellers  |          4235264
 2017-02-04 19:19:59.778175+01 | 1486232399.77818 | pgbench_history  |        121184256
 2017-02-04 19:19:59.778175+01 | 1486232399.77818 | pgbench_branches |          1875968

 2017-02-04 19:20:00.855117+01 | 1486232400.85512 | pgbench_accounts |       1379270656
 2017-02-04 19:20:00.855117+01 | 1486232400.85512 | pgbench_tellers  |          4235264
 2017-02-04 19:20:00.855117+01 | 1486232400.85512 | pgbench_history  |        124231680
 2017-02-04 19:20:00.855117+01 | 1486232400.85512 | pgbench_branches |          1875968

 2017-02-04 19:20:01.938558+01 | 1486232401.93856 | pgbench_accounts |       1379270656
 2017-02-04 19:20:01.938558+01 | 1486232401.93856 | pgbench_tellers  |          4235264
 2017-02-04 19:20:01.938558+01 | 1486232401.93856 | pgbench_history  |        124936192
 2017-02-04 19:20:01.938558+01 | 1486232401.93856 | pgbench_branches |          1875968

 2017-02-04 19:20:03.017374+01 | 1486232403.01737 | pgbench_accounts |       1379524608
 2017-02-04 19:20:03.017374+01 | 1486232403.01737 | pgbench_tellers  |          4235264
 2017-02-04 19:20:03.017374+01 | 1486232403.01737 | pgbench_history  |        127172608
 2017-02-04 19:20:03.017374+01 | 1486232403.01737 | pgbench_branches |          1875968

 2017-02-04 19:20:04.095988+01 | 1486232404.09599 | pgbench_accounts |       1379524608
 2017-02-04 19:20:04.095988+01 | 1486232404.09599 | pgbench_tellers  |          4235264
 2017-02-04 19:20:04.095988+01 | 1486232404.09599 | pgbench_history  |        129327104
 2017-02-04 19:20:04.095988+01 | 1486232404.09599 | pgbench_branches |          1875968

 2017-02-04 19:20:05.159233+01 | 1486232405.15923 | pgbench_accounts |       1379835904
 2017-02-04 19:20:05.159233+01 | 1486232405.15923 | pgbench_tellers  |          4235264
 2017-02-04 19:20:05.159233+01 | 1486232405.15923 | pgbench_history  |        131317760
 2017-02-04 19:20:05.159233+01 | 1486232405.15923 | pgbench_branches |          1875968

 2017-02-04 19:20:06.227385+01 | 1486232406.22739 | pgbench_accounts |       1380220928
 2017-02-04 19:20:06.227385+01 | 1486232406.22739 | pgbench_tellers  |          4235264
 2017-02-04 19:20:06.227385+01 | 1486232406.22739 | pgbench_history  |        133373952
 2017-02-04 19:20:06.227385+01 | 1486232406.22739 | pgbench_branches |          1875968

 2017-02-04 19:20:07.304512+01 | 1486232407.30451 | pgbench_accounts |       1380270080
 2017-02-04 19:20:07.304512+01 | 1486232407.30451 | pgbench_tellers  |          4235264
 2017-02-04 19:20:07.304512+01 | 1486232407.30451 | pgbench_history  |        135585792
 2017-02-04 19:20:07.304512+01 | 1486232407.30451 | pgbench_branches |          1875968

 2017-02-04 19:20:08.377519+01 | 1486232408.37752 | pgbench_accounts |       1380294656
 2017-02-04 19:20:08.377519+01 | 1486232408.37752 | pgbench_tellers  |          4235264
 2017-02-04 19:20:08.377519+01 | 1486232408.37752 | pgbench_history  |        137486336
 2017-02-04 19:20:08.377519+01 | 1486232408.37752 | pgbench_branches |          1875968

 2017-02-04 19:20:09.454574+01 | 1486232409.45457 | pgbench_accounts |       1380360192
 2017-02-04 19:20:09.454574+01 | 1486232409.45457 | pgbench_tellers  |          4235264
 2017-02-04 19:20:09.454574+01 | 1486232409.45457 | pgbench_history  |        139034624
 2017-02-04 19:20:09.454574+01 | 1486232409.45457 | pgbench_branches |          1875968

 2017-02-04 19:20:10.534095+01 | 1486232410.5341 | pgbench_accounts |       1380433920
 2017-02-04 19:20:10.534095+01 | 1486232410.5341 | pgbench_tellers  |          4235264
 2017-02-04 19:20:10.534095+01 | 1486232410.5341 | pgbench_history  |        141705216
 2017-02-04 19:20:10.534095+01 | 1486232410.5341 | pgbench_branches |          1875968

 2017-02-04 19:20:11.61132+01 | 1486232411.61132 | pgbench_accounts |       1380507648
 2017-02-04 19:20:11.61132+01 | 1486232411.61132 | pgbench_tellers  |          4235264
 2017-02-04 19:20:11.61132+01 | 1486232411.61132 | pgbench_history  |        143581184
 2017-02-04 19:20:11.61132+01 | 1486232411.61132 | pgbench_branches |          1875968

 2017-02-04 19:20:12.690376+01 | 1486232412.69038 | pgbench_accounts |       1380745216
 2017-02-04 19:20:12.690376+01 | 1486232412.69038 | pgbench_tellers  |          4235264
 2017-02-04 19:20:12.690376+01 | 1486232412.69038 | pgbench_history  |        145317888
 2017-02-04 19:20:12.690376+01 | 1486232412.69038 | pgbench_branches |          1875968

 2017-02-04 19:20:13.768607+01 | 1486232413.76861 | pgbench_accounts |       1380745216
 2017-02-04 19:20:13.768607+01 | 1486232413.76861 | pgbench_tellers  |          4235264
 2017-02-04 19:20:13.768607+01 | 1486232413.76861 | pgbench_history  |        147005440
 2017-02-04 19:20:13.768607+01 | 1486232413.76861 | pgbench_branches |          1875968

 2017-02-04 19:20:14.847324+01 | 1486232414.84732 | pgbench_accounts |       1380745216
 2017-02-04 19:20:14.847324+01 | 1486232414.84732 | pgbench_tellers  |          4235264
 2017-02-04 19:20:14.847324+01 | 1486232414.84732 | pgbench_history  |        149045248
 2017-02-04 19:20:14.847324+01 | 1486232414.84732 | pgbench_branches |          1875968

 2017-02-04 19:20:15.923879+01 | 1486232415.92388 | pgbench_accounts |       1380745216
 2017-02-04 19:20:15.923879+01 | 1486232415.92388 | pgbench_tellers  |          4235264
 2017-02-04 19:20:15.923879+01 | 1486232415.92388 | pgbench_history  |        150896640
 2017-02-04 19:20:15.923879+01 | 1486232415.92388 | pgbench_branches |          1875968

 2017-02-04 19:20:17.001006+01 | 1486232417.00101 | pgbench_accounts |       1380745216
 2017-02-04 19:20:17.001006+01 | 1486232417.00101 | pgbench_tellers  |          4235264
 2017-02-04 19:20:17.001006+01 | 1486232417.00101 | pgbench_history  |        153100288
 2017-02-04 19:20:17.001006+01 | 1486232417.00101 | pgbench_branches |          1875968

 2017-02-04 19:20:18.072706+01 | 1486232418.07271 | pgbench_accounts |       1380745216
 2017-02-04 19:20:18.072706+01 | 1486232418.07271 | pgbench_tellers  |          4235264
 2017-02-04 19:20:18.072706+01 | 1486232418.07271 | pgbench_history  |        155025408
 2017-02-04 19:20:18.072706+01 | 1486232418.07271 | pgbench_branches |          1875968

 2017-02-04 19:20:19.146043+01 | 1486232419.14604 | pgbench_accounts |       1380745216
 2017-02-04 19:20:19.146043+01 | 1486232419.14604 | pgbench_tellers  |          4235264
 2017-02-04 19:20:19.146043+01 | 1486232419.14604 | pgbench_history  |        157425664
 2017-02-04 19:20:19.146043+01 | 1486232419.14604 | pgbench_branches |          1875968

 2017-02-04 19:20:20.222347+01 | 1486232420.22235 | pgbench_accounts |       1381113856
 2017-02-04 19:20:20.222347+01 | 1486232420.22235 | pgbench_tellers  |          4235264
 2017-02-04 19:20:20.222347+01 | 1486232420.22235 | pgbench_history  |        159465472
 2017-02-04 19:20:20.222347+01 | 1486232420.22235 | pgbench_branches |          1875968

 2017-02-04 19:20:21.299809+01 | 1486232421.29981 | pgbench_accounts |       1381122048
 2017-02-04 19:20:21.299809+01 | 1486232421.29981 | pgbench_tellers  |          4235264
 2017-02-04 19:20:21.299809+01 | 1486232421.29981 | pgbench_history  |        161783808
 2017-02-04 19:20:21.299809+01 | 1486232421.29981 | pgbench_branches |          1875968

 2017-02-04 19:20:22.374068+01 | 1486232422.37407 | pgbench_accounts |       1381122048
 2017-02-04 19:20:22.374068+01 | 1486232422.37407 | pgbench_tellers  |          4235264
 2017-02-04 19:20:22.374068+01 | 1486232422.37407 | pgbench_history  |        163119104
 2017-02-04 19:20:22.374068+01 | 1486232422.37407 | pgbench_branches |          1875968

 2017-02-04 19:20:23.455199+01 | 1486232423.4552 | pgbench_accounts |       1381122048
 2017-02-04 19:20:23.455199+01 | 1486232423.4552 | pgbench_tellers  |          4235264
 2017-02-04 19:20:23.455199+01 | 1486232423.4552 | pgbench_history  |        165224448
 2017-02-04 19:20:23.455199+01 | 1486232423.4552 | pgbench_branches |          1875968

 2017-02-04 19:20:24.536487+01 | 1486232424.53649 | pgbench_accounts |       1381122048
 2017-02-04 19:20:24.536487+01 | 1486232424.53649 | pgbench_tellers  |          4235264
 2017-02-04 19:20:24.536487+01 | 1486232424.53649 | pgbench_history  |        167124992
 2017-02-04 19:20:24.536487+01 | 1486232424.53649 | pgbench_branches |          1875968

 2017-02-04 19:20:25.613968+01 | 1486232425.61397 | pgbench_accounts |       1381122048
 2017-02-04 19:20:25.613968+01 | 1486232425.61397 | pgbench_tellers  |          4235264
 2017-02-04 19:20:25.613968+01 | 1486232425.61397 | pgbench_history  |        168861696
 2017-02-04 19:20:25.613968+01 | 1486232425.61397 | pgbench_branches |          1875968

 2017-02-04 19:20:26.68971+01 | 1486232426.68971 | pgbench_accounts |       1381163008
 2017-02-04 19:20:26.68971+01 | 1486232426.68971 | pgbench_tellers  |          4235264
 2017-02-04 19:20:26.68971+01 | 1486232426.68971 | pgbench_history  |        171614208
 2017-02-04 19:20:26.68971+01 | 1486232426.68971 | pgbench_branches |          1875968

 2017-02-04 19:20:27.764757+01 | 1486232427.76476 | pgbench_accounts |       1381203968
 2017-02-04 19:20:27.764757+01 | 1486232427.76476 | pgbench_tellers  |          4235264
 2017-02-04 19:20:27.764757+01 | 1486232427.76476 | pgbench_history  |        173367296
 2017-02-04 19:20:27.764757+01 | 1486232427.76476 | pgbench_branches |          1875968

 2017-02-04 19:20:28.835952+01 | 1486232428.83595 | pgbench_accounts |       1381203968
 2017-02-04 19:20:28.835952+01 | 1486232428.83595 | pgbench_tellers  |          4235264
 2017-02-04 19:20:28.835952+01 | 1486232428.83595 | pgbench_history  |        175030272
 2017-02-04 19:20:28.835952+01 | 1486232428.83595 | pgbench_branches |          1875968

 2017-02-04 19:20:29.921514+01 | 1486232429.92151 | pgbench_accounts |       1381203968
 2017-02-04 19:20:29.921514+01 | 1486232429.92151 | pgbench_tellers  |          4235264
 2017-02-04 19:20:29.921514+01 | 1486232429.92151 | pgbench_history  |        177053696
 2017-02-04 19:20:29.921514+01 | 1486232429.92151 | pgbench_branches |          1875968

 2017-02-04 19:20:31.001164+01 | 1486232431.00116 | pgbench_accounts |       1381203968
 2017-02-04 19:20:31.001164+01 | 1486232431.00116 | pgbench_tellers  |          4235264
 2017-02-04 19:20:31.001164+01 | 1486232431.00116 | pgbench_history  |        178626560
 2017-02-04 19:20:31.001164+01 | 1486232431.00116 | pgbench_branches |          1875968

 2017-02-04 19:20:32.07897+01 | 1486232432.07897 | pgbench_accounts |       1381203968
 2017-02-04 19:20:32.07897+01 | 1486232432.07897 | pgbench_tellers  |          4235264
 2017-02-04 19:20:32.07897+01 | 1486232432.07897 | pgbench_history  |        180502528
 2017-02-04 19:20:32.07897+01 | 1486232432.07897 | pgbench_branches |          1875968

 2017-02-04 19:20:33.161935+01 | 1486232433.16194 | pgbench_accounts |       1381203968
 2017-02-04 19:20:33.161935+01 | 1486232433.16194 | pgbench_tellers  |          4235264
 2017-02-04 19:20:33.161935+01 | 1486232433.16194 | pgbench_history  |        183205888
 2017-02-04 19:20:33.161935+01 | 1486232433.16194 | pgbench_branches |          1875968

 2017-02-04 19:20:34.24034+01 | 1486232434.24034 | pgbench_accounts |       1381203968
 2017-02-04 19:20:34.24034+01 | 1486232434.24034 | pgbench_tellers  |          4235264
 2017-02-04 19:20:34.24034+01 | 1486232434.24034 | pgbench_history  |        184573952
 2017-02-04 19:20:34.24034+01 | 1486232434.24034 | pgbench_branches |          1875968

 2017-02-04 19:20:35.318262+01 | 1486232435.31826 | pgbench_accounts |       1381203968
 2017-02-04 19:20:35.318262+01 | 1486232435.31826 | pgbench_tellers  |          4235264
 2017-02-04 19:20:35.318262+01 | 1486232435.31826 | pgbench_history  |        186941440
 2017-02-04 19:20:35.318262+01 | 1486232435.31826 | pgbench_branches |          1875968

 2017-02-04 19:20:36.394072+01 | 1486232436.39407 | pgbench_accounts |       1381203968
 2017-02-04 19:20:36.394072+01 | 1486232436.39407 | pgbench_tellers  |          4235264
 2017-02-04 19:20:36.394072+01 | 1486232436.39407 | pgbench_history  |        189636608
 2017-02-04 19:20:36.394072+01 | 1486232436.39407 | pgbench_branches |          1875968

 2017-02-04 19:20:37.47223+01 | 1486232437.47223 | pgbench_accounts |       1381203968
 2017-02-04 19:20:37.47223+01 | 1486232437.47223 | pgbench_tellers  |          4235264
 2017-02-04 19:20:37.47223+01 | 1486232437.47223 | pgbench_history  |        191463424
 2017-02-04 19:20:37.47223+01 | 1486232437.47223 | pgbench_branches |          1875968

 2017-02-04 19:20:38.553301+01 | 1486232438.5533 | pgbench_accounts |       1381203968
 2017-02-04 19:20:38.553301+01 | 1486232438.5533 | pgbench_tellers  |          4235264
 2017-02-04 19:20:38.553301+01 | 1486232438.5533 | pgbench_history  |        193347584
 2017-02-04 19:20:38.553301+01 | 1486232438.5533 | pgbench_branches |          1875968

 2017-02-04 19:20:39.628315+01 | 1486232439.62831 | pgbench_accounts |       1381203968
 2017-02-04 19:20:39.628315+01 | 1486232439.62831 | pgbench_tellers  |          4235264
 2017-02-04 19:20:39.628315+01 | 1486232439.62831 | pgbench_history  |        194723840
 2017-02-04 19:20:39.628315+01 | 1486232439.62831 | pgbench_branches |          1875968

 2017-02-04 19:20:40.71174+01 | 1486232440.71174 | pgbench_accounts |       1381203968
 2017-02-04 19:20:40.71174+01 | 1486232440.71174 | pgbench_tellers  |          4235264
 2017-02-04 19:20:40.71174+01 | 1486232440.71174 | pgbench_history  |        196575232
 2017-02-04 19:20:40.71174+01 | 1486232440.71174 | pgbench_branches |          1875968

 2017-02-04 19:20:41.789164+01 | 1486232441.78916 | pgbench_accounts |       1381203968
 2017-02-04 19:20:41.789164+01 | 1486232441.78916 | pgbench_tellers  |          4235264
 2017-02-04 19:20:41.789164+01 | 1486232441.78916 | pgbench_history  |        198664192
 2017-02-04 19:20:41.789164+01 | 1486232441.78916 | pgbench_branches |          1875968

 2017-02-04 19:20:42.866046+01 | 1486232442.86605 | pgbench_accounts |       1381203968
 2017-02-04 19:20:42.866046+01 | 1486232442.86605 | pgbench_tellers  |          4235264
 2017-02-04 19:20:42.866046+01 | 1486232442.86605 | pgbench_history  |        201719808
 2017-02-04 19:20:42.866046+01 | 1486232442.86605 | pgbench_branches |          1875968

 2017-02-04 19:20:43.947092+01 | 1486232443.94709 | pgbench_accounts |       1381203968
 2017-02-04 19:20:43.947092+01 | 1486232443.94709 | pgbench_tellers  |          4235264
 2017-02-04 19:20:43.947092+01 | 1486232443.94709 | pgbench_history  |        203898880
 2017-02-04 19:20:43.947092+01 | 1486232443.94709 | pgbench_branches |          1875968

 2017-02-04 19:20:45.020807+01 | 1486232445.02081 | pgbench_accounts |       1381203968
 2017-02-04 19:20:45.020807+01 | 1486232445.02081 | pgbench_tellers  |          4235264
 2017-02-04 19:20:45.020807+01 | 1486232445.02081 | pgbench_history  |        205070336
 2017-02-04 19:20:45.020807+01 | 1486232445.02081 | pgbench_branches |          1875968

 2017-02-04 19:20:46.097598+01 | 1486232446.0976 | pgbench_accounts |       1381203968
 2017-02-04 19:20:46.097598+01 | 1486232446.0976 | pgbench_tellers  |          4235264
 2017-02-04 19:20:46.097598+01 | 1486232446.0976 | pgbench_history  |        207331328
 2017-02-04 19:20:46.097598+01 | 1486232446.0976 | pgbench_branches |          1875968

 2017-02-04 19:20:47.180896+01 | 1486232447.1809 | pgbench_accounts |       1381203968
 2017-02-04 19:20:47.180896+01 | 1486232447.1809 | pgbench_tellers  |          4235264
 2017-02-04 19:20:47.180896+01 | 1486232447.1809 | pgbench_history  |        209076224
 2017-02-04 19:20:47.180896+01 | 1486232447.1809 | pgbench_branches |          1875968

 2017-02-04 19:20:48.255646+01 | 1486232448.25565 | pgbench_accounts |       1381203968
 2017-02-04 19:20:48.255646+01 | 1486232448.25565 | pgbench_tellers  |          4235264
 2017-02-04 19:20:48.255646+01 | 1486232448.25565 | pgbench_history  |        211181568
 2017-02-04 19:20:48.255646+01 | 1486232448.25565 | pgbench_branches |          1875968

 2017-02-04 19:20:49.332975+01 | 1486232449.33297 | pgbench_accounts |       1381203968
 2017-02-04 19:20:49.332975+01 | 1486232449.33297 | pgbench_tellers  |          4235264
 2017-02-04 19:20:49.332975+01 | 1486232449.33297 | pgbench_history  |        213057536
 2017-02-04 19:20:49.332975+01 | 1486232449.33297 | pgbench_branches |          1875968

 2017-02-04 19:20:50.425864+01 | 1486232450.42586 | pgbench_accounts |       1381203968
 2017-02-04 19:20:50.425864+01 | 1486232450.42586 | pgbench_tellers  |          4235264
 2017-02-04 19:20:50.425864+01 | 1486232450.42586 | pgbench_history  |        215285760
 2017-02-04 19:20:50.425864+01 | 1486232450.42586 | pgbench_branches |          1875968

 2017-02-04 19:20:51.50666+01 | 1486232451.50666 | pgbench_accounts |       1381203968
 2017-02-04 19:20:51.50666+01 | 1486232451.50666 | pgbench_tellers  |          4235264
 2017-02-04 19:20:51.50666+01 | 1486232451.50666 | pgbench_history  |        217358336
 2017-02-04 19:20:51.50666+01 | 1486232451.50666 | pgbench_branches |          1875968

 2017-02-04 19:20:52.58195+01 | 1486232452.58195 | pgbench_accounts |       1381203968
 2017-02-04 19:20:52.58195+01 | 1486232452.58195 | pgbench_tellers  |          4235264
 2017-02-04 19:20:52.58195+01 | 1486232452.58195 | pgbench_history  |        218939392
 2017-02-04 19:20:52.58195+01 | 1486232452.58195 | pgbench_branches |          1875968

 2017-02-04 19:20:53.66203+01 | 1486232453.66203 | pgbench_accounts |       1381203968
 2017-02-04 19:20:53.66203+01 | 1486232453.66203 | pgbench_tellers  |          4235264
 2017-02-04 19:20:53.66203+01 | 1486232453.66203 | pgbench_history  |        222609408
 2017-02-04 19:20:53.66203+01 | 1486232453.66203 | pgbench_branches |          1875968

 2017-02-04 19:20:54.738024+01 | 1486232454.73802 | pgbench_accounts |       1381203968
 2017-02-04 19:20:54.738024+01 | 1486232454.73802 | pgbench_tellers  |          4235264
 2017-02-04 19:20:54.738024+01 | 1486232454.73802 | pgbench_history  |        223657984
 2017-02-04 19:20:54.738024+01 | 1486232454.73802 | pgbench_branches |          1875968

 2017-02-04 19:20:55.816506+01 | 1486232455.81651 | pgbench_accounts |       1381203968
 2017-02-04 19:20:55.816506+01 | 1486232455.81651 | pgbench_tellers  |          4235264
 2017-02-04 19:20:55.816506+01 | 1486232455.81651 | pgbench_history  |        225484800
 2017-02-04 19:20:55.816506+01 | 1486232455.81651 | pgbench_branches |          1875968

 2017-02-04 19:20:56.901852+01 | 1486232456.90185 | pgbench_accounts |       1381203968
 2017-02-04 19:20:56.901852+01 | 1486232456.90185 | pgbench_tellers  |          4235264
 2017-02-04 19:20:56.901852+01 | 1486232456.90185 | pgbench_history  |        227082240
 2017-02-04 19:20:56.901852+01 | 1486232456.90185 | pgbench_branches |          1875968

 2017-02-04 19:20:57.982765+01 | 1486232457.98276 | pgbench_accounts |       1381203968
 2017-02-04 19:20:57.982765+01 | 1486232457.98276 | pgbench_tellers  |          4235264
 2017-02-04 19:20:57.982765+01 | 1486232457.98276 | pgbench_history  |        229482496
 2017-02-04 19:20:57.982765+01 | 1486232457.98276 | pgbench_branches |          1875968

 2017-02-04 19:20:59.060954+01 | 1486232459.06095 | pgbench_accounts |       1381203968
 2017-02-04 19:20:59.060954+01 | 1486232459.06095 | pgbench_tellers  |          4235264
 2017-02-04 19:20:59.060954+01 | 1486232459.06095 | pgbench_history  |        231366656
 2017-02-04 19:20:59.060954+01 | 1486232459.06095 | pgbench_branches |          1875968

 2017-02-04 19:21:00.137658+01 | 1486232460.13766 | pgbench_accounts |       1381203968
 2017-02-04 19:21:00.137658+01 | 1486232460.13766 | pgbench_tellers  |          4235264
 2017-02-04 19:21:00.137658+01 | 1486232460.13766 | pgbench_history  |        233062400
 2017-02-04 19:21:00.137658+01 | 1486232460.13766 | pgbench_branches |          1875968

 2017-02-04 19:21:01.217902+01 | 1486232461.2179 | pgbench_accounts |       1381203968
 2017-02-04 19:21:01.217902+01 | 1486232461.2179 | pgbench_tellers  |          4235264
 2017-02-04 19:21:01.217902+01 | 1486232461.2179 | pgbench_history  |        235782144
 2017-02-04 19:21:01.217902+01 | 1486232461.2179 | pgbench_branches |          1875968

 2017-02-04 19:21:02.294128+01 | 1486232462.29413 | pgbench_accounts |       1381203968
 2017-02-04 19:21:02.294128+01 | 1486232462.29413 | pgbench_tellers  |          4235264
 2017-02-04 19:21:02.294128+01 | 1486232462.29413 | pgbench_history  |        237150208
 2017-02-04 19:21:02.294128+01 | 1486232462.29413 | pgbench_branches |          1875968

 2017-02-04 19:21:03.373985+01 | 1486232463.37399 | pgbench_accounts |       1381203968
 2017-02-04 19:21:03.373985+01 | 1486232463.37399 | pgbench_tellers  |          4235264
 2017-02-04 19:21:03.373985+01 | 1486232463.37399 | pgbench_history  |        239165440
 2017-02-04 19:21:03.373985+01 | 1486232463.37399 | pgbench_branches |          1875968

 2017-02-04 19:21:04.447478+01 | 1486232464.44748 | pgbench_accounts |       1381203968
 2017-02-04 19:21:04.447478+01 | 1486232464.44748 | pgbench_tellers  |          4235264
 2017-02-04 19:21:04.447478+01 | 1486232464.44748 | pgbench_history  |        241065984
 2017-02-04 19:21:04.447478+01 | 1486232464.44748 | pgbench_branches |          1875968

 2017-02-04 19:21:05.522888+01 | 1486232465.52289 | pgbench_accounts |       1381203968
 2017-02-04 19:21:05.522888+01 | 1486232465.52289 | pgbench_tellers  |          4235264
 2017-02-04 19:21:05.522888+01 | 1486232465.52289 | pgbench_history  |        243302400
 2017-02-04 19:21:05.522888+01 | 1486232465.52289 | pgbench_branches |          1875968

 2017-02-04 19:21:06.601215+01 | 1486232466.60121 | pgbench_accounts |       1381203968
 2017-02-04 19:21:06.601215+01 | 1486232466.60121 | pgbench_tellers  |          4235264
 2017-02-04 19:21:06.601215+01 | 1486232466.60121 | pgbench_history  |        245014528
 2017-02-04 19:21:06.601215+01 | 1486232466.60121 | pgbench_branches |          1875968

 2017-02-04 19:21:07.681268+01 | 1486232467.68127 | pgbench_accounts |       1381203968
 2017-02-04 19:21:07.681268+01 | 1486232467.68127 | pgbench_tellers  |          4235264
 2017-02-04 19:21:07.681268+01 | 1486232467.68127 | pgbench_history  |        247242752
 2017-02-04 19:21:07.681268+01 | 1486232467.68127 | pgbench_branches |          1875968

 2017-02-04 19:21:08.759387+01 | 1486232468.75939 | pgbench_accounts |       1381203968
 2017-02-04 19:21:08.759387+01 | 1486232468.75939 | pgbench_tellers  |          4235264
 2017-02-04 19:21:08.759387+01 | 1486232468.75939 | pgbench_history  |        249331712
 2017-02-04 19:21:08.759387+01 | 1486232468.75939 | pgbench_branches |          1875968

 2017-02-04 19:21:09.82667+01 | 1486232469.82667 | pgbench_accounts |       1381203968
 2017-02-04 19:21:09.82667+01 | 1486232469.82667 | pgbench_tellers  |          4235264
 2017-02-04 19:21:09.82667+01 | 1486232469.82667 | pgbench_history  |        251346944
 2017-02-04 19:21:09.82667+01 | 1486232469.82667 | pgbench_branches |          1875968

 2017-02-04 19:21:10.907453+01 | 1486232470.90745 | pgbench_accounts |       1381203968
 2017-02-04 19:21:10.907453+01 | 1486232470.90745 | pgbench_tellers  |          4235264
 2017-02-04 19:21:10.907453+01 | 1486232470.90745 | pgbench_history  |        253067264
 2017-02-04 19:21:10.907453+01 | 1486232470.90745 | pgbench_branches |          1875968

 2017-02-04 19:21:11.986589+01 | 1486232471.98659 | pgbench_accounts |       1381203968
 2017-02-04 19:21:11.986589+01 | 1486232471.98659 | pgbench_tellers  |          4235264
 2017-02-04 19:21:11.986589+01 | 1486232471.98659 | pgbench_history  |        255623168
 2017-02-04 19:21:11.986589+01 | 1486232471.98659 | pgbench_branches |          2555904

 2017-02-04 19:21:13.063291+01 | 1486232473.06329 | pgbench_accounts |       1381203968
 2017-02-04 19:21:13.063291+01 | 1486232473.06329 | pgbench_tellers  |          4235264
 2017-02-04 19:21:13.063291+01 | 1486232473.06329 | pgbench_history  |        257032192
 2017-02-04 19:21:13.063291+01 | 1486232473.06329 | pgbench_branches |          2555904

 2017-02-04 19:21:14.138861+01 | 1486232474.13886 | pgbench_accounts |       1381203968
 2017-02-04 19:21:14.138861+01 | 1486232474.13886 | pgbench_tellers  |          4235264
 2017-02-04 19:21:14.138861+01 | 1486232474.13886 | pgbench_history  |        259399680
 2017-02-04 19:21:14.138861+01 | 1486232474.13886 | pgbench_branches |          2555904

 2017-02-04 19:21:15.211915+01 | 1486232475.21192 | pgbench_accounts |       1381203968
 2017-02-04 19:21:15.211915+01 | 1486232475.21192 | pgbench_tellers  |          4235264
 2017-02-04 19:21:15.211915+01 | 1486232475.21192 | pgbench_history  |        261111808
 2017-02-04 19:21:15.211915+01 | 1486232475.21192 | pgbench_branches |          2555904

 2017-02-04 19:21:16.291277+01 | 1486232476.29128 | pgbench_accounts |       1381203968
 2017-02-04 19:21:16.291277+01 | 1486232476.29128 | pgbench_tellers  |          4235264
 2017-02-04 19:21:16.291277+01 | 1486232476.29128 | pgbench_history  |        262823936
 2017-02-04 19:21:16.291277+01 | 1486232476.29128 | pgbench_branches |          2555904

 2017-02-04 19:21:17.370506+01 | 1486232477.37051 | pgbench_accounts |       1381203968
 2017-02-04 19:21:17.370506+01 | 1486232477.37051 | pgbench_tellers  |          4235264
 2017-02-04 19:21:17.370506+01 | 1486232477.37051 | pgbench_history  |        264871936
 2017-02-04 19:21:17.370506+01 | 1486232477.37051 | pgbench_branches |          2555904

 2017-02-04 19:21:18.452655+01 | 1486232478.45266 | pgbench_accounts |       1381203968
 2017-02-04 19:21:18.452655+01 | 1486232478.45266 | pgbench_tellers  |          4235264
 2017-02-04 19:21:18.452655+01 | 1486232478.45266 | pgbench_history  |        267444224
 2017-02-04 19:21:18.452655+01 | 1486232478.45266 | pgbench_branches |          2555904

 2017-02-04 19:21:19.528119+01 | 1486232479.52812 | pgbench_accounts |       1381203968
 2017-02-04 19:21:19.528119+01 | 1486232479.52812 | pgbench_tellers  |          4235264
 2017-02-04 19:21:19.528119+01 | 1486232479.52812 | pgbench_history  |        268992512
 2017-02-04 19:21:19.528119+01 | 1486232479.52812 | pgbench_branches |          2555904

 2017-02-04 19:21:20.607355+01 | 1486232480.60736 | pgbench_accounts |       1381203968
 2017-02-04 19:21:20.607355+01 | 1486232480.60736 | pgbench_tellers  |          4235264
 2017-02-04 19:21:20.607355+01 | 1486232480.60736 | pgbench_history  |        271548416
 2017-02-04 19:21:20.607355+01 | 1486232480.60736 | pgbench_branches |          2555904

 2017-02-04 19:21:21.683817+01 | 1486232481.68382 | pgbench_accounts |       1381203968
 2017-02-04 19:21:21.683817+01 | 1486232481.68382 | pgbench_tellers  |          4235264
 2017-02-04 19:21:21.683817+01 | 1486232481.68382 | pgbench_history  |        274055168
 2017-02-04 19:21:21.683817+01 | 1486232481.68382 | pgbench_branches |          2555904

 2017-02-04 19:21:22.767078+01 | 1486232482.76708 | pgbench_accounts |       1381203968
 2017-02-04 19:21:22.767078+01 | 1486232482.76708 | pgbench_tellers  |          4235264
 2017-02-04 19:21:22.767078+01 | 1486232482.76708 | pgbench_history  |        275062784
 2017-02-04 19:21:22.767078+01 | 1486232482.76708 | pgbench_branches |          2555904

 2017-02-04 19:21:23.847347+01 | 1486232483.84735 | pgbench_accounts |       1381203968
 2017-02-04 19:21:23.847347+01 | 1486232483.84735 | pgbench_tellers  |          4235264
 2017-02-04 19:21:23.847347+01 | 1486232483.84735 | pgbench_history  |        277454848
 2017-02-04 19:21:23.847347+01 | 1486232483.84735 | pgbench_branches |          2555904

 2017-02-04 19:21:24.928655+01 | 1486232484.92865 | pgbench_accounts |       1381203968
 2017-02-04 19:21:24.928655+01 | 1486232484.92865 | pgbench_tellers  |          4235264
 2017-02-04 19:21:24.928655+01 | 1486232484.92865 | pgbench_history  |        279117824
 2017-02-04 19:21:24.928655+01 | 1486232484.92865 | pgbench_branches |          2555904

 2017-02-04 19:21:26.013779+01 | 1486232486.01378 | pgbench_accounts |       1381203968
 2017-02-04 19:21:26.013779+01 | 1486232486.01378 | pgbench_tellers  |          4235264
 2017-02-04 19:21:26.013779+01 | 1486232486.01378 | pgbench_history  |        281321472
 2017-02-04 19:21:26.013779+01 | 1486232486.01378 | pgbench_branches |          2555904

 2017-02-04 19:21:27.094668+01 | 1486232487.09467 | pgbench_accounts |       1381203968
 2017-02-04 19:21:27.094668+01 | 1486232487.09467 | pgbench_tellers  |          4235264
 2017-02-04 19:21:27.094668+01 | 1486232487.09467 | pgbench_history  |        283172864
 2017-02-04 19:21:27.094668+01 | 1486232487.09467 | pgbench_branches |          2555904

 2017-02-04 19:21:28.17231+01 | 1486232488.17231 | pgbench_accounts |       1381203968
 2017-02-04 19:21:28.17231+01 | 1486232488.17231 | pgbench_tellers  |          4235264
 2017-02-04 19:21:28.17231+01 | 1486232488.17231 | pgbench_history  |        284860416
 2017-02-04 19:21:28.17231+01 | 1486232488.17231 | pgbench_branches |          2555904

 2017-02-04 19:21:29.245779+01 | 1486232489.24578 | pgbench_accounts |       1381203968
 2017-02-04 19:21:29.245779+01 | 1486232489.24578 | pgbench_tellers  |          4235264
 2017-02-04 19:21:29.245779+01 | 1486232489.24578 | pgbench_history  |        286932992
 2017-02-04 19:21:29.245779+01 | 1486232489.24578 | pgbench_branches |          2555904

 2017-02-04 19:21:30.334715+01 | 1486232490.33471 | pgbench_accounts |       1381203968
 2017-02-04 19:21:30.334715+01 | 1486232490.33471 | pgbench_tellers  |          4235264
 2017-02-04 19:21:30.334715+01 | 1486232490.33471 | pgbench_history  |        288645120
 2017-02-04 19:21:30.334715+01 | 1486232490.33471 | pgbench_branches |          2555904

 2017-02-04 19:21:31.42574+01 | 1486232491.42574 | pgbench_accounts |       1381203968
 2017-02-04 19:21:31.42574+01 | 1486232491.42574 | pgbench_tellers  |          4235264
 2017-02-04 19:21:31.42574+01 | 1486232491.42574 | pgbench_history  |        291020800
 2017-02-04 19:21:31.42574+01 | 1486232491.42574 | pgbench_branches |          2555904

 2017-02-04 19:21:32.503612+01 | 1486232492.50361 | pgbench_accounts |       1381203968
 2017-02-04 19:21:32.503612+01 | 1486232492.50361 | pgbench_tellers  |          4235264
 2017-02-04 19:21:32.503612+01 | 1486232492.50361 | pgbench_history  |        292782080
 2017-02-04 19:21:32.503612+01 | 1486232492.50361 | pgbench_branches |          2555904

 2017-02-04 19:21:33.583742+01 | 1486232493.58374 | pgbench_accounts |       1381203968
 2017-02-04 19:21:33.583742+01 | 1486232493.58374 | pgbench_tellers  |          4235264
 2017-02-04 19:21:33.583742+01 | 1486232493.58374 | pgbench_history  |        294830080
 2017-02-04 19:21:33.583742+01 | 1486232493.58374 | pgbench_branches |          2555904

 2017-02-04 19:21:34.661369+01 | 1486232494.66137 | pgbench_accounts |       1381203968
 2017-02-04 19:21:34.661369+01 | 1486232494.66137 | pgbench_tellers  |          4235264
 2017-02-04 19:21:34.661369+01 | 1486232494.66137 | pgbench_history  |        296534016
 2017-02-04 19:21:34.661369+01 | 1486232494.66137 | pgbench_branches |          2555904

 2017-02-04 19:21:35.742179+01 | 1486232495.74218 | pgbench_accounts |       1381203968
 2017-02-04 19:21:35.742179+01 | 1486232495.74218 | pgbench_tellers  |          4235264
 2017-02-04 19:21:35.742179+01 | 1486232495.74218 | pgbench_history  |        298803200
 2017-02-04 19:21:35.742179+01 | 1486232495.74218 | pgbench_branches |          2555904

 2017-02-04 19:21:36.815592+01 | 1486232496.81559 | pgbench_accounts |       1381203968
 2017-02-04 19:21:36.815592+01 | 1486232496.81559 | pgbench_tellers  |          4235264
 2017-02-04 19:21:36.815592+01 | 1486232496.81559 | pgbench_history  |        301006848
 2017-02-04 19:21:36.815592+01 | 1486232496.81559 | pgbench_branches |          2555904

 2017-02-04 19:21:37.892416+01 | 1486232497.89242 | pgbench_accounts |       1381203968
 2017-02-04 19:21:37.892416+01 | 1486232497.89242 | pgbench_tellers  |          4235264
 2017-02-04 19:21:37.892416+01 | 1486232497.89242 | pgbench_history  |        302604288
 2017-02-04 19:21:37.892416+01 | 1486232497.89242 | pgbench_branches |          2555904

 2017-02-04 19:21:38.96526+01 | 1486232498.96526 | pgbench_accounts |       1381203968
 2017-02-04 19:21:38.96526+01 | 1486232498.96526 | pgbench_tellers  |          4235264
 2017-02-04 19:21:38.96526+01 | 1486232498.96526 | pgbench_history  |        304996352
 2017-02-04 19:21:38.96526+01 | 1486232498.96526 | pgbench_branches |          2555904

 2017-02-04 19:21:40.05093+01 | 1486232500.05093 | pgbench_accounts |       1381203968
 2017-02-04 19:21:40.05093+01 | 1486232500.05093 | pgbench_tellers  |          4235264
 2017-02-04 19:21:40.05093+01 | 1486232500.05093 | pgbench_history  |        306905088
 2017-02-04 19:21:40.05093+01 | 1486232500.05093 | pgbench_branches |          2555904

 2017-02-04 19:21:41.125235+01 | 1486232501.12524 | pgbench_accounts |       1381203968
 2017-02-04 19:21:41.125235+01 | 1486232501.12524 | pgbench_tellers  |          4235264
 2017-02-04 19:21:41.125235+01 | 1486232501.12524 | pgbench_history  |        308797440
 2017-02-04 19:21:41.125235+01 | 1486232501.12524 | pgbench_branches |          2555904

 2017-02-04 19:21:42.210135+01 | 1486232502.21013 | pgbench_accounts |       1381203968
 2017-02-04 19:21:42.210135+01 | 1486232502.21013 | pgbench_tellers  |          4235264
 2017-02-04 19:21:42.210135+01 | 1486232502.21013 | pgbench_history  |        310714368
 2017-02-04 19:21:42.210135+01 | 1486232502.21013 | pgbench_branches |          2555904

 2017-02-04 19:21:43.290981+01 | 1486232503.29098 | pgbench_accounts |       1381203968
 2017-02-04 19:21:43.290981+01 | 1486232503.29098 | pgbench_tellers  |          4235264
 2017-02-04 19:21:43.290981+01 | 1486232503.29098 | pgbench_history  |        312639488
 2017-02-04 19:21:43.290981+01 | 1486232503.29098 | pgbench_branches |          2555904

 2017-02-04 19:21:44.371744+01 | 1486232504.37174 | pgbench_accounts |       1381203968
 2017-02-04 19:21:44.371744+01 | 1486232504.37174 | pgbench_tellers  |          4235264
 2017-02-04 19:21:44.371744+01 | 1486232504.37174 | pgbench_history  |        314564608
 2017-02-04 19:21:44.371744+01 | 1486232504.37174 | pgbench_branches |          2555904

 2017-02-04 19:21:45.449912+01 | 1486232505.44991 | pgbench_accounts |       1381203968
 2017-02-04 19:21:45.449912+01 | 1486232505.44991 | pgbench_tellers  |          4235264
 2017-02-04 19:21:45.449912+01 | 1486232505.44991 | pgbench_history  |        316932096
 2017-02-04 19:21:45.449912+01 | 1486232505.44991 | pgbench_branches |          2555904

 2017-02-04 19:21:46.525931+01 | 1486232506.52593 | pgbench_accounts |       1381203968
 2017-02-04 19:21:46.525931+01 | 1486232506.52593 | pgbench_tellers  |          4235264
 2017-02-04 19:21:46.525931+01 | 1486232506.52593 | pgbench_history  |        318537728
 2017-02-04 19:21:46.525931+01 | 1486232506.52593 | pgbench_branches |          2555904

 2017-02-04 19:21:47.603204+01 | 1486232507.6032 | pgbench_accounts |       1381203968
 2017-02-04 19:21:47.603204+01 | 1486232507.6032 | pgbench_tellers  |          4235264
 2017-02-04 19:21:47.603204+01 | 1486232507.6032 | pgbench_history  |        320815104
 2017-02-04 19:21:47.603204+01 | 1486232507.6032 | pgbench_branches |          2555904

 2017-02-04 19:21:48.681279+01 | 1486232508.68128 | pgbench_accounts |       1381203968
 2017-02-04 19:21:48.681279+01 | 1486232508.68128 | pgbench_tellers  |          4235264
 2017-02-04 19:21:48.681279+01 | 1486232508.68128 | pgbench_history  |        322723840
 2017-02-04 19:21:48.681279+01 | 1486232508.68128 | pgbench_branches |          2555904

 2017-02-04 19:21:49.76076+01 | 1486232509.76076 | pgbench_accounts |       1381203968
 2017-02-04 19:21:49.76076+01 | 1486232509.76076 | pgbench_tellers  |          4235264
 2017-02-04 19:21:49.76076+01 | 1486232509.76076 | pgbench_history  |        324820992
 2017-02-04 19:21:49.76076+01 | 1486232509.76076 | pgbench_branches |          2555904

 2017-02-04 19:21:50.834044+01 | 1486232510.83404 | pgbench_accounts |       1381203968
 2017-02-04 19:21:50.834044+01 | 1486232510.83404 | pgbench_tellers  |          4235264
 2017-02-04 19:21:50.834044+01 | 1486232510.83404 | pgbench_history  |        327122944
 2017-02-04 19:21:50.834044+01 | 1486232510.83404 | pgbench_branches |          2555904

 2017-02-04 19:21:51.915567+01 | 1486232511.91557 | pgbench_accounts |       1381203968
 2017-02-04 19:21:51.915567+01 | 1486232511.91557 | pgbench_tellers  |          4235264
 2017-02-04 19:21:51.915567+01 | 1486232511.91557 | pgbench_history  |        328859648
 2017-02-04 19:21:51.915567+01 | 1486232511.91557 | pgbench_branches |          2555904

 2017-02-04 19:21:52.990197+01 | 1486232512.9902 | pgbench_accounts |       1381203968
 2017-02-04 19:21:52.990197+01 | 1486232512.9902 | pgbench_tellers  |          4235264
 2017-02-04 19:21:52.990197+01 | 1486232512.9902 | pgbench_history  |        330907648
 2017-02-04 19:21:52.990197+01 | 1486232512.9902 | pgbench_branches |          2555904

 2017-02-04 19:21:54.070059+01 | 1486232514.07006 | pgbench_accounts |       1381203968
 2017-02-04 19:21:54.070059+01 | 1486232514.07006 | pgbench_tellers  |          4235264
 2017-02-04 19:21:54.070059+01 | 1486232514.07006 | pgbench_history  |        333611008
 2017-02-04 19:21:54.070059+01 | 1486232514.07006 | pgbench_branches |          2555904

 2017-02-04 19:21:55.149436+01 | 1486232515.14944 | pgbench_accounts |       1381203968
 2017-02-04 19:21:55.149436+01 | 1486232515.14944 | pgbench_tellers  |          4235264
 2017-02-04 19:21:55.149436+01 | 1486232515.14944 | pgbench_history  |        334995456
 2017-02-04 19:21:55.149436+01 | 1486232515.14944 | pgbench_branches |          2555904

 2017-02-04 19:21:56.227661+01 | 1486232516.22766 | pgbench_accounts |       1381203968
 2017-02-04 19:21:56.227661+01 | 1486232516.22766 | pgbench_tellers  |          4235264
 2017-02-04 19:21:56.227661+01 | 1486232516.22766 | pgbench_history  |        337362944
 2017-02-04 19:21:56.227661+01 | 1486232516.22766 | pgbench_branches |          2555904

 2017-02-04 19:21:57.302694+01 | 1486232517.30269 | pgbench_accounts |       1381203968
 2017-02-04 19:21:57.302694+01 | 1486232517.30269 | pgbench_tellers  |          4235264
 2017-02-04 19:21:57.302694+01 | 1486232517.30269 | pgbench_history  |        339083264
 2017-02-04 19:21:57.302694+01 | 1486232517.30269 | pgbench_branches |          2555904

 2017-02-04 19:21:58.379917+01 | 1486232518.37992 | pgbench_accounts |       1381203968
 2017-02-04 19:21:58.379917+01 | 1486232518.37992 | pgbench_tellers  |          4235264
 2017-02-04 19:21:58.379917+01 | 1486232518.37992 | pgbench_history  |        340819968
 2017-02-04 19:21:58.379917+01 | 1486232518.37992 | pgbench_branches |          2555904

 2017-02-04 19:21:59.461067+01 | 1486232519.46107 | pgbench_accounts |       1381203968
 2017-02-04 19:21:59.461067+01 | 1486232519.46107 | pgbench_tellers  |          4235264
 2017-02-04 19:21:59.461067+01 | 1486232519.46107 | pgbench_history  |        343056384
 2017-02-04 19:21:59.461067+01 | 1486232519.46107 | pgbench_branches |          2555904

 2017-02-04 19:22:00.536491+01 | 1486232520.53649 | pgbench_accounts |       1381203968
 2017-02-04 19:22:00.536491+01 | 1486232520.53649 | pgbench_tellers  |          4235264
 2017-02-04 19:22:00.536491+01 | 1486232520.53649 | pgbench_history  |        345260032
 2017-02-04 19:22:00.536491+01 | 1486232520.53649 | pgbench_branches |          2555904

 2017-02-04 19:22:01.614459+01 | 1486232521.61446 | pgbench_accounts |       1381203968
 2017-02-04 19:22:01.614459+01 | 1486232521.61446 | pgbench_tellers  |          4235264
 2017-02-04 19:22:01.614459+01 | 1486232521.61446 | pgbench_history  |        346783744
 2017-02-04 19:22:01.614459+01 | 1486232521.61446 | pgbench_branches |          2555904

 2017-02-04 19:22:02.691194+01 | 1486232522.69119 | pgbench_accounts |       1381203968
 2017-02-04 19:22:02.691194+01 | 1486232522.69119 | pgbench_tellers  |          4235264
 2017-02-04 19:22:02.691194+01 | 1486232522.69119 | pgbench_history  |        348758016
 2017-02-04 19:22:02.691194+01 | 1486232522.69119 | pgbench_branches |          2555904

 2017-02-04 19:22:03.766756+01 | 1486232523.76676 | pgbench_accounts |       1381203968
 2017-02-04 19:22:03.766756+01 | 1486232523.76676 | pgbench_tellers  |          4235264
 2017-02-04 19:22:03.766756+01 | 1486232523.76676 | pgbench_history  |        351002624
 2017-02-04 19:22:03.766756+01 | 1486232523.76676 | pgbench_branches |          2555904

 2017-02-04 19:22:04.84008+01 | 1486232524.84008 | pgbench_accounts |       1381203968
 2017-02-04 19:22:04.84008+01 | 1486232524.84008 | pgbench_tellers  |          4235264
 2017-02-04 19:22:04.84008+01 | 1486232524.84008 | pgbench_history  |        352550912
 2017-02-04 19:22:04.84008+01 | 1486232524.84008 | pgbench_branches |          2555904

 2017-02-04 19:22:05.916882+01 | 1486232525.91688 | pgbench_accounts |       1381203968
 2017-02-04 19:22:05.916882+01 | 1486232525.91688 | pgbench_tellers  |          4235264
 2017-02-04 19:22:05.916882+01 | 1486232525.91688 | pgbench_history  |        354729984
 2017-02-04 19:22:05.916882+01 | 1486232525.91688 | pgbench_branches |          2555904

 2017-02-04 19:22:06.995002+01 | 1486232526.995 | pgbench_accounts |       1381203968
 2017-02-04 19:22:06.995002+01 | 1486232526.995 | pgbench_tellers  |          4235264
 2017-02-04 19:22:06.995002+01 | 1486232526.995 | pgbench_history  |        356442112
 2017-02-04 19:22:06.995002+01 | 1486232526.995 | pgbench_branches |          2555904

 2017-02-04 19:22:08.07238+01 | 1486232528.07238 | pgbench_accounts |       1381203968
 2017-02-04 19:22:08.07238+01 | 1486232528.07238 | pgbench_tellers  |          4235264
 2017-02-04 19:22:08.07238+01 | 1486232528.07238 | pgbench_history  |        358514688
 2017-02-04 19:22:08.07238+01 | 1486232528.07238 | pgbench_branches |          2555904

 2017-02-04 19:22:09.150531+01 | 1486232529.15053 | pgbench_accounts |       1381203968
 2017-02-04 19:22:09.150531+01 | 1486232529.15053 | pgbench_tellers  |          4235264
 2017-02-04 19:22:09.150531+01 | 1486232529.15053 | pgbench_history  |        360259584
 2017-02-04 19:22:09.150531+01 | 1486232529.15053 | pgbench_branches |          2555904

 2017-02-04 19:22:10.21414+01 | 1486232530.21414 | pgbench_accounts |       1381203968
 2017-02-04 19:22:10.21414+01 | 1486232530.21414 | pgbench_tellers  |          4235264
 2017-02-04 19:22:10.21414+01 | 1486232530.21414 | pgbench_history  |        362364928
 2017-02-04 19:22:10.21414+01 | 1486232530.21414 | pgbench_branches |          2555904

 2017-02-04 19:22:11.28437+01 | 1486232531.28437 | pgbench_accounts |       1381203968
 2017-02-04 19:22:11.28437+01 | 1486232531.28437 | pgbench_tellers  |          4235264
 2017-02-04 19:22:11.28437+01 | 1486232531.28437 | pgbench_history  |        364052480
 2017-02-04 19:22:11.28437+01 | 1486232531.28437 | pgbench_branches |          2555904

 2017-02-04 19:22:12.366773+01 | 1486232532.36677 | pgbench_accounts |       1381203968
 2017-02-04 19:22:12.366773+01 | 1486232532.36677 | pgbench_tellers  |          4235264
 2017-02-04 19:22:12.366773+01 | 1486232532.36677 | pgbench_history  |        367108096
 2017-02-04 19:22:12.366773+01 | 1486232532.36677 | pgbench_branches |          2555904

 2017-02-04 19:22:13.449328+01 | 1486232533.44933 | pgbench_accounts |       1381203968
 2017-02-04 19:22:13.449328+01 | 1486232533.44933 | pgbench_tellers  |          4235264
 2017-02-04 19:22:13.449328+01 | 1486232533.44933 | pgbench_history  |        368115712
 2017-02-04 19:22:13.449328+01 | 1486232533.44933 | pgbench_branches |          2555904

 2017-02-04 19:22:14.524069+01 | 1486232534.52407 | pgbench_accounts |       1381203968
 2017-02-04 19:22:14.524069+01 | 1486232534.52407 | pgbench_tellers  |          4235264
 2017-02-04 19:22:14.524069+01 | 1486232534.52407 | pgbench_history  |        370130944
 2017-02-04 19:22:14.524069+01 | 1486232534.52407 | pgbench_branches |          2555904

 2017-02-04 19:22:15.602629+01 | 1486232535.60263 | pgbench_accounts |       1381203968
 2017-02-04 19:22:15.602629+01 | 1486232535.60263 | pgbench_tellers  |          4235264
 2017-02-04 19:22:15.602629+01 | 1486232535.60263 | pgbench_history  |        372965376
 2017-02-04 19:22:15.602629+01 | 1486232535.60263 | pgbench_branches |          2555904

 2017-02-04 19:22:16.678851+01 | 1486232536.67885 | pgbench_accounts |       1381203968
 2017-02-04 19:22:16.678851+01 | 1486232536.67885 | pgbench_tellers  |          4235264
 2017-02-04 19:22:16.678851+01 | 1486232536.67885 | pgbench_history  |        375463936
 2017-02-04 19:22:16.678851+01 | 1486232536.67885 | pgbench_branches |          2555904

 2017-02-04 19:22:17.757046+01 | 1486232537.75705 | pgbench_accounts |       1381203968
 2017-02-04 19:22:17.757046+01 | 1486232537.75705 | pgbench_tellers  |          4235264
 2017-02-04 19:22:17.757046+01 | 1486232537.75705 | pgbench_history  |        376332288
 2017-02-04 19:22:17.757046+01 | 1486232537.75705 | pgbench_branches |          2555904

 2017-02-04 19:22:18.837747+01 | 1486232538.83775 | pgbench_accounts |       1381203968
 2017-02-04 19:22:18.837747+01 | 1486232538.83775 | pgbench_tellers  |          4235264
 2017-02-04 19:22:18.837747+01 | 1486232538.83775 | pgbench_history  |        378511360
 2017-02-04 19:22:18.837747+01 | 1486232538.83775 | pgbench_branches |          2555904

 2017-02-04 19:22:19.91831+01 | 1486232539.91831 | pgbench_accounts |       1381203968
 2017-02-04 19:22:19.91831+01 | 1486232539.91831 | pgbench_tellers  |          4235264
 2017-02-04 19:22:19.91831+01 | 1486232539.91831 | pgbench_history  |        380362752
 2017-02-04 19:22:19.91831+01 | 1486232539.91831 | pgbench_branches |          2555904

 2017-02-04 19:22:20.993715+01 | 1486232540.99372 | pgbench_accounts |       1381203968
 2017-02-04 19:22:20.993715+01 | 1486232540.99372 | pgbench_tellers  |          4235264
 2017-02-04 19:22:20.993715+01 | 1486232540.99372 | pgbench_history  |        383574016
 2017-02-04 19:22:20.993715+01 | 1486232540.99372 | pgbench_branches |          2555904

 2017-02-04 19:22:22.068241+01 | 1486232542.06824 | pgbench_accounts |       1381203968
 2017-02-04 19:22:22.068241+01 | 1486232542.06824 | pgbench_tellers  |          4235264
 2017-02-04 19:22:22.068241+01 | 1486232542.06824 | pgbench_history  |        386080768
 2017-02-04 19:22:22.068241+01 | 1486232542.06824 | pgbench_branches |          2555904

 2017-02-04 19:22:23.142978+01 | 1486232543.14298 | pgbench_accounts |       1381203968
 2017-02-04 19:22:23.142978+01 | 1486232543.14298 | pgbench_tellers  |          4235264
 2017-02-04 19:22:23.142978+01 | 1486232543.14298 | pgbench_history  |        386596864
 2017-02-04 19:22:23.142978+01 | 1486232543.14298 | pgbench_branches |          2555904

 2017-02-04 19:22:24.224291+01 | 1486232544.22429 | pgbench_accounts |       1381203968
 2017-02-04 19:22:24.224291+01 | 1486232544.22429 | pgbench_tellers  |          4235264
 2017-02-04 19:22:24.224291+01 | 1486232544.22429 | pgbench_history  |        388841472
 2017-02-04 19:22:24.224291+01 | 1486232544.22429 | pgbench_branches |          2555904

 2017-02-04 19:22:25.30976+01 | 1486232545.30976 | pgbench_accounts |       1381203968
 2017-02-04 19:22:25.30976+01 | 1486232545.30976 | pgbench_tellers  |          4235264
 2017-02-04 19:22:25.30976+01 | 1486232545.30976 | pgbench_history  |        390766592
 2017-02-04 19:22:25.30976+01 | 1486232545.30976 | pgbench_branches |          2555904

 2017-02-04 19:22:26.389986+01 | 1486232546.38999 | pgbench_accounts |       1381203968
 2017-02-04 19:22:26.389986+01 | 1486232546.38999 | pgbench_tellers  |          4235264
 2017-02-04 19:22:26.389986+01 | 1486232546.38999 | pgbench_history  |        393166848
 2017-02-04 19:22:26.389986+01 | 1486232546.38999 | pgbench_branches |          2555904

 2017-02-04 19:22:27.473353+01 | 1486232547.47335 | pgbench_accounts |       1381203968
 2017-02-04 19:22:27.473353+01 | 1486232547.47335 | pgbench_tellers  |          4235264
 2017-02-04 19:22:27.473353+01 | 1486232547.47335 | pgbench_history  |        394338304
 2017-02-04 19:22:27.473353+01 | 1486232547.47335 | pgbench_branches |          2555904

 2017-02-04 19:22:28.552102+01 | 1486232548.5521 | pgbench_accounts |       1381203968
 2017-02-04 19:22:28.552102+01 | 1486232548.5521 | pgbench_tellers  |          4235264
 2017-02-04 19:22:28.552102+01 | 1486232548.5521 | pgbench_history  |        396410880
 2017-02-04 19:22:28.552102+01 | 1486232548.5521 | pgbench_branches |          2555904

 2017-02-04 19:22:29.632923+01 | 1486232549.63292 | pgbench_accounts |       1381203968
 2017-02-04 19:22:29.632923+01 | 1486232549.63292 | pgbench_tellers  |          4235264
 2017-02-04 19:22:29.632923+01 | 1486232549.63292 | pgbench_history  |        398286848
 2017-02-04 19:22:29.632923+01 | 1486232549.63292 | pgbench_branches |          2555904

 2017-02-04 19:22:30.719342+01 | 1486232550.71934 | pgbench_accounts |       1381203968
 2017-02-04 19:22:30.719342+01 | 1486232550.71934 | pgbench_tellers  |          4235264
 2017-02-04 19:22:30.719342+01 | 1486232550.71934 | pgbench_history  |        400506880
 2017-02-04 19:22:30.719342+01 | 1486232550.71934 | pgbench_branches |          2555904

 2017-02-04 19:22:31.801272+01 | 1486232551.80127 | pgbench_accounts |       1381203968
 2017-02-04 19:22:31.801272+01 | 1486232551.80127 | pgbench_tellers  |          4235264
 2017-02-04 19:22:31.801272+01 | 1486232551.80127 | pgbench_history  |        402415616
 2017-02-04 19:22:31.801272+01 | 1486232551.80127 | pgbench_branches |          2555904

 2017-02-04 19:22:32.875044+01 | 1486232552.87504 | pgbench_accounts |       1381203968
 2017-02-04 19:22:32.875044+01 | 1486232552.87504 | pgbench_tellers  |          4235264
 2017-02-04 19:22:32.875044+01 | 1486232552.87504 | pgbench_history  |        404455424
 2017-02-04 19:22:32.875044+01 | 1486232552.87504 | pgbench_branches |          2555904

 2017-02-04 19:22:33.950099+01 | 1486232553.9501 | pgbench_accounts |       1381203968
 2017-02-04 19:22:33.950099+01 | 1486232553.9501 | pgbench_tellers  |          4235264
 2017-02-04 19:22:33.950099+01 | 1486232553.9501 | pgbench_history  |        406855680
 2017-02-04 19:22:33.950099+01 | 1486232553.9501 | pgbench_branches |          2555904

 2017-02-04 19:22:35.032725+01 | 1486232555.03273 | pgbench_accounts |       1381203968
 2017-02-04 19:22:35.032725+01 | 1486232555.03273 | pgbench_tellers  |          4235264
 2017-02-04 19:22:35.032725+01 | 1486232555.03273 | pgbench_history  |        408354816
 2017-02-04 19:22:35.032725+01 | 1486232555.03273 | pgbench_branches |          2555904

 2017-02-04 19:22:36.115643+01 | 1486232556.11564 | pgbench_accounts |       1381203968
 2017-02-04 19:22:36.115643+01 | 1486232556.11564 | pgbench_tellers  |          4235264
 2017-02-04 19:22:36.115643+01 | 1486232556.11564 | pgbench_history  |        410918912
 2017-02-04 19:22:36.115643+01 | 1486232556.11564 | pgbench_branches |          2555904

 2017-02-04 19:22:37.190912+01 | 1486232557.19091 | pgbench_accounts |       1381203968
 2017-02-04 19:22:37.190912+01 | 1486232557.19091 | pgbench_tellers  |          4235264
 2017-02-04 19:22:37.190912+01 | 1486232557.19091 | pgbench_history  |        412114944
 2017-02-04 19:22:37.190912+01 | 1486232557.19091 | pgbench_branches |          2555904

 2017-02-04 19:22:38.265461+01 | 1486232558.26546 | pgbench_accounts |       1381203968
 2017-02-04 19:22:38.265461+01 | 1486232558.26546 | pgbench_tellers  |          4235264
 2017-02-04 19:22:38.265461+01 | 1486232558.26546 | pgbench_history  |        414015488
 2017-02-04 19:22:38.265461+01 | 1486232558.26546 | pgbench_branches |          2555904

 2017-02-04 19:22:39.354135+01 | 1486232559.35414 | pgbench_accounts |       1381203968
 2017-02-04 19:22:39.354135+01 | 1486232559.35414 | pgbench_tellers  |          4235264
 2017-02-04 19:22:39.354135+01 | 1486232559.35414 | pgbench_history  |        416735232
 2017-02-04 19:22:39.354135+01 | 1486232559.35414 | pgbench_branches |          2555904

 2017-02-04 19:22:40.431326+01 | 1486232560.43133 | pgbench_accounts |       1381203968
 2017-02-04 19:22:40.431326+01 | 1486232560.43133 | pgbench_tellers  |          4235264
 2017-02-04 19:22:40.431326+01 | 1486232560.43133 | pgbench_history  |        417914880
 2017-02-04 19:22:40.431326+01 | 1486232560.43133 | pgbench_branches |          2555904

 2017-02-04 19:22:41.509701+01 | 1486232561.5097 | pgbench_accounts |       1381203968
 2017-02-04 19:22:41.509701+01 | 1486232561.5097 | pgbench_tellers  |          4235264
 2017-02-04 19:22:41.509701+01 | 1486232561.5097 | pgbench_history  |        420151296
 2017-02-04 19:22:41.509701+01 | 1486232561.5097 | pgbench_branches |          2555904

 2017-02-04 19:22:42.588501+01 | 1486232562.5885 | pgbench_accounts |       1381203968
 2017-02-04 19:22:42.588501+01 | 1486232562.5885 | pgbench_tellers  |          4235264
 2017-02-04 19:22:42.588501+01 | 1486232562.5885 | pgbench_history  |        423198720
 2017-02-04 19:22:42.588501+01 | 1486232562.5885 | pgbench_branches |          2555904

 2017-02-04 19:22:43.66714+01 | 1486232563.66714 | pgbench_accounts |       1381203968
 2017-02-04 19:22:43.66714+01 | 1486232563.66714 | pgbench_tellers  |          4235264
 2017-02-04 19:22:43.66714+01 | 1486232563.66714 | pgbench_history  |        424402944
 2017-02-04 19:22:43.66714+01 | 1486232563.66714 | pgbench_branches |          2555904

 2017-02-04 19:22:44.744949+01 | 1486232564.74495 | pgbench_accounts |       1381203968
 2017-02-04 19:22:44.744949+01 | 1486232564.74495 | pgbench_tellers  |          4235264
 2017-02-04 19:22:44.744949+01 | 1486232564.74495 | pgbench_history  |        426688512
 2017-02-04 19:22:44.744949+01 | 1486232564.74495 | pgbench_branches |          2555904

 2017-02-04 19:22:45.820855+01 | 1486232565.82085 | pgbench_accounts |       1381203968
 2017-02-04 19:22:45.820855+01 | 1486232565.82085 | pgbench_tellers  |          4235264
 2017-02-04 19:22:45.820855+01 | 1486232565.82085 | pgbench_history  |        428269568
 2017-02-04 19:22:45.820855+01 | 1486232565.82085 | pgbench_branches |          2555904

 2017-02-04 19:22:46.895263+01 | 1486232566.89526 | pgbench_accounts |       1381203968
 2017-02-04 19:22:46.895263+01 | 1486232566.89526 | pgbench_tellers  |          4235264
 2017-02-04 19:22:46.895263+01 | 1486232566.89526 | pgbench_history  |        430063616
 2017-02-04 19:22:46.895263+01 | 1486232566.89526 | pgbench_branches |          2555904

 2017-02-04 19:22:47.972625+01 | 1486232567.97263 | pgbench_accounts |       1381203968
 2017-02-04 19:22:47.972625+01 | 1486232567.97263 | pgbench_tellers  |          4235264
 2017-02-04 19:22:47.972625+01 | 1486232567.97263 | pgbench_history  |        432619520
 2017-02-04 19:22:47.972625+01 | 1486232567.97263 | pgbench_branches |          2555904

 2017-02-04 19:22:49.051548+01 | 1486232569.05155 | pgbench_accounts |       1381203968
 2017-02-04 19:22:49.051548+01 | 1486232569.05155 | pgbench_tellers  |          4235264
 2017-02-04 19:22:49.051548+01 | 1486232569.05155 | pgbench_history  |        433840128
 2017-02-04 19:22:49.051548+01 | 1486232569.05155 | pgbench_branches |          2555904

 2017-02-04 19:22:50.131061+01 | 1486232570.13106 | pgbench_accounts |       1381203968
 2017-02-04 19:22:50.131061+01 | 1486232570.13106 | pgbench_tellers  |          4235264
 2017-02-04 19:22:50.131061+01 | 1486232570.13106 | pgbench_history  |        436133888
 2017-02-04 19:22:50.131061+01 | 1486232570.13106 | pgbench_branches |          2555904

 2017-02-04 19:22:51.206196+01 | 1486232571.2062 | pgbench_accounts |       1381203968
 2017-02-04 19:22:51.206196+01 | 1486232571.2062 | pgbench_tellers  |          4235264
 2017-02-04 19:22:51.206196+01 | 1486232571.2062 | pgbench_history  |        437706752
 2017-02-04 19:22:51.206196+01 | 1486232571.2062 | pgbench_branches |          2555904

 2017-02-04 19:22:52.281836+01 | 1486232572.28184 | pgbench_accounts |       1381203968
 2017-02-04 19:22:52.281836+01 | 1486232572.28184 | pgbench_tellers  |          4235264
 2017-02-04 19:22:52.281836+01 | 1486232572.28184 | pgbench_history  |        442769408
 2017-02-04 19:22:52.281836+01 | 1486232572.28184 | pgbench_branches |          2555904

 2017-02-04 19:22:53.362914+01 | 1486232573.36291 | pgbench_accounts |       1381203968
 2017-02-04 19:22:53.362914+01 | 1486232573.36291 | pgbench_tellers  |          4235264
 2017-02-04 19:22:53.362914+01 | 1486232573.36291 | pgbench_history  |        442769408
 2017-02-04 19:22:53.362914+01 | 1486232573.36291 | pgbench_branches |          2555904

 2017-02-04 19:22:54.44148+01 | 1486232574.44148 | pgbench_accounts |       1381203968
 2017-02-04 19:22:54.44148+01 | 1486232574.44148 | pgbench_tellers  |          4235264
 2017-02-04 19:22:54.44148+01 | 1486232574.44148 | pgbench_history  |        443973632
 2017-02-04 19:22:54.44148+01 | 1486232574.44148 | pgbench_branches |          2555904

 2017-02-04 19:22:55.517968+01 | 1486232575.51797 | pgbench_accounts |       1381203968
 2017-02-04 19:22:55.517968+01 | 1486232575.51797 | pgbench_tellers  |          4235264
 2017-02-04 19:22:55.517968+01 | 1486232575.51797 | pgbench_history  |        445505536
 2017-02-04 19:22:55.517968+01 | 1486232575.51797 | pgbench_branches |          2555904

 2017-02-04 19:22:56.593419+01 | 1486232576.59342 | pgbench_accounts |       1381203968
 2017-02-04 19:22:56.593419+01 | 1486232576.59342 | pgbench_tellers  |          4235264
 2017-02-04 19:22:56.593419+01 | 1486232576.59342 | pgbench_history  |        447619072
 2017-02-04 19:22:56.593419+01 | 1486232576.59342 | pgbench_branches |          2555904

 2017-02-04 19:22:57.670574+01 | 1486232577.67057 | pgbench_accounts |       1381203968
 2017-02-04 19:22:57.670574+01 | 1486232577.67057 | pgbench_tellers  |          4235264
 2017-02-04 19:22:57.670574+01 | 1486232577.67057 | pgbench_history  |        449781760
 2017-02-04 19:22:57.670574+01 | 1486232577.67057 | pgbench_branches |          2555904

 2017-02-04 19:22:58.743294+01 | 1486232578.74329 | pgbench_accounts |       1381203968
 2017-02-04 19:22:58.743294+01 | 1486232578.74329 | pgbench_tellers  |          4235264
 2017-02-04 19:22:58.743294+01 | 1486232578.74329 | pgbench_history  |        451862528
 2017-02-04 19:22:58.743294+01 | 1486232578.74329 | pgbench_branches |          2555904

 2017-02-04 19:22:59.824232+01 | 1486232579.82423 | pgbench_accounts |       1381203968
 2017-02-04 19:22:59.824232+01 | 1486232579.82423 | pgbench_tellers  |          4235264
 2017-02-04 19:22:59.824232+01 | 1486232579.82423 | pgbench_history  |        453763072
 2017-02-04 19:22:59.824232+01 | 1486232579.82423 | pgbench_branches |          2555904

 2017-02-04 19:23:00.902232+01 | 1486232580.90223 | pgbench_accounts |       1381203968
 2017-02-04 19:23:00.902232+01 | 1486232580.90223 | pgbench_tellers  |          4235264
 2017-02-04 19:23:00.902232+01 | 1486232580.90223 | pgbench_history  |        455450624
 2017-02-04 19:23:00.902232+01 | 1486232580.90223 | pgbench_branches |          2555904

 2017-02-04 19:23:01.987838+01 | 1486232581.98784 | pgbench_accounts |       1381203968
 2017-02-04 19:23:01.987838+01 | 1486232581.98784 | pgbench_tellers  |          4235264
 2017-02-04 19:23:01.987838+01 | 1486232581.98784 | pgbench_history  |        458227712
 2017-02-04 19:23:01.987838+01 | 1486232581.98784 | pgbench_branches |          2555904

 2017-02-04 19:23:03.064708+01 | 1486232583.06471 | pgbench_accounts |       1381203968
 2017-02-04 19:23:03.064708+01 | 1486232583.06471 | pgbench_tellers  |          4235264
 2017-02-04 19:23:03.064708+01 | 1486232583.06471 | pgbench_history  |        459423744
 2017-02-04 19:23:03.064708+01 | 1486232583.06471 | pgbench_branches |          2555904

 2017-02-04 19:23:04.14162+01 | 1486232584.14162 | pgbench_accounts |       1381203968
 2017-02-04 19:23:04.14162+01 | 1486232584.14162 | pgbench_tellers  |          4235264
 2017-02-04 19:23:04.14162+01 | 1486232584.14162 | pgbench_history  |        461324288
 2017-02-04 19:23:04.14162+01 | 1486232584.14162 | pgbench_branches |          2555904

 2017-02-04 19:23:05.216746+01 | 1486232585.21675 | pgbench_accounts |       1381203968
 2017-02-04 19:23:05.216746+01 | 1486232585.21675 | pgbench_tellers  |          4235264
 2017-02-04 19:23:05.216746+01 | 1486232585.21675 | pgbench_history  |        463691776
 2017-02-04 19:23:05.216746+01 | 1486232585.21675 | pgbench_branches |          2555904

 2017-02-04 19:23:06.290448+01 | 1486232586.29045 | pgbench_accounts |       1381203968
 2017-02-04 19:23:06.290448+01 | 1486232586.29045 | pgbench_tellers  |          4235264
 2017-02-04 19:23:06.290448+01 | 1486232586.29045 | pgbench_history  |        465428480
 2017-02-04 19:23:06.290448+01 | 1486232586.29045 | pgbench_branches |          2555904

 2017-02-04 19:23:07.372817+01 | 1486232587.37282 | pgbench_accounts |       1381203968
 2017-02-04 19:23:07.372817+01 | 1486232587.37282 | pgbench_tellers  |          4235264
 2017-02-04 19:23:07.372817+01 | 1486232587.37282 | pgbench_history  |        466952192
 2017-02-04 19:23:07.372817+01 | 1486232587.37282 | pgbench_branches |          2555904

 2017-02-04 19:23:08.452671+01 | 1486232588.45267 | pgbench_accounts |       1381203968
 2017-02-04 19:23:08.452671+01 | 1486232588.45267 | pgbench_tellers  |          4235264
 2017-02-04 19:23:08.452671+01 | 1486232588.45267 | pgbench_history  |        469196800
 2017-02-04 19:23:08.452671+01 | 1486232588.45267 | pgbench_branches |          2555904

 2017-02-04 19:23:09.528319+01 | 1486232589.52832 | pgbench_accounts |       1381203968
 2017-02-04 19:23:09.528319+01 | 1486232589.52832 | pgbench_tellers  |          4235264
 2017-02-04 19:23:09.528319+01 | 1486232589.52832 | pgbench_history  |        471236608
 2017-02-04 19:23:09.528319+01 | 1486232589.52832 | pgbench_branches |          2555904

 2017-02-04 19:23:10.606106+01 | 1486232590.60611 | pgbench_accounts |       1381203968
 2017-02-04 19:23:10.606106+01 | 1486232590.60611 | pgbench_tellers  |          4235264
 2017-02-04 19:23:10.606106+01 | 1486232590.60611 | pgbench_history  |        472596480
 2017-02-04 19:23:10.606106+01 | 1486232590.60611 | pgbench_branches |          2555904

 2017-02-04 19:23:11.684064+01 | 1486232591.68406 | pgbench_accounts |       1381203968
 2017-02-04 19:23:11.684064+01 | 1486232591.68406 | pgbench_tellers  |          4235264
 2017-02-04 19:23:11.684064+01 | 1486232591.68406 | pgbench_history  |        474505216
 2017-02-04 19:23:11.684064+01 | 1486232591.68406 | pgbench_branches |          2555904

 2017-02-04 19:23:12.762491+01 | 1486232592.76249 | pgbench_accounts |       1381203968
 2017-02-04 19:23:12.762491+01 | 1486232592.76249 | pgbench_tellers  |          4235264
 2017-02-04 19:23:12.762491+01 | 1486232592.76249 | pgbench_history  |        477880320
 2017-02-04 19:23:12.762491+01 | 1486232592.76249 | pgbench_branches |          2555904

 2017-02-04 19:23:13.844975+01 | 1486232593.84497 | pgbench_accounts |       1381203968
 2017-02-04 19:23:13.844975+01 | 1486232593.84497 | pgbench_tellers  |          4235264
 2017-02-04 19:23:13.844975+01 | 1486232593.84497 | pgbench_history  |        478601216
 2017-02-04 19:23:13.844975+01 | 1486232593.84497 | pgbench_branches |          2555904

 2017-02-04 19:23:14.916802+01 | 1486232594.9168 | pgbench_accounts |       1381203968
 2017-02-04 19:23:14.916802+01 | 1486232594.9168 | pgbench_tellers  |          4235264
 2017-02-04 19:23:14.916802+01 | 1486232594.9168 | pgbench_history  |        480641024
 2017-02-04 19:23:14.916802+01 | 1486232594.9168 | pgbench_branches |          2555904

 2017-02-04 19:23:15.991193+01 | 1486232595.99119 | pgbench_accounts |       1381203968
 2017-02-04 19:23:15.991193+01 | 1486232595.99119 | pgbench_tellers  |          4235264
 2017-02-04 19:23:15.991193+01 | 1486232595.99119 | pgbench_history  |        482795520
 2017-02-04 19:23:15.991193+01 | 1486232595.99119 | pgbench_branches |          2555904

 2017-02-04 19:23:17.071507+01 | 1486232597.07151 | pgbench_accounts |       1381203968
 2017-02-04 19:23:17.071507+01 | 1486232597.07151 | pgbench_tellers  |          4235264
 2017-02-04 19:23:17.071507+01 | 1486232597.07151 | pgbench_history  |        484999168
 2017-02-04 19:23:17.071507+01 | 1486232597.07151 | pgbench_branches |          2555904

 2017-02-04 19:23:18.151045+01 | 1486232598.15105 | pgbench_accounts |       1381203968
 2017-02-04 19:23:18.151045+01 | 1486232598.15105 | pgbench_tellers  |          4235264
 2017-02-04 19:23:18.151045+01 | 1486232598.15105 | pgbench_history  |        486522880
 2017-02-04 19:23:18.151045+01 | 1486232598.15105 | pgbench_branches |          2555904

 2017-02-04 19:23:19.23092+01 | 1486232599.23092 | pgbench_accounts |       1381203968
 2017-02-04 19:23:19.23092+01 | 1486232599.23092 | pgbench_tellers  |          4235264
 2017-02-04 19:23:19.23092+01 | 1486232599.23092 | pgbench_history  |        488587264
 2017-02-04 19:23:19.23092+01 | 1486232599.23092 | pgbench_branches |          2555904

 2017-02-04 19:23:20.309783+01 | 1486232600.30978 | pgbench_accounts |       1381203968
 2017-02-04 19:23:20.309783+01 | 1486232600.30978 | pgbench_tellers  |          4235264
 2017-02-04 19:23:20.309783+01 | 1486232600.30978 | pgbench_history  |        490979328
 2017-02-04 19:23:20.309783+01 | 1486232600.30978 | pgbench_branches |          2555904

 2017-02-04 19:23:21.390953+01 | 1486232601.39095 | pgbench_accounts |       1381203968
 2017-02-04 19:23:21.390953+01 | 1486232601.39095 | pgbench_tellers  |          4235264
 2017-02-04 19:23:21.390953+01 | 1486232601.39095 | pgbench_history  |        492478464
 2017-02-04 19:23:21.390953+01 | 1486232601.39095 | pgbench_branches |          2555904

 2017-02-04 19:23:22.47026+01 | 1486232602.47026 | pgbench_accounts |       1381203968
 2017-02-04 19:23:22.47026+01 | 1486232602.47026 | pgbench_tellers  |          4235264
 2017-02-04 19:23:22.47026+01 | 1486232602.47026 | pgbench_history  |        494690304
 2017-02-04 19:23:22.47026+01 | 1486232602.47026 | pgbench_branches |          2555904

 2017-02-04 19:23:23.549504+01 | 1486232603.5495 | pgbench_accounts |       1381203968
 2017-02-04 19:23:23.549504+01 | 1486232603.5495 | pgbench_tellers  |          4235264
 2017-02-04 19:23:23.549504+01 | 1486232603.5495 | pgbench_history  |        496893952
 2017-02-04 19:23:23.549504+01 | 1486232603.5495 | pgbench_branches |          2555904

 2017-02-04 19:23:24.631223+01 | 1486232604.63122 | pgbench_accounts |       1381203968
 2017-02-04 19:23:24.631223+01 | 1486232604.63122 | pgbench_tellers  |          4235264
 2017-02-04 19:23:24.631223+01 | 1486232604.63122 | pgbench_history  |        498229248
 2017-02-04 19:23:24.631223+01 | 1486232604.63122 | pgbench_branches |          2555904

 2017-02-04 19:23:25.708359+01 | 1486232605.70836 | pgbench_accounts |       1381203968
 2017-02-04 19:23:25.708359+01 | 1486232605.70836 | pgbench_tellers  |          4235264
 2017-02-04 19:23:25.708359+01 | 1486232605.70836 | pgbench_history  |        500310016
 2017-02-04 19:23:25.708359+01 | 1486232605.70836 | pgbench_branches |          2555904

 2017-02-04 19:23:26.793535+01 | 1486232606.79353 | pgbench_accounts |       1381203968
 2017-02-04 19:23:26.793535+01 | 1486232606.79353 | pgbench_tellers  |          4235264
 2017-02-04 19:23:26.793535+01 | 1486232606.79353 | pgbench_history  |        503078912
 2017-02-04 19:23:26.793535+01 | 1486232606.79353 | pgbench_branches |          2555904

 2017-02-04 19:23:27.870726+01 | 1486232607.87073 | pgbench_accounts |       1381203968
 2017-02-04 19:23:27.870726+01 | 1486232607.87073 | pgbench_tellers  |          4235264
 2017-02-04 19:23:27.870726+01 | 1486232607.87073 | pgbench_history  |        504979456
 2017-02-04 19:23:27.870726+01 | 1486232607.87073 | pgbench_branches |          2555904

 2017-02-04 19:23:28.948257+01 | 1486232608.94826 | pgbench_accounts |       1381203968
 2017-02-04 19:23:28.948257+01 | 1486232608.94826 | pgbench_tellers  |          4235264
 2017-02-04 19:23:28.948257+01 | 1486232608.94826 | pgbench_history  |        506314752
 2017-02-04 19:23:28.948257+01 | 1486232608.94826 | pgbench_branches |          2555904

 2017-02-04 19:23:30.030011+01 | 1486232610.03001 | pgbench_accounts |       1381203968
 2017-02-04 19:23:30.030011+01 | 1486232610.03001 | pgbench_tellers  |          4235264
 2017-02-04 19:23:30.030011+01 | 1486232610.03001 | pgbench_history  |        508362752
 2017-02-04 19:23:30.030011+01 | 1486232610.03001 | pgbench_branches |          2555904

 2017-02-04 19:23:31.116944+01 | 1486232611.11694 | pgbench_accounts |       1381203968
 2017-02-04 19:23:31.116944+01 | 1486232611.11694 | pgbench_tellers  |          4235264
 2017-02-04 19:23:31.116944+01 | 1486232611.11694 | pgbench_history  |        510263296
 2017-02-04 19:23:31.116944+01 | 1486232611.11694 | pgbench_branches |          2555904

 2017-02-04 19:23:32.208002+01 | 1486232612.208 | pgbench_accounts |       1381203968
 2017-02-04 19:23:32.208002+01 | 1486232612.208 | pgbench_tellers  |          4235264
 2017-02-04 19:23:32.208002+01 | 1486232612.208 | pgbench_history  |        511975424
 2017-02-04 19:23:32.208002+01 | 1486232612.208 | pgbench_branches |          2555904

 2017-02-04 19:23:33.290497+01 | 1486232613.2905 | pgbench_accounts |       1381203968
 2017-02-04 19:23:33.290497+01 | 1486232613.2905 | pgbench_tellers  |          4235264
 2017-02-04 19:23:33.290497+01 | 1486232613.2905 | pgbench_history  |        513687552
 2017-02-04 19:23:33.290497+01 | 1486232613.2905 | pgbench_branches |          2555904

 2017-02-04 19:23:34.365028+01 | 1486232614.36503 | pgbench_accounts |       1381203968
 2017-02-04 19:23:34.365028+01 | 1486232614.36503 | pgbench_tellers  |          4235264
 2017-02-04 19:23:34.365028+01 | 1486232614.36503 | pgbench_history  |        515891200
 2017-02-04 19:23:34.365028+01 | 1486232614.36503 | pgbench_branches |          2555904

 2017-02-04 19:23:35.441056+01 | 1486232615.44106 | pgbench_accounts |       1381203968
 2017-02-04 19:23:35.441056+01 | 1486232615.44106 | pgbench_tellers  |          4235264
 2017-02-04 19:23:35.441056+01 | 1486232615.44106 | pgbench_history  |        517414912
 2017-02-04 19:23:35.441056+01 | 1486232615.44106 | pgbench_branches |          2555904

 2017-02-04 19:23:36.519917+01 | 1486232616.51992 | pgbench_accounts |       1381203968
 2017-02-04 19:23:36.519917+01 | 1486232616.51992 | pgbench_tellers  |          4235264
 2017-02-04 19:23:36.519917+01 | 1486232616.51992 | pgbench_history  |        519462912
 2017-02-04 19:23:36.519917+01 | 1486232616.51992 | pgbench_branches |          2555904

 2017-02-04 19:23:37.604409+01 | 1486232617.60441 | pgbench_accounts |       1381203968
 2017-02-04 19:23:37.604409+01 | 1486232617.60441 | pgbench_tellers  |          4235264
 2017-02-04 19:23:37.604409+01 | 1486232617.60441 | pgbench_history  |        521191424
 2017-02-04 19:23:37.604409+01 | 1486232617.60441 | pgbench_branches |          2555904

 2017-02-04 19:23:38.680395+01 | 1486232618.68039 | pgbench_accounts |       1381203968
 2017-02-04 19:23:38.680395+01 | 1486232618.68039 | pgbench_tellers  |          4235264
 2017-02-04 19:23:38.680395+01 | 1486232618.68039 | pgbench_history  |        522747904
 2017-02-04 19:23:38.680395+01 | 1486232618.68039 | pgbench_branches |          2555904

 2017-02-04 19:23:39.754818+01 | 1486232619.75482 | pgbench_accounts |       1381203968
 2017-02-04 19:23:39.754818+01 | 1486232619.75482 | pgbench_tellers  |          4235264
 2017-02-04 19:23:39.754818+01 | 1486232619.75482 | pgbench_history  |        524484608
 2017-02-04 19:23:39.754818+01 | 1486232619.75482 | pgbench_branches |          2555904

 2017-02-04 19:23:40.829702+01 | 1486232620.8297 | pgbench_accounts |       1381203968
 2017-02-04 19:23:40.829702+01 | 1486232620.8297 | pgbench_tellers  |          4235264
 2017-02-04 19:23:40.829702+01 | 1486232620.8297 | pgbench_history  |        526696448
 2017-02-04 19:23:40.829702+01 | 1486232620.8297 | pgbench_branches |          2555904

 2017-02-04 19:23:41.902949+01 | 1486232621.90295 | pgbench_accounts |       1381203968
 2017-02-04 19:23:41.902949+01 | 1486232621.90295 | pgbench_tellers  |          4235264
 2017-02-04 19:23:41.902949+01 | 1486232621.90295 | pgbench_history  |        529088512
 2017-02-04 19:23:41.902949+01 | 1486232621.90295 | pgbench_branches |          2555904

 2017-02-04 19:23:42.980227+01 | 1486232622.98023 | pgbench_accounts |       1381203968
 2017-02-04 19:23:42.980227+01 | 1486232622.98023 | pgbench_tellers  |          4235264
 2017-02-04 19:23:42.980227+01 | 1486232622.98023 | pgbench_history  |        530661376
 2017-02-04 19:23:42.980227+01 | 1486232622.98023 | pgbench_branches |          2555904

 2017-02-04 19:23:44.0548+01 | 1486232624.0548 | pgbench_accounts |       1381203968
 2017-02-04 19:23:44.0548+01 | 1486232624.0548 | pgbench_tellers  |          4235264
 2017-02-04 19:23:44.0548+01 | 1486232624.0548 | pgbench_history  |        532545536
 2017-02-04 19:23:44.0548+01 | 1486232624.0548 | pgbench_branches |          2555904

 2017-02-04 19:23:45.128018+01 | 1486232625.12802 | pgbench_accounts |       1381203968
 2017-02-04 19:23:45.128018+01 | 1486232625.12802 | pgbench_tellers  |          4235264
 2017-02-04 19:23:45.128018+01 | 1486232625.12802 | pgbench_history  |        534618112
 2017-02-04 19:23:45.128018+01 | 1486232625.12802 | pgbench_branches |          2555904

 2017-02-04 19:23:46.205826+01 | 1486232626.20583 | pgbench_accounts |       1381203968
 2017-02-04 19:23:46.205826+01 | 1486232626.20583 | pgbench_tellers  |          4235264
 2017-02-04 19:23:46.205826+01 | 1486232626.20583 | pgbench_history  |        536895488
 2017-02-04 19:23:46.205826+01 | 1486232626.20583 | pgbench_branches |          2555904

 2017-02-04 19:23:47.280955+01 | 1486232627.28096 | pgbench_accounts |       1381203968
 2017-02-04 19:23:47.280955+01 | 1486232627.28096 | pgbench_tellers  |          4235264
 2017-02-04 19:23:47.280955+01 | 1486232627.28096 | pgbench_history  |        538509312
 2017-02-04 19:23:47.280955+01 | 1486232627.28096 | pgbench_branches |          2555904

 2017-02-04 19:23:48.359968+01 | 1486232628.35997 | pgbench_accounts |       1381203968
 2017-02-04 19:23:48.359968+01 | 1486232628.35997 | pgbench_tellers  |          4235264
 2017-02-04 19:23:48.359968+01 | 1486232628.35997 | pgbench_history  |        541204480
 2017-02-04 19:23:48.359968+01 | 1486232628.35997 | pgbench_branches |          2555904

 2017-02-04 19:23:49.43878+01 | 1486232629.43878 | pgbench_accounts |       1381203968
 2017-02-04 19:23:49.43878+01 | 1486232629.43878 | pgbench_tellers  |          4235264
 2017-02-04 19:23:49.43878+01 | 1486232629.43878 | pgbench_history  |        542564352
 2017-02-04 19:23:49.43878+01 | 1486232629.43878 | pgbench_branches |          2555904

 2017-02-04 19:23:50.511448+01 | 1486232630.51145 | pgbench_accounts |       1381203968
 2017-02-04 19:23:50.511448+01 | 1486232630.51145 | pgbench_tellers  |          4235264
 2017-02-04 19:23:50.511448+01 | 1486232630.51145 | pgbench_history  |        545800192
 2017-02-04 19:23:50.511448+01 | 1486232630.51145 | pgbench_branches |          2555904

 2017-02-04 19:23:51.588216+01 | 1486232631.58822 | pgbench_accounts |       1381203968
 2017-02-04 19:23:51.588216+01 | 1486232631.58822 | pgbench_tellers  |          4235264
 2017-02-04 19:23:51.588216+01 | 1486232631.58822 | pgbench_history  |        547160064
 2017-02-04 19:23:51.588216+01 | 1486232631.58822 | pgbench_branches |          2555904

 2017-02-04 19:23:52.667544+01 | 1486232632.66754 | pgbench_accounts |       1381203968
 2017-02-04 19:23:52.667544+01 | 1486232632.66754 | pgbench_tellers  |          4235264
 2017-02-04 19:23:52.667544+01 | 1486232632.66754 | pgbench_history  |        549339136
 2017-02-04 19:23:52.667544+01 | 1486232632.66754 | pgbench_branches |          2555904

