 2017-02-04 19:18:52.858732+01 | 1486232332.85873 | 1A/9A87F120              |          114261750048

 2017-02-04 19:18:53.95028+01 | 1486232333.95028 | 1A/A5E84F78              |          114452615032

 2017-02-04 19:18:55.034419+01 | 1486232335.03442 | 1A/AED92A20              |          114602617376

 2017-02-04 19:18:56.115139+01 | 1486232336.11514 | 1A/B572FFD0              |          114713362384

 2017-02-04 19:18:57.201226+01 | 1486232337.20123 | 1A/BA7490B0              |          114797351088

 2017-02-04 19:18:58.278133+01 | 1486232338.27813 | 1A/BE945E28              |          114866544168

 2017-02-04 19:18:59.362149+01 | 1486232339.36215 | 1A/C205AFF8              |          114924302328

 2017-02-04 19:19:00.443025+01 | 1486232340.44303 | 1A/C525FA68              |          114976750184

 2017-02-04 19:19:01.525767+01 | 1486232341.52577 | 1A/C84C00F0              |          115029573872

 2017-02-04 19:19:02.597216+01 | 1486232342.59722 | 1A/CB2A4C30              |          115077696560

 2017-02-04 19:19:03.672673+01 | 1486232343.67267 | 1A/CE1916F8              |          115126900472

 2017-02-04 19:19:04.746795+01 | 1486232344.74679 | 1A/D0A15AE8              |          115169385192

 2017-02-04 19:19:05.826745+01 | 1486232345.82675 | 1A/D33BDC30              |          115213065264

 2017-02-04 19:19:06.906255+01 | 1486232346.90626 | 1A/D5A8A3B0              |          115253748656

 2017-02-04 19:19:07.982752+01 | 1486232347.98275 | 1A/D803F578              |          115293287800

 2017-02-04 19:19:09.064273+01 | 1486232349.06427 | 1A/DA44EB70              |          115331099504

 2017-02-04 19:19:10.137647+01 | 1486232350.13765 | 1A/DC6C4598              |          115367232920

 2017-02-04 19:19:11.217827+01 | 1486232351.21783 | 1A/DE8813E0              |          115402609632

 2017-02-04 19:19:12.292223+01 | 1486232352.29222 | 1A/E0795830              |          115435198512

 2017-02-04 19:19:13.373789+01 | 1486232353.37379 | 1A/E27A0F10              |          115468799760

 2017-02-04 19:19:14.447332+01 | 1486232354.44733 | 1A/E4471770              |          115499014000

 2017-02-04 19:19:15.524232+01 | 1486232355.52423 | 1A/E622C4C0              |          115530187968

 2017-02-04 19:19:16.602643+01 | 1486232356.60264 | 1A/E7EB4C28              |          115560107048

 2017-02-04 19:19:17.69191+01 | 1486232357.69191 | 1A/E9A0E6F0              |          115588785904

 2017-02-04 19:19:18.7634+01 | 1486232358.7634 | 1A/EB5B22E0              |          115617768160

 2017-02-04 19:19:19.846736+01 | 1486232359.84674 | 1A/ED101A68              |          115646405224

 2017-02-04 19:19:20.925797+01 | 1486232360.9258 | 1A/EEC87220              |          115675263520

 2017-02-04 19:19:22.005011+01 | 1486232362.00501 | 1A/F07C4430              |          115703825456

 2017-02-04 19:19:23.072481+01 | 1486232363.07248 | 1A/F24B1A78              |          115734157944

 2017-02-04 19:19:24.147494+01 | 1486232364.14749 | 1A/F4059550              |          115763156304

 2017-02-04 19:19:25.224289+01 | 1486232365.22429 | 1A/F5A1D010              |          115790172176

 2017-02-04 19:19:26.301589+01 | 1486232366.30159 | 1A/F73E2BE0              |          115817196512

 2017-02-04 19:19:27.365007+01 | 1486232367.36501 | 1A/F8AC64D8              |          115841197272

 2017-02-04 19:19:28.440205+01 | 1486232368.44021 | 1A/FA4452D8              |          115867931352

 2017-02-04 19:19:29.516188+01 | 1486232369.51619 | 1A/FBDF9CD0              |          115894885584

 2017-02-04 19:19:30.596088+01 | 1486232370.59609 | 1A/FD6E2600              |          115921004032

 2017-02-04 19:19:31.674486+01 | 1486232371.67449 | 1A/FF1BAEB8              |          115949153976

 2017-02-04 19:19:32.752925+01 | 1486232372.75292 | 1B/9FB850                |          115974584400

 2017-02-04 19:19:33.832606+01 | 1486232373.83261 | 1B/21CD648               |          115999561288

 2017-02-04 19:19:34.910194+01 | 1486232374.91019 | 1B/3AB5BC0               |          116025678784

 2017-02-04 19:19:35.987293+01 | 1486232375.98729 | 1B/546AA98               |          116052634264

 2017-02-04 19:19:37.0627+01 | 1486232377.0627 | 1B/6BCF090               |          116077162640

 2017-02-04 19:19:38.138729+01 | 1486232378.13873 | 1B/8334990               |          116101695888

 2017-02-04 19:19:39.217886+01 | 1486232379.21789 | 1B/9AEDE88               |          116126572168

 2017-02-04 19:19:40.292291+01 | 1486232380.29229 | 1B/B18CB48               |          116150291272

 2017-02-04 19:19:41.364492+01 | 1486232381.36449 | 1B/C8897E8               |          116174395368

 2017-02-04 19:19:42.442902+01 | 1486232382.4429 | 1B/DEC4CE0               |          116197706976

 2017-02-04 19:19:43.531981+01 | 1486232383.53198 | 1B/F41B860               |          116220082272

 2017-02-04 19:19:44.627751+01 | 1486232384.62775 | 1B/10888D50              |          116241501520

 2017-02-04 19:19:45.706001+01 | 1486232385.706 | 1B/11DBB840              |          116263729216

 2017-02-04 19:19:46.784685+01 | 1486232386.78468 | 1B/131B7820              |          116284684320

 2017-02-04 19:19:47.867466+01 | 1486232387.86747 | 1B/14493338              |          116304458552

 2017-02-04 19:19:48.945303+01 | 1486232388.9453 | 1B/15543408              |          116321956872

 2017-02-04 19:19:50.018701+01 | 1486232390.0187 | 1B/1649B2E0              |          116338045664

 2017-02-04 19:19:51.100648+01 | 1486232391.10065 | 1B/173373D8              |          116353364952

 2017-02-04 19:19:52.186513+01 | 1486232392.18651 | 1B/1830F678              |          116369979000

 2017-02-04 19:19:53.269181+01 | 1486232393.26918 | 1B/192C90E0              |          116386468064

 2017-02-04 19:19:54.344815+01 | 1486232394.34482 | 1B/1A3CE2C8              |          116404314824

 2017-02-04 19:19:55.41968+01 | 1486232395.41968 | 1B/1B519960              |          116422449504

 2017-02-04 19:19:56.50066+01 | 1486232396.50066 | 1B/1C644AE0              |          116440451808

 2017-02-04 19:19:57.572731+01 | 1486232397.57273 | 1B/1D64DB98              |          116457266072

 2017-02-04 19:19:58.651549+01 | 1486232398.65155 | 1B/1E7EB368              |          116475736936

 2017-02-04 19:19:59.730884+01 | 1486232399.73088 | 1B/1FA32CC8              |          116494904520

 2017-02-04 19:20:00.806501+01 | 1486232400.8065 | 1B/20B418C0              |          116512790720

 2017-02-04 19:20:01.889778+01 | 1486232401.88978 | 1B/21CA4340              |          116531020608

 2017-02-04 19:20:02.967107+01 | 1486232402.96711 | 1B/22D4A628              |          116548478504

 2017-02-04 19:20:04.050835+01 | 1486232404.05083 | 1B/23E78BD0              |          116566494160

 2017-02-04 19:20:05.124694+01 | 1486232405.12469 | 1B/24F0C938              |          116583876920

 2017-02-04 19:20:06.187858+01 | 1486232406.18786 | 1B/260A0260              |          116602307168

 2017-02-04 19:20:07.256791+01 | 1486232407.25679 | 1B/271D8B90              |          116620364688

 2017-02-04 19:20:08.333166+01 | 1486232408.33317 | 1B/28335308              |          116638569224

 2017-02-04 19:20:09.408466+01 | 1486232409.40847 | 1B/294464E0              |          116656465120

 2017-02-04 19:20:10.487116+01 | 1486232410.48712 | 1B/2A4B0620              |          116673676832

 2017-02-04 19:20:11.566063+01 | 1486232411.56606 | 1B/2B6479E0              |          116692122080

 2017-02-04 19:20:12.643744+01 | 1486232412.64374 | 1B/2C668510              |          116709033232

 2017-02-04 19:20:13.720362+01 | 1486232413.72036 | 1B/2D970BD0              |          116728990672

 2017-02-04 19:20:14.801565+01 | 1486232414.80156 | 1B/2EDD1540              |          116750357824

 2017-02-04 19:20:15.876799+01 | 1486232415.8768 | 1B/30586700              |          116775216896

 2017-02-04 19:20:16.956106+01 | 1486232416.95611 | 1B/31EAD980              |          116801591680

 2017-02-04 19:20:18.030345+01 | 1486232418.03034 | 1B/33904E60              |          116829212256

 2017-02-04 19:20:19.100318+01 | 1486232419.10032 | 1B/35194FC8              |          116854968264

 2017-02-04 19:20:20.175149+01 | 1486232420.17515 | 1B/36500B48              |          116875332424

 2017-02-04 19:20:21.252263+01 | 1486232421.25226 | 1B/3757B928              |          116892612904

 2017-02-04 19:20:22.329243+01 | 1486232422.32924 | 1B/38C8B9B0              |          116916795824

 2017-02-04 19:20:23.408883+01 | 1486232423.40888 | 1B/3A10FD60              |          116938308960

 2017-02-04 19:20:24.486413+01 | 1486232424.48641 | 1B/3B15F550              |          116955411792

 2017-02-04 19:20:25.566765+01 | 1486232425.56677 | 1B/3C22A4F8              |          116973020408

 2017-02-04 19:20:26.642405+01 | 1486232426.64241 | 1B/3D689898              |          116994381976

 2017-02-04 19:20:27.720716+01 | 1486232427.72072 | 1B/3E80F5B0              |          117012755888

 2017-02-04 19:20:28.78916+01 | 1486232428.78916 | 1B/3F60CB40              |          117027425088

 2017-02-04 19:20:29.86653+01 | 1486232429.86653 | 1B/404A0A28              |          117042711080

 2017-02-04 19:20:30.951743+01 | 1486232430.95174 | 1B/413DE978              |          117058693496

 2017-02-04 19:20:32.02901+01 | 1486232432.02901 | 1B/422592D8              |          117073875672

 2017-02-04 19:20:33.113407+01 | 1486232433.11341 | 1B/43254090              |          117090633600

 2017-02-04 19:20:34.19446+01 | 1486232434.19446 | 1B/441CDEC0              |          117106859712

 2017-02-04 19:20:35.271976+01 | 1486232435.27198 | 1B/451DB8E0              |          117123692768

 2017-02-04 19:20:36.347487+01 | 1486232436.34749 | 1B/4616E230              |          117140021808

 2017-02-04 19:20:37.427792+01 | 1486232437.42779 | 1B/47131A10              |          117156551184

 2017-02-04 19:20:38.503432+01 | 1486232438.50343 | 1B/4819E3E0              |          117173773280

 2017-02-04 19:20:39.582691+01 | 1486232439.58269 | 1B/49196EC8              |          117190520520

 2017-02-04 19:20:40.661428+01 | 1486232440.66143 | 1B/4A200528              |          117207729448

 2017-02-04 19:20:41.741452+01 | 1486232441.74145 | 1B/4B159FB0              |          117223825328

 2017-02-04 19:20:42.817133+01 | 1486232442.81713 | 1B/4C17C2A0              |          117240742560

 2017-02-04 19:20:43.8997+01 | 1486232443.8997 | 1B/4D1F5368              |          117258015592

 2017-02-04 19:20:44.975475+01 | 1486232444.97548 | 1B/4E2144A0              |          117274920096

 2017-02-04 19:20:46.049949+01 | 1486232446.04995 | 1B/4F1EE4B0              |          117291541680

 2017-02-04 19:20:47.129881+01 | 1486232447.12988 | 1B/501B6068              |          117308088424

 2017-02-04 19:20:48.211366+01 | 1486232448.21137 | 1B/51203A38              |          117325183544

 2017-02-04 19:20:49.284885+01 | 1486232449.28488 | 1B/52192800              |          117341497344

 2017-02-04 19:20:50.366695+01 | 1486232450.36669 | 1B/53115FE8              |          117357764584

 2017-02-04 19:20:51.459811+01 | 1486232451.45981 | 1B/54076080              |          117373886592

 2017-02-04 19:20:52.534577+01 | 1486232452.53458 | 1B/550EE248              |          117391155784

 2017-02-04 19:20:53.615193+01 | 1486232453.61519 | 1B/56183358              |          117408543576

 2017-02-04 19:20:54.691032+01 | 1486232454.69103 | 1B/57139EC0              |          117425020608

 2017-02-04 19:20:55.7665+01 | 1486232455.7665 | 1B/5809CFE0              |          117441155040

 2017-02-04 19:20:56.850053+01 | 1486232456.85005 | 1B/59001E60              |          117457296992

 2017-02-04 19:20:57.934717+01 | 1486232457.93472 | 1B/59FFD868              |          117474056296

 2017-02-04 19:20:59.01615+01 | 1486232459.01615 | 1B/5AEF1AE0              |          117489736416

 2017-02-04 19:21:00.090602+01 | 1486232460.0906 | 1B/5BEF4760              |          117506525024

 2017-02-04 19:21:01.167985+01 | 1486232461.16798 | 1B/5CF321A0              |          117523554720

 2017-02-04 19:21:02.247418+01 | 1486232462.24742 | 1B/5DDF6E80              |          117539040896

 2017-02-04 19:21:03.326761+01 | 1486232463.32676 | 1B/5ED715E8              |          117555271144

 2017-02-04 19:21:04.402099+01 | 1486232464.4021 | 1B/5FD16C88              |          117571677320

 2017-02-04 19:21:05.476646+01 | 1486232465.47665 | 1B/60DDBAA8              |          117589260968

 2017-02-04 19:21:06.553345+01 | 1486232466.55334 | 1B/61D99CB8              |          117605768376

 2017-02-04 19:21:07.633122+01 | 1486232467.63312 | 1B/62D68A00              |          117622344192

 2017-02-04 19:21:08.711254+01 | 1486232468.71125 | 1B/63D57B30              |          117639052080

 2017-02-04 19:21:09.793304+01 | 1486232469.7933 | 1B/64DE0340              |          117656388416

 2017-02-04 19:21:10.860008+01 | 1486232470.86001 | 1B/65D2E918              |          117672438040

 2017-02-04 19:21:11.939244+01 | 1486232471.93924 | 1B/66EA1580              |          117690733952

 2017-02-04 19:21:13.015592+01 | 1486232473.01559 | 1B/67EBAF68              |          117707616104

 2017-02-04 19:21:14.092674+01 | 1486232474.09267 | 1B/68FAA288              |          117725373064

 2017-02-04 19:21:15.16631+01 | 1486232475.16631 | 1B/6A171A30              |          117744015920

 2017-02-04 19:21:16.242491+01 | 1486232476.24249 | 1B/6B29D210              |          117762019856

 2017-02-04 19:21:17.322745+01 | 1486232477.32275 | 1B/6C3FA748              |          117780227912

 2017-02-04 19:21:18.401667+01 | 1486232478.40167 | 1B/6D5118D8              |          117798148312

 2017-02-04 19:21:19.481825+01 | 1486232479.48183 | 1B/6E5A67A0              |          117815535520

 2017-02-04 19:21:20.55967+01 | 1486232480.55967 | 1B/6F533D40              |          117831843136

 2017-02-04 19:21:21.636407+01 | 1486232481.63641 | 1B/704BB198              |          117848125848

 2017-02-04 19:21:22.715893+01 | 1486232482.71589 | 1B/715C6688              |          117865997960

 2017-02-04 19:21:23.79763+01 | 1486232483.79763 | 1B/72699AC0              |          117883640512

 2017-02-04 19:21:24.882153+01 | 1486232484.88215 | 1B/73690B18              |          117900380952

 2017-02-04 19:21:25.965039+01 | 1486232485.96504 | 1B/74629A40              |          117916736064

 2017-02-04 19:21:27.044043+01 | 1486232487.04404 | 1B/755E0AB0              |          117933214384

 2017-02-04 19:21:28.126382+01 | 1486232488.12638 | 1B/76577F60              |          117949562720

 2017-02-04 19:21:29.205154+01 | 1486232489.20515 | 1B/774751E0              |          117965279712

 2017-02-04 19:21:30.283991+01 | 1486232490.28399 | 1B/78318040              |          117980627008

 2017-02-04 19:21:31.368874+01 | 1486232491.36887 | 1B/79207400              |          117996286976

 2017-02-04 19:21:32.457007+01 | 1486232492.45701 | 1B/7A13DD30              |          118012239152

 2017-02-04 19:21:33.534238+01 | 1486232493.53424 | 1B/7B0EC218              |          118028681752

 2017-02-04 19:21:34.615313+01 | 1486232494.61531 | 1B/7C0C6A10              |          118045305360

 2017-02-04 19:21:35.691737+01 | 1486232495.69174 | 1B/7D07F060              |          118061789280

 2017-02-04 19:21:36.76792+01 | 1486232496.76792 | 1B/7DFEDC40              |          118077971520

 2017-02-04 19:21:37.844031+01 | 1486232497.84403 | 1B/7EEE4388              |          118093661064

 2017-02-04 19:21:38.919097+01 | 1486232498.9191 | 1B/7FE9CE30              |          118110146096

 2017-02-04 19:21:39.999212+01 | 1486232499.99921 | 1B/80D707B8              |          118125692856

 2017-02-04 19:21:41.08252+01 | 1486232501.08252 | 1B/81CFD540              |          118141998400

 2017-02-04 19:21:42.156618+01 | 1486232502.15662 | 1B/82C84958              |          118158281048

 2017-02-04 19:21:43.243362+01 | 1486232503.24336 | 1B/83D2A0E8              |          118175736040

 2017-02-04 19:21:44.32357+01 | 1486232504.32357 | 1B/84CF1D60              |          118192282976

 2017-02-04 19:21:45.401728+01 | 1486232505.40173 | 1B/85D072D8              |          118209147608

 2017-02-04 19:21:46.477994+01 | 1486232506.47799 | 1B/86C8A698              |          118225413784

 2017-02-04 19:21:47.555072+01 | 1486232507.55507 | 1B/87C3C218              |          118241870360

 2017-02-04 19:21:48.632142+01 | 1486232508.63214 | 1B/88C9B2E0              |          118259036896

 2017-02-04 19:21:49.710749+01 | 1486232509.71075 | 1B/89C74BA8              |          118275656616

 2017-02-04 19:21:50.787392+01 | 1486232510.78739 | 1B/8ABD13E0              |          118291764192

 2017-02-04 19:21:51.863898+01 | 1486232511.8639 | 1B/8BBE37E8              |          118308616168

 2017-02-04 19:21:52.94499+01 | 1486232512.94499 | 1B/8CB9A298              |          118325093016

 2017-02-04 19:21:54.020748+01 | 1486232514.02075 | 1B/8DB64608              |          118341649928

 2017-02-04 19:21:55.100268+01 | 1486232515.10027 | 1B/8EB29E30              |          118358187568

 2017-02-04 19:21:56.18013+01 | 1486232516.18013 | 1B/8FB09010              |          118374830096

 2017-02-04 19:21:57.256131+01 | 1486232517.25613 | 1B/90A40168              |          118390784360

 2017-02-04 19:21:58.333722+01 | 1486232518.33372 | 1B/91A4D1D0              |          118407614928

 2017-02-04 19:21:59.41019+01 | 1486232519.41019 | 1B/929923D0              |          118423626704

 2017-02-04 19:22:00.491786+01 | 1486232520.49179 | 1B/9384BBA0              |          118439066528

 2017-02-04 19:22:01.566732+01 | 1486232521.56673 | 1B/947F99B0              |          118455507376

 2017-02-04 19:22:02.644157+01 | 1486232522.64416 | 1B/9576FD70              |          118471720304

 2017-02-04 19:22:03.719856+01 | 1486232523.71986 | 1B/9673FB48              |          118488300360

 2017-02-04 19:22:04.792837+01 | 1486232524.79284 | 1B/976180E0              |          118503866592

 2017-02-04 19:22:05.867457+01 | 1486232525.86746 | 1B/984C3FC8              |          118519250888

 2017-02-04 19:22:06.948584+01 | 1486232526.94858 | 1B/99409960              |          118535264608

 2017-02-04 19:22:08.025372+01 | 1486232528.02537 | 1B/9A2CD248              |          118550745672

 2017-02-04 19:22:09.104699+01 | 1486232529.1047 | 1B/9B1F5708              |          118566639368

 2017-02-04 19:22:10.179117+01 | 1486232530.17912 | 1B/9C08D5C0              |          118581941696

 2017-02-04 19:22:11.244423+01 | 1486232531.24442 | 1B/9D0705C8              |          118598600136

 2017-02-04 19:22:12.317744+01 | 1486232532.31774 | 1B/9E04BB20              |          118615227168

 2017-02-04 19:22:13.400718+01 | 1486232533.40072 | 1B/9F0A1998              |          118632356248

 2017-02-04 19:22:14.476135+01 | 1486232534.47614 | 1B/A000ED60              |          118648532320

 2017-02-04 19:22:15.557305+01 | 1486232535.55731 | 1B/A0FEBAC8              |          118665165512

 2017-02-04 19:22:16.631521+01 | 1486232536.63152 | 1B/A1FA1CC8              |          118681640136

 2017-02-04 19:22:17.708387+01 | 1486232537.70839 | 1B/A308EA68              |          118699387496

 2017-02-04 19:22:18.788797+01 | 1486232538.7888 | 1B/A420BC48              |          118717725768

 2017-02-04 19:22:19.870969+01 | 1486232539.87097 | 1B/A5495130              |          118737162544

 2017-02-04 19:22:20.948008+01 | 1486232540.94801 | 1B/A66E07E0              |          118756345824

 2017-02-04 19:22:22.022352+01 | 1486232542.02235 | 1B/A787C588              |          118774809992

 2017-02-04 19:22:23.099026+01 | 1486232543.09903 | 1B/A8A36738              |          118793398072

 2017-02-04 19:22:24.175391+01 | 1486232544.17539 | 1B/A9A813D8              |          118810481624

 2017-02-04 19:22:25.260535+01 | 1486232545.26054 | 1B/AAA13B88              |          118826810248

 2017-02-04 19:22:26.339741+01 | 1486232546.33974 | 1B/AB9BB9B8              |          118843226552

 2017-02-04 19:22:27.422368+01 | 1486232547.42237 | 1B/ACAD84B0              |          118861169840

 2017-02-04 19:22:28.50568+01 | 1486232548.50568 | 1B/ADC0AC30              |          118879202352

 2017-02-04 19:22:29.586275+01 | 1486232549.58628 | 1B/AEBD5A50              |          118895762000

 2017-02-04 19:22:30.664971+01 | 1486232550.66497 | 1B/AFBA5240              |          118912340544

 2017-02-04 19:22:31.754617+01 | 1486232551.75462 | 1B/B0AC0E48              |          118928182856

 2017-02-04 19:22:32.828748+01 | 1486232552.82875 | 1B/B19FC730              |          118944155440

 2017-02-04 19:22:33.901799+01 | 1486232553.9018 | 1B/B297FE30              |          118960422448

 2017-02-04 19:22:34.984248+01 | 1486232554.98425 | 1B/B37A6880              |          118975260800

 2017-02-04 19:22:36.066044+01 | 1486232556.06604 | 1B/B4710568              |          118991422824

 2017-02-04 19:22:37.145163+01 | 1486232557.14516 | 1B/B56C2238              |          119007879736

 2017-02-04 19:22:38.219484+01 | 1486232558.21948 | 1B/B66723C0              |          119024329664

 2017-02-04 19:22:39.298438+01 | 1486232559.29844 | 1B/B75DE818              |          119040501784

 2017-02-04 19:22:40.384574+01 | 1486232560.38457 | 1B/B8557318              |          119056724760

 2017-02-04 19:22:41.460595+01 | 1486232561.46059 | 1B/B94FDE80              |          119073136256

 2017-02-04 19:22:42.541659+01 | 1486232562.54166 | 1B/BA4A8540              |          119089562944

 2017-02-04 19:22:43.620278+01 | 1486232563.62028 | 1B/BB4155A8              |          119105738152

 2017-02-04 19:22:44.697777+01 | 1486232564.69778 | 1B/BC376C00              |          119121865728

 2017-02-04 19:22:45.772142+01 | 1486232565.77214 | 1B/BD2E2418              |          119138034712

 2017-02-04 19:22:46.851046+01 | 1486232566.85105 | 1B/BE248530              |          119154181424

 2017-02-04 19:22:47.925805+01 | 1486232567.92581 | 1B/BF19F888              |          119170267272

 2017-02-04 19:22:49.004876+01 | 1486232569.00488 | 1B/C0082210              |          119185875472

 2017-02-04 19:22:50.084267+01 | 1486232570.08427 | 1B/C0F71C00              |          119201537024

 2017-02-04 19:22:51.160895+01 | 1486232571.1609 | 1B/C1ED94C8              |          119217689800

 2017-02-04 19:22:52.235939+01 | 1486232572.23594 | 1B/C2DDE700              |          119233439488

 2017-02-04 19:22:53.311424+01 | 1486232573.31142 | 1B/C3D27458              |          119249466456

 2017-02-04 19:22:54.392762+01 | 1486232574.39276 | 1B/C4CCB430              |          119265866800

 2017-02-04 19:22:55.473302+01 | 1486232575.4733 | 1B/C5C4DC88              |          119282130056

 2017-02-04 19:22:56.54954+01 | 1486232576.54954 | 1B/C6BD0B38              |          119298394936

 2017-02-04 19:22:57.622194+01 | 1486232577.62219 | 1B/C7BA0F00              |          119314976512

 2017-02-04 19:22:58.70003+01 | 1486232578.70003 | 1B/C8B2A1C0              |          119331267008

 2017-02-04 19:22:59.779085+01 | 1486232579.77908 | 1B/C9A354E8              |          119347041512

 2017-02-04 19:23:00.856187+01 | 1486232580.85619 | 1B/CA9A5BE0              |          119363230688

 2017-02-04 19:23:01.939026+01 | 1486232581.93903 | 1B/CB7C0658              |          119378019928

 2017-02-04 19:23:03.015402+01 | 1486232583.0154 | 1B/CC740038              |          119394271288

 2017-02-04 19:23:04.096207+01 | 1486232584.09621 | 1B/CD622DF8              |          119409880568

 2017-02-04 19:23:05.170588+01 | 1486232585.17059 | 1B/CE4940D8              |          119425024216

 2017-02-04 19:23:06.245584+01 | 1486232586.24558 | 1B/CF37BD08              |          119440653576

 2017-02-04 19:23:07.321177+01 | 1486232587.32118 | 1B/D02005A0              |          119455876512

 2017-02-04 19:23:08.401517+01 | 1486232588.40152 | 1B/D10BB528              |          119471322408

 2017-02-04 19:23:09.482083+01 | 1486232589.48208 | 1B/D1FDAF18              |          119487180568

 2017-02-04 19:23:10.556322+01 | 1486232590.55632 | 1B/D2E7C3D8              |          119502521304

 2017-02-04 19:23:11.638696+01 | 1486232591.6387 | 1B/D3ED3560              |          119519655264

 2017-02-04 19:23:12.715325+01 | 1486232592.71533 | 1B/D4E5FF58              |          119535959896

 2017-02-04 19:23:13.794663+01 | 1486232593.79466 | 1B/D5DFD120              |          119552332064

 2017-02-04 19:23:14.873272+01 | 1486232594.87327 | 1B/D6DD33B0              |          119568937904

 2017-02-04 19:23:15.945302+01 | 1486232595.9453 | 1B/D7D314C0              |          119585051840

 2017-02-04 19:23:17.023965+01 | 1486232597.02396 | 1B/D8D8A0C8              |          119602192584

 2017-02-04 19:23:18.10313+01 | 1486232598.10313 | 1B/D9DB12F8              |          119619130104

 2017-02-04 19:23:19.179709+01 | 1486232599.17971 | 1B/DAFD5348              |          119638152008

 2017-02-04 19:23:20.261224+01 | 1486232600.26122 | 1B/DC1B9EB8              |          119656914616

 2017-02-04 19:23:21.34014+01 | 1486232601.34014 | 1B/DD266750              |          119674398544

 2017-02-04 19:23:22.420886+01 | 1486232602.42089 | 1B/DE2DC960              |          119691659616

 2017-02-04 19:23:23.50401+01 | 1486232603.50401 | 1B/DF32F538              |          119708775736

 2017-02-04 19:23:24.58558+01 | 1486232604.58558 | 1B/E028BBC8              |          119724882888

 2017-02-04 19:23:25.661546+01 | 1486232605.66155 | 1B/E11C39C8              |          119740840392

 2017-02-04 19:23:26.747304+01 | 1486232606.7473 | 1B/E21B2098              |          119757545624

 2017-02-04 19:23:27.822884+01 | 1486232607.82288 | 1B/E32EB908              |          119775607048

 2017-02-04 19:23:28.902925+01 | 1486232608.90293 | 1B/E43680C8              |          119792894152

 2017-02-04 19:23:29.978397+01 | 1486232609.9784 | 1B/E52DCDA8              |          119809101224

 2017-02-04 19:23:31.064458+01 | 1486232611.06446 | 1B/E60A2028              |          119823540264

 2017-02-04 19:23:32.149853+01 | 1486232612.14985 | 1B/E6DD6BA8              |          119837387688

 2017-02-04 19:23:33.243031+01 | 1486232613.24303 | 1B/E7C243A0              |          119852385184

 2017-02-04 19:23:34.319016+01 | 1486232614.31902 | 1B/E8AABE48              |          119867620936

 2017-02-04 19:23:35.394356+01 | 1486232615.39436 | 1B/E985E970              |          119881984368

 2017-02-04 19:23:36.470253+01 | 1486232616.47025 | 1B/EA5F7678              |          119896241784

 2017-02-04 19:23:37.551808+01 | 1486232617.55181 | 1B/EB3A6AA8              |          119910591144

 2017-02-04 19:23:38.63106+01 | 1486232618.63106 | 1B/EC1B45C0              |          119925327296

 2017-02-04 19:23:39.710508+01 | 1486232619.71051 | 1B/ECFA5CA0              |          119939947680

 2017-02-04 19:23:40.783495+01 | 1486232620.78349 | 1B/EDECB0B8              |          119955828920

 2017-02-04 19:23:41.858946+01 | 1486232621.85895 | 1B/EEE4C4F0              |          119972087024

 2017-02-04 19:23:42.932271+01 | 1486232622.93227 | 1B/EFEDF228              |          119989465640

 2017-02-04 19:23:44.009006+01 | 1486232624.00901 | 1B/F0ECF440              |          120006177856

 2017-02-04 19:23:45.083762+01 | 1486232625.08376 | 1B/F1EFC078              |          120023138424

 2017-02-04 19:23:46.159488+01 | 1486232626.15949 | 1B/F2E7DA38              |          120039397944

 2017-02-04 19:23:47.235212+01 | 1486232627.23521 | 1B/F3E39B00              |          120055896832

 2017-02-04 19:23:48.313476+01 | 1486232628.31348 | 1B/F4D4AEF8              |          120071696120

 2017-02-04 19:23:49.390971+01 | 1486232629.39097 | 1B/F5DAE6E0              |          120088880864

 2017-02-04 19:23:50.466583+01 | 1486232630.46658 | 1B/F6D4AD38              |          120105250104

 2017-02-04 19:23:51.54111+01 | 1486232631.54111 | 1B/F7C4AF10              |          120120979216

 2017-02-04 19:23:52.620196+01 | 1486232632.6202 | 1B/F8C39258              |          120137683544

