 2017-02-04 14:46:11.769683+01 | 1486215971.76968 |                 0 |               3 |                 11042 |                   95 |            1040302 |        132128 |             1321 |         5191930 |                     0 |       1258581 | 2017-02-04 14:32:06.406449+01

 2017-02-04 14:46:12.856966+01 | 1486215972.85697 |                 0 |               3 |                 11042 |                   95 |            1040302 |        132128 |             1321 |         5191930 |                     0 |       1258807 | 2017-02-04 14:32:06.406449+01

 2017-02-04 14:46:13.940396+01 | 1486215973.9404 |                 0 |               3 |                 11042 |                   95 |            1040302 |        132128 |             1321 |         5191930 |                     0 |       1259105 | 2017-02-04 14:32:06.406449+01

 2017-02-04 14:46:15.032127+01 | 1486215975.03213 |                 0 |               3 |                 11042 |                   95 |            1040302 |        132128 |             1321 |         5191930 |                     0 |       1259386 | 2017-02-04 14:32:06.406449+01

 2017-02-04 14:46:16.112853+01 | 1486215976.11285 |                 0 |               3 |                 11042 |                   95 |            1040302 |        132128 |             1321 |         5191930 |                     0 |       1259692 | 2017-02-04 14:32:06.406449+01

 2017-02-04 14:46:17.19404+01 | 1486215977.19404 |                 0 |               3 |                 11042 |                   95 |            1040302 |        132128 |             1321 |         5191930 |                     0 |       1259939 | 2017-02-04 14:32:06.406449+01

 2017-02-04 14:46:18.281926+01 | 1486215978.28193 |                 0 |               3 |                 11042 |                   95 |            1040302 |        132128 |             1321 |         5191930 |                     0 |       1260231 | 2017-02-04 14:32:06.406449+01

 2017-02-04 14:46:19.37426+01 | 1486215979.37426 |                 0 |               3 |                 11042 |                   95 |            1040302 |        132128 |             1321 |         5191930 |                     0 |       1260435 | 2017-02-04 14:32:06.406449+01

 2017-02-04 14:46:20.472042+01 | 1486215980.47204 |                 0 |               3 |                 11042 |                   95 |            1040302 |        132128 |             1321 |         5191930 |                     0 |       1260669 | 2017-02-04 14:32:06.406449+01

 2017-02-04 14:46:21.563301+01 | 1486215981.5633 |                 0 |               3 |                 11042 |                   95 |            1040302 |        132128 |             1321 |         5191930 |                     0 |       1260956 | 2017-02-04 14:32:06.406449+01

 2017-02-04 14:46:22.647601+01 | 1486215982.6476 |                 0 |               3 |                 11042 |                   95 |            1040302 |        132128 |             1321 |         5191930 |                     0 |       1261209 | 2017-02-04 14:32:06.406449+01

 2017-02-04 14:46:23.728063+01 | 1486215983.72806 |                 0 |               3 |                 11042 |                   95 |            1040302 |        132128 |             1321 |         5191930 |                     0 |       1261433 | 2017-02-04 14:32:06.406449+01

 2017-02-04 14:46:24.811663+01 | 1486215984.81166 |                 0 |               3 |                 11042 |                   95 |            1040302 |        132128 |             1321 |         5191930 |                     0 |       1261670 | 2017-02-04 14:32:06.406449+01

 2017-02-04 14:46:25.899398+01 | 1486215985.8994 |                 0 |               3 |                 11042 |                   95 |            1040302 |        132128 |             1321 |         5191930 |                     0 |       1261882 | 2017-02-04 14:32:06.406449+01

 2017-02-04 14:46:26.995774+01 | 1486215986.99577 |                 0 |               3 |                 11042 |                   95 |            1040302 |        132128 |             1321 |         5191930 |                     0 |       1262179 | 2017-02-04 14:32:06.406449+01

 2017-02-04 14:46:28.084267+01 | 1486215988.08427 |                 0 |               3 |                 11042 |                   95 |            1040302 |        132128 |             1321 |         5191930 |                     0 |       1262407 | 2017-02-04 14:32:06.406449+01

 2017-02-04 14:46:29.178083+01 | 1486215989.17808 |                 0 |               3 |                 11042 |                   95 |            1040302 |        132128 |             1321 |         5191930 |                     0 |       1262688 | 2017-02-04 14:32:06.406449+01

 2017-02-04 14:46:30.269773+01 | 1486215990.26977 |                 0 |               3 |                 11042 |                   95 |            1040302 |        132128 |             1321 |         5191930 |                     0 |       1262827 | 2017-02-04 14:32:06.406449+01

 2017-02-04 14:46:31.357609+01 | 1486215991.35761 |                 0 |               3 |                 11042 |                   95 |            1040302 |        132128 |             1321 |         5191930 |                     0 |       1263098 | 2017-02-04 14:32:06.406449+01

 2017-02-04 14:46:32.444997+01 | 1486215992.445 |                 0 |               3 |                 11042 |                   95 |            1040302 |        132128 |             1321 |         5191930 |                     0 |       1263329 | 2017-02-04 14:32:06.406449+01

 2017-02-04 14:46:33.543426+01 | 1486215993.54343 |                 0 |               3 |                 11042 |                   95 |            1040302 |        132128 |             1321 |         5191930 |                     0 |       1263460 | 2017-02-04 14:32:06.406449+01

 2017-02-04 14:46:34.645346+01 | 1486215994.64535 |                 0 |               3 |                 11042 |                   95 |            1040302 |        132128 |             1321 |         5191930 |                     0 |       1263678 | 2017-02-04 14:32:06.406449+01

 2017-02-04 14:46:35.739246+01 | 1486215995.73925 |                 0 |               3 |                 11042 |                   95 |            1040302 |        132128 |             1321 |         5191930 |                     0 |       1263977 | 2017-02-04 14:32:06.406449+01

 2017-02-04 14:46:36.829909+01 | 1486215996.82991 |                 0 |               3 |                 11042 |                   95 |            1040302 |        132128 |             1321 |         5191930 |                     0 |       1264145 | 2017-02-04 14:32:06.406449+01

 2017-02-04 14:46:37.926045+01 | 1486215997.92604 |                 0 |               3 |                 11042 |                   95 |            1040302 |        132128 |             1321 |         5191930 |                     0 |       1264372 | 2017-02-04 14:32:06.406449+01

 2017-02-04 14:46:39.008332+01 | 1486215999.00833 |                 0 |               3 |                 11042 |                   95 |            1040302 |        132128 |             1321 |         5191930 |                     0 |       1264607 | 2017-02-04 14:32:06.406449+01

 2017-02-04 14:46:40.095192+01 | 1486216000.09519 |                 0 |               3 |                 11042 |                   95 |            1040302 |        132128 |             1321 |         5191930 |                     0 |       1264826 | 2017-02-04 14:32:06.406449+01

 2017-02-04 14:46:41.185178+01 | 1486216001.18518 |                 0 |               3 |                 11042 |                   95 |            1040302 |        132128 |             1321 |         5191930 |                     0 |       1264991 | 2017-02-04 14:32:06.406449+01

 2017-02-04 14:46:42.267586+01 | 1486216002.26759 |                 0 |               3 |                 11042 |                   95 |            1040302 |        132128 |             1321 |         5191930 |                     0 |       1265167 | 2017-02-04 14:32:06.406449+01

 2017-02-04 14:46:43.350493+01 | 1486216003.35049 |                 0 |               3 |                 11042 |                   95 |            1040302 |        132128 |             1321 |         5191930 |                     0 |       1265364 | 2017-02-04 14:32:06.406449+01

 2017-02-04 14:46:44.444646+01 | 1486216004.44465 |                 0 |               3 |                 11042 |                   95 |            1040302 |        132128 |             1321 |         5191930 |                     0 |       1265639 | 2017-02-04 14:32:06.406449+01

 2017-02-04 14:46:45.5227+01 | 1486216005.5227 |                 0 |               3 |                 11042 |                   95 |            1040302 |        132128 |             1321 |         5191930 |                     0 |       1265903 | 2017-02-04 14:32:06.406449+01

 2017-02-04 14:46:46.606063+01 | 1486216006.60606 |                 0 |               3 |                 11042 |                   95 |            1040302 |        132128 |             1321 |         5191930 |                     0 |       1266169 | 2017-02-04 14:32:06.406449+01

 2017-02-04 14:46:47.685218+01 | 1486216007.68522 |                 0 |               3 |                 11042 |                   95 |            1040302 |        132128 |             1321 |         5191930 |                     0 |       1266453 | 2017-02-04 14:32:06.406449+01

 2017-02-04 14:46:48.76804+01 | 1486216008.76804 |                 0 |               3 |                 11042 |                   95 |            1040302 |        132128 |             1321 |         5191930 |                     0 |       1266795 | 2017-02-04 14:32:06.406449+01

 2017-02-04 14:46:49.844645+01 | 1486216009.84465 |                 0 |               3 |                 11042 |                   95 |            1040302 |        132128 |             1321 |         5191930 |                     0 |       1267065 | 2017-02-04 14:32:06.406449+01

 2017-02-04 14:46:50.92517+01 | 1486216010.92517 |                 0 |               3 |                 11042 |                   95 |            1040302 |        132128 |             1321 |         5191930 |                     0 |       1267359 | 2017-02-04 14:32:06.406449+01

 2017-02-04 14:46:51.999965+01 | 1486216011.99996 |                 0 |               3 |                 11042 |                   95 |            1040302 |        132128 |             1321 |         5191930 |                     0 |       1267712 | 2017-02-04 14:32:06.406449+01

 2017-02-04 14:46:53.075527+01 | 1486216013.07553 |                 0 |               3 |                 11042 |                   95 |            1040302 |        132128 |             1321 |         5191930 |                     0 |       1267947 | 2017-02-04 14:32:06.406449+01

 2017-02-04 14:46:54.148201+01 | 1486216014.1482 |                 0 |               3 |                 11042 |                   95 |            1040302 |        132128 |             1321 |         5191930 |                     0 |       1268248 | 2017-02-04 14:32:06.406449+01

 2017-02-04 14:46:55.232487+01 | 1486216015.23249 |                 0 |               3 |                 11042 |                   95 |            1040302 |        132128 |             1321 |         5191930 |                     0 |       1268667 | 2017-02-04 14:32:06.406449+01

 2017-02-04 14:46:56.311286+01 | 1486216016.31129 |                 0 |               3 |                 11042 |                   95 |            1040302 |        132128 |             1321 |         5191930 |                     0 |       1268932 | 2017-02-04 14:32:06.406449+01

 2017-02-04 14:46:57.399925+01 | 1486216017.39992 |                 0 |               3 |                 11042 |                   95 |            1040302 |        132128 |             1321 |         5191930 |                     0 |       1269300 | 2017-02-04 14:32:06.406449+01

 2017-02-04 14:46:58.476541+01 | 1486216018.47654 |                 0 |               3 |                 11042 |                   95 |            1040302 |        132128 |             1321 |         5191930 |                     0 |       1269653 | 2017-02-04 14:32:06.406449+01

 2017-02-04 14:46:59.562328+01 | 1486216019.56233 |                 0 |               3 |                 11042 |                   95 |            1040302 |        132128 |             1321 |         5191930 |                     0 |       1269991 | 2017-02-04 14:32:06.406449+01

 2017-02-04 14:47:00.645063+01 | 1486216020.64506 |                 0 |               3 |                 11042 |                   95 |            1040302 |        132128 |             1321 |         5191930 |                     0 |       1270341 | 2017-02-04 14:32:06.406449+01

 2017-02-04 14:47:01.734192+01 | 1486216021.73419 |                 0 |               3 |                 11042 |                   95 |            1040302 |        132128 |             1321 |         5191930 |                     0 |       1270690 | 2017-02-04 14:32:06.406449+01

 2017-02-04 14:47:02.824822+01 | 1486216022.82482 |                 0 |               3 |                 11042 |                   95 |            1040302 |        132128 |             1321 |         5191930 |                     0 |       1271051 | 2017-02-04 14:32:06.406449+01

 2017-02-04 14:47:03.910045+01 | 1486216023.91004 |                 0 |               3 |                 11042 |                   95 |            1040302 |        132128 |             1321 |         5191930 |                     0 |       1271205 | 2017-02-04 14:32:06.406449+01

 2017-02-04 14:47:04.988683+01 | 1486216024.98868 |                 0 |               3 |                 11042 |                   95 |            1040302 |        132128 |             1321 |         5191930 |                     0 |       1271507 | 2017-02-04 14:32:06.406449+01

 2017-02-04 14:47:06.075267+01 | 1486216026.07527 |                 0 |               3 |                 11042 |                   95 |            1040302 |        132128 |             1321 |         5191930 |                     0 |       1271741 | 2017-02-04 14:32:06.406449+01

 2017-02-04 14:47:07.153887+01 | 1486216027.15389 |                 0 |               3 |                 11042 |                   95 |            1040302 |        132128 |             1321 |         5191930 |                     0 |       1272071 | 2017-02-04 14:32:06.406449+01

 2017-02-04 14:47:08.232888+01 | 1486216028.23289 |                 0 |               3 |                 11042 |                   95 |            1040302 |        132128 |             1321 |         5191930 |                     0 |       1272436 | 2017-02-04 14:32:06.406449+01

 2017-02-04 14:47:09.306893+01 | 1486216029.30689 |                 0 |               3 |                 11042 |                   95 |            1040302 |        132128 |             1321 |         5191930 |                     0 |       1272752 | 2017-02-04 14:32:06.406449+01

 2017-02-04 14:47:10.380827+01 | 1486216030.38083 |                 0 |               3 |                 11042 |                   95 |            1040302 |        132128 |             1321 |         5191930 |                     0 |       1273099 | 2017-02-04 14:32:06.406449+01

 2017-02-04 14:47:11.458106+01 | 1486216031.45811 |                 0 |               3 |                 11042 |                   95 |            1040302 |        132128 |             1321 |         5191930 |                     0 |       1273492 | 2017-02-04 14:32:06.406449+01

 2017-02-04 14:47:12.541893+01 | 1486216032.54189 |                 0 |               3 |                 11042 |                   95 |            1040302 |        132128 |             1321 |         5191930 |                     0 |       1273800 | 2017-02-04 14:32:06.406449+01

 2017-02-04 14:47:13.62669+01 | 1486216033.62669 |                 0 |               3 |                 11042 |                   95 |            1040302 |        132128 |             1321 |         5191930 |                     0 |       1274200 | 2017-02-04 14:32:06.406449+01

 2017-02-04 14:47:14.709683+01 | 1486216034.70968 |                 0 |               3 |                 11042 |                   95 |            1040302 |        132128 |             1321 |         5191930 |                     0 |       1274495 | 2017-02-04 14:32:06.406449+01

 2017-02-04 14:47:15.790028+01 | 1486216035.79003 |                 0 |               3 |                 11042 |                   95 |            1040302 |        132128 |             1321 |         5191930 |                     0 |       1274774 | 2017-02-04 14:32:06.406449+01

 2017-02-04 14:47:16.87588+01 | 1486216036.87588 |                 0 |               3 |                 11042 |                   95 |            1040302 |        132128 |             1321 |         5191930 |                     0 |       1275065 | 2017-02-04 14:32:06.406449+01

 2017-02-04 14:47:17.95977+01 | 1486216037.95977 |                 0 |               3 |                 11042 |                   95 |            1040302 |        132128 |             1321 |         5191930 |                     0 |       1275286 | 2017-02-04 14:32:06.406449+01

 2017-02-04 14:47:19.045283+01 | 1486216039.04528 |                 0 |               3 |                 11042 |                   95 |            1040302 |        132128 |             1321 |         5191930 |                     0 |       1275675 | 2017-02-04 14:32:06.406449+01

 2017-02-04 14:47:20.1222+01 | 1486216040.1222 |                 0 |               3 |                 11042 |                   95 |            1040302 |        132128 |             1321 |         5191930 |                     0 |       1276006 | 2017-02-04 14:32:06.406449+01

 2017-02-04 14:47:21.195017+01 | 1486216041.19502 |                 0 |               3 |                 11042 |                   95 |            1040302 |        132128 |             1321 |         5191930 |                     0 |       1276333 | 2017-02-04 14:32:06.406449+01

 2017-02-04 14:47:22.281675+01 | 1486216042.28168 |                 0 |               3 |                 11042 |                   95 |            1040302 |        132128 |             1321 |         5191930 |                     0 |       1276673 | 2017-02-04 14:32:06.406449+01

 2017-02-04 14:47:23.359863+01 | 1486216043.35986 |                 0 |               3 |                 11042 |                   95 |            1040302 |        132128 |             1321 |         5191930 |                     0 |       1276946 | 2017-02-04 14:32:06.406449+01

 2017-02-04 14:47:24.435768+01 | 1486216044.43577 |                 0 |               3 |                 11042 |                   95 |            1040302 |        132128 |             1321 |         5191930 |                     0 |       1277331 | 2017-02-04 14:32:06.406449+01

 2017-02-04 14:47:25.512884+01 | 1486216045.51288 |                 0 |               3 |                 11042 |                   95 |            1040302 |        132128 |             1321 |         5191930 |                     0 |       1277631 | 2017-02-04 14:32:06.406449+01

 2017-02-04 14:47:26.588786+01 | 1486216046.58879 |                 0 |               3 |                 11042 |                   95 |            1040302 |        132128 |             1321 |         5191930 |                     0 |       1277985 | 2017-02-04 14:32:06.406449+01

 2017-02-04 14:47:27.670657+01 | 1486216047.67066 |                 0 |               3 |                 11042 |                   95 |            1040302 |        132128 |             1321 |         5191930 |                     0 |       1278417 | 2017-02-04 14:32:06.406449+01

 2017-02-04 14:47:28.752461+01 | 1486216048.75246 |                 0 |               3 |                 11042 |                   95 |            1040302 |        132128 |             1321 |         5191930 |                     0 |       1278722 | 2017-02-04 14:32:06.406449+01

 2017-02-04 14:47:29.84037+01 | 1486216049.84037 |                 0 |               3 |                 11042 |                   95 |            1040302 |        132128 |             1321 |         5191930 |                     0 |       1279101 | 2017-02-04 14:32:06.406449+01

 2017-02-04 14:47:30.932394+01 | 1486216050.93239 |                 0 |               3 |                 11042 |                   95 |            1040302 |        132128 |             1321 |         5191930 |                     0 |       1279437 | 2017-02-04 14:32:06.406449+01

 2017-02-04 14:47:32.011109+01 | 1486216052.01111 |                 0 |               3 |                 11042 |                   95 |            1040302 |        132128 |             1321 |         5191930 |                     0 |       1279745 | 2017-02-04 14:32:06.406449+01

 2017-02-04 14:47:33.08424+01 | 1486216053.08424 |                 0 |               3 |                 11042 |                   95 |            1040302 |        132128 |             1321 |         5191930 |                     0 |       1280148 | 2017-02-04 14:32:06.406449+01

 2017-02-04 14:47:34.166206+01 | 1486216054.16621 |                 0 |               3 |                 11042 |                   95 |            1040302 |        132128 |             1321 |         5191930 |                     0 |       1280530 | 2017-02-04 14:32:06.406449+01

 2017-02-04 14:47:35.247789+01 | 1486216055.24779 |                 0 |               3 |                 11042 |                   95 |            1040302 |        132128 |             1321 |         5191930 |                     0 |       1281007 | 2017-02-04 14:32:06.406449+01

 2017-02-04 14:47:36.32866+01 | 1486216056.32866 |                 0 |               3 |                 11042 |                   95 |            1040302 |        132128 |             1321 |         5191930 |                     0 |       1281295 | 2017-02-04 14:32:06.406449+01

 2017-02-04 14:47:37.405194+01 | 1486216057.40519 |                 0 |               3 |                 11042 |                   95 |            1040302 |        132128 |             1321 |         5191930 |                     0 |       1281606 | 2017-02-04 14:32:06.406449+01

 2017-02-04 14:47:38.484037+01 | 1486216058.48404 |                 0 |               3 |                 11042 |                   95 |            1040302 |        132128 |             1321 |         5191930 |                     0 |       1282100 | 2017-02-04 14:32:06.406449+01

 2017-02-04 14:47:39.563437+01 | 1486216059.56344 |                 0 |               3 |                 11042 |                   95 |            1040302 |        132128 |             1321 |         5191930 |                     0 |       1282379 | 2017-02-04 14:32:06.406449+01

 2017-02-04 14:47:40.636702+01 | 1486216060.6367 |                 0 |               3 |                 11042 |                   95 |            1040302 |        132128 |             1321 |         5191930 |                     0 |       1282792 | 2017-02-04 14:32:06.406449+01

 2017-02-04 14:47:41.710969+01 | 1486216061.71097 |                 0 |               3 |                 11042 |                   95 |            1040302 |        132128 |             1321 |         5191930 |                     0 |       1283100 | 2017-02-04 14:32:06.406449+01

 2017-02-04 14:47:42.791053+01 | 1486216062.79105 |                 0 |               3 |                 11042 |                   95 |            1040302 |        132128 |             1321 |         5191930 |                     0 |       1283407 | 2017-02-04 14:32:06.406449+01

 2017-02-04 14:47:43.872195+01 | 1486216063.8722 |                 0 |               3 |                 11042 |                   95 |            1040302 |        132128 |             1321 |         5191930 |                     0 |       1283829 | 2017-02-04 14:32:06.406449+01

 2017-02-04 14:47:44.946283+01 | 1486216064.94628 |                 0 |               3 |                 11042 |                   95 |            1040302 |        132128 |             1321 |         5191930 |                     0 |       1284192 | 2017-02-04 14:32:06.406449+01

 2017-02-04 14:47:46.02931+01 | 1486216066.02931 |                 0 |               3 |                 11042 |                   95 |            1040302 |        132128 |             1321 |         5191930 |                     0 |       1284531 | 2017-02-04 14:32:06.406449+01

 2017-02-04 14:47:47.111985+01 | 1486216067.11198 |                 0 |               3 |                 11042 |                   95 |            1040302 |        132128 |             1321 |         5191930 |                     0 |       1284917 | 2017-02-04 14:32:06.406449+01

 2017-02-04 14:47:48.189747+01 | 1486216068.18975 |                 0 |               3 |                 11042 |                   95 |            1040302 |        132128 |             1321 |         5191930 |                     0 |       1285343 | 2017-02-04 14:32:06.406449+01

 2017-02-04 14:47:49.271944+01 | 1486216069.27194 |                 0 |               3 |                 11042 |                   95 |            1040302 |        132128 |             1321 |         5191930 |                     0 |       1285723 | 2017-02-04 14:32:06.406449+01

 2017-02-04 14:47:50.354694+01 | 1486216070.35469 |                 0 |               3 |                 11042 |                   95 |            1040302 |        132128 |             1321 |         5191930 |                     0 |       1286038 | 2017-02-04 14:32:06.406449+01

 2017-02-04 14:47:51.431759+01 | 1486216071.43176 |                 0 |               3 |                 11042 |                   95 |            1040302 |        132128 |             1321 |         5191930 |                     0 |       1286381 | 2017-02-04 14:32:06.406449+01

 2017-02-04 14:47:52.502875+01 | 1486216072.50288 |                 0 |               3 |                 11042 |                   95 |            1040302 |        132128 |             1321 |         5191930 |                     0 |       1286777 | 2017-02-04 14:32:06.406449+01

 2017-02-04 14:47:53.589319+01 | 1486216073.58932 |                 0 |               3 |                 11042 |                   95 |            1040302 |        132128 |             1321 |         5191930 |                     0 |       1287097 | 2017-02-04 14:32:06.406449+01

 2017-02-04 14:47:54.66536+01 | 1486216074.66536 |                 0 |               3 |                 11042 |                   95 |            1040302 |        132128 |             1321 |         5191930 |                     0 |       1287485 | 2017-02-04 14:32:06.406449+01

 2017-02-04 14:47:55.74832+01 | 1486216075.74832 |                 0 |               3 |                 11042 |                   95 |            1040302 |        132128 |             1321 |         5191930 |                     0 |       1287734 | 2017-02-04 14:32:06.406449+01

 2017-02-04 14:47:56.83298+01 | 1486216076.83298 |                 0 |               3 |                 11042 |                   95 |            1040302 |        132128 |             1321 |         5191930 |                     0 |       1287971 | 2017-02-04 14:32:06.406449+01

 2017-02-04 14:47:57.914295+01 | 1486216077.91429 |                 0 |               3 |                 11042 |                   95 |            1040302 |        132128 |             1321 |         5191930 |                     0 |       1288293 | 2017-02-04 14:32:06.406449+01

 2017-02-04 14:47:59.001464+01 | 1486216079.00146 |                 0 |               3 |                 11042 |                   95 |            1040302 |        132128 |             1321 |         5191930 |                     0 |       1288663 | 2017-02-04 14:32:06.406449+01

 2017-02-04 14:48:00.085961+01 | 1486216080.08596 |                 0 |               3 |                 11042 |                   95 |            1040302 |        132128 |             1321 |         5191930 |                     0 |       1289066 | 2017-02-04 14:32:06.406449+01

 2017-02-04 14:48:01.160154+01 | 1486216081.16015 |                 0 |               3 |                 11042 |                   95 |            1040302 |        132128 |             1321 |         5191930 |                     0 |       1289391 | 2017-02-04 14:32:06.406449+01

 2017-02-04 14:48:02.23752+01 | 1486216082.23752 |                 0 |               3 |                 11042 |                   95 |            1040302 |        132128 |             1321 |         5191930 |                     0 |       1289755 | 2017-02-04 14:32:06.406449+01

 2017-02-04 14:48:03.314556+01 | 1486216083.31456 |                 0 |               3 |                 11042 |                   95 |            1040302 |        132128 |             1321 |         5191930 |                     0 |       1290120 | 2017-02-04 14:32:06.406449+01

 2017-02-04 14:48:04.395188+01 | 1486216084.39519 |                 0 |               3 |                 11042 |                   95 |            1040302 |        132128 |             1321 |         5191930 |                     0 |       1290414 | 2017-02-04 14:32:06.406449+01

 2017-02-04 14:48:05.470826+01 | 1486216085.47083 |                 0 |               3 |                 11042 |                   95 |            1040302 |        132128 |             1321 |         5191930 |                     0 |       1290790 | 2017-02-04 14:32:06.406449+01

 2017-02-04 14:48:06.547659+01 | 1486216086.54766 |                 0 |               3 |                 11042 |                   95 |            1040302 |        132128 |             1321 |         5191930 |                     0 |       1291132 | 2017-02-04 14:32:06.406449+01

 2017-02-04 14:48:07.635579+01 | 1486216087.63558 |                 0 |               3 |                 11042 |                   95 |            1040302 |        132128 |             1321 |         5191930 |                     0 |       1291497 | 2017-02-04 14:32:06.406449+01

 2017-02-04 14:48:08.719281+01 | 1486216088.71928 |                 0 |               3 |                 11042 |                   95 |            1040302 |        132128 |             1321 |         5191930 |                     0 |       1291923 | 2017-02-04 14:32:06.406449+01

 2017-02-04 14:48:09.79799+01 | 1486216089.79799 |                 0 |               3 |                 11042 |                   95 |            1040302 |        132128 |             1321 |         5191930 |                     0 |       1292268 | 2017-02-04 14:32:06.406449+01

 2017-02-04 14:48:10.87789+01 | 1486216090.87789 |                 0 |               3 |                 11042 |                   95 |            1040302 |        132128 |             1321 |         5191930 |                     0 |       1292706 | 2017-02-04 14:32:06.406449+01

 2017-02-04 14:48:11.955689+01 | 1486216091.95569 |                 0 |               3 |                 11042 |                   95 |            1040302 |        132128 |             1321 |         5191930 |                     0 |       1292986 | 2017-02-04 14:32:06.406449+01

 2017-02-04 14:48:13.035154+01 | 1486216093.03515 |                 0 |               3 |                 11042 |                   95 |            1040302 |        132128 |             1321 |         5191930 |                     0 |       1293335 | 2017-02-04 14:32:06.406449+01

 2017-02-04 14:48:14.110873+01 | 1486216094.11087 |                 0 |               3 |                 11042 |                   95 |            1040302 |        132128 |             1321 |         5191930 |                     0 |       1293756 | 2017-02-04 14:32:06.406449+01

 2017-02-04 14:48:15.192045+01 | 1486216095.19204 |                 0 |               3 |                 11042 |                   95 |            1040302 |        132128 |             1321 |         5191930 |                     0 |       1294112 | 2017-02-04 14:32:06.406449+01

 2017-02-04 14:48:16.278634+01 | 1486216096.27863 |                 0 |               3 |                 11042 |                   95 |            1040302 |        132128 |             1321 |         5191930 |                     0 |       1294427 | 2017-02-04 14:32:06.406449+01

 2017-02-04 14:48:17.35443+01 | 1486216097.35443 |                 0 |               3 |                 11042 |                   95 |            1040302 |        132128 |             1321 |         5191930 |                     0 |       1294854 | 2017-02-04 14:32:06.406449+01

 2017-02-04 14:48:18.43522+01 | 1486216098.43522 |                 0 |               3 |                 11042 |                   95 |            1040302 |        132128 |             1321 |         5191930 |                     0 |       1295121 | 2017-02-04 14:32:06.406449+01

 2017-02-04 14:48:19.508712+01 | 1486216099.50871 |                 0 |               3 |                 11042 |                   95 |            1040302 |        132128 |             1321 |         5191930 |                     0 |       1295467 | 2017-02-04 14:32:06.406449+01

 2017-02-04 14:48:20.587134+01 | 1486216100.58713 |                 0 |               3 |                 11042 |                   95 |            1040302 |        132128 |             1321 |         5191930 |                     0 |       1295790 | 2017-02-04 14:32:06.406449+01

 2017-02-04 14:48:21.667611+01 | 1486216101.66761 |                 0 |               3 |                 11042 |                   95 |            1040302 |        132128 |             1321 |         5191930 |                     0 |       1296086 | 2017-02-04 14:32:06.406449+01

 2017-02-04 14:48:22.745081+01 | 1486216102.74508 |                 0 |               3 |                 11042 |                   95 |            1040302 |        132128 |             1321 |         5191930 |                     0 |       1296441 | 2017-02-04 14:32:06.406449+01

 2017-02-04 14:48:23.819657+01 | 1486216103.81966 |                 0 |               3 |                 11042 |                   95 |            1040302 |        132128 |             1321 |         5191930 |                     0 |       1296703 | 2017-02-04 14:32:06.406449+01

 2017-02-04 14:48:24.905016+01 | 1486216104.90502 |                 0 |               3 |                 11042 |                   95 |            1040302 |        132128 |             1321 |         5191930 |                     0 |       1297073 | 2017-02-04 14:32:06.406449+01

 2017-02-04 14:48:25.984345+01 | 1486216105.98434 |                 0 |               3 |                 11042 |                   95 |            1040302 |        132128 |             1321 |         5191930 |                     0 |       1297358 | 2017-02-04 14:32:06.406449+01

 2017-02-04 14:48:27.067711+01 | 1486216107.06771 |                 0 |               3 |                 11042 |                   95 |            1040302 |        132128 |             1321 |         5191930 |                     0 |       1297646 | 2017-02-04 14:32:06.406449+01

 2017-02-04 14:48:28.154787+01 | 1486216108.15479 |                 0 |               3 |                 11042 |                   95 |            1040302 |        132128 |             1321 |         5191930 |                     0 |       1298037 | 2017-02-04 14:32:06.406449+01

 2017-02-04 14:48:29.239229+01 | 1486216109.23923 |                 0 |               3 |                 11042 |                   95 |            1040302 |        132128 |             1321 |         5191930 |                     0 |       1298354 | 2017-02-04 14:32:06.406449+01

 2017-02-04 14:48:30.314967+01 | 1486216110.31497 |                 0 |               3 |                 11042 |                   95 |            1040302 |        132128 |             1321 |         5191930 |                     0 |       1298775 | 2017-02-04 14:32:06.406449+01

 2017-02-04 14:48:31.399334+01 | 1486216111.39933 |                 0 |               3 |                 11042 |                   95 |            1040302 |        132128 |             1321 |         5191930 |                     0 |       1299171 | 2017-02-04 14:32:06.406449+01

 2017-02-04 14:48:32.470242+01 | 1486216112.47024 |                 0 |               3 |                 11042 |                   95 |            1040302 |        132128 |             1321 |         5191930 |                     0 |       1299452 | 2017-02-04 14:32:06.406449+01

 2017-02-04 14:48:33.553831+01 | 1486216113.55383 |                 0 |               3 |                 11042 |                   95 |            1040302 |        132128 |             1321 |         5191930 |                     0 |       1299797 | 2017-02-04 14:32:06.406449+01

 2017-02-04 14:48:34.632887+01 | 1486216114.63289 |                 0 |               3 |                 11042 |                   95 |            1040302 |        132128 |             1321 |         5191930 |                     0 |       1300148 | 2017-02-04 14:32:06.406449+01

 2017-02-04 14:48:35.707619+01 | 1486216115.70762 |                 0 |               3 |                 11042 |                   95 |            1040302 |        132128 |             1321 |         5191930 |                     0 |       1300513 | 2017-02-04 14:32:06.406449+01

 2017-02-04 14:48:36.784218+01 | 1486216116.78422 |                 0 |               3 |                 11042 |                   95 |            1040302 |        132128 |             1321 |         5191930 |                     0 |       1300878 | 2017-02-04 14:32:06.406449+01

 2017-02-04 14:48:37.85988+01 | 1486216117.85988 |                 0 |               3 |                 11042 |                   95 |            1040302 |        132128 |             1321 |         5191930 |                     0 |       1301180 | 2017-02-04 14:32:06.406449+01

 2017-02-04 14:48:38.937587+01 | 1486216118.93759 |                 0 |               3 |                 11042 |                   95 |            1040302 |        132128 |             1321 |         5191930 |                     0 |       1301597 | 2017-02-04 14:32:06.406449+01

 2017-02-04 14:48:40.013361+01 | 1486216120.01336 |                 0 |               3 |                 11042 |                   95 |            1040302 |        132128 |             1321 |         5191930 |                     0 |       1301910 | 2017-02-04 14:32:06.406449+01

 2017-02-04 14:48:41.089814+01 | 1486216121.08981 |                 0 |               3 |                 11042 |                   95 |            1040302 |        132128 |             1321 |         5191930 |                     0 |       1302237 | 2017-02-04 14:32:06.406449+01

 2017-02-04 14:48:42.164541+01 | 1486216122.16454 |                 0 |               3 |                 11042 |                   95 |            1040302 |        132128 |             1321 |         5191930 |                     0 |       1302596 | 2017-02-04 14:32:06.406449+01

 2017-02-04 14:48:43.24242+01 | 1486216123.24242 |                 0 |               3 |                 11042 |                   95 |            1040302 |        132128 |             1321 |         5191930 |                     0 |       1302906 | 2017-02-04 14:32:06.406449+01

 2017-02-04 14:48:44.33061+01 | 1486216124.33061 |                 0 |               3 |                 11042 |                   95 |            1040302 |        132128 |             1321 |         5191930 |                     0 |       1303322 | 2017-02-04 14:32:06.406449+01

 2017-02-04 14:48:45.408726+01 | 1486216125.40873 |                 0 |               3 |                 11042 |                   95 |            1040302 |        132128 |             1321 |         5191930 |                     0 |       1303575 | 2017-02-04 14:32:06.406449+01

 2017-02-04 14:48:46.493987+01 | 1486216126.49399 |                 0 |               3 |                 11042 |                   95 |            1040302 |        132128 |             1321 |         5191930 |                     0 |       1303907 | 2017-02-04 14:32:06.406449+01

 2017-02-04 14:48:47.577814+01 | 1486216127.57781 |                 0 |               3 |                 11042 |                   95 |            1040302 |        132128 |             1321 |         5191930 |                     0 |       1304346 | 2017-02-04 14:32:06.406449+01

 2017-02-04 14:48:48.667015+01 | 1486216128.66702 |                 0 |               3 |                 11042 |                   95 |            1040302 |        132128 |             1321 |         5191930 |                     0 |       1304640 | 2017-02-04 14:32:06.406449+01

 2017-02-04 14:48:49.755386+01 | 1486216129.75539 |                 0 |               3 |                 11042 |                   95 |            1040302 |        132128 |             1321 |         5191930 |                     0 |       1305000 | 2017-02-04 14:32:06.406449+01

 2017-02-04 14:48:50.838335+01 | 1486216130.83834 |                 0 |               3 |                 11042 |                   95 |            1040302 |        132128 |             1321 |         5191930 |                     0 |       1305332 | 2017-02-04 14:32:06.406449+01

 2017-02-04 14:48:51.921281+01 | 1486216131.92128 |                 0 |               3 |                 11042 |                   95 |            1040302 |        132128 |             1321 |         5191930 |                     0 |       1305649 | 2017-02-04 14:32:06.406449+01

 2017-02-04 14:48:53.00142+01 | 1486216133.00142 |                 0 |               3 |                 11042 |                   95 |            1040302 |        132128 |             1321 |         5191930 |                     0 |       1305955 | 2017-02-04 14:32:06.406449+01

 2017-02-04 14:48:54.078002+01 | 1486216134.078 |                 0 |               3 |                 11042 |                   95 |            1040302 |        132128 |             1321 |         5191930 |                     0 |       1306246 | 2017-02-04 14:32:06.406449+01

 2017-02-04 14:48:55.162057+01 | 1486216135.16206 |                 0 |               3 |                 11042 |                   95 |            1040302 |        132128 |             1321 |         5191930 |                     0 |       1306514 | 2017-02-04 14:32:06.406449+01

 2017-02-04 14:48:56.237624+01 | 1486216136.23762 |                 0 |               3 |                 11042 |                   95 |            1040302 |        132128 |             1321 |         5191930 |                     0 |       1306818 | 2017-02-04 14:32:06.406449+01

 2017-02-04 14:48:57.319546+01 | 1486216137.31955 |                 0 |               3 |                 11042 |                   95 |            1040302 |        132128 |             1321 |         5191930 |                     0 |       1307063 | 2017-02-04 14:32:06.406449+01

 2017-02-04 14:48:58.408415+01 | 1486216138.40842 |                 0 |               3 |                 11042 |                   95 |            1040302 |        132128 |             1321 |         5191930 |                     0 |       1307300 | 2017-02-04 14:32:06.406449+01

 2017-02-04 14:48:59.493232+01 | 1486216139.49323 |                 0 |               3 |                 11042 |                   95 |            1040302 |        132128 |             1321 |         5191930 |                     0 |       1307506 | 2017-02-04 14:32:06.406449+01

 2017-02-04 14:49:00.57593+01 | 1486216140.57593 |                 0 |               3 |                 11042 |                   95 |            1040302 |        132128 |             1321 |         5191930 |                     0 |       1307810 | 2017-02-04 14:32:06.406449+01

 2017-02-04 14:49:01.662575+01 | 1486216141.66258 |                 0 |               3 |                 11042 |                   95 |            1040302 |        132128 |             1321 |         5191930 |                     0 |       1308027 | 2017-02-04 14:32:06.406449+01

 2017-02-04 14:49:02.757337+01 | 1486216142.75734 |                 0 |               3 |                 11042 |                   95 |            1040302 |        132128 |             1321 |         5191930 |                     0 |       1308285 | 2017-02-04 14:32:06.406449+01

 2017-02-04 14:49:03.844584+01 | 1486216143.84458 |                 0 |               3 |                 11042 |                   95 |            1040302 |        132128 |             1321 |         5191930 |                     0 |       1308539 | 2017-02-04 14:32:06.406449+01

 2017-02-04 14:49:04.934699+01 | 1486216144.9347 |                 0 |               3 |                 11042 |                   95 |            1040302 |        132128 |             1321 |         5191930 |                     0 |       1308797 | 2017-02-04 14:32:06.406449+01

 2017-02-04 14:49:06.012246+01 | 1486216146.01225 |                 0 |               3 |                 11042 |                   95 |            1040302 |        132128 |             1321 |         5191930 |                     0 |       1309198 | 2017-02-04 14:32:06.406449+01

 2017-02-04 14:49:07.084217+01 | 1486216147.08422 |                 0 |               3 |                 11042 |                   95 |            1040302 |        132128 |             1321 |         5191930 |                     0 |       1309536 | 2017-02-04 14:32:06.406449+01

 2017-02-04 14:49:08.162271+01 | 1486216148.16227 |                 0 |               3 |                 11042 |                   95 |            1040302 |        132128 |             1321 |         5191930 |                     0 |       1309931 | 2017-02-04 14:32:06.406449+01

 2017-02-04 14:49:09.245839+01 | 1486216149.24584 |                 0 |               3 |                 11042 |                   95 |            1040302 |        132128 |             1321 |         5191930 |                     0 |       1310223 | 2017-02-04 14:32:06.406449+01

 2017-02-04 14:49:10.315288+01 | 1486216150.31529 |                 0 |               3 |                 11042 |                   95 |            1040302 |        132128 |             1321 |         5191930 |                     0 |       1310568 | 2017-02-04 14:32:06.406449+01

 2017-02-04 14:49:11.394977+01 | 1486216151.39498 |                 0 |               3 |                 11042 |                   95 |            1040302 |        132128 |             1321 |         5191930 |                     0 |       1310915 | 2017-02-04 14:32:06.406449+01

 2017-02-04 14:49:12.47735+01 | 1486216152.47735 |                 0 |               3 |                 11042 |                   95 |            1040302 |        132128 |             1321 |         5191930 |                     0 |       1311235 | 2017-02-04 14:32:06.406449+01

 2017-02-04 14:49:13.557147+01 | 1486216153.55715 |                 0 |               3 |                 11042 |                   95 |            1040302 |        132128 |             1321 |         5191930 |                     0 |       1311625 | 2017-02-04 14:32:06.406449+01

 2017-02-04 14:49:14.633759+01 | 1486216154.63376 |                 0 |               3 |                 11042 |                   95 |            1040302 |        132128 |             1321 |         5191930 |                     0 |       1311925 | 2017-02-04 14:32:06.406449+01

 2017-02-04 14:49:15.707614+01 | 1486216155.70761 |                 0 |               3 |                 11042 |                   95 |            1040302 |        132128 |             1321 |         5191930 |                     0 |       1312250 | 2017-02-04 14:32:06.406449+01

 2017-02-04 14:49:16.786097+01 | 1486216156.7861 |                 0 |               3 |                 11042 |                   95 |            1040302 |        132128 |             1321 |         5191930 |                     0 |       1312624 | 2017-02-04 14:32:06.406449+01

 2017-02-04 14:49:17.872216+01 | 1486216157.87222 |                 0 |               3 |                 11042 |                   95 |            1040302 |        132128 |             1321 |         5191930 |                     0 |       1312996 | 2017-02-04 14:32:06.406449+01

 2017-02-04 14:49:18.947178+01 | 1486216158.94718 |                 0 |               3 |                 11042 |                   95 |            1040302 |        132128 |             1321 |         5191930 |                     0 |       1313310 | 2017-02-04 14:32:06.406449+01

 2017-02-04 14:49:20.03469+01 | 1486216160.03469 |                 0 |               3 |                 11042 |                   95 |            1040302 |        132128 |             1321 |         5191930 |                     0 |       1313613 | 2017-02-04 14:32:06.406449+01

 2017-02-04 14:49:21.114394+01 | 1486216161.11439 |                 0 |               3 |                 11042 |                   95 |            1040302 |        132128 |             1321 |         5191930 |                     0 |       1313953 | 2017-02-04 14:32:06.406449+01

 2017-02-04 14:49:22.195518+01 | 1486216162.19552 |                 0 |               3 |                 11042 |                   95 |            1040302 |        132128 |             1321 |         5191930 |                     0 |       1314333 | 2017-02-04 14:32:06.406449+01

 2017-02-04 14:49:23.283107+01 | 1486216163.28311 |                 0 |               3 |                 11042 |                   95 |            1040302 |        132128 |             1321 |         5191930 |                     0 |       1314647 | 2017-02-04 14:32:06.406449+01

 2017-02-04 14:49:24.358997+01 | 1486216164.359 |                 0 |               3 |                 11042 |                   95 |            1040302 |        132128 |             1321 |         5191930 |                     0 |       1314919 | 2017-02-04 14:32:06.406449+01

 2017-02-04 14:49:25.440252+01 | 1486216165.44025 |                 0 |               3 |                 11042 |                   95 |            1040302 |        132128 |             1321 |         5191930 |                     0 |       1315363 | 2017-02-04 14:32:06.406449+01

 2017-02-04 14:49:26.524233+01 | 1486216166.52423 |                 0 |               3 |                 11042 |                   95 |            1040302 |        132128 |             1321 |         5191930 |                     0 |       1315581 | 2017-02-04 14:32:06.406449+01

 2017-02-04 14:49:27.61321+01 | 1486216167.61321 |                 0 |               3 |                 11042 |                   95 |            1040302 |        132128 |             1321 |         5191930 |                     0 |       1315961 | 2017-02-04 14:32:06.406449+01

 2017-02-04 14:49:28.702779+01 | 1486216168.70278 |                 0 |               3 |                 11042 |                   95 |            1040302 |        132128 |             1321 |         5191930 |                     0 |       1316243 | 2017-02-04 14:32:06.406449+01

 2017-02-04 14:49:29.790165+01 | 1486216169.79016 |                 0 |               3 |                 11042 |                   95 |            1040302 |        132128 |             1321 |         5191930 |                     0 |       1316648 | 2017-02-04 14:32:06.406449+01

 2017-02-04 14:49:30.872299+01 | 1486216170.8723 |                 0 |               3 |                 11042 |                   95 |            1040302 |        132128 |             1321 |         5191930 |                     0 |       1316997 | 2017-02-04 14:32:06.406449+01

 2017-02-04 14:49:31.951718+01 | 1486216171.95172 |                 0 |               3 |                 11042 |                   95 |            1040302 |        132128 |             1321 |         5191930 |                     0 |       1317163 | 2017-02-04 14:32:06.406449+01

 2017-02-04 14:49:33.037536+01 | 1486216173.03754 |                 0 |               3 |                 11042 |                   95 |            1040302 |        132128 |             1321 |         5191930 |                     0 |       1317519 | 2017-02-04 14:32:06.406449+01

 2017-02-04 14:49:34.116222+01 | 1486216174.11622 |                 0 |               3 |                 11042 |                   95 |            1040302 |        132128 |             1321 |         5191930 |                     0 |       1317823 | 2017-02-04 14:32:06.406449+01

 2017-02-04 14:49:35.199677+01 | 1486216175.19968 |                 0 |               3 |                 11042 |                   95 |            1040302 |        132128 |             1321 |         5191930 |                     0 |       1318201 | 2017-02-04 14:32:06.406449+01

 2017-02-04 14:49:36.291412+01 | 1486216176.29141 |                 0 |               3 |                 11042 |                   95 |            1040302 |        132128 |             1321 |         5191930 |                     0 |       1318509 | 2017-02-04 14:32:06.406449+01

 2017-02-04 14:49:37.3658+01 | 1486216177.3658 |                 0 |               3 |                 11042 |                   95 |            1040302 |        132128 |             1321 |         5191930 |                     0 |       1318830 | 2017-02-04 14:32:06.406449+01

 2017-02-04 14:49:38.438223+01 | 1486216178.43822 |                 0 |               3 |                 11042 |                   95 |            1040302 |        132128 |             1321 |         5191930 |                     0 |       1319145 | 2017-02-04 14:32:06.406449+01

 2017-02-04 14:49:39.513435+01 | 1486216179.51343 |                 0 |               3 |                 11042 |                   95 |            1040302 |        132128 |             1321 |         5191930 |                     0 |       1319519 | 2017-02-04 14:32:06.406449+01

 2017-02-04 14:49:40.601567+01 | 1486216180.60157 |                 0 |               3 |                 11042 |                   95 |            1040302 |        132128 |             1321 |         5191930 |                     0 |       1319885 | 2017-02-04 14:32:06.406449+01

 2017-02-04 14:49:41.686154+01 | 1486216181.68615 |                 0 |               3 |                 11042 |                   95 |            1040302 |        132128 |             1321 |         5191930 |                     0 |       1320157 | 2017-02-04 14:32:06.406449+01

 2017-02-04 14:49:42.76797+01 | 1486216182.76797 |                 0 |               3 |                 11042 |                   95 |            1040302 |        132128 |             1321 |         5191930 |                     0 |       1320386 | 2017-02-04 14:32:06.406449+01

 2017-02-04 14:49:43.834229+01 | 1486216183.83423 |                 0 |               3 |                 11042 |                   95 |            1040302 |        132128 |             1321 |         5191930 |                     0 |       1320750 | 2017-02-04 14:32:06.406449+01

 2017-02-04 14:49:44.915563+01 | 1486216184.91556 |                 0 |               3 |                 11042 |                   95 |            1040302 |        132128 |             1321 |         5191930 |                     0 |       1321043 | 2017-02-04 14:32:06.406449+01

 2017-02-04 14:49:46.00124+01 | 1486216186.00124 |                 0 |               3 |                 11042 |                   95 |            1040302 |        132128 |             1321 |         5191930 |                     0 |       1321335 | 2017-02-04 14:32:06.406449+01

 2017-02-04 14:49:47.075223+01 | 1486216187.07522 |                 0 |               3 |                 11042 |                   95 |            1040302 |        132128 |             1321 |         5191930 |                     0 |       1321773 | 2017-02-04 14:32:06.406449+01

 2017-02-04 14:49:48.153566+01 | 1486216188.15357 |                 0 |               3 |                 11042 |                   95 |            1040302 |        132128 |             1321 |         5191930 |                     0 |       1322052 | 2017-02-04 14:32:06.406449+01

 2017-02-04 14:49:49.228285+01 | 1486216189.22829 |                 0 |               3 |                 11042 |                   95 |            1040302 |        132128 |             1321 |         5191930 |                     0 |       1322418 | 2017-02-04 14:32:06.406449+01

 2017-02-04 14:49:50.312698+01 | 1486216190.3127 |                 0 |               3 |                 11042 |                   95 |            1040302 |        132128 |             1321 |         5191930 |                     0 |       1322762 | 2017-02-04 14:32:06.406449+01

 2017-02-04 14:49:51.391037+01 | 1486216191.39104 |                 0 |               3 |                 11042 |                   95 |            1040302 |        132128 |             1321 |         5191930 |                     0 |       1323119 | 2017-02-04 14:32:06.406449+01

 2017-02-04 14:49:52.463655+01 | 1486216192.46365 |                 0 |               3 |                 11042 |                   95 |            1040302 |        132128 |             1321 |         5191930 |                     0 |       1323420 | 2017-02-04 14:32:06.406449+01

 2017-02-04 14:49:53.551926+01 | 1486216193.55193 |                 0 |               3 |                 11042 |                   95 |            1040302 |        132128 |             1321 |         5191930 |                     0 |       1323745 | 2017-02-04 14:32:06.406449+01

 2017-02-04 14:49:54.6324+01 | 1486216194.6324 |                 0 |               3 |                 11042 |                   95 |            1040302 |        132128 |             1321 |         5191930 |                     0 |       1324164 | 2017-02-04 14:32:06.406449+01

 2017-02-04 14:49:55.725294+01 | 1486216195.72529 |                 0 |               3 |                 11042 |                   95 |            1040302 |        132128 |             1321 |         5191930 |                     0 |       1324408 | 2017-02-04 14:32:06.406449+01

 2017-02-04 14:49:56.811325+01 | 1486216196.81133 |                 0 |               3 |                 11042 |                   95 |            1040302 |        132128 |             1321 |         5191930 |                     0 |       1324734 | 2017-02-04 14:32:06.406449+01

 2017-02-04 14:49:57.901165+01 | 1486216197.90117 |                 0 |               3 |                 11042 |                   95 |            1040302 |        132128 |             1321 |         5191930 |                     0 |       1325140 | 2017-02-04 14:32:06.406449+01

 2017-02-04 14:49:58.97946+01 | 1486216198.97946 |                 0 |               3 |                 11042 |                   95 |            1040302 |        132128 |             1321 |         5191930 |                     0 |       1325406 | 2017-02-04 14:32:06.406449+01

 2017-02-04 14:50:00.060215+01 | 1486216200.06021 |                 0 |               3 |                 11042 |                   95 |            1040302 |        132128 |             1321 |         5191930 |                     0 |       1325781 | 2017-02-04 14:32:06.406449+01

 2017-02-04 14:50:01.137531+01 | 1486216201.13753 |                 0 |               3 |                 11042 |                   95 |            1040302 |        132128 |             1321 |         5191930 |                     0 |       1326116 | 2017-02-04 14:32:06.406449+01

 2017-02-04 14:50:02.221216+01 | 1486216202.22122 |                 0 |               3 |                 11042 |                   95 |            1040302 |        132128 |             1321 |         5191930 |                     0 |       1326496 | 2017-02-04 14:32:06.406449+01

 2017-02-04 14:50:03.301544+01 | 1486216203.30154 |                 0 |               3 |                 11042 |                   95 |            1040302 |        132128 |             1321 |         5191930 |                     0 |       1326815 | 2017-02-04 14:32:06.406449+01

 2017-02-04 14:50:04.386667+01 | 1486216204.38667 |                 0 |               3 |                 11042 |                   95 |            1040302 |        132128 |             1321 |         5191930 |                     0 |       1327103 | 2017-02-04 14:32:06.406449+01

 2017-02-04 14:50:05.464038+01 | 1486216205.46404 |                 0 |               3 |                 11042 |                   95 |            1040302 |        132128 |             1321 |         5191930 |                     0 |       1327406 | 2017-02-04 14:32:06.406449+01

 2017-02-04 14:50:06.555014+01 | 1486216206.55501 |                 0 |               3 |                 11042 |                   95 |            1040302 |        132128 |             1321 |         5191930 |                     0 |       1327640 | 2017-02-04 14:32:06.406449+01

 2017-02-04 14:50:07.635651+01 | 1486216207.63565 |                 0 |               3 |                 11042 |                   95 |            1040302 |        132128 |             1321 |         5191930 |                     0 |       1328010 | 2017-02-04 14:32:06.406449+01

 2017-02-04 14:50:08.719179+01 | 1486216208.71918 |                 0 |               3 |                 11042 |                   95 |            1040302 |        132128 |             1321 |         5191930 |                     0 |       1328314 | 2017-02-04 14:32:06.406449+01

 2017-02-04 14:50:09.80542+01 | 1486216209.80542 |                 0 |               3 |                 11042 |                   95 |            1040302 |        132128 |             1321 |         5191930 |                     0 |       1328609 | 2017-02-04 14:32:06.406449+01

 2017-02-04 14:50:10.899264+01 | 1486216210.89926 |                 0 |               3 |                 11042 |                   95 |            1040302 |        132128 |             1321 |         5191930 |                     0 |       1328991 | 2017-02-04 14:32:06.406449+01

 2017-02-04 14:50:11.98045+01 | 1486216211.98045 |                 0 |               3 |                 11042 |                   95 |            1040302 |        132128 |             1321 |         5191930 |                     0 |       1329332 | 2017-02-04 14:32:06.406449+01

 2017-02-04 14:50:13.0579+01 | 1486216213.0579 |                 0 |               3 |                 11042 |                   95 |            1040302 |        132128 |             1321 |         5191930 |                     0 |       1329687 | 2017-02-04 14:32:06.406449+01

 2017-02-04 14:50:14.139776+01 | 1486216214.13978 |                 0 |               3 |                 11042 |                   95 |            1040302 |        132128 |             1321 |         5191930 |                     0 |       1329977 | 2017-02-04 14:32:06.406449+01

 2017-02-04 14:50:15.221015+01 | 1486216215.22101 |                 0 |               3 |                 11042 |                   95 |            1040302 |        132128 |             1321 |         5191930 |                     0 |       1330296 | 2017-02-04 14:32:06.406449+01

 2017-02-04 14:50:16.30588+01 | 1486216216.30588 |                 0 |               3 |                 11042 |                   95 |            1040302 |        132128 |             1321 |         5191930 |                     0 |       1330660 | 2017-02-04 14:32:06.406449+01

 2017-02-04 14:50:17.396817+01 | 1486216217.39682 |                 0 |               3 |                 11042 |                   95 |            1040302 |        132128 |             1321 |         5191930 |                     0 |       1330952 | 2017-02-04 14:32:06.406449+01

 2017-02-04 14:50:18.47467+01 | 1486216218.47467 |                 0 |               3 |                 11042 |                   95 |            1040302 |        132128 |             1321 |         5191930 |                     0 |       1331317 | 2017-02-04 14:32:06.406449+01

 2017-02-04 14:50:19.553162+01 | 1486216219.55316 |                 0 |               3 |                 11042 |                   95 |            1040302 |        132128 |             1321 |         5191930 |                     0 |       1331662 | 2017-02-04 14:32:06.406449+01

 2017-02-04 14:50:20.635693+01 | 1486216220.63569 |                 0 |               3 |                 11042 |                   95 |            1040302 |        132128 |             1321 |         5191930 |                     0 |       1331899 | 2017-02-04 14:32:06.406449+01

 2017-02-04 14:50:21.710577+01 | 1486216221.71058 |                 0 |               3 |                 11042 |                   95 |            1040302 |        132128 |             1321 |         5191930 |                     0 |       1332222 | 2017-02-04 14:32:06.406449+01

 2017-02-04 14:50:22.778655+01 | 1486216222.77866 |                 0 |               3 |                 11042 |                   95 |            1040302 |        132128 |             1321 |         5191930 |                     0 |       1332523 | 2017-02-04 14:32:06.406449+01

 2017-02-04 14:50:23.863269+01 | 1486216223.86327 |                 0 |               3 |                 11042 |                   95 |            1040302 |        132128 |             1321 |         5191930 |                     0 |       1332843 | 2017-02-04 14:32:06.406449+01

 2017-02-04 14:50:24.952752+01 | 1486216224.95275 |                 0 |               3 |                 11042 |                   95 |            1040302 |        132128 |             1321 |         5191930 |                     0 |       1333092 | 2017-02-04 14:32:06.406449+01

 2017-02-04 14:50:26.033069+01 | 1486216226.03307 |                 0 |               3 |                 11042 |                   95 |            1040302 |        132128 |             1321 |         5191930 |                     0 |       1333306 | 2017-02-04 14:32:06.406449+01

 2017-02-04 14:50:27.108303+01 | 1486216227.1083 |                 0 |               3 |                 11042 |                   95 |            1040302 |        132128 |             1321 |         5191930 |                     0 |       1333649 | 2017-02-04 14:32:06.406449+01

 2017-02-04 14:50:28.185465+01 | 1486216228.18547 |                 0 |               3 |                 11042 |                   95 |            1040302 |        132128 |             1321 |         5191930 |                     0 |       1333957 | 2017-02-04 14:32:06.406449+01

 2017-02-04 14:50:29.271012+01 | 1486216229.27101 |                 0 |               3 |                 11042 |                   95 |            1040302 |        132128 |             1321 |         5191930 |                     0 |       1334288 | 2017-02-04 14:32:06.406449+01

 2017-02-04 14:50:30.357821+01 | 1486216230.35782 |                 0 |               3 |                 11042 |                   95 |            1040302 |        132128 |             1321 |         5191930 |                     0 |       1334649 | 2017-02-04 14:32:06.406449+01

 2017-02-04 14:50:31.430245+01 | 1486216231.43024 |                 0 |               3 |                 11042 |                   95 |            1040302 |        132128 |             1321 |         5191930 |                     0 |       1334842 | 2017-02-04 14:32:06.406449+01

 2017-02-04 14:50:32.51086+01 | 1486216232.51086 |                 0 |               3 |                 11042 |                   95 |            1040302 |        132128 |             1321 |         5191930 |                     0 |       1335192 | 2017-02-04 14:32:06.406449+01

 2017-02-04 14:50:33.592583+01 | 1486216233.59258 |                 0 |               3 |                 11042 |                   95 |            1040302 |        132128 |             1321 |         5191930 |                     0 |       1335526 | 2017-02-04 14:32:06.406449+01

 2017-02-04 14:50:34.666637+01 | 1486216234.66664 |                 0 |               3 |                 11042 |                   95 |            1040302 |        132128 |             1321 |         5191930 |                     0 |       1335868 | 2017-02-04 14:32:06.406449+01

 2017-02-04 14:50:35.754106+01 | 1486216235.75411 |                 0 |               3 |                 11042 |                   95 |            1040302 |        132128 |             1321 |         5191930 |                     0 |       1336134 | 2017-02-04 14:32:06.406449+01

 2017-02-04 14:50:36.839493+01 | 1486216236.83949 |                 0 |               3 |                 11042 |                   95 |            1040302 |        132128 |             1321 |         5191930 |                     0 |       1336432 | 2017-02-04 14:32:06.406449+01

 2017-02-04 14:50:37.93561+01 | 1486216237.93561 |                 0 |               3 |                 11042 |                   95 |            1040302 |        132428 |             1324 |         5191930 |                     0 |       1336791 | 2017-02-04 14:32:06.406449+01

 2017-02-04 14:50:38.999141+01 | 1486216238.99914 |                 0 |               3 |                 11042 |                   95 |            1040302 |        132728 |             1327 |         5191930 |                     0 |       1336962 | 2017-02-04 14:32:06.406449+01

 2017-02-04 14:50:40.085641+01 | 1486216240.08564 |                 0 |               3 |                 11042 |                   95 |            1040302 |        133428 |             1334 |         5191930 |                     0 |       1337413 | 2017-02-04 14:32:06.406449+01

 2017-02-04 14:50:41.168537+01 | 1486216241.16854 |                 0 |               3 |                 11042 |                   95 |            1040302 |        134028 |             1340 |         5191930 |                     0 |       1337754 | 2017-02-04 14:32:06.406449+01

 2017-02-04 14:50:42.247013+01 | 1486216242.24701 |                 0 |               3 |                 11042 |                   95 |            1040302 |        134528 |             1345 |         5191930 |                     0 |       1338091 | 2017-02-04 14:32:06.406449+01

 2017-02-04 14:50:43.327415+01 | 1486216243.32741 |                 0 |               3 |                 11042 |                   95 |            1040302 |        135028 |             1350 |         5191930 |                     0 |       1338360 | 2017-02-04 14:32:06.406449+01

 2017-02-04 14:50:44.412385+01 | 1486216244.41238 |                 0 |               3 |                 11042 |                   95 |            1040302 |        135628 |             1356 |         5191930 |                     0 |       1338737 | 2017-02-04 14:32:06.406449+01

 2017-02-04 14:50:45.500395+01 | 1486216245.5004 |                 0 |               3 |                 11042 |                   95 |            1040302 |        136128 |             1361 |         5191930 |                     0 |       1338987 | 2017-02-04 14:32:06.406449+01

 2017-02-04 14:50:46.581694+01 | 1486216246.58169 |                 0 |               3 |                 11042 |                   95 |            1040302 |        136728 |             1367 |         5191930 |                     0 |       1339391 | 2017-02-04 14:32:06.406449+01

 2017-02-04 14:50:47.665792+01 | 1486216247.66579 |                 0 |               3 |                 11042 |                   95 |            1040302 |        137228 |             1372 |         5191930 |                     0 |       1339640 | 2017-02-04 14:32:06.406449+01

 2017-02-04 14:50:48.732575+01 | 1486216248.73257 |                 0 |               3 |                 11042 |                   95 |            1040302 |        137728 |             1377 |         5191930 |                     0 |       1339888 | 2017-02-04 14:32:06.406449+01

 2017-02-04 14:50:49.803851+01 | 1486216249.80385 |                 0 |               3 |                 11042 |                   95 |            1040302 |        138328 |             1383 |         5191930 |                     0 |       1340175 | 2017-02-04 14:32:06.406449+01

 2017-02-04 14:50:50.876902+01 | 1486216250.8769 |                 0 |               3 |                 11042 |                   95 |            1040302 |        138828 |             1388 |         5191930 |                     0 |       1340478 | 2017-02-04 14:32:06.406449+01

 2017-02-04 14:50:51.95579+01 | 1486216251.95579 |                 0 |               3 |                 11042 |                   95 |            1040302 |        139328 |             1393 |         5191930 |                     0 |       1340761 | 2017-02-04 14:32:06.406449+01

 2017-02-04 14:50:53.020538+01 | 1486216253.02054 |                 0 |               3 |                 11042 |                   95 |            1040302 |        139828 |             1398 |         5191930 |                     0 |       1341044 | 2017-02-04 14:32:06.406449+01

 2017-02-04 14:50:54.10032+01 | 1486216254.10032 |                 0 |               3 |                 11042 |                   95 |            1040302 |        140428 |             1404 |         5191930 |                     0 |       1341372 | 2017-02-04 14:32:06.406449+01

 2017-02-04 14:50:55.18364+01 | 1486216255.18364 |                 0 |               3 |                 11042 |                   95 |            1040302 |        140928 |             1409 |         5191930 |                     0 |       1341728 | 2017-02-04 14:32:06.406449+01

 2017-02-04 14:50:56.261022+01 | 1486216256.26102 |                 0 |               3 |                 11042 |                   95 |            1040302 |        141428 |             1414 |         5191930 |                     0 |       1341963 | 2017-02-04 14:32:06.406449+01

 2017-02-04 14:50:57.34895+01 | 1486216257.34895 |                 0 |               3 |                 11042 |                   95 |            1040302 |        142028 |             1420 |         5191930 |                     0 |       1342342 | 2017-02-04 14:32:06.406449+01

 2017-02-04 14:50:58.433671+01 | 1486216258.43367 |                 0 |               3 |                 11042 |                   95 |            1040302 |        142528 |             1425 |         5191930 |                     0 |       1342610 | 2017-02-04 14:32:06.406449+01

 2017-02-04 14:50:59.510526+01 | 1486216259.51053 |                 0 |               3 |                 11042 |                   95 |            1040302 |        143028 |             1430 |         5191930 |                     0 |       1342916 | 2017-02-04 14:32:06.406449+01

 2017-02-04 14:51:00.588492+01 | 1486216260.58849 |                 0 |               3 |                 11042 |                   95 |            1040302 |        143628 |             1436 |         5191930 |                     0 |       1343258 | 2017-02-04 14:32:06.406449+01

 2017-02-04 14:51:01.675601+01 | 1486216261.6756 |                 0 |               3 |                 11042 |                   95 |            1040302 |        144128 |             1441 |         5191930 |                     0 |       1343621 | 2017-02-04 14:32:06.406449+01

 2017-02-04 14:51:02.75492+01 | 1486216262.75492 |                 0 |               3 |                 11042 |                   95 |            1040302 |        144628 |             1446 |         5191930 |                     0 |       1343921 | 2017-02-04 14:32:06.406449+01

 2017-02-04 14:51:03.844402+01 | 1486216263.8444 |                 0 |               3 |                 11042 |                   95 |            1040302 |        145228 |             1452 |         5191930 |                     0 |       1344273 | 2017-02-04 14:32:06.406449+01

 2017-02-04 14:51:04.916819+01 | 1486216264.91682 |                 0 |               3 |                 11042 |                   95 |            1040302 |        145728 |             1457 |         5191930 |                     0 |       1344636 | 2017-02-04 14:32:06.406449+01

 2017-02-04 14:51:05.995666+01 | 1486216265.99567 |                 0 |               3 |                 11042 |                   95 |            1040302 |        146228 |             1462 |         5191930 |                     0 |       1344880 | 2017-02-04 14:32:06.406449+01

 2017-02-04 14:51:07.063723+01 | 1486216267.06372 |                 0 |               3 |                 11042 |                   95 |            1040302 |        146828 |             1468 |         5191930 |                     0 |       1345295 | 2017-02-04 14:32:06.406449+01

 2017-02-04 14:51:08.137635+01 | 1486216268.13763 |                 0 |               3 |                 11042 |                   95 |            1040302 |        147328 |             1473 |         5191930 |                     0 |       1345586 | 2017-02-04 14:32:06.406449+01

 2017-02-04 14:51:09.208008+01 | 1486216269.20801 |                 0 |               3 |                 11042 |                   95 |            1040302 |        147828 |             1478 |         5191930 |                     0 |       1345815 | 2017-02-04 14:32:06.406449+01

 2017-02-04 14:51:10.29102+01 | 1486216270.29102 |                 0 |               3 |                 11042 |                   95 |            1040302 |        148428 |             1484 |         5191930 |                     0 |       1346137 | 2017-02-04 14:32:06.406449+01

 2017-02-04 14:51:11.381213+01 | 1486216271.38121 |                 0 |               3 |                 11042 |                   95 |            1040302 |        148928 |             1489 |         5191930 |                     0 |       1346405 | 2017-02-04 14:32:06.406449+01

