 2017-02-05 11:36:52.196275+01 | 1486291012.19627 |                 0 |              21 |                 43774 |                 1965 |            4683633 |             0 |                0 |         2122226 |                     0 |       1827271 | 2017-02-05 09:55:31.750407+01

 2017-02-05 11:36:53.279674+01 | 1486291013.27967 |                 0 |              21 |                 43774 |                 1965 |            4683633 |             0 |                0 |         2122226 |                     0 |       1827405 | 2017-02-05 09:55:31.750407+01

 2017-02-05 11:36:54.358693+01 | 1486291014.35869 |                 0 |              21 |                 43774 |                 1965 |            4683633 |             0 |                0 |         2122226 |                     0 |       1827559 | 2017-02-05 09:55:31.750407+01

 2017-02-05 11:36:55.442013+01 | 1486291015.44201 |                 0 |              21 |                 43774 |                 1965 |            4683633 |             0 |                0 |         2122226 |                     0 |       1827705 | 2017-02-05 09:55:31.750407+01

 2017-02-05 11:36:56.522639+01 | 1486291016.52264 |                 0 |              21 |                 43774 |                 1965 |            4683633 |             0 |                0 |         2122226 |                     0 |       1827814 | 2017-02-05 09:55:31.750407+01

 2017-02-05 11:36:57.600079+01 | 1486291017.60008 |                 0 |              21 |                 43774 |                 1965 |            4683633 |             0 |                0 |         2122226 |                     0 |       1827993 | 2017-02-05 09:55:31.750407+01

 2017-02-05 11:36:58.681959+01 | 1486291018.68196 |                 0 |              21 |                 43774 |                 1965 |            4683633 |             0 |                0 |         2122226 |                     0 |       1828151 | 2017-02-05 09:55:31.750407+01

 2017-02-05 11:36:59.755306+01 | 1486291019.75531 |                 0 |              21 |                 43774 |                 1965 |            4683633 |             0 |                0 |         2122226 |                     0 |       1828264 | 2017-02-05 09:55:31.750407+01

 2017-02-05 11:37:00.840108+01 | 1486291020.84011 |                 0 |              21 |                 43774 |                 1965 |            4683633 |             0 |                0 |         2122226 |                     0 |       1828412 | 2017-02-05 09:55:31.750407+01

 2017-02-05 11:37:01.918419+01 | 1486291021.91842 |                 0 |              21 |                 43774 |                 1965 |            4683633 |             0 |                0 |         2122226 |                     0 |       1828541 | 2017-02-05 09:55:31.750407+01

 2017-02-05 11:37:02.998886+01 | 1486291022.99889 |                 0 |              21 |                 43774 |                 1965 |            4683633 |             0 |                0 |         2122226 |                     0 |       1828670 | 2017-02-05 09:55:31.750407+01

 2017-02-05 11:37:04.080183+01 | 1486291024.08018 |                 0 |              21 |                 43774 |                 1965 |            4683633 |             0 |                0 |         2122226 |                     0 |       1828821 | 2017-02-05 09:55:31.750407+01

 2017-02-05 11:37:05.154576+01 | 1486291025.15458 |                 0 |              21 |                 43774 |                 1965 |            4683633 |             0 |                0 |         2122226 |                     0 |       1828952 | 2017-02-05 09:55:31.750407+01

 2017-02-05 11:37:06.229895+01 | 1486291026.2299 |                 0 |              21 |                 43774 |                 1965 |            4683633 |             0 |                0 |         2122226 |                     0 |       1829106 | 2017-02-05 09:55:31.750407+01

 2017-02-05 11:37:07.316047+01 | 1486291027.31605 |                 0 |              21 |                 43774 |                 1965 |            4683633 |             0 |                0 |         2122226 |                     0 |       1829189 | 2017-02-05 09:55:31.750407+01

 2017-02-05 11:37:08.374759+01 | 1486291028.37476 |                 0 |              21 |                 43774 |                 1965 |            4683633 |             0 |                0 |         2122226 |                     0 |       1829346 | 2017-02-05 09:55:31.750407+01

 2017-02-05 11:37:09.452056+01 | 1486291029.45206 |                 0 |              21 |                 43774 |                 1965 |            4683633 |             0 |                0 |         2122226 |                     0 |       1829581 | 2017-02-05 09:55:31.750407+01

 2017-02-05 11:37:10.533025+01 | 1486291030.53303 |                 0 |              21 |                 43774 |                 1965 |            4683633 |             0 |                0 |         2122226 |                     0 |       1829644 | 2017-02-05 09:55:31.750407+01

 2017-02-05 11:37:11.622664+01 | 1486291031.62266 |                 0 |              21 |                 43774 |                 1965 |            4683633 |             0 |                0 |         2122226 |                     0 |       1829797 | 2017-02-05 09:55:31.750407+01

 2017-02-05 11:37:12.709623+01 | 1486291032.70962 |                 0 |              21 |                 43774 |                 1965 |            4683633 |             0 |                0 |         2122226 |                     0 |       1829925 | 2017-02-05 09:55:31.750407+01

 2017-02-05 11:37:13.793722+01 | 1486291033.79372 |                 0 |              21 |                 43774 |                 1965 |            4683633 |             0 |                0 |         2122226 |                     0 |       1830059 | 2017-02-05 09:55:31.750407+01

 2017-02-05 11:37:14.872834+01 | 1486291034.87283 |                 0 |              21 |                 43774 |                 1965 |            4683633 |             0 |                0 |         2122226 |                     0 |       1830168 | 2017-02-05 09:55:31.750407+01

 2017-02-05 11:37:15.956211+01 | 1486291035.95621 |                 0 |              21 |                 43774 |                 1965 |            4683633 |             0 |                0 |         2122226 |                     0 |       1830341 | 2017-02-05 09:55:31.750407+01

 2017-02-05 11:37:17.046433+01 | 1486291037.04643 |                 0 |              21 |                 43774 |                 1965 |            4683633 |             0 |                0 |         2122226 |                     0 |       1830426 | 2017-02-05 09:55:31.750407+01

 2017-02-05 11:37:18.122339+01 | 1486291038.12234 |                 0 |              21 |                 43774 |                 1965 |            4683633 |             0 |                0 |         2122226 |                     0 |       1830552 | 2017-02-05 09:55:31.750407+01

 2017-02-05 11:37:19.20196+01 | 1486291039.20196 |                 0 |              21 |                 43774 |                 1965 |            4683633 |             0 |                0 |         2122226 |                     0 |       1830683 | 2017-02-05 09:55:31.750407+01

 2017-02-05 11:37:20.279343+01 | 1486291040.27934 |                 0 |              21 |                 43774 |                 1965 |            4683633 |             0 |                0 |         2122226 |                     0 |       1830810 | 2017-02-05 09:55:31.750407+01

 2017-02-05 11:37:21.359519+01 | 1486291041.35952 |                 0 |              21 |                 43774 |                 1965 |            4683633 |             0 |                0 |         2122226 |                     0 |       1831062 | 2017-02-05 09:55:31.750407+01

 2017-02-05 11:37:22.448585+01 | 1486291042.44859 |                 0 |              21 |                 43774 |                 1965 |            4683633 |             0 |                0 |         2122226 |                     0 |       1831063 | 2017-02-05 09:55:31.750407+01

 2017-02-05 11:37:23.530327+01 | 1486291043.53033 |                 0 |              21 |                 43774 |                 1965 |            4683633 |             0 |                0 |         2122226 |                     0 |       1831145 | 2017-02-05 09:55:31.750407+01

 2017-02-05 11:37:24.616047+01 | 1486291044.61605 |                 0 |              21 |                 43774 |                 1965 |            4683633 |             0 |                0 |         2122226 |                     0 |       1831379 | 2017-02-05 09:55:31.750407+01

 2017-02-05 11:37:25.709207+01 | 1486291045.70921 |                 0 |              21 |                 43774 |                 1965 |            4683633 |             0 |                0 |         2122226 |                     0 |       1831526 | 2017-02-05 09:55:31.750407+01

 2017-02-05 11:37:26.788667+01 | 1486291046.78867 |                 0 |              21 |                 43774 |                 1965 |            4683633 |             0 |                0 |         2122226 |                     0 |       1831609 | 2017-02-05 09:55:31.750407+01

 2017-02-05 11:37:27.870533+01 | 1486291047.87053 |                 0 |              21 |                 43774 |                 1965 |            4683633 |             0 |                0 |         2122226 |                     0 |       1831740 | 2017-02-05 09:55:31.750407+01

 2017-02-05 11:37:28.953033+01 | 1486291048.95303 |                 0 |              21 |                 43774 |                 1965 |            4683633 |             0 |                0 |         2122226 |                     0 |       1831825 | 2017-02-05 09:55:31.750407+01

 2017-02-05 11:37:30.043593+01 | 1486291050.04359 |                 0 |              21 |                 43774 |                 1965 |            4683633 |             0 |                0 |         2122226 |                     0 |       1831991 | 2017-02-05 09:55:31.750407+01

 2017-02-05 11:37:31.123136+01 | 1486291051.12314 |                 0 |              21 |                 43774 |                 1965 |            4683633 |             0 |                0 |         2122226 |                     0 |       1832118 | 2017-02-05 09:55:31.750407+01

 2017-02-05 11:37:32.204299+01 | 1486291052.2043 |                 0 |              21 |                 43774 |                 1965 |            4683633 |             0 |                0 |         2122226 |                     0 |       1832206 | 2017-02-05 09:55:31.750407+01

 2017-02-05 11:37:33.278093+01 | 1486291053.27809 |                 0 |              21 |                 43774 |                 1965 |            4683633 |             0 |                0 |         2122226 |                     0 |       1832356 | 2017-02-05 09:55:31.750407+01

 2017-02-05 11:37:34.353612+01 | 1486291054.35361 |                 0 |              21 |                 43774 |                 1965 |            4683633 |             0 |                0 |         2122226 |                     0 |       1832470 | 2017-02-05 09:55:31.750407+01

 2017-02-05 11:37:35.436369+01 | 1486291055.43637 |                 0 |              21 |                 43774 |                 1965 |            4683633 |             0 |                0 |         2122226 |                     0 |       1832601 | 2017-02-05 09:55:31.750407+01

 2017-02-05 11:37:36.518557+01 | 1486291056.51856 |                 0 |              21 |                 43774 |                 1965 |            4683633 |             0 |                0 |         2122226 |                     0 |       1832751 | 2017-02-05 09:55:31.750407+01

 2017-02-05 11:37:37.591076+01 | 1486291057.59108 |                 0 |              21 |                 43774 |                 1965 |            4683633 |             0 |                0 |         2122226 |                     0 |       1832858 | 2017-02-05 09:55:31.750407+01

 2017-02-05 11:37:38.671644+01 | 1486291058.67164 |                 0 |              21 |                 43774 |                 1965 |            4683633 |             0 |                0 |         2122226 |                     0 |       1833005 | 2017-02-05 09:55:31.750407+01

 2017-02-05 11:37:39.756113+01 | 1486291059.75611 |                 0 |              21 |                 43774 |                 1965 |            4683633 |             0 |                0 |         2122226 |                     0 |       1833134 | 2017-02-05 09:55:31.750407+01

 2017-02-05 11:37:40.835649+01 | 1486291060.83565 |                 0 |              21 |                 43774 |                 1965 |            4683633 |             0 |                0 |         2122226 |                     0 |       1833240 | 2017-02-05 09:55:31.750407+01

 2017-02-05 11:37:41.927887+01 | 1486291061.92789 |                 0 |              21 |                 43774 |                 1965 |            4683633 |             0 |                0 |         2122226 |                     0 |       1833391 | 2017-02-05 09:55:31.750407+01

 2017-02-05 11:37:43.007437+01 | 1486291063.00744 |                 0 |              21 |                 43774 |                 1965 |            4683633 |             0 |                0 |         2122226 |                     0 |       1833536 | 2017-02-05 09:55:31.750407+01

 2017-02-05 11:37:44.072986+01 | 1486291064.07299 |                 0 |              21 |                 43774 |                 1965 |            4683633 |             0 |                0 |         2122226 |                     0 |       1833662 | 2017-02-05 09:55:31.750407+01

 2017-02-05 11:37:45.142659+01 | 1486291065.14266 |                 0 |              21 |                 43774 |                 1965 |            4683633 |             0 |                0 |         2122226 |                     0 |       1833788 | 2017-02-05 09:55:31.750407+01

 2017-02-05 11:37:46.234939+01 | 1486291066.23494 |                 0 |              21 |                 43774 |                 1965 |            4683633 |             0 |                0 |         2122226 |                     0 |       1833942 | 2017-02-05 09:55:31.750407+01

 2017-02-05 11:37:47.316965+01 | 1486291067.31697 |                 0 |              21 |                 43774 |                 1965 |            4683633 |             0 |                0 |         2122226 |                     0 |       1834045 | 2017-02-05 09:55:31.750407+01

 2017-02-05 11:37:48.394534+01 | 1486291068.39453 |                 0 |              21 |                 43774 |                 1965 |            4683633 |             0 |                0 |         2122226 |                     0 |       1834177 | 2017-02-05 09:55:31.750407+01

 2017-02-05 11:37:49.48467+01 | 1486291069.48467 |                 0 |              21 |                 43774 |                 1965 |            4683633 |             0 |                0 |         2122226 |                     0 |       1834286 | 2017-02-05 09:55:31.750407+01

 2017-02-05 11:37:50.575127+01 | 1486291070.57513 |                 0 |              21 |                 43774 |                 1965 |            4683633 |             0 |                0 |         2122226 |                     0 |       1834418 | 2017-02-05 09:55:31.750407+01

 2017-02-05 11:37:51.656929+01 | 1486291071.65693 |                 0 |              21 |                 43774 |                 1965 |            4683633 |             0 |                0 |         2122226 |                     0 |       1834589 | 2017-02-05 09:55:31.750407+01

 2017-02-05 11:37:52.740558+01 | 1486291072.74056 |                 0 |              21 |                 43774 |                 1965 |            4683633 |             0 |                0 |         2122226 |                     0 |       1834693 | 2017-02-05 09:55:31.750407+01

 2017-02-05 11:37:53.836877+01 | 1486291073.83688 |                 0 |              21 |                 43774 |                 1965 |            4683633 |             0 |                0 |         2122226 |                     0 |       1834842 | 2017-02-05 09:55:31.750407+01

 2017-02-05 11:37:54.918175+01 | 1486291074.91817 |                 0 |              21 |                 43774 |                 1965 |            4683633 |             0 |                0 |         2122226 |                     0 |       1834971 | 2017-02-05 09:55:31.750407+01

 2017-02-05 11:37:56.001404+01 | 1486291076.0014 |                 0 |              21 |                 43774 |                 1965 |            4683633 |             0 |                0 |         2122226 |                     0 |       1835055 | 2017-02-05 09:55:31.750407+01

 2017-02-05 11:37:57.08761+01 | 1486291077.08761 |                 0 |              21 |                 43774 |                 1965 |            4683633 |             0 |                0 |         2122226 |                     0 |       1835270 | 2017-02-05 09:55:31.750407+01

 2017-02-05 11:37:58.175784+01 | 1486291078.17578 |                 0 |              21 |                 43774 |                 1965 |            4683633 |             0 |                0 |         2122226 |                     0 |       1835340 | 2017-02-05 09:55:31.750407+01

 2017-02-05 11:37:59.256178+01 | 1486291079.25618 |                 0 |              21 |                 43774 |                 1965 |            4683633 |             0 |                0 |         2122226 |                     0 |       1835403 | 2017-02-05 09:55:31.750407+01

 2017-02-05 11:38:00.345014+01 | 1486291080.34501 |                 0 |              21 |                 43774 |                 1965 |            4683633 |             0 |                0 |         2122226 |                     0 |       1835591 | 2017-02-05 09:55:31.750407+01

 2017-02-05 11:38:01.423494+01 | 1486291081.42349 |                 0 |              21 |                 43774 |                 1965 |            4683633 |             0 |                0 |         2122226 |                     0 |       1835707 | 2017-02-05 09:55:31.750407+01

 2017-02-05 11:38:02.508281+01 | 1486291082.50828 |                 0 |              21 |                 43774 |                 1965 |            4683633 |             0 |                0 |         2122226 |                     0 |       1835820 | 2017-02-05 09:55:31.750407+01

 2017-02-05 11:38:03.593282+01 | 1486291083.59328 |                 0 |              21 |                 43774 |                 1965 |            4683633 |             0 |                0 |         2122226 |                     0 |       1835971 | 2017-02-05 09:55:31.750407+01

 2017-02-05 11:38:04.679014+01 | 1486291084.67901 |                 0 |              21 |                 43774 |                 1965 |            4683633 |             0 |                0 |         2122226 |                     0 |       1836101 | 2017-02-05 09:55:31.750407+01

 2017-02-05 11:38:05.758385+01 | 1486291085.75838 |                 0 |              21 |                 43774 |                 1965 |            4683633 |             0 |                0 |         2122226 |                     0 |       1836214 | 2017-02-05 09:55:31.750407+01

 2017-02-05 11:38:06.83828+01 | 1486291086.83828 |                 0 |              21 |                 43774 |                 1965 |            4683633 |             0 |                0 |         2122226 |                     0 |       1836346 | 2017-02-05 09:55:31.750407+01

 2017-02-05 11:38:07.925369+01 | 1486291087.92537 |                 0 |              21 |                 43774 |                 1965 |            4683633 |             0 |                0 |         2122226 |                     0 |       1836429 | 2017-02-05 09:55:31.750407+01

 2017-02-05 11:38:09.011043+01 | 1486291089.01104 |                 0 |              21 |                 43774 |                 1965 |            4683633 |             0 |                0 |         2122226 |                     0 |       1836621 | 2017-02-05 09:55:31.750407+01

 2017-02-05 11:38:10.099772+01 | 1486291090.09977 |                 0 |              21 |                 43774 |                 1965 |            4683633 |             0 |                0 |         2122226 |                     0 |       1836621 | 2017-02-05 09:55:31.750407+01

 2017-02-05 11:38:11.190938+01 | 1486291091.19094 |                 0 |              21 |                 43774 |                 1965 |            4683633 |             0 |                0 |         2122226 |                     0 |       1836856 | 2017-02-05 09:55:31.750407+01

 2017-02-05 11:38:12.282342+01 | 1486291092.28234 |                 0 |              21 |                 43774 |                 1965 |            4683633 |             0 |                0 |         2122226 |                     0 |       1836967 | 2017-02-05 09:55:31.750407+01

 2017-02-05 11:38:13.371156+01 | 1486291093.37116 |                 0 |              21 |                 43774 |                 1965 |            4683633 |             0 |                0 |         2122226 |                     0 |       1837093 | 2017-02-05 09:55:31.750407+01

 2017-02-05 11:38:14.45034+01 | 1486291094.45034 |                 0 |              21 |                 43774 |                 1965 |            4683633 |             0 |                0 |         2122226 |                     0 |       1837223 | 2017-02-05 09:55:31.750407+01

 2017-02-05 11:38:15.52871+01 | 1486291095.52871 |                 0 |              21 |                 43774 |                 1965 |            4683633 |             0 |                0 |         2122226 |                     0 |       1837311 | 2017-02-05 09:55:31.750407+01

 2017-02-05 11:38:16.608685+01 | 1486291096.60869 |                 0 |              21 |                 43774 |                 1965 |            4683633 |             0 |                0 |         2122226 |                     0 |       1837497 | 2017-02-05 09:55:31.750407+01

 2017-02-05 11:38:17.687201+01 | 1486291097.6872 |                 0 |              21 |                 43774 |                 1965 |            4683633 |             0 |                0 |         2122226 |                     0 |       1837629 | 2017-02-05 09:55:31.750407+01

 2017-02-05 11:38:18.765498+01 | 1486291098.7655 |                 0 |              21 |                 43774 |                 1965 |            4683633 |             0 |                0 |         2122226 |                     0 |       1837739 | 2017-02-05 09:55:31.750407+01

 2017-02-05 11:38:19.844444+01 | 1486291099.84444 |                 0 |              21 |                 43774 |                 1965 |            4683633 |             0 |                0 |         2122226 |                     0 |       1837825 | 2017-02-05 09:55:31.750407+01

 2017-02-05 11:38:20.928369+01 | 1486291100.92837 |                 0 |              21 |                 43774 |                 1965 |            4683633 |             0 |                0 |         2122226 |                     0 |       1837907 | 2017-02-05 09:55:31.750407+01

 2017-02-05 11:38:22.011109+01 | 1486291102.01111 |                 0 |              21 |                 43774 |                 1965 |            4683633 |             0 |                0 |         2122226 |                     0 |       1838102 | 2017-02-05 09:55:31.750407+01

 2017-02-05 11:38:23.093786+01 | 1486291103.09379 |                 0 |              21 |                 43774 |                 1965 |            4683633 |             0 |                0 |         2122226 |                     0 |       1838228 | 2017-02-05 09:55:31.750407+01

 2017-02-05 11:38:24.175958+01 | 1486291104.17596 |                 0 |              21 |                 43774 |                 1965 |            4683633 |             0 |                0 |         2122226 |                     0 |       1838352 | 2017-02-05 09:55:31.750407+01

 2017-02-05 11:38:25.249471+01 | 1486291105.24947 |                 0 |              21 |                 43774 |                 1965 |            4683633 |             0 |                0 |         2122226 |                     0 |       1838475 | 2017-02-05 09:55:31.750407+01

 2017-02-05 11:38:26.328941+01 | 1486291106.32894 |                 0 |              21 |                 43774 |                 1965 |            4683633 |             0 |                0 |         2122226 |                     0 |       1838625 | 2017-02-05 09:55:31.750407+01

 2017-02-05 11:38:27.413946+01 | 1486291107.41395 |                 0 |              21 |                 43774 |                 1965 |            4683633 |             0 |                0 |         2122226 |                     0 |       1838732 | 2017-02-05 09:55:31.750407+01

 2017-02-05 11:38:28.48832+01 | 1486291108.48832 |                 0 |              21 |                 43774 |                 1965 |            4683633 |             0 |                0 |         2122226 |                     0 |       1838907 | 2017-02-05 09:55:31.750407+01

 2017-02-05 11:38:29.570745+01 | 1486291109.57074 |                 0 |              21 |                 43774 |                 1965 |            4683633 |             0 |                0 |         2122226 |                     0 |       1839016 | 2017-02-05 09:55:31.750407+01

 2017-02-05 11:38:30.650624+01 | 1486291110.65062 |                 0 |              21 |                 43774 |                 1965 |            4683633 |             0 |                0 |         2122226 |                     0 |       1839119 | 2017-02-05 09:55:31.750407+01

 2017-02-05 11:38:31.737871+01 | 1486291111.73787 |                 0 |              21 |                 43774 |                 1965 |            4683633 |             0 |                0 |         2122226 |                     0 |       1839244 | 2017-02-05 09:55:31.750407+01

 2017-02-05 11:38:32.828443+01 | 1486291112.82844 |                 0 |              21 |                 43774 |                 1965 |            4683633 |             0 |                0 |         2122226 |                     0 |       1839372 | 2017-02-05 09:55:31.750407+01

 2017-02-05 11:38:33.904782+01 | 1486291113.90478 |                 0 |              21 |                 43774 |                 1965 |            4683633 |             0 |                0 |         2122226 |                     0 |       1839529 | 2017-02-05 09:55:31.750407+01

 2017-02-05 11:38:34.983472+01 | 1486291114.98347 |                 0 |              21 |                 43774 |                 1965 |            4683633 |             0 |                0 |         2122226 |                     0 |       1839613 | 2017-02-05 09:55:31.750407+01

 2017-02-05 11:38:36.067166+01 | 1486291116.06717 |                 0 |              21 |                 43774 |                 1965 |            4683633 |             0 |                0 |         2122226 |                     0 |       1839782 | 2017-02-05 09:55:31.750407+01

 2017-02-05 11:38:37.136853+01 | 1486291117.13685 |                 0 |              21 |                 43774 |                 1965 |            4683633 |             0 |                0 |         2122226 |                     0 |       1839845 | 2017-02-05 09:55:31.750407+01

 2017-02-05 11:38:38.220706+01 | 1486291118.22071 |                 0 |              21 |                 43774 |                 1965 |            4683633 |             0 |                0 |         2122226 |                     0 |       1840053 | 2017-02-05 09:55:31.750407+01

 2017-02-05 11:38:39.314459+01 | 1486291119.31446 |                 0 |              21 |                 43774 |                 1965 |            4683633 |             0 |                0 |         2122226 |                     0 |       1840181 | 2017-02-05 09:55:31.750407+01

 2017-02-05 11:38:40.405718+01 | 1486291120.40572 |                 0 |              21 |                 43774 |                 1965 |            4683633 |             0 |                0 |         2122226 |                     0 |       1840290 | 2017-02-05 09:55:31.750407+01

 2017-02-05 11:38:41.489736+01 | 1486291121.48974 |                 0 |              21 |                 43774 |                 1965 |            4683633 |             0 |                0 |         2122226 |                     0 |       1840399 | 2017-02-05 09:55:31.750407+01

 2017-02-05 11:38:42.560696+01 | 1486291122.5607 |                 0 |              21 |                 43774 |                 1965 |            4683633 |             0 |                0 |         2122226 |                     0 |       1840527 | 2017-02-05 09:55:31.750407+01

 2017-02-05 11:38:43.640153+01 | 1486291123.64015 |                 0 |              21 |                 43774 |                 1965 |            4683633 |             0 |                0 |         2122226 |                     0 |       1840653 | 2017-02-05 09:55:31.750407+01

 2017-02-05 11:38:44.724792+01 | 1486291124.72479 |                 0 |              21 |                 43774 |                 1965 |            4683633 |             0 |                0 |         2122226 |                     0 |       1840846 | 2017-02-05 09:55:31.750407+01

 2017-02-05 11:38:45.81049+01 | 1486291125.81049 |                 0 |              21 |                 43774 |                 1965 |            4683633 |             0 |                0 |         2122226 |                     0 |       1840952 | 2017-02-05 09:55:31.750407+01

 2017-02-05 11:38:46.886516+01 | 1486291126.88652 |                 0 |              21 |                 43774 |                 1965 |            4683633 |             0 |                0 |         2122226 |                     0 |       1841016 | 2017-02-05 09:55:31.750407+01

 2017-02-05 11:38:47.969202+01 | 1486291127.9692 |                 0 |              21 |                 43774 |                 1965 |            4683633 |             0 |                0 |         2122226 |                     0 |       1841168 | 2017-02-05 09:55:31.750407+01

 2017-02-05 11:38:49.054923+01 | 1486291129.05492 |                 0 |              21 |                 43774 |                 1965 |            4683633 |             0 |                0 |         2122226 |                     0 |       1841276 | 2017-02-05 09:55:31.750407+01

 2017-02-05 11:38:50.125136+01 | 1486291130.12514 |                 0 |              21 |                 43774 |                 1965 |            4683633 |             0 |                0 |         2122226 |                     0 |       1841363 | 2017-02-05 09:55:31.750407+01

 2017-02-05 11:38:51.196964+01 | 1486291131.19696 |                 0 |              21 |                 43774 |                 1965 |            4683633 |             0 |                0 |         2122226 |                     0 |       1841572 | 2017-02-05 09:55:31.750407+01

 2017-02-05 11:38:52.27529+01 | 1486291132.27529 |                 0 |              21 |                 43774 |                 1965 |            4683633 |             0 |                0 |         2122226 |                     0 |       1841659 | 2017-02-05 09:55:31.750407+01

 2017-02-05 11:38:53.359721+01 | 1486291133.35972 |                 0 |              21 |                 43774 |                 1965 |            4683633 |             0 |                0 |         2122226 |                     0 |       1841722 | 2017-02-05 09:55:31.750407+01

 2017-02-05 11:38:54.445783+01 | 1486291134.44578 |                 0 |              21 |                 43774 |                 1965 |            4683633 |             0 |                0 |         2122226 |                     0 |       1841896 | 2017-02-05 09:55:31.750407+01

 2017-02-05 11:38:55.53105+01 | 1486291135.53105 |                 0 |              21 |                 43774 |                 1965 |            4683633 |             0 |                0 |         2122226 |                     0 |       1842109 | 2017-02-05 09:55:31.750407+01

 2017-02-05 11:38:56.614879+01 | 1486291136.61488 |                 0 |              21 |                 43774 |                 1965 |            4683633 |             0 |                0 |         2122226 |                     0 |       1842134 | 2017-02-05 09:55:31.750407+01

 2017-02-05 11:38:57.70266+01 | 1486291137.70266 |                 0 |              21 |                 43774 |                 1965 |            4683633 |             0 |                0 |         2122226 |                     0 |       1842288 | 2017-02-05 09:55:31.750407+01

 2017-02-05 11:38:58.79106+01 | 1486291138.79106 |                 0 |              21 |                 43774 |                 1965 |            4683633 |             0 |                0 |         2122226 |                     0 |       1842458 | 2017-02-05 09:55:31.750407+01

 2017-02-05 11:38:59.868523+01 | 1486291139.86852 |                 0 |              21 |                 43774 |                 1965 |            4683633 |             0 |                0 |         2122226 |                     0 |       1842524 | 2017-02-05 09:55:31.750407+01

 2017-02-05 11:39:00.949262+01 | 1486291140.94926 |                 0 |              21 |                 43774 |                 1965 |            4683633 |             0 |                0 |         2122226 |                     0 |       1842629 | 2017-02-05 09:55:31.750407+01

 2017-02-05 11:39:02.021451+01 | 1486291142.02145 |                 0 |              21 |                 43774 |                 1965 |            4683633 |             0 |                0 |         2122226 |                     0 |       1842778 | 2017-02-05 09:55:31.750407+01

 2017-02-05 11:39:03.110945+01 | 1486291143.11094 |                 0 |              21 |                 43774 |                 1965 |            4683633 |             0 |                0 |         2122226 |                     0 |       1842926 | 2017-02-05 09:55:31.750407+01

 2017-02-05 11:39:04.194628+01 | 1486291144.19463 |                 0 |              21 |                 43774 |                 1965 |            4683633 |             0 |                0 |         2122226 |                     0 |       1843079 | 2017-02-05 09:55:31.750407+01

 2017-02-05 11:39:05.279995+01 | 1486291145.27999 |                 0 |              21 |                 43774 |                 1965 |            4683633 |             0 |                0 |         2122226 |                     0 |       1843188 | 2017-02-05 09:55:31.750407+01

 2017-02-05 11:39:06.360216+01 | 1486291146.36022 |                 0 |              21 |                 43774 |                 1965 |            4683633 |             0 |                0 |         2122226 |                     0 |       1843361 | 2017-02-05 09:55:31.750407+01

 2017-02-05 11:39:07.440509+01 | 1486291147.44051 |                 0 |              21 |                 43774 |                 1965 |            4683633 |             0 |                0 |         2122226 |                     0 |       1843433 | 2017-02-05 09:55:31.750407+01

 2017-02-05 11:39:08.51518+01 | 1486291148.51518 |                 0 |              21 |                 43774 |                 1965 |            4683633 |             0 |                0 |         2122226 |                     0 |       1843542 | 2017-02-05 09:55:31.750407+01

 2017-02-05 11:39:09.577228+01 | 1486291149.57723 |                 0 |              21 |                 43774 |                 1965 |            4683633 |             0 |                0 |         2122226 |                     0 |       1843675 | 2017-02-05 09:55:31.750407+01

 2017-02-05 11:39:10.659808+01 | 1486291150.65981 |                 0 |              21 |                 43774 |                 1965 |            4683633 |             0 |                0 |         2122226 |                     0 |       1843825 | 2017-02-05 09:55:31.750407+01

 2017-02-05 11:39:11.73639+01 | 1486291151.73639 |                 0 |              21 |                 43774 |                 1965 |            4683633 |             0 |                0 |         2122226 |                     0 |       1844016 | 2017-02-05 09:55:31.750407+01

 2017-02-05 11:39:12.824652+01 | 1486291152.82465 |                 0 |              21 |                 43774 |                 1965 |            4683633 |             0 |                0 |         2122226 |                     0 |       1844140 | 2017-02-05 09:55:31.750407+01

 2017-02-05 11:39:13.904993+01 | 1486291153.90499 |                 0 |              21 |                 43774 |                 1965 |            4683633 |             0 |                0 |         2122226 |                     0 |       1844206 | 2017-02-05 09:55:31.750407+01

 2017-02-05 11:39:14.989116+01 | 1486291154.98912 |                 0 |              21 |                 43774 |                 1965 |            4683633 |             0 |                0 |         2122226 |                     0 |       1844293 | 2017-02-05 09:55:31.750407+01

 2017-02-05 11:39:16.071497+01 | 1486291156.0715 |                 0 |              21 |                 43774 |                 1965 |            4683633 |             0 |                0 |         2122226 |                     0 |       1844464 | 2017-02-05 09:55:31.750407+01

 2017-02-05 11:39:17.163634+01 | 1486291157.16363 |                 0 |              21 |                 43774 |                 1965 |            4683633 |             0 |                0 |         2122226 |                     0 |       1844618 | 2017-02-05 09:55:31.750407+01

 2017-02-05 11:39:18.247266+01 | 1486291158.24727 |                 0 |              21 |                 43774 |                 1965 |            4683633 |             0 |                0 |         2122226 |                     0 |       1844728 | 2017-02-05 09:55:31.750407+01

 2017-02-05 11:39:19.321202+01 | 1486291159.3212 |                 0 |              21 |                 43774 |                 1965 |            4683633 |             0 |                0 |         2122226 |                     0 |       1844843 | 2017-02-05 09:55:31.750407+01

 2017-02-05 11:39:20.404545+01 | 1486291160.40455 |                 0 |              21 |                 43774 |                 1965 |            4683633 |             0 |                0 |         2122226 |                     0 |       1844971 | 2017-02-05 09:55:31.750407+01

 2017-02-05 11:39:21.489385+01 | 1486291161.48938 |                 0 |              21 |                 43774 |                 1965 |            4683633 |             0 |                0 |         2122226 |                     0 |       1845102 | 2017-02-05 09:55:31.750407+01

 2017-02-05 11:39:22.572655+01 | 1486291162.57265 |                 0 |              21 |                 43774 |                 1965 |            4683633 |             0 |                0 |         2122226 |                     0 |       1845226 | 2017-02-05 09:55:31.750407+01

 2017-02-05 11:39:23.655645+01 | 1486291163.65564 |                 0 |              21 |                 43774 |                 1965 |            4683633 |             0 |                0 |         2122226 |                     0 |       1845352 | 2017-02-05 09:55:31.750407+01

 2017-02-05 11:39:24.74072+01 | 1486291164.74072 |                 0 |              21 |                 43774 |                 1965 |            4683633 |             0 |                0 |         2122226 |                     0 |       1845500 | 2017-02-05 09:55:31.750407+01

 2017-02-05 11:39:25.822524+01 | 1486291165.82252 |                 0 |              21 |                 43774 |                 1965 |            4683633 |             0 |                0 |         2122226 |                     0 |       1845669 | 2017-02-05 09:55:31.750407+01

 2017-02-05 11:39:26.911041+01 | 1486291166.91104 |                 0 |              21 |                 43774 |                 1965 |            4683633 |             0 |                0 |         2122226 |                     0 |       1845753 | 2017-02-05 09:55:31.750407+01

 2017-02-05 11:39:27.992138+01 | 1486291167.99214 |                 0 |              21 |                 43774 |                 1965 |            4683633 |             0 |                0 |         2122226 |                     0 |       1845922 | 2017-02-05 09:55:31.750407+01

 2017-02-05 11:39:29.078243+01 | 1486291169.07824 |                 0 |              21 |                 43774 |                 1965 |            4683633 |             0 |                0 |         2122226 |                     0 |       1846008 | 2017-02-05 09:55:31.750407+01

 2017-02-05 11:39:30.17011+01 | 1486291170.17011 |                 0 |              21 |                 43774 |                 1965 |            4683633 |             0 |                0 |         2122226 |                     0 |       1846156 | 2017-02-05 09:55:31.750407+01

 2017-02-05 11:39:31.252725+01 | 1486291171.25272 |                 0 |              21 |                 43774 |                 1965 |            4683633 |             0 |                0 |         2122226 |                     0 |       1846263 | 2017-02-05 09:55:31.750407+01

 2017-02-05 11:39:32.339366+01 | 1486291172.33937 |                 0 |              21 |                 43774 |                 1965 |            4683633 |             0 |                0 |         2122226 |                     0 |       1846390 | 2017-02-05 09:55:31.750407+01

 2017-02-05 11:39:33.424111+01 | 1486291173.42411 |                 0 |              21 |                 43774 |                 1965 |            4683633 |             0 |                0 |         2122226 |                     0 |       1846538 | 2017-02-05 09:55:31.750407+01

 2017-02-05 11:39:34.499192+01 | 1486291174.49919 |                 0 |              21 |                 43774 |                 1965 |            4683633 |             0 |                0 |         2122226 |                     0 |       1846709 | 2017-02-05 09:55:31.750407+01

 2017-02-05 11:39:35.587541+01 | 1486291175.58754 |                 0 |              21 |                 43774 |                 1965 |            4683633 |             0 |                0 |         2122226 |                     0 |       1846812 | 2017-02-05 09:55:31.750407+01

 2017-02-05 11:39:36.669258+01 | 1486291176.66926 |                 0 |              21 |                 43774 |                 1965 |            4683633 |             0 |                0 |         2122226 |                     0 |       1846901 | 2017-02-05 09:55:31.750407+01

 2017-02-05 11:39:37.751241+01 | 1486291177.75124 |                 0 |              21 |                 43774 |                 1965 |            4683633 |             0 |                0 |         2122226 |                     0 |       1847090 | 2017-02-05 09:55:31.750407+01

 2017-02-05 11:39:38.842218+01 | 1486291178.84222 |                 0 |              21 |                 43774 |                 1965 |            4683633 |             0 |                0 |         2122226 |                     0 |       1847177 | 2017-02-05 09:55:31.750407+01

 2017-02-05 11:39:39.92585+01 | 1486291179.92585 |                 0 |              21 |                 43774 |                 1965 |            4683633 |             0 |                0 |         2122226 |                     0 |       1847261 | 2017-02-05 09:55:31.750407+01

 2017-02-05 11:39:41.015488+01 | 1486291181.01549 |                 0 |              21 |                 43774 |                 1965 |            4683633 |             0 |                0 |         2122226 |                     0 |       1847493 | 2017-02-05 09:55:31.750407+01

 2017-02-05 11:39:42.096283+01 | 1486291182.09628 |                 0 |              21 |                 43774 |                 1965 |            4683633 |             0 |                0 |         2122226 |                     0 |       1847576 | 2017-02-05 09:55:31.750407+01

 2017-02-05 11:39:43.174871+01 | 1486291183.17487 |                 0 |              21 |                 43774 |                 1965 |            4683633 |             0 |                0 |         2122226 |                     0 |       1847730 | 2017-02-05 09:55:31.750407+01

 2017-02-05 11:39:44.252619+01 | 1486291184.25262 |                 0 |              21 |                 43774 |                 1965 |            4683633 |             0 |                0 |         2122226 |                     0 |       1847816 | 2017-02-05 09:55:31.750407+01

 2017-02-05 11:39:45.33919+01 | 1486291185.33919 |                 0 |              21 |                 43774 |                 1965 |            4683633 |             0 |                0 |         2122226 |                     0 |       1847948 | 2017-02-05 09:55:31.750407+01

 2017-02-05 11:39:46.418626+01 | 1486291186.41863 |                 0 |              21 |                 43774 |                 1965 |            4683633 |             0 |                0 |         2122226 |                     0 |       1848061 | 2017-02-05 09:55:31.750407+01

 2017-02-05 11:39:47.505786+01 | 1486291187.50579 |                 0 |              21 |                 43774 |                 1965 |            4683633 |             0 |                0 |         2122226 |                     0 |       1848175 | 2017-02-05 09:55:31.750407+01

 2017-02-05 11:39:48.599491+01 | 1486291188.59949 |                 0 |              21 |                 43774 |                 1965 |            4683633 |             0 |                0 |         2122226 |                     0 |       1848306 | 2017-02-05 09:55:31.750407+01

 2017-02-05 11:39:49.681483+01 | 1486291189.68148 |                 0 |              21 |                 43774 |                 1965 |            4683633 |             0 |                0 |         2122226 |                     0 |       1848414 | 2017-02-05 09:55:31.750407+01

 2017-02-05 11:39:50.758454+01 | 1486291190.75845 |                 0 |              21 |                 43774 |                 1965 |            4683633 |             0 |                0 |         2122226 |                     0 |       1848609 | 2017-02-05 09:55:31.750407+01

 2017-02-05 11:39:51.836827+01 | 1486291191.83683 |                 0 |              21 |                 43774 |                 1965 |            4683633 |             0 |                0 |         2122226 |                     0 |       1848715 | 2017-02-05 09:55:31.750407+01

 2017-02-05 11:39:52.922757+01 | 1486291192.92276 |                 0 |              21 |                 43774 |                 1965 |            4683633 |             0 |                0 |         2122226 |                     0 |       1848845 | 2017-02-05 09:55:31.750407+01

 2017-02-05 11:39:54.00028+01 | 1486291194.00028 |                 0 |              21 |                 43774 |                 1965 |            4683633 |             0 |                0 |         2122226 |                     0 |       1849002 | 2017-02-05 09:55:31.750407+01

 2017-02-05 11:39:55.078516+01 | 1486291195.07852 |                 0 |              21 |                 43774 |                 1965 |            4683633 |             0 |                0 |         2122226 |                     0 |       1849154 | 2017-02-05 09:55:31.750407+01

 2017-02-05 11:39:56.166011+01 | 1486291196.16601 |                 0 |              21 |                 43774 |                 1965 |            4683633 |             0 |                0 |         2122226 |                     0 |       1849262 | 2017-02-05 09:55:31.750407+01

 2017-02-05 11:39:57.25352+01 | 1486291197.25352 |                 0 |              21 |                 43774 |                 1965 |            4683633 |             0 |                0 |         2122226 |                     0 |       1849434 | 2017-02-05 09:55:31.750407+01

 2017-02-05 11:39:58.333707+01 | 1486291198.33371 |                 0 |              21 |                 43774 |                 1965 |            4683633 |             0 |                0 |         2122226 |                     0 |       1849477 | 2017-02-05 09:55:31.750407+01

 2017-02-05 11:39:59.418489+01 | 1486291199.41849 |                 0 |              21 |                 43774 |                 1965 |            4683633 |             0 |                0 |         2122226 |                     0 |       1849654 | 2017-02-05 09:55:31.750407+01

 2017-02-05 11:40:00.499946+01 | 1486291200.49995 |                 0 |              21 |                 43774 |                 1965 |            4683633 |             0 |                0 |         2122226 |                     0 |       1849742 | 2017-02-05 09:55:31.750407+01

 2017-02-05 11:40:01.584419+01 | 1486291201.58442 |                 0 |              21 |                 43774 |                 1965 |            4683633 |             0 |                0 |         2122226 |                     0 |       1849852 | 2017-02-05 09:55:31.750407+01

 2017-02-05 11:40:02.664536+01 | 1486291202.66454 |                 0 |              21 |                 43774 |                 1965 |            4683633 |             0 |                0 |         2122226 |                     0 |       1850063 | 2017-02-05 09:55:31.750407+01

 2017-02-05 11:40:03.752456+01 | 1486291203.75246 |                 0 |              21 |                 43774 |                 1965 |            4683633 |             0 |                0 |         2122226 |                     0 |       1850127 | 2017-02-05 09:55:31.750407+01

 2017-02-05 11:40:04.826159+01 | 1486291204.82616 |                 0 |              21 |                 43774 |                 1965 |            4683633 |             0 |                0 |         2122226 |                     0 |       1850258 | 2017-02-05 09:55:31.750407+01

 2017-02-05 11:40:05.906866+01 | 1486291205.90687 |                 0 |              21 |                 43774 |                 1965 |            4683633 |             0 |                0 |         2122226 |                     0 |       1850382 | 2017-02-05 09:55:31.750407+01

 2017-02-05 11:40:06.99163+01 | 1486291206.99163 |                 0 |              21 |                 43774 |                 1965 |            4683633 |             0 |                0 |         2122226 |                     0 |       1850513 | 2017-02-05 09:55:31.750407+01

 2017-02-05 11:40:08.079177+01 | 1486291208.07918 |                 0 |              21 |                 43774 |                 1965 |            4683633 |             0 |                0 |         2122226 |                     0 |       1850642 | 2017-02-05 09:55:31.750407+01

 2017-02-05 11:40:09.15242+01 | 1486291209.15242 |                 0 |              21 |                 43774 |                 1965 |            4683633 |             0 |                0 |         2122226 |                     0 |       1850792 | 2017-02-05 09:55:31.750407+01

 2017-02-05 11:40:10.236792+01 | 1486291210.23679 |                 0 |              21 |                 43774 |                 1965 |            4683633 |             0 |                0 |         2122226 |                     0 |       1850966 | 2017-02-05 09:55:31.750407+01

 2017-02-05 11:40:11.312822+01 | 1486291211.31282 |                 0 |              21 |                 43774 |                 1965 |            4683633 |             0 |                0 |         2122226 |                     0 |       1851034 | 2017-02-05 09:55:31.750407+01

 2017-02-05 11:40:12.4006+01 | 1486291212.4006 |                 0 |              21 |                 43774 |                 1965 |            4683633 |             0 |                0 |         2122226 |                     0 |       1851167 | 2017-02-05 09:55:31.750407+01

 2017-02-05 11:40:13.481055+01 | 1486291213.48106 |                 0 |              21 |                 43774 |                 1965 |            4683633 |             0 |                0 |         2122226 |                     0 |       1851345 | 2017-02-05 09:55:31.750407+01

 2017-02-05 11:40:14.560147+01 | 1486291214.56015 |                 0 |              21 |                 43774 |                 1965 |            4683633 |             0 |                0 |         2122226 |                     0 |       1851455 | 2017-02-05 09:55:31.750407+01

 2017-02-05 11:40:15.641964+01 | 1486291215.64196 |                 0 |              21 |                 43774 |                 1965 |            4683633 |             0 |                0 |         2122226 |                     0 |       1851566 | 2017-02-05 09:55:31.750407+01

 2017-02-05 11:40:16.726854+01 | 1486291216.72685 |                 0 |              21 |                 43774 |                 1965 |            4683633 |             0 |                0 |         2122226 |                     0 |       1851741 | 2017-02-05 09:55:31.750407+01

 2017-02-05 11:40:17.802792+01 | 1486291217.80279 |                 0 |              21 |                 43774 |                 1965 |            4683633 |             0 |                0 |         2122226 |                     0 |       1851891 | 2017-02-05 09:55:31.750407+01

 2017-02-05 11:40:18.887144+01 | 1486291218.88714 |                 0 |              21 |                 43774 |                 1965 |            4683633 |             0 |                0 |         2122226 |                     0 |       1852009 | 2017-02-05 09:55:31.750407+01

 2017-02-05 11:40:19.967884+01 | 1486291219.96788 |                 0 |              21 |                 43774 |                 1965 |            4683633 |             0 |                0 |         2122226 |                     0 |       1852093 | 2017-02-05 09:55:31.750407+01

 2017-02-05 11:40:21.054504+01 | 1486291221.0545 |                 0 |              21 |                 43774 |                 1965 |            4683633 |             0 |                0 |         2122226 |                     0 |       1852224 | 2017-02-05 09:55:31.750407+01

 2017-02-05 11:40:22.142611+01 | 1486291222.14261 |                 0 |              21 |                 43774 |                 1965 |            4683633 |             0 |                0 |         2122226 |                     0 |       1852377 | 2017-02-05 09:55:31.750407+01

 2017-02-05 11:40:23.2287+01 | 1486291223.2287 |                 0 |              21 |                 43774 |                 1965 |            4683633 |             0 |                0 |         2122226 |                     0 |       1852504 | 2017-02-05 09:55:31.750407+01

 2017-02-05 11:40:24.314944+01 | 1486291224.31494 |                 0 |              21 |                 43774 |                 1965 |            4683633 |             0 |                0 |         2122226 |                     0 |       1852636 | 2017-02-05 09:55:31.750407+01

 2017-02-05 11:40:25.395249+01 | 1486291225.39525 |                 0 |              21 |                 43774 |                 1965 |            4683633 |             0 |                0 |         2122226 |                     0 |       1852783 | 2017-02-05 09:55:31.750407+01

 2017-02-05 11:40:26.47981+01 | 1486291226.47981 |                 0 |              21 |                 43774 |                 1965 |            4683633 |             0 |                0 |         2122226 |                     0 |       1852871 | 2017-02-05 09:55:31.750407+01

 2017-02-05 11:40:27.570861+01 | 1486291227.57086 |                 0 |              21 |                 43774 |                 1965 |            4683633 |             0 |                0 |         2122226 |                     0 |       1853042 | 2017-02-05 09:55:31.750407+01

 2017-02-05 11:40:28.653115+01 | 1486291228.65312 |                 0 |              21 |                 43774 |                 1965 |            4683633 |             0 |                0 |         2122226 |                     0 |       1853192 | 2017-02-05 09:55:31.750407+01

 2017-02-05 11:40:29.738419+01 | 1486291229.73842 |                 0 |              21 |                 43774 |                 1965 |            4683633 |             0 |                0 |         2122226 |                     0 |       1853275 | 2017-02-05 09:55:31.750407+01

 2017-02-05 11:40:30.816656+01 | 1486291230.81666 |                 0 |              21 |                 43774 |                 1965 |            4683633 |             0 |                0 |         2122226 |                     0 |       1853427 | 2017-02-05 09:55:31.750407+01

 2017-02-05 11:40:31.909746+01 | 1486291231.90975 |                 0 |              21 |                 43774 |                 1965 |            4683633 |             0 |                0 |         2122226 |                     0 |       1853535 | 2017-02-05 09:55:31.750407+01

 2017-02-05 11:40:32.980741+01 | 1486291232.98074 |                 0 |              21 |                 43774 |                 1965 |            4683633 |             0 |                0 |         2122226 |                     0 |       1853621 | 2017-02-05 09:55:31.750407+01

 2017-02-05 11:40:34.05215+01 | 1486291234.05215 |                 0 |              21 |                 43774 |                 1965 |            4683633 |             0 |                0 |         2122226 |                     0 |       1853684 | 2017-02-05 09:55:31.750407+01

 2017-02-05 11:40:35.126883+01 | 1486291235.12688 |                 0 |              21 |                 43774 |                 1965 |            4683633 |             0 |                0 |         2122226 |                     0 |       1853946 | 2017-02-05 09:55:31.750407+01

 2017-02-05 11:40:36.210217+01 | 1486291236.21022 |                 0 |              21 |                 43774 |                 1965 |            4683633 |             0 |                0 |         2122226 |                     0 |       1854037 | 2017-02-05 09:55:31.750407+01

 2017-02-05 11:40:37.295466+01 | 1486291237.29547 |                 0 |              21 |                 43774 |                 1965 |            4683633 |             0 |                0 |         2122226 |                     0 |       1854124 | 2017-02-05 09:55:31.750407+01

 2017-02-05 11:40:38.376427+01 | 1486291238.37643 |                 0 |              21 |                 43774 |                 1965 |            4683633 |             0 |                0 |         2122226 |                     0 |       1854253 | 2017-02-05 09:55:31.750407+01

 2017-02-05 11:40:39.458138+01 | 1486291239.45814 |                 0 |              21 |                 43774 |                 1965 |            4683633 |             0 |                0 |         2122226 |                     0 |       1854359 | 2017-02-05 09:55:31.750407+01

 2017-02-05 11:40:40.538901+01 | 1486291240.5389 |                 0 |              21 |                 43774 |                 1965 |            4683633 |             0 |                0 |         2122226 |                     0 |       1854510 | 2017-02-05 09:55:31.750407+01

 2017-02-05 11:40:41.61237+01 | 1486291241.61237 |                 0 |              21 |                 43774 |                 1965 |            4683633 |             0 |                0 |         2122226 |                     0 |       1854702 | 2017-02-05 09:55:31.750407+01

 2017-02-05 11:40:42.697488+01 | 1486291242.69749 |                 0 |              21 |                 43774 |                 1965 |            4683633 |             0 |                0 |         2122226 |                     0 |       1854806 | 2017-02-05 09:55:31.750407+01

 2017-02-05 11:40:43.784673+01 | 1486291243.78467 |                 0 |              21 |                 43774 |                 1965 |            4683633 |             0 |                0 |         2122226 |                     0 |       1854892 | 2017-02-05 09:55:31.750407+01

 2017-02-05 11:40:44.874678+01 | 1486291244.87468 |                 0 |              21 |                 43774 |                 1965 |            4683633 |             0 |                0 |         2122226 |                     0 |       1855082 | 2017-02-05 09:55:31.750407+01

 2017-02-05 11:40:45.952863+01 | 1486291245.95286 |                 0 |              21 |                 43774 |                 1965 |            4683633 |             0 |                0 |         2122226 |                     0 |       1855165 | 2017-02-05 09:55:31.750407+01

 2017-02-05 11:40:47.039137+01 | 1486291247.03914 |                 0 |              21 |                 43774 |                 1965 |            4683633 |             0 |                0 |         2122226 |                     0 |       1855279 | 2017-02-05 09:55:31.750407+01

 2017-02-05 11:40:48.126807+01 | 1486291248.12681 |                 0 |              21 |                 43774 |                 1965 |            4683633 |             0 |                0 |         2122226 |                     0 |       1855411 | 2017-02-05 09:55:31.750407+01

 2017-02-05 11:40:49.202755+01 | 1486291249.20275 |                 0 |              21 |                 43774 |                 1965 |            4683633 |             0 |                0 |         2122226 |                     0 |       1855580 | 2017-02-05 09:55:31.750407+01

 2017-02-05 11:40:50.281006+01 | 1486291250.28101 |                 0 |              21 |                 43774 |                 1965 |            4683633 |             0 |                0 |         2122226 |                     0 |       1855672 | 2017-02-05 09:55:31.750407+01

 2017-02-05 11:40:51.35732+01 | 1486291251.35732 |                 0 |              21 |                 43774 |                 1965 |            4683633 |             0 |                0 |         2122226 |                     0 |       1855761 | 2017-02-05 09:55:31.750407+01

 2017-02-05 11:40:52.43636+01 | 1486291252.43636 |                 0 |              21 |                 43774 |                 1965 |            4683633 |             0 |                0 |         2122226 |                     0 |       1855892 | 2017-02-05 09:55:31.750407+01

 2017-02-05 11:40:53.506663+01 | 1486291253.50666 |                 0 |              21 |                 43774 |                 1965 |            4683633 |             0 |                0 |         2122226 |                     0 |       1856043 | 2017-02-05 09:55:31.750407+01

 2017-02-05 11:40:54.588735+01 | 1486291254.58874 |                 0 |              21 |                 43774 |                 1965 |            4683633 |             0 |                0 |         2122226 |                     0 |       1856273 | 2017-02-05 09:55:31.750407+01

 2017-02-05 11:40:55.680696+01 | 1486291255.6807 |                 0 |              21 |                 43774 |                 1965 |            4683633 |             0 |                0 |         2122226 |                     0 |       1856274 | 2017-02-05 09:55:31.750407+01

 2017-02-05 11:40:56.767595+01 | 1486291256.7676 |                 0 |              21 |                 43774 |                 1965 |            4683633 |             0 |                0 |         2122226 |                     0 |       1856443 | 2017-02-05 09:55:31.750407+01

 2017-02-05 11:40:57.851158+01 | 1486291257.85116 |                 0 |              21 |                 43774 |                 1965 |            4683633 |             0 |                0 |         2122226 |                     0 |       1856546 | 2017-02-05 09:55:31.750407+01

 2017-02-05 11:40:58.926278+01 | 1486291258.92628 |                 0 |              21 |                 43774 |                 1965 |            4683633 |             0 |                0 |         2122226 |                     0 |       1856652 | 2017-02-05 09:55:31.750407+01

 2017-02-05 11:41:00.014434+01 | 1486291260.01443 |                 0 |              21 |                 43774 |                 1965 |            4683633 |             0 |                0 |         2122226 |                     0 |       1856780 | 2017-02-05 09:55:31.750407+01

 2017-02-05 11:41:01.104642+01 | 1486291261.10464 |                 0 |              21 |                 43774 |                 1965 |            4683633 |             0 |                0 |         2122226 |                     0 |       1856933 | 2017-02-05 09:55:31.750407+01

 2017-02-05 11:41:02.190678+01 | 1486291262.19068 |                 0 |              21 |                 43774 |                 1965 |            4683633 |             0 |                0 |         2122226 |                     0 |       1857061 | 2017-02-05 09:55:31.750407+01

 2017-02-05 11:41:03.26448+01 | 1486291263.26448 |                 0 |              21 |                 43774 |                 1965 |            4683633 |             0 |                0 |         2122226 |                     0 |       1857166 | 2017-02-05 09:55:31.750407+01

 2017-02-05 11:41:04.341591+01 | 1486291264.34159 |                 0 |              21 |                 43774 |                 1965 |            4683633 |             0 |                0 |         2122226 |                     0 |       1857298 | 2017-02-05 09:55:31.750407+01

 2017-02-05 11:41:05.419088+01 | 1486291265.41909 |                 0 |              21 |                 43774 |                 1965 |            4683633 |             0 |                0 |         2122226 |                     0 |       1857434 | 2017-02-05 09:55:31.750407+01

 2017-02-05 11:41:06.494002+01 | 1486291266.494 |                 0 |              21 |                 43774 |                 1965 |            4683633 |             0 |                0 |         2122226 |                     0 |       1857499 | 2017-02-05 09:55:31.750407+01

 2017-02-05 11:41:07.578042+01 | 1486291267.57804 |                 0 |              21 |                 43774 |                 1965 |            4683633 |             0 |                0 |         2122226 |                     0 |       1857685 | 2017-02-05 09:55:31.750407+01

 2017-02-05 11:41:08.644879+01 | 1486291268.64488 |                 0 |              21 |                 43774 |                 1965 |            4683633 |             0 |                0 |         2122226 |                     0 |       1857771 | 2017-02-05 09:55:31.750407+01

 2017-02-05 11:41:09.722698+01 | 1486291269.7227 |                 0 |              21 |                 43774 |                 1965 |            4683633 |             0 |                0 |         2122226 |                     0 |       1857980 | 2017-02-05 09:55:31.750407+01

 2017-02-05 11:41:10.806248+01 | 1486291270.80625 |                 0 |              21 |                 43774 |                 1965 |            4683633 |             0 |                0 |         2122226 |                     0 |       1858067 | 2017-02-05 09:55:31.750407+01

 2017-02-05 11:41:11.877319+01 | 1486291271.87732 |                 0 |              21 |                 43774 |                 1965 |            4683633 |             0 |                0 |         2122226 |                     0 |       1858196 | 2017-02-05 09:55:31.750407+01

 2017-02-05 11:41:12.965737+01 | 1486291272.96574 |                 0 |              21 |                 43774 |                 1965 |            4683633 |             0 |                0 |         2122226 |                     0 |       1858321 | 2017-02-05 09:55:31.750407+01

 2017-02-05 11:41:14.052569+01 | 1486291274.05257 |                 0 |              21 |                 43774 |                 1965 |            4683633 |             0 |                0 |         2122226 |                     0 |       1858426 | 2017-02-05 09:55:31.750407+01

 2017-02-05 11:41:15.133322+01 | 1486291275.13332 |                 0 |              21 |                 43774 |                 1965 |            4683633 |             0 |                0 |         2122226 |                     0 |       1858615 | 2017-02-05 09:55:31.750407+01

 2017-02-05 11:41:16.222206+01 | 1486291276.22221 |                 0 |              21 |                 43774 |                 1965 |            4683633 |             0 |                0 |         2122226 |                     0 |       1858724 | 2017-02-05 09:55:31.750407+01

 2017-02-05 11:41:17.302827+01 | 1486291277.30283 |                 0 |              21 |                 43774 |                 1965 |            4683633 |             0 |                0 |         2122226 |                     0 |       1858830 | 2017-02-05 09:55:31.750407+01

 2017-02-05 11:41:18.373063+01 | 1486291278.37306 |                 0 |              21 |                 43774 |                 1965 |            4683633 |             0 |                0 |         2122226 |                     0 |       1858946 | 2017-02-05 09:55:31.750407+01

 2017-02-05 11:41:19.440987+01 | 1486291279.44099 |                 0 |              21 |                 43774 |                 1965 |            4683633 |             0 |                0 |         2122226 |                     0 |       1859116 | 2017-02-05 09:55:31.750407+01

 2017-02-05 11:41:20.514741+01 | 1486291280.51474 |                 0 |              21 |                 43774 |                 1965 |            4683633 |             0 |                0 |         2122226 |                     0 |       1859262 | 2017-02-05 09:55:31.750407+01

 2017-02-05 11:41:21.591741+01 | 1486291281.59174 |                 0 |              21 |                 43774 |                 1965 |            4683633 |             0 |                0 |         2122226 |                     0 |       1859329 | 2017-02-05 09:55:31.750407+01

 2017-02-05 11:41:22.675117+01 | 1486291282.67512 |                 0 |              21 |                 43774 |                 1965 |            4683633 |             0 |                0 |         2122226 |                     0 |       1859418 | 2017-02-05 09:55:31.750407+01

 2017-02-05 11:41:23.757077+01 | 1486291283.75708 |                 0 |              21 |                 43774 |                 1965 |            4683633 |             0 |                0 |         2122226 |                     0 |       1859524 | 2017-02-05 09:55:31.750407+01

 2017-02-05 11:41:24.832185+01 | 1486291284.83219 |                 0 |              21 |                 43774 |                 1965 |            4683633 |             0 |                0 |         2122226 |                     0 |       1859674 | 2017-02-05 09:55:31.750407+01

 2017-02-05 11:41:25.916433+01 | 1486291285.91643 |                 0 |              21 |                 43774 |                 1965 |            4683633 |             0 |                0 |         2122226 |                     0 |       1859857 | 2017-02-05 09:55:31.750407+01

 2017-02-05 11:41:27.0136+01 | 1486291287.0136 |                 0 |              21 |                 43774 |                 1965 |            4683633 |             0 |                0 |         2122226 |                     0 |       1859946 | 2017-02-05 09:55:31.750407+01

 2017-02-05 11:41:28.106002+01 | 1486291288.106 |                 0 |              21 |                 43774 |                 1965 |            4683633 |             0 |                0 |         2122226 |                     0 |       1860080 | 2017-02-05 09:55:31.750407+01

 2017-02-05 11:41:29.189433+01 | 1486291289.18943 |                 0 |              21 |                 43774 |                 1965 |            4683633 |             0 |                0 |         2122226 |                     0 |       1860254 | 2017-02-05 09:55:31.750407+01

 2017-02-05 11:41:30.267611+01 | 1486291290.26761 |                 0 |              21 |                 43774 |                 1965 |            4683633 |             0 |                0 |         2122226 |                     0 |       1860320 | 2017-02-05 09:55:31.750407+01

 2017-02-05 11:41:31.349879+01 | 1486291291.34988 |                 0 |              21 |                 43774 |                 1965 |            4683633 |             0 |                0 |         2122226 |                     0 |       1860383 | 2017-02-05 09:55:31.750407+01

 2017-02-05 11:41:32.422581+01 | 1486291292.42258 |                 0 |              21 |                 43774 |                 1965 |            4683633 |             0 |                0 |         2122226 |                     0 |       1860535 | 2017-02-05 09:55:31.750407+01

 2017-02-05 11:41:33.51115+01 | 1486291293.51115 |                 0 |              21 |                 43774 |                 1965 |            4683633 |             0 |                0 |         2122226 |                     0 |       1860770 | 2017-02-05 09:55:31.750407+01

 2017-02-05 11:41:34.598314+01 | 1486291294.59831 |                 0 |              21 |                 43774 |                 1965 |            4683633 |             0 |                0 |         2122226 |                     0 |       1860894 | 2017-02-05 09:55:31.750407+01

 2017-02-05 11:41:35.678414+01 | 1486291295.67841 |                 0 |              21 |                 43774 |                 1965 |            4683633 |             0 |                0 |         2122226 |                     0 |       1861062 | 2017-02-05 09:55:31.750407+01

 2017-02-05 11:41:36.768546+01 | 1486291296.76855 |                 0 |              21 |                 43774 |                 1965 |            4683633 |             0 |                0 |         2122226 |                     0 |       1861063 | 2017-02-05 09:55:31.750407+01

 2017-02-05 11:41:37.851643+01 | 1486291297.85164 |                 0 |              21 |                 43774 |                 1965 |            4683633 |             0 |                0 |         2122226 |                     0 |       1861292 | 2017-02-05 09:55:31.750407+01

 2017-02-05 11:41:38.937363+01 | 1486291298.93736 |                 0 |              21 |                 43774 |                 1965 |            4683633 |             0 |                0 |         2122226 |                     0 |       1861355 | 2017-02-05 09:55:31.750407+01

 2017-02-05 11:41:40.029555+01 | 1486291300.02956 |                 0 |              21 |                 43774 |                 1965 |            4683633 |             0 |                0 |         2122226 |                     0 |       1861505 | 2017-02-05 09:55:31.750407+01

 2017-02-05 11:41:41.115612+01 | 1486291301.11561 |                 0 |              21 |                 43774 |                 1965 |            4683633 |             0 |                0 |         2122226 |                     0 |       1861618 | 2017-02-05 09:55:31.750407+01

 2017-02-05 11:41:42.19928+01 | 1486291302.19928 |                 0 |              21 |                 43774 |                 1965 |            4683633 |             0 |                0 |         2122226 |                     0 |       1861725 | 2017-02-05 09:55:31.750407+01

 2017-02-05 11:41:43.285423+01 | 1486291303.28542 |                 0 |              21 |                 43774 |                 1965 |            4683633 |             0 |                0 |         2122226 |                     0 |       1861835 | 2017-02-05 09:55:31.750407+01

 2017-02-05 11:41:44.373281+01 | 1486291304.37328 |                 0 |              21 |                 43774 |                 1965 |            4683633 |             0 |                0 |         2122226 |                     0 |       1861953 | 2017-02-05 09:55:31.750407+01

 2017-02-05 11:41:45.452864+01 | 1486291305.45286 |                 0 |              21 |                 43774 |                 1965 |            4683633 |             0 |                0 |         2122226 |                     0 |       1862035 | 2017-02-05 09:55:31.750407+01

 2017-02-05 11:41:46.543547+01 | 1486291306.54355 |                 0 |              21 |                 43774 |                 1965 |            4683633 |             0 |                0 |         2122226 |                     0 |       1862222 | 2017-02-05 09:55:31.750407+01

 2017-02-05 11:41:47.629605+01 | 1486291307.62961 |                 0 |              21 |                 43774 |                 1965 |            4683633 |             0 |                0 |         2122226 |                     0 |       1862222 | 2017-02-05 09:55:31.750407+01

 2017-02-05 11:41:48.715857+01 | 1486291308.71586 |                 0 |              21 |                 43774 |                 1965 |            4683633 |             0 |                0 |         2122226 |                     0 |       1862451 | 2017-02-05 09:55:31.750407+01

 2017-02-05 11:41:49.806462+01 | 1486291309.80646 |                 0 |              21 |                 43774 |                 1965 |            4683633 |             0 |                0 |         2122226 |                     0 |       1862639 | 2017-02-05 09:55:31.750407+01

 2017-02-05 11:41:50.89185+01 | 1486291310.89185 |                 0 |              21 |                 43774 |                 1965 |            4683633 |             0 |                0 |         2122226 |                     0 |       1862722 | 2017-02-05 09:55:31.750407+01

 2017-02-05 11:41:51.971072+01 | 1486291311.97107 |                 0 |              21 |                 43774 |                 1965 |            4683633 |             0 |                0 |         2122226 |                     0 |       1862826 | 2017-02-05 09:55:31.750407+01

