 2017-02-05 10:46:23.965596+01 | 1486287983.9656 | 9/99EDF218               |           41237213720

 2017-02-05 10:46:25.05166+01 | 1486287985.05166 | 9/A75B20B0               |           41462472880

 2017-02-05 10:46:26.132603+01 | 1486287986.1326 | 9/AF218428               |           41592914984

 2017-02-05 10:46:27.212577+01 | 1486287987.21258 | 9/B44CF770               |           41679648624

 2017-02-05 10:46:28.296093+01 | 1486287988.29609 | 9/B8491F28               |           41746505512

 2017-02-05 10:46:29.374344+01 | 1486287989.37434 | 9/BB649BC0               |           41798638528

 2017-02-05 10:46:30.456559+01 | 1486287990.45656 | 9/BDE83AF8               |           41840818936

 2017-02-05 10:46:31.53061+01 | 1486287991.53061 | 9/C023EEE8               |           41878286056

 2017-02-05 10:46:32.619546+01 | 1486287992.61955 | 9/C230FF08               |           41912696584

 2017-02-05 10:46:33.705423+01 | 1486287993.70542 | 9/C3FCBE00               |           41942826496

 2017-02-05 10:46:34.786043+01 | 1486287994.78604 | 9/C5C60438               |           41972794424

 2017-02-05 10:46:35.865787+01 | 1486287995.86579 | 9/C78A7E10               |           42002447888

 2017-02-05 10:46:36.937101+01 | 1486287996.9371 | 9/C921BFF8               |           42029137912

 2017-02-05 10:46:38.01251+01 | 1486287998.01251 | 9/CA8FEE30               |           42053135920

 2017-02-05 10:46:39.081725+01 | 1486287999.08172 | 9/CC00CE48               |           42077310536

 2017-02-05 10:46:40.156214+01 | 1486288000.15621 | 9/CD6600E8               |           42100719848

 2017-02-05 10:46:41.23079+01 | 1486288001.23079 | 9/CEBD7F00               |           42123230976

 2017-02-05 10:46:42.309461+01 | 1486288002.30946 | 9/D007AA48               |           42144868936

 2017-02-05 10:46:43.38865+01 | 1486288003.38865 | 9/D14D2930               |           42166200624

 2017-02-05 10:46:44.470891+01 | 1486288004.47089 | 9/D28719A8               |           42186774952

 2017-02-05 10:46:45.553396+01 | 1486288005.5534 | 9/D3B81EB8               |           42206764728

 2017-02-05 10:46:46.629474+01 | 1486288006.62947 | 9/D4DFA598               |           42226132376

 2017-02-05 10:46:47.718439+01 | 1486288007.71844 | 9/D600BF30               |           42245078832

 2017-02-05 10:46:48.791374+01 | 1486288008.79137 | 9/D72DC188               |           42264805768

 2017-02-05 10:46:49.860457+01 | 1486288009.86046 | 9/D83F9870               |           42282752112

 2017-02-05 10:46:50.937777+01 | 1486288010.93778 | 9/D95CE788               |           42301450120

 2017-02-05 10:46:52.017606+01 | 1486288012.01761 | 9/DA69F7C8               |           42319083464

 2017-02-05 10:46:53.100451+01 | 1486288013.10045 | 9/DB72F598               |           42336449944

 2017-02-05 10:46:54.175384+01 | 1486288014.17538 | 9/DC7AFF88               |           42353753992

 2017-02-05 10:46:55.255597+01 | 1486288015.2556 | 9/DD70C1C8               |           42369860040

 2017-02-05 10:46:56.335593+01 | 1486288016.33559 | 9/DE673808               |           42386012168

 2017-02-05 10:46:57.420172+01 | 1486288017.42017 | 9/DF50A960               |           42401311072

 2017-02-05 10:46:58.498557+01 | 1486288018.49856 | 9/E02D58F8               |           42415773944

 2017-02-05 10:46:59.582136+01 | 1486288019.58214 | 9/E1231598               |           42431878552

 2017-02-05 10:47:00.654173+01 | 1486288020.65417 | 9/E218DF30               |           42447986480

 2017-02-05 10:47:01.726483+01 | 1486288021.72648 | 9/E3077878               |           42463623288

 2017-02-05 10:47:02.802948+01 | 1486288022.80295 | 9/E3F56F00               |           42479218432

 2017-02-05 10:47:03.880546+01 | 1486288023.88055 | 9/E4E559F0               |           42494941680

 2017-02-05 10:47:04.959039+01 | 1486288024.95904 | 9/E5E18D70               |           42511469936

 2017-02-05 10:47:06.039463+01 | 1486288026.03946 | 9/E6E479A0               |           42528438688

 2017-02-05 10:47:07.114209+01 | 1486288027.11421 | 9/E82A7318               |           42549801752

 2017-02-05 10:47:08.198466+01 | 1486288028.19847 | 9/E9A77378               |           42574771064

 2017-02-05 10:47:09.278237+01 | 1486288029.27824 | 9/EB2A1648               |           42600109640

 2017-02-05 10:47:10.353066+01 | 1486288030.35307 | 9/ECADCC50               |           42625518672

 2017-02-05 10:47:11.426506+01 | 1486288031.42651 | 9/EE1B2C50               |           42649463888

 2017-02-05 10:47:12.506327+01 | 1486288032.50633 | 9/EF961B40               |           42674297664

 2017-02-05 10:47:13.580256+01 | 1486288033.58026 | 9/F0D7F9C0               |           42695391680

 2017-02-05 10:47:14.658246+01 | 1486288034.65825 | 9/F1D2DFD8               |           42711834584

 2017-02-05 10:47:15.746246+01 | 1486288035.74625 | 9/F2B8D838               |           42726905912

 2017-02-05 10:47:16.832722+01 | 1486288036.83272 | 9/F37356A8               |           42739127976

 2017-02-05 10:47:17.923284+01 | 1486288037.92328 | 9/F42988B0               |           42751068336

 2017-02-05 10:47:19.006105+01 | 1486288039.0061 | 9/F4DDE318               |           42762887960

 2017-02-05 10:47:20.072126+01 | 1486288040.07213 | 9/F58FC950               |           42774546768

 2017-02-05 10:47:21.148729+01 | 1486288041.14873 | 9/F62E3F28               |           42784931624

 2017-02-05 10:47:22.225766+01 | 1486288042.22577 | 9/F6E027E8               |           42796591080

 2017-02-05 10:47:23.304398+01 | 1486288043.3044 | 9/F7958838               |           42808477752

 2017-02-05 10:47:24.376963+01 | 1486288044.37696 | 9/F844B318               |           42819957528

 2017-02-05 10:47:25.451073+01 | 1486288045.45107 | 9/F8F75688               |           42831664776

 2017-02-05 10:47:26.526437+01 | 1486288046.52644 | 9/F9A21ED8               |           42842857176

 2017-02-05 10:47:27.624187+01 | 1486288047.62419 | 9/FA4EFD60               |           42854186336

 2017-02-05 10:47:28.708763+01 | 1486288048.70876 | 9/FAE788B0               |           42864183472

 2017-02-05 10:47:29.802748+01 | 1486288049.80275 | 9/FB9BD2D0               |           42875998928

 2017-02-05 10:47:30.884891+01 | 1486288050.88489 | 9/FC5FE6A0               |           42888849056

 2017-02-05 10:47:31.960403+01 | 1486288051.9604 | 9/FD2574B8               |           42901796024

 2017-02-05 10:47:33.041835+01 | 1486288053.04184 | 9/FDEE2020               |           42914947104

 2017-02-05 10:47:34.127648+01 | 1486288054.12765 | 9/FEBC0D98               |           42928442776

 2017-02-05 10:47:35.217492+01 | 1486288055.21749 | 9/FF7D2288               |           42941096584

 2017-02-05 10:47:36.294181+01 | 1486288056.29418 | A/473C20                 |           42954341408

 2017-02-05 10:47:37.361169+01 | 1486288057.36117 | A/1071C10                |           42966916112

 2017-02-05 10:47:38.429921+01 | 1486288058.42992 | A/1CC5DE8                |           42979843560

 2017-02-05 10:47:39.513741+01 | 1486288059.51374 | A/28EC898                |           42992584856

 2017-02-05 10:47:40.595583+01 | 1486288060.59558 | A/355C238                |           43005624888

 2017-02-05 10:47:41.672048+01 | 1486288061.67205 | A/4199850                |           43018459216

 2017-02-05 10:47:42.748028+01 | 1486288062.74803 | A/4E28278                |           43031626360

 2017-02-05 10:47:43.826444+01 | 1486288063.82644 | A/5A6BCC8                |           43044486344

 2017-02-05 10:47:44.90926+01 | 1486288064.90926 | A/661F9D8                |           43056757208

 2017-02-05 10:47:45.990334+01 | 1486288065.99033 | A/7291C28                |           43069807656

 2017-02-05 10:47:47.061239+01 | 1486288067.06124 | A/7E4A1D0                |           43082097104

 2017-02-05 10:47:48.138569+01 | 1486288068.13857 | A/8A50A88                |           43094706824

 2017-02-05 10:47:49.211854+01 | 1486288069.21185 | A/9650B80                |           43107289984

 2017-02-05 10:47:50.286667+01 | 1486288070.28667 | A/A2B7288                |           43120292488

 2017-02-05 10:47:51.363424+01 | 1486288071.36342 | A/AEC74E0                |           43132941536

 2017-02-05 10:47:52.442605+01 | 1486288072.44261 | A/BAE9DF0                |           43145666032

 2017-02-05 10:47:53.527305+01 | 1486288073.5273 | A/C6DC1B0                |           43158192560

 2017-02-05 10:47:54.611606+01 | 1486288074.61161 | A/D2B9F40                |           43170635584

 2017-02-05 10:47:55.69137+01 | 1486288075.69137 | A/DEC1CE8                |           43183250664

 2017-02-05 10:47:56.762138+01 | 1486288076.76214 | A/EAB9DC0                |           43195801024

 2017-02-05 10:47:57.844941+01 | 1486288077.84494 | A/F6E4060                |           43208556640

 2017-02-05 10:47:58.92925+01 | 1486288078.92925 | A/10268B70               |           43220634480

 2017-02-05 10:48:00.009262+01 | 1486288080.00926 | A/10D1DE50               |           43231862352

 2017-02-05 10:48:01.083654+01 | 1486288081.08365 | A/118E3808               |           43244206088

 2017-02-05 10:48:02.153003+01 | 1486288082.153 | A/12432B60               |           43256064864

 2017-02-05 10:48:03.234472+01 | 1486288083.23447 | A/13021B30               |           43268578096

 2017-02-05 10:48:04.322219+01 | 1486288084.32222 | A/13D10DA8               |           43282140584

 2017-02-05 10:48:05.404277+01 | 1486288085.40428 | A/14A302B0               |           43295900336

 2017-02-05 10:48:06.488896+01 | 1486288086.4889 | A/1586AAA0               |           43310820000

 2017-02-05 10:48:07.565289+01 | 1486288087.56529 | A/167579F8               |           43326470648

 2017-02-05 10:48:08.646106+01 | 1486288088.64611 | A/17854700               |           43344283392

 2017-02-05 10:48:09.724994+01 | 1486288089.72499 | A/18B5AFA8               |           43364233128

 2017-02-05 10:48:10.801777+01 | 1486288090.80178 | A/1A287B08               |           43388533512

 2017-02-05 10:48:11.885932+01 | 1486288091.88593 | A/1B30BC80               |           43405851776

 2017-02-05 10:48:12.96421+01 | 1486288092.96421 | A/1BECD158               |           43418177880

 2017-02-05 10:48:14.048391+01 | 1486288094.04839 | A/1C9E54D0               |           43429811408

 2017-02-05 10:48:15.122049+01 | 1486288095.12205 | A/1D6A3340               |           43443172160

 2017-02-05 10:48:16.206913+01 | 1486288096.20691 | A/1E3B6D90               |           43456884112

 2017-02-05 10:48:17.274514+01 | 1486288097.27451 | A/1F18DDC8               |           43471396296

 2017-02-05 10:48:18.346547+01 | 1486288098.34655 | A/1FD6B3F0               |           43483837424

 2017-02-05 10:48:19.420411+01 | 1486288099.42041 | A/208D1078               |           43495788664

 2017-02-05 10:48:20.491246+01 | 1486288100.49125 | A/2146A470               |           43507950704

 2017-02-05 10:48:21.564956+01 | 1486288101.56496 | A/21FAFE90               |           43519770256

 2017-02-05 10:48:22.644527+01 | 1486288102.64453 | A/22B29748               |           43531802440

 2017-02-05 10:48:23.720176+01 | 1486288103.72018 | A/236C9A68               |           43543992936

 2017-02-05 10:48:24.798521+01 | 1486288104.79852 | A/24245580               |           43556033920

 2017-02-05 10:48:25.873449+01 | 1486288105.87345 | A/24D97E60               |           43567906400

 2017-02-05 10:48:26.953268+01 | 1486288106.95327 | A/25915928               |           43579955496

 2017-02-05 10:48:28.033972+01 | 1486288108.03397 | A/26472C78               |           43591871608

 2017-02-05 10:48:29.107234+01 | 1486288109.10723 | A/26FAB668               |           43603637864

 2017-02-05 10:48:30.18806+01 | 1486288110.18806 | A/27A668C8               |           43614890184

 2017-02-05 10:48:31.269493+01 | 1486288111.26949 | A/285D3870               |           43626870896

 2017-02-05 10:48:32.358939+01 | 1486288112.35894 | A/2910C378               |           43638637432

 2017-02-05 10:48:33.438785+01 | 1486288113.43879 | A/29C64970               |           43650533744

 2017-02-05 10:48:34.516433+01 | 1486288114.51643 | A/2A7E3418               |           43662586904

 2017-02-05 10:48:35.599138+01 | 1486288115.59914 | A/2B3C2DA0               |           43675037088

 2017-02-05 10:48:36.673827+01 | 1486288116.67383 | A/2BF7AA68               |           43687324264

 2017-02-05 10:48:37.755085+01 | 1486288117.75508 | A/2CADFE20               |           43699273248

 2017-02-05 10:48:38.836221+01 | 1486288118.83622 | A/2D62E500               |           43711128832

 2017-02-05 10:48:39.919187+01 | 1486288119.91919 | A/2E1E5F68               |           43723415400

 2017-02-05 10:48:41.000519+01 | 1486288121.00052 | A/2ED8ECD8               |           43735641304

 2017-02-05 10:48:42.076336+01 | 1486288122.07634 | A/2F964438               |           43748049976

 2017-02-05 10:48:43.156419+01 | 1486288123.15642 | A/30527D50               |           43760385360

 2017-02-05 10:48:44.234193+01 | 1486288124.23419 | A/3111F3A8               |           43772933032

 2017-02-05 10:48:45.317664+01 | 1486288125.31766 | A/31C53F78               |           43784683384

 2017-02-05 10:48:46.39425+01 | 1486288126.39425 | A/327F3D78               |           43796872568

 2017-02-05 10:48:47.476897+01 | 1486288127.4769 | A/333EFD88               |           43809439112

 2017-02-05 10:48:48.558262+01 | 1486288128.55826 | A/33F743F0               |           43821515760

 2017-02-05 10:48:49.62675+01 | 1486288129.62675 | A/34ABF160               |           43833356640

 2017-02-05 10:48:50.707513+01 | 1486288130.70751 | A/35645E30               |           43845443120

 2017-02-05 10:48:51.795804+01 | 1486288131.7958 | A/3626AE40               |           43858177600

 2017-02-05 10:48:52.876911+01 | 1486288132.87691 | A/36E242B8               |           43870470840

 2017-02-05 10:48:53.955188+01 | 1486288133.95519 | A/37984BA0               |           43882400672

 2017-02-05 10:48:55.035725+01 | 1486288135.03573 | A/3855C658               |           43894818392

 2017-02-05 10:48:56.115582+01 | 1486288136.11558 | A/390DF478               |           43906888824

 2017-02-05 10:48:57.192248+01 | 1486288137.19225 | A/39CB6CC0               |           43919305920

 2017-02-05 10:48:58.264826+01 | 1486288138.26483 | A/3A84B270               |           43931447920

 2017-02-05 10:48:59.343348+01 | 1486288139.34335 | A/3B414B50               |           43943807824

 2017-02-05 10:49:00.432617+01 | 1486288140.43262 | A/3BFF37D8               |           43956254680

 2017-02-05 10:49:01.502282+01 | 1486288141.50228 | A/3CAEEAE8               |           43967769320

 2017-02-05 10:49:02.572267+01 | 1486288142.57227 | A/3D6B93A8               |           43980133288

 2017-02-05 10:49:03.649052+01 | 1486288143.64905 | A/3E2AB850               |           43992660048

 2017-02-05 10:49:04.711984+01 | 1486288144.71198 | A/3EEEF418               |           44005520408

 2017-02-05 10:49:05.789595+01 | 1486288145.78959 | A/3FC31DC8               |           44019424712

 2017-02-05 10:49:06.873346+01 | 1486288146.87335 | A/40A47F58               |           44034195288

 2017-02-05 10:49:07.954852+01 | 1486288147.95485 | A/417F12E0               |           44048519904

 2017-02-05 10:49:09.038548+01 | 1486288149.03855 | A/428B8458               |           44066112600

 2017-02-05 10:49:10.122854+01 | 1486288150.12285 | A/4399E528               |           44083832104

 2017-02-05 10:49:11.200963+01 | 1486288151.20096 | A/44EEBB00               |           44106169088

 2017-02-05 10:49:12.277934+01 | 1486288152.27793 | A/45B8EB08               |           44119419656

 2017-02-05 10:49:13.353093+01 | 1486288153.35309 | A/4664FFA8               |           44130697128

 2017-02-05 10:49:14.433097+01 | 1486288154.4331 | A/47214410               |           44143035408

 2017-02-05 10:49:15.50242+01 | 1486288155.50242 | A/47E3D4F0               |           44155786480

 2017-02-05 10:49:16.585878+01 | 1486288156.58588 | A/48A81638               |           44168648248

 2017-02-05 10:49:17.66826+01 | 1486288157.66826 | A/49731570               |           44181951856

 2017-02-05 10:49:18.751217+01 | 1486288158.75122 | A/4A2A9590               |           44193977744

 2017-02-05 10:49:19.825936+01 | 1486288159.82594 | A/4AE207C8               |           44206000072

 2017-02-05 10:49:20.899707+01 | 1486288160.89971 | A/4B97BD20               |           44217908512

 2017-02-05 10:49:21.978791+01 | 1486288161.97879 | A/4C4F76A0               |           44229949088

 2017-02-05 10:49:23.062404+01 | 1486288163.0624 | A/4D0B5490               |           44242261136

 2017-02-05 10:49:24.139616+01 | 1486288164.13962 | A/4DBFD270               |           44254089840

 2017-02-05 10:49:25.205306+01 | 1486288165.20531 | A/4E6F5120               |           44265591072

 2017-02-05 10:49:26.283316+01 | 1486288166.28332 | A/4F24F658               |           44277495384

 2017-02-05 10:49:27.360272+01 | 1486288167.36027 | A/4FDB5F70               |           44289449840

 2017-02-05 10:49:28.447589+01 | 1486288168.44759 | A/5092E298               |           44301476504

 2017-02-05 10:49:29.526322+01 | 1486288169.52632 | A/514FC4B8               |           44313855160

 2017-02-05 10:49:30.607511+01 | 1486288170.60751 | A/520ECD48               |           44326374728

 2017-02-05 10:49:31.684308+01 | 1486288171.68431 | A/52BACC30               |           44337646640

 2017-02-05 10:49:32.760617+01 | 1486288172.76062 | A/536AB4B0               |           44349174960

 2017-02-05 10:49:33.844506+01 | 1486288173.84451 | A/541C2CB0               |           44360805552

 2017-02-05 10:49:34.923393+01 | 1486288174.92339 | A/54CFE2B0               |           44372583088

 2017-02-05 10:49:36.002496+01 | 1486288176.0025 | A/5584C3D8               |           44384437208

 2017-02-05 10:49:37.088725+01 | 1486288177.08873 | A/56368440               |           44396086336

 2017-02-05 10:49:38.165101+01 | 1486288178.1651 | A/56EBE348               |           44407972680

 2017-02-05 10:49:39.234307+01 | 1486288179.23431 | A/579FC618               |           44419761688

 2017-02-05 10:49:40.311876+01 | 1486288180.31188 | A/584C0298               |           44431049368

 2017-02-05 10:49:41.394197+01 | 1486288181.3942 | A/58FB9378               |           44442555256

 2017-02-05 10:49:42.465112+01 | 1486288182.46511 | A/59AD77A0               |           44454213536

 2017-02-05 10:49:43.54446+01 | 1486288183.54446 | A/5A6556D0               |           44466263760

 2017-02-05 10:49:44.610373+01 | 1486288184.61037 | A/5B15EF98               |           44477837208

 2017-02-05 10:49:45.686009+01 | 1486288185.68601 | A/5BD26238               |           44490187320

 2017-02-05 10:49:46.76842+01 | 1486288186.76842 | A/5C8AD2C0               |           44502274752

 2017-02-05 10:49:47.850049+01 | 1486288187.85005 | A/5D409D08               |           44514188552

 2017-02-05 10:49:48.922907+01 | 1486288188.92291 | A/5DED5F18               |           44525510424

 2017-02-05 10:49:50.005327+01 | 1486288190.00533 | A/5E9FC350               |           44537201488

 2017-02-05 10:49:51.082201+01 | 1486288191.0822 | A/5F4FE6A8               |           44548744872

 2017-02-05 10:49:52.169335+01 | 1486288192.16933 | A/60053510               |           44560626960

 2017-02-05 10:49:53.252715+01 | 1486288193.25272 | A/60B5C5D0               |           44572198352

 2017-02-05 10:49:54.331721+01 | 1486288194.33172 | A/616E19F0               |           44584278512

 2017-02-05 10:49:55.408096+01 | 1486288195.4081 | A/6222B230               |           44596113968

 2017-02-05 10:49:56.489096+01 | 1486288196.4891 | A/62D3ECA0               |           44607728800

 2017-02-05 10:49:57.566248+01 | 1486288197.56625 | A/638C1B20               |           44619799328

 2017-02-05 10:49:58.647974+01 | 1486288198.64797 | A/643E00C8               |           44631457992

 2017-02-05 10:49:59.727763+01 | 1486288199.72776 | A/64F2EFF0               |           44643315696

 2017-02-05 10:50:00.806348+01 | 1486288200.80635 | A/65AC1EE0               |           44655451872

 2017-02-05 10:50:01.883793+01 | 1486288201.88379 | A/665D6B20               |           44667071264

 2017-02-05 10:50:02.954087+01 | 1486288202.95409 | A/66FB7470               |           44677428336

 2017-02-05 10:50:04.032847+01 | 1486288204.03285 | A/67AFFBF8               |           44689259512

 2017-02-05 10:50:05.110742+01 | 1486288205.11074 | A/686C48E8               |           44701599976

 2017-02-05 10:50:06.187689+01 | 1486288206.18769 | A/693E5A38               |           44715366968

 2017-02-05 10:50:07.261716+01 | 1486288207.26172 | A/6A140FD0               |           44729372624

 2017-02-05 10:50:08.344241+01 | 1486288208.34424 | A/6ADCD428               |           44742530088

 2017-02-05 10:50:09.425632+01 | 1486288209.42563 | A/6BBAC868               |           44757076072

 2017-02-05 10:50:10.501331+01 | 1486288210.50133 | A/6C963750               |           44771456848

 2017-02-05 10:50:11.580397+01 | 1486288211.5804 | A/6D5ED6B0               |           44784604848

 2017-02-05 10:50:12.647415+01 | 1486288212.64741 | A/6DFE6540               |           44795061568

 2017-02-05 10:50:13.720099+01 | 1486288213.7201 | A/6EA4F6F8               |           44805977848

 2017-02-05 10:50:14.794293+01 | 1486288214.79429 | A/6F60FBA0               |           44818299808

 2017-02-05 10:50:15.878759+01 | 1486288215.87876 | A/70030E58               |           44828921432

 2017-02-05 10:50:16.942014+01 | 1486288216.94201 | A/70A31EE8               |           44839411432

 2017-02-05 10:50:18.022608+01 | 1486288218.02261 | A/713DEA80               |           44849556096

 2017-02-05 10:50:19.098494+01 | 1486288219.09849 | A/71D600E0               |           44859523296

 2017-02-05 10:50:20.17085+01 | 1486288220.17085 | A/726ED580               |           44869539200

 2017-02-05 10:50:21.244456+01 | 1486288221.24446 | A/73010EE0               |           44879122144

 2017-02-05 10:50:22.325259+01 | 1486288222.32526 | A/7397DED0               |           44889005776

 2017-02-05 10:50:23.408749+01 | 1486288223.40875 | A/74305180               |           44898996608

 2017-02-05 10:50:24.48938+01 | 1486288224.48938 | A/74C20728               |           44908545832

 2017-02-05 10:50:25.561169+01 | 1486288225.56117 | A/754E86C0               |           44917753536

 2017-02-05 10:50:26.645933+01 | 1486288226.64593 | A/75D68C98               |           44926667928

 2017-02-05 10:50:27.723277+01 | 1486288227.72328 | A/76607ED8               |           44935708376

 2017-02-05 10:50:28.806136+01 | 1486288228.80614 | A/76FB6768               |           44945860456

 2017-02-05 10:50:29.884098+01 | 1486288229.8841 | A/779BBEF0               |           44956368624

 2017-02-05 10:50:30.963718+01 | 1486288230.96372 | A/7833C1B0               |           44966330800

 2017-02-05 10:50:32.038699+01 | 1486288232.0387 | A/78C890D8               |           44976083160

 2017-02-05 10:50:33.115105+01 | 1486288233.1151 | A/795E5CA8               |           44985900200

 2017-02-05 10:50:34.191556+01 | 1486288234.19156 | A/7A14C548               |           44997854536

 2017-02-05 10:50:35.268599+01 | 1486288235.2686 | A/7AC143C8               |           45009159112

 2017-02-05 10:50:36.340891+01 | 1486288236.34089 | A/7B760B50               |           45021006672

 2017-02-05 10:50:37.417018+01 | 1486288237.41702 | A/7C2F0EA8               |           45033131688

 2017-02-05 10:50:38.507398+01 | 1486288238.5074 | A/7CE77E78               |           45045218936

 2017-02-05 10:50:39.587362+01 | 1486288239.58736 | A/7D9D8258               |           45057147480

 2017-02-05 10:50:40.662759+01 | 1486288240.66276 | A/7E4941D0               |           45068403152

 2017-02-05 10:50:41.737245+01 | 1486288241.73725 | A/7F0093E8               |           45080417256

 2017-02-05 10:50:42.818386+01 | 1486288242.81839 | A/7FB06498               |           45091939480

 2017-02-05 10:50:43.889775+01 | 1486288243.88978 | A/8063C940               |           45103696192

 2017-02-05 10:50:44.981949+01 | 1486288244.98195 | A/81224848               |           45116180552

 2017-02-05 10:50:46.058985+01 | 1486288246.05898 | A/81D79328               |           45128061736

 2017-02-05 10:50:47.137605+01 | 1486288247.1376 | A/8291A058               |           45140254808

 2017-02-05 10:50:48.221146+01 | 1486288248.22115 | A/8348B9D0               |           45152254416

 2017-02-05 10:50:49.307474+01 | 1486288249.30747 | A/83F943F8               |           45163824120

 2017-02-05 10:50:50.384283+01 | 1486288250.38428 | A/84A89B30               |           45175315248

 2017-02-05 10:50:51.468529+01 | 1486288251.46853 | A/85634B80               |           45187550080

 2017-02-05 10:50:52.544561+01 | 1486288252.54456 | A/861F2F30               |           45199863600

 2017-02-05 10:50:53.62231+01 | 1486288253.62231 | A/86D09F60               |           45211492192

 2017-02-05 10:50:54.705463+01 | 1486288254.70546 | A/878E76D8               |           45223933656

 2017-02-05 10:50:55.781905+01 | 1486288255.7819 | A/88420FB0               |           45235703728

 2017-02-05 10:50:56.858165+01 | 1486288256.85817 | A/88F743D0               |           45247579088

 2017-02-05 10:50:57.935143+01 | 1486288257.93514 | A/89BA2240               |           45260350016

 2017-02-05 10:50:59.010417+01 | 1486288259.01042 | A/8A761BF0               |           45272669168

 2017-02-05 10:51:00.08982+01 | 1486288260.08982 | A/8B26BDB8               |           45284244920

 2017-02-05 10:51:01.173944+01 | 1486288261.17394 | A/8BDE27E0               |           45296265184

 2017-02-05 10:51:02.251253+01 | 1486288262.25125 | A/8C979C58               |           45308419160

 2017-02-05 10:51:03.33428+01 | 1486288263.33428 | A/8D4B14E8               |           45320180968

 2017-02-05 10:51:04.396414+01 | 1486288264.39641 | A/8DFA7050               |           45331673168

 2017-02-05 10:51:05.477991+01 | 1486288265.47799 | A/8EBD7248               |           45344453192

 2017-02-05 10:51:06.563143+01 | 1486288266.56314 | A/8F9220D0               |           45358391504

 2017-02-05 10:51:07.643975+01 | 1486288267.64398 | A/90688528               |           45372441896

 2017-02-05 10:51:08.7181+01 | 1486288268.7181 | A/91390CD8               |           45386108120

 2017-02-05 10:51:09.792134+01 | 1486288269.79213 | A/922388F8               |           45401475320

 2017-02-05 10:51:10.868849+01 | 1486288270.86885 | A/930CA800               |           45416753152

 2017-02-05 10:51:11.95258+01 | 1486288271.95258 | A/93CCFAE0               |           45429357280

 2017-02-05 10:51:13.033548+01 | 1486288273.03355 | A/9478FE38               |           45440630328

 2017-02-05 10:51:14.117869+01 | 1486288274.11787 | A/953E5B00               |           45453564672

 2017-02-05 10:51:15.192146+01 | 1486288275.19215 | A/96017B70               |           45466352496

 2017-02-05 10:51:16.26732+01 | 1486288276.26732 | A/96C5E4F8               |           45479224568

 2017-02-05 10:51:17.351484+01 | 1486288277.35148 | A/978A2E28               |           45492088360

 2017-02-05 10:51:18.433881+01 | 1486288278.43388 | A/98447108               |           45504295176

 2017-02-05 10:51:19.514273+01 | 1486288279.51427 | A/98F2C6B8               |           45515720376

 2017-02-05 10:51:20.599523+01 | 1486288280.59952 | A/99ABA2B0               |           45527835312

 2017-02-05 10:51:21.677695+01 | 1486288281.6777 | A/9A64EBE0               |           45539978208

 2017-02-05 10:51:22.770549+01 | 1486288282.77055 | A/9B1B2600               |           45551920640

 2017-02-05 10:51:23.856294+01 | 1486288283.85629 | A/9BCADC48               |           45563436104

