 2017-02-04 03:03:29.018409+01 | 1486173809.01841 | pgbench_accounts |      13925449728
 2017-02-04 03:03:29.018409+01 | 1486173809.01841 | pgbench_tellers  |         27975680
 2017-02-04 03:03:29.018409+01 | 1486173809.01841 | pgbench_history  |                0
 2017-02-04 03:03:29.018409+01 | 1486173809.01841 | pgbench_branches |         11714560

 2017-02-04 03:03:30.996955+01 | 1486173810.99695 | pgbench_accounts |      13925449728
 2017-02-04 03:03:30.996955+01 | 1486173810.99695 | pgbench_tellers  |         27975680
 2017-02-04 03:03:30.996955+01 | 1486173810.99695 | pgbench_history  |          1196032
 2017-02-04 03:03:30.996955+01 | 1486173810.99695 | pgbench_branches |         11714560

 2017-02-04 03:03:32.08383+01 | 1486173812.08383 | pgbench_accounts |      13925449728
 2017-02-04 03:03:32.08383+01 | 1486173812.08383 | pgbench_tellers  |         27975680
 2017-02-04 03:03:32.08383+01 | 1486173812.08383 | pgbench_history  |          3235840
 2017-02-04 03:03:32.08383+01 | 1486173812.08383 | pgbench_branches |         11714560

 2017-02-04 03:03:33.182299+01 | 1486173813.1823 | pgbench_accounts |      13925449728
 2017-02-04 03:03:33.182299+01 | 1486173813.1823 | pgbench_tellers  |         27975680
 2017-02-04 03:03:33.182299+01 | 1486173813.1823 | pgbench_history  |          4431872
 2017-02-04 03:03:33.182299+01 | 1486173813.1823 | pgbench_branches |         11714560

 2017-02-04 03:03:34.264767+01 | 1486173814.26477 | pgbench_accounts |      13925449728
 2017-02-04 03:03:34.264767+01 | 1486173814.26477 | pgbench_tellers  |         27975680
 2017-02-04 03:03:34.264767+01 | 1486173814.26477 | pgbench_history  |          7806976
 2017-02-04 03:03:34.264767+01 | 1486173814.26477 | pgbench_branches |         11714560

 2017-02-04 03:03:35.35505+01 | 1486173815.35505 | pgbench_accounts |      13925449728
 2017-02-04 03:03:35.35505+01 | 1486173815.35505 | pgbench_tellers  |         27975680
 2017-02-04 03:03:35.35505+01 | 1486173815.35505 | pgbench_history  |          7806976
 2017-02-04 03:03:35.35505+01 | 1486173815.35505 | pgbench_branches |         11714560

 2017-02-04 03:03:36.433021+01 | 1486173816.43302 | pgbench_accounts |      13925449728
 2017-02-04 03:03:36.433021+01 | 1486173816.43302 | pgbench_tellers  |         27975680
 2017-02-04 03:03:36.433021+01 | 1486173816.43302 | pgbench_history  |          9494528
 2017-02-04 03:03:36.433021+01 | 1486173816.43302 | pgbench_branches |         11714560

 2017-02-04 03:03:37.515049+01 | 1486173817.51505 | pgbench_accounts |      13925449728
 2017-02-04 03:03:37.515049+01 | 1486173817.51505 | pgbench_tellers  |         27975680
 2017-02-04 03:03:37.515049+01 | 1486173817.51505 | pgbench_history  |         11018240
 2017-02-04 03:03:37.515049+01 | 1486173817.51505 | pgbench_branches |         11714560

 2017-02-04 03:03:38.598448+01 | 1486173818.59845 | pgbench_accounts |      13925449728
 2017-02-04 03:03:38.598448+01 | 1486173818.59845 | pgbench_tellers  |         27975680
 2017-02-04 03:03:38.598448+01 | 1486173818.59845 | pgbench_history  |         12918784
 2017-02-04 03:03:38.598448+01 | 1486173818.59845 | pgbench_branches |         11714560

 2017-02-04 03:03:39.685828+01 | 1486173819.68583 | pgbench_accounts |      13925449728
 2017-02-04 03:03:39.685828+01 | 1486173819.68583 | pgbench_tellers  |         27975680
 2017-02-04 03:03:39.685828+01 | 1486173819.68583 | pgbench_history  |         14581760
 2017-02-04 03:03:39.685828+01 | 1486173819.68583 | pgbench_branches |         11714560

 2017-02-04 03:03:40.767562+01 | 1486173820.76756 | pgbench_accounts |      13925449728
 2017-02-04 03:03:40.767562+01 | 1486173820.76756 | pgbench_tellers  |         27975680
 2017-02-04 03:03:40.767562+01 | 1486173820.76756 | pgbench_history  |         16662528
 2017-02-04 03:03:40.767562+01 | 1486173820.76756 | pgbench_branches |         11714560

 2017-02-04 03:03:41.848028+01 | 1486173821.84803 | pgbench_accounts |      13925449728
 2017-02-04 03:03:41.848028+01 | 1486173821.84803 | pgbench_tellers  |         27975680
 2017-02-04 03:03:41.848028+01 | 1486173821.84803 | pgbench_history  |         18374656
 2017-02-04 03:03:41.848028+01 | 1486173821.84803 | pgbench_branches |         11714560

 2017-02-04 03:03:42.929751+01 | 1486173822.92975 | pgbench_accounts |      13925449728
 2017-02-04 03:03:42.929751+01 | 1486173822.92975 | pgbench_tellers  |         27975680
 2017-02-04 03:03:42.929751+01 | 1486173822.92975 | pgbench_history  |         19734528
 2017-02-04 03:03:42.929751+01 | 1486173822.92975 | pgbench_branches |         11714560

 2017-02-04 03:03:44.007729+01 | 1486173824.00773 | pgbench_accounts |      13925449728
 2017-02-04 03:03:44.007729+01 | 1486173824.00773 | pgbench_tellers  |         27975680
 2017-02-04 03:03:44.007729+01 | 1486173824.00773 | pgbench_history  |         21995520
 2017-02-04 03:03:44.007729+01 | 1486173824.00773 | pgbench_branches |         11714560

 2017-02-04 03:03:45.09507+01 | 1486173825.09507 | pgbench_accounts |      13925449728
 2017-02-04 03:03:45.09507+01 | 1486173825.09507 | pgbench_tellers  |         27975680
 2017-02-04 03:03:45.09507+01 | 1486173825.09507 | pgbench_history  |         25698304
 2017-02-04 03:03:45.09507+01 | 1486173825.09507 | pgbench_branches |         11714560

 2017-02-04 03:03:46.182667+01 | 1486173826.18267 | pgbench_accounts |      13925449728
 2017-02-04 03:03:46.182667+01 | 1486173826.18267 | pgbench_tellers  |         27975680
 2017-02-04 03:03:46.182667+01 | 1486173826.18267 | pgbench_history  |         25698304
 2017-02-04 03:03:46.182667+01 | 1486173826.18267 | pgbench_branches |         11714560

 2017-02-04 03:03:47.263147+01 | 1486173827.26315 | pgbench_accounts |      13925449728
 2017-02-04 03:03:47.263147+01 | 1486173827.26315 | pgbench_tellers  |         27975680
 2017-02-04 03:03:47.263147+01 | 1486173827.26315 | pgbench_history  |         28721152
 2017-02-04 03:03:47.263147+01 | 1486173827.26315 | pgbench_branches |         11714560

 2017-02-04 03:03:48.34275+01 | 1486173828.34275 | pgbench_accounts |      13925449728
 2017-02-04 03:03:48.34275+01 | 1486173828.34275 | pgbench_tellers  |         27975680
 2017-02-04 03:03:48.34275+01 | 1486173828.34275 | pgbench_history  |         29433856
 2017-02-04 03:03:48.34275+01 | 1486173828.34275 | pgbench_branches |         11714560

 2017-02-04 03:03:49.425684+01 | 1486173829.42568 | pgbench_accounts |      13925449728
 2017-02-04 03:03:49.425684+01 | 1486173829.42568 | pgbench_tellers  |         27975680
 2017-02-04 03:03:49.425684+01 | 1486173829.42568 | pgbench_history  |         31334400
 2017-02-04 03:03:49.425684+01 | 1486173829.42568 | pgbench_branches |         11714560

 2017-02-04 03:03:50.504049+01 | 1486173830.50405 | pgbench_accounts |      13925449728
 2017-02-04 03:03:50.504049+01 | 1486173830.50405 | pgbench_tellers  |         27975680
 2017-02-04 03:03:50.504049+01 | 1486173830.50405 | pgbench_history  |         33538048
 2017-02-04 03:03:50.504049+01 | 1486173830.50405 | pgbench_branches |         11714560

 2017-02-04 03:03:51.588097+01 | 1486173831.5881 | pgbench_accounts |      13925449728
 2017-02-04 03:03:51.588097+01 | 1486173831.5881 | pgbench_tellers  |         27975680
 2017-02-04 03:03:51.588097+01 | 1486173831.5881 | pgbench_history  |         35717120
 2017-02-04 03:03:51.588097+01 | 1486173831.5881 | pgbench_branches |         11714560

 2017-02-04 03:03:52.66776+01 | 1486173832.66776 | pgbench_accounts |      13925449728
 2017-02-04 03:03:52.66776+01 | 1486173832.66776 | pgbench_tellers  |         27975680
 2017-02-04 03:03:52.66776+01 | 1486173832.66776 | pgbench_history  |         36913152
 2017-02-04 03:03:52.66776+01 | 1486173832.66776 | pgbench_branches |         11714560

 2017-02-04 03:03:53.740503+01 | 1486173833.7405 | pgbench_accounts |      13925449728
 2017-02-04 03:03:53.740503+01 | 1486173833.7405 | pgbench_tellers  |         27975680
 2017-02-04 03:03:53.740503+01 | 1486173833.7405 | pgbench_history  |         39116800
 2017-02-04 03:03:53.740503+01 | 1486173833.7405 | pgbench_branches |         11714560

 2017-02-04 03:03:54.818735+01 | 1486173834.81873 | pgbench_accounts |      13925449728
 2017-02-04 03:03:54.818735+01 | 1486173834.81873 | pgbench_tellers  |         27975680
 2017-02-04 03:03:54.818735+01 | 1486173834.81873 | pgbench_history  |         41951232
 2017-02-04 03:03:54.818735+01 | 1486173834.81873 | pgbench_branches |         11714560

 2017-02-04 03:03:55.9027+01 | 1486173835.9027 | pgbench_accounts |      13925449728
 2017-02-04 03:03:55.9027+01 | 1486173835.9027 | pgbench_tellers  |         27975680
 2017-02-04 03:03:55.9027+01 | 1486173835.9027 | pgbench_history  |         43155456
 2017-02-04 03:03:55.9027+01 | 1486173835.9027 | pgbench_branches |         11714560

 2017-02-04 03:03:56.985531+01 | 1486173836.98553 | pgbench_accounts |      13925449728
 2017-02-04 03:03:56.985531+01 | 1486173836.98553 | pgbench_tellers  |         27975680
 2017-02-04 03:03:56.985531+01 | 1486173836.98553 | pgbench_history  |         44851200
 2017-02-04 03:03:56.985531+01 | 1486173836.98553 | pgbench_branches |         11714560

 2017-02-04 03:03:58.069772+01 | 1486173838.06977 | pgbench_accounts |      13925449728
 2017-02-04 03:03:58.069772+01 | 1486173838.06977 | pgbench_tellers  |         27975680
 2017-02-04 03:03:58.069772+01 | 1486173838.06977 | pgbench_history  |         46350336
 2017-02-04 03:03:58.069772+01 | 1486173838.06977 | pgbench_branches |         11714560

 2017-02-04 03:03:59.145586+01 | 1486173839.14559 | pgbench_accounts |      13925449728
 2017-02-04 03:03:59.145586+01 | 1486173839.14559 | pgbench_tellers  |         27975680
 2017-02-04 03:03:59.145586+01 | 1486173839.14559 | pgbench_history  |         48291840
 2017-02-04 03:03:59.145586+01 | 1486173839.14559 | pgbench_branches |         11714560

 2017-02-04 03:04:00.228511+01 | 1486173840.22851 | pgbench_accounts |      13925449728
 2017-02-04 03:04:00.228511+01 | 1486173840.22851 | pgbench_tellers  |         27975680
 2017-02-04 03:04:00.228511+01 | 1486173840.22851 | pgbench_history  |         50307072
 2017-02-04 03:04:00.228511+01 | 1486173840.22851 | pgbench_branches |         11714560

 2017-02-04 03:04:01.296919+01 | 1486173841.29692 | pgbench_accounts |      13925449728
 2017-02-04 03:04:01.296919+01 | 1486173841.29692 | pgbench_tellers  |         27975680
 2017-02-04 03:04:01.296919+01 | 1486173841.29692 | pgbench_history  |         51339264
 2017-02-04 03:04:01.296919+01 | 1486173841.29692 | pgbench_branches |         11714560

 2017-02-04 03:04:02.367371+01 | 1486173842.36737 | pgbench_accounts |      13925449728
 2017-02-04 03:04:02.367371+01 | 1486173842.36737 | pgbench_tellers  |         27975680
 2017-02-04 03:04:02.367371+01 | 1486173842.36737 | pgbench_history  |         53362688
 2017-02-04 03:04:02.367371+01 | 1486173842.36737 | pgbench_branches |         11714560

 2017-02-04 03:04:03.445233+01 | 1486173843.44523 | pgbench_accounts |      13925449728
 2017-02-04 03:04:03.445233+01 | 1486173843.44523 | pgbench_tellers  |         27975680
 2017-02-04 03:04:03.445233+01 | 1486173843.44523 | pgbench_history  |         54403072
 2017-02-04 03:04:03.445233+01 | 1486173843.44523 | pgbench_branches |         11714560

 2017-02-04 03:04:04.523836+01 | 1486173844.52384 | pgbench_accounts |      13925449728
 2017-02-04 03:04:04.523836+01 | 1486173844.52384 | pgbench_tellers  |         27975680
 2017-02-04 03:04:04.523836+01 | 1486173844.52384 | pgbench_history  |         56131584
 2017-02-04 03:04:04.523836+01 | 1486173844.52384 | pgbench_branches |         11714560

 2017-02-04 03:04:05.604194+01 | 1486173845.60419 | pgbench_accounts |      13925449728
 2017-02-04 03:04:05.604194+01 | 1486173845.60419 | pgbench_tellers  |         27975680
 2017-02-04 03:04:05.604194+01 | 1486173845.60419 | pgbench_history  |         57794560
 2017-02-04 03:04:05.604194+01 | 1486173845.60419 | pgbench_branches |         11714560

 2017-02-04 03:04:06.686092+01 | 1486173846.68609 | pgbench_accounts |      13925449728
 2017-02-04 03:04:06.686092+01 | 1486173846.68609 | pgbench_tellers  |         27975680
 2017-02-04 03:04:06.686092+01 | 1486173846.68609 | pgbench_history  |         59703296
 2017-02-04 03:04:06.686092+01 | 1486173846.68609 | pgbench_branches |         11714560

 2017-02-04 03:04:07.765818+01 | 1486173847.76582 | pgbench_accounts |      13925449728
 2017-02-04 03:04:07.765818+01 | 1486173847.76582 | pgbench_tellers  |         27975680
 2017-02-04 03:04:07.765818+01 | 1486173847.76582 | pgbench_history  |         62046208
 2017-02-04 03:04:07.765818+01 | 1486173847.76582 | pgbench_branches |         11714560

 2017-02-04 03:04:08.844911+01 | 1486173848.84491 | pgbench_accounts |      13925449728
 2017-02-04 03:04:08.844911+01 | 1486173848.84491 | pgbench_tellers  |         27975680
 2017-02-04 03:04:08.844911+01 | 1486173848.84491 | pgbench_history  |         63922176
 2017-02-04 03:04:08.844911+01 | 1486173848.84491 | pgbench_branches |         11714560

 2017-02-04 03:04:09.920572+01 | 1486173849.92057 | pgbench_accounts |      13925449728
 2017-02-04 03:04:09.920572+01 | 1486173849.92057 | pgbench_tellers  |         27975680
 2017-02-04 03:04:09.920572+01 | 1486173849.92057 | pgbench_history  |         65445888
 2017-02-04 03:04:09.920572+01 | 1486173849.92057 | pgbench_branches |         11714560

 2017-02-04 03:04:11.002746+01 | 1486173851.00275 | pgbench_accounts |      13925449728
 2017-02-04 03:04:11.002746+01 | 1486173851.00275 | pgbench_tellers  |         27975680
 2017-02-04 03:04:11.002746+01 | 1486173851.00275 | pgbench_history  |         68583424
 2017-02-04 03:04:11.002746+01 | 1486173851.00275 | pgbench_branches |         11714560

 2017-02-04 03:04:12.086887+01 | 1486173852.08689 | pgbench_accounts |      13925449728
 2017-02-04 03:04:12.086887+01 | 1486173852.08689 | pgbench_tellers  |         27975680
 2017-02-04 03:04:12.086887+01 | 1486173852.08689 | pgbench_history  |         68583424
 2017-02-04 03:04:12.086887+01 | 1486173852.08689 | pgbench_branches |         11714560

 2017-02-04 03:04:13.162003+01 | 1486173853.162 | pgbench_accounts |      13925449728
 2017-02-04 03:04:13.162003+01 | 1486173853.162 | pgbench_tellers  |         27975680
 2017-02-04 03:04:13.162003+01 | 1486173853.162 | pgbench_history  |         69967872
 2017-02-04 03:04:13.162003+01 | 1486173853.162 | pgbench_branches |         11714560

 2017-02-04 03:04:14.235606+01 | 1486173854.23561 | pgbench_accounts |      13925449728
 2017-02-04 03:04:14.235606+01 | 1486173854.23561 | pgbench_tellers  |         27975680
 2017-02-04 03:04:14.235606+01 | 1486173854.23561 | pgbench_history  |         72187904
 2017-02-04 03:04:14.235606+01 | 1486173854.23561 | pgbench_branches |         11714560

 2017-02-04 03:04:15.302257+01 | 1486173855.30226 | pgbench_accounts |      13925449728
 2017-02-04 03:04:15.302257+01 | 1486173855.30226 | pgbench_tellers  |         27975680
 2017-02-04 03:04:15.302257+01 | 1486173855.30226 | pgbench_history  |         73547776
 2017-02-04 03:04:15.302257+01 | 1486173855.30226 | pgbench_branches |         11714560

 2017-02-04 03:04:16.38526+01 | 1486173856.38526 | pgbench_accounts |      13925449728
 2017-02-04 03:04:16.38526+01 | 1486173856.38526 | pgbench_tellers  |         27975680
 2017-02-04 03:04:16.38526+01 | 1486173856.38526 | pgbench_history  |         75399168
 2017-02-04 03:04:16.38526+01 | 1486173856.38526 | pgbench_branches |         11714560

 2017-02-04 03:04:17.468042+01 | 1486173857.46804 | pgbench_accounts |      13925449728
 2017-02-04 03:04:17.468042+01 | 1486173857.46804 | pgbench_tellers  |         27975680
 2017-02-04 03:04:17.468042+01 | 1486173857.46804 | pgbench_history  |         76947456
 2017-02-04 03:04:17.468042+01 | 1486173857.46804 | pgbench_branches |         11714560

 2017-02-04 03:04:18.559745+01 | 1486173858.55975 | pgbench_accounts |      13925449728
 2017-02-04 03:04:18.559745+01 | 1486173858.55975 | pgbench_tellers  |         27975680
 2017-02-04 03:04:18.559745+01 | 1486173858.55975 | pgbench_history  |         78659584
 2017-02-04 03:04:18.559745+01 | 1486173858.55975 | pgbench_branches |         11714560

 2017-02-04 03:04:19.642542+01 | 1486173859.64254 | pgbench_accounts |      13925449728
 2017-02-04 03:04:19.642542+01 | 1486173859.64254 | pgbench_tellers  |         27975680
 2017-02-04 03:04:19.642542+01 | 1486173859.64254 | pgbench_history  |         80019456
 2017-02-04 03:04:19.642542+01 | 1486173859.64254 | pgbench_branches |         11714560

 2017-02-04 03:04:20.729464+01 | 1486173860.72946 | pgbench_accounts |      13925449728
 2017-02-04 03:04:20.729464+01 | 1486173860.72946 | pgbench_tellers  |         27975680
 2017-02-04 03:04:20.729464+01 | 1486173860.72946 | pgbench_history  |         82231296
 2017-02-04 03:04:20.729464+01 | 1486173860.72946 | pgbench_branches |         11714560

 2017-02-04 03:04:21.79326+01 | 1486173861.79326 | pgbench_accounts |      13925449728
 2017-02-04 03:04:21.79326+01 | 1486173861.79326 | pgbench_tellers  |         27975680
 2017-02-04 03:04:21.79326+01 | 1486173861.79326 | pgbench_history  |         84221952
 2017-02-04 03:04:21.79326+01 | 1486173861.79326 | pgbench_branches |         11714560

 2017-02-04 03:04:22.859502+01 | 1486173862.8595 | pgbench_accounts |      13925449728
 2017-02-04 03:04:22.859502+01 | 1486173862.8595 | pgbench_tellers  |         27975680
 2017-02-04 03:04:22.859502+01 | 1486173862.8595 | pgbench_history  |         86122496
 2017-02-04 03:04:22.859502+01 | 1486173862.8595 | pgbench_branches |         11714560

 2017-02-04 03:04:23.939959+01 | 1486173863.93996 | pgbench_accounts |      13925449728
 2017-02-04 03:04:23.939959+01 | 1486173863.93996 | pgbench_tellers  |         27975680
 2017-02-04 03:04:23.939959+01 | 1486173863.93996 | pgbench_history  |         87457792
 2017-02-04 03:04:23.939959+01 | 1486173863.93996 | pgbench_branches |         11714560

 2017-02-04 03:04:25.029404+01 | 1486173865.0294 | pgbench_accounts |      13925449728
 2017-02-04 03:04:25.029404+01 | 1486173865.0294 | pgbench_tellers  |         27975680
 2017-02-04 03:04:25.029404+01 | 1486173865.0294 | pgbench_history  |         89145344
 2017-02-04 03:04:25.029404+01 | 1486173865.0294 | pgbench_branches |         11714560

 2017-02-04 03:04:26.105529+01 | 1486173866.10553 | pgbench_accounts |      13925449728
 2017-02-04 03:04:26.105529+01 | 1486173866.10553 | pgbench_tellers  |         27975680
 2017-02-04 03:04:26.105529+01 | 1486173866.10553 | pgbench_history  |         90996736
 2017-02-04 03:04:26.105529+01 | 1486173866.10553 | pgbench_branches |         11714560

 2017-02-04 03:04:27.184582+01 | 1486173867.18458 | pgbench_accounts |      13925449728
 2017-02-04 03:04:27.184582+01 | 1486173867.18458 | pgbench_tellers  |         27975680
 2017-02-04 03:04:27.184582+01 | 1486173867.18458 | pgbench_history  |         92168192
 2017-02-04 03:04:27.184582+01 | 1486173867.18458 | pgbench_branches |         11714560

 2017-02-04 03:04:28.262722+01 | 1486173868.26272 | pgbench_accounts |      13925449728
 2017-02-04 03:04:28.262722+01 | 1486173868.26272 | pgbench_tellers  |         27975680
 2017-02-04 03:04:28.262722+01 | 1486173868.26272 | pgbench_history  |         94396416
 2017-02-04 03:04:28.262722+01 | 1486173868.26272 | pgbench_branches |         11714560

 2017-02-04 03:04:29.350495+01 | 1486173869.3505 | pgbench_accounts |      13925449728
 2017-02-04 03:04:29.350495+01 | 1486173869.3505 | pgbench_tellers  |         27975680
 2017-02-04 03:04:29.350495+01 | 1486173869.3505 | pgbench_history  |         97533952
 2017-02-04 03:04:29.350495+01 | 1486173869.3505 | pgbench_branches |         11714560

 2017-02-04 03:04:30.437639+01 | 1486173870.43764 | pgbench_accounts |      13925449728
 2017-02-04 03:04:30.437639+01 | 1486173870.43764 | pgbench_tellers  |         27975680
 2017-02-04 03:04:30.437639+01 | 1486173870.43764 | pgbench_history  |         98541568
 2017-02-04 03:04:30.437639+01 | 1486173870.43764 | pgbench_branches |         11714560

 2017-02-04 03:04:31.523164+01 | 1486173871.52316 | pgbench_accounts |      13925449728
 2017-02-04 03:04:31.523164+01 | 1486173871.52316 | pgbench_tellers  |         27975680
 2017-02-04 03:04:31.523164+01 | 1486173871.52316 | pgbench_history  |        100884480
 2017-02-04 03:04:31.523164+01 | 1486173871.52316 | pgbench_branches |         11714560

 2017-02-04 03:04:32.611827+01 | 1486173872.61183 | pgbench_accounts |      13925449728
 2017-02-04 03:04:32.611827+01 | 1486173872.61183 | pgbench_tellers  |         27975680
 2017-02-04 03:04:32.611827+01 | 1486173872.61183 | pgbench_history  |        101892096
 2017-02-04 03:04:32.611827+01 | 1486173872.61183 | pgbench_branches |         11714560

 2017-02-04 03:04:33.691574+01 | 1486173873.69157 | pgbench_accounts |      13925449728
 2017-02-04 03:04:33.691574+01 | 1486173873.69157 | pgbench_tellers  |         27975680
 2017-02-04 03:04:33.691574+01 | 1486173873.69157 | pgbench_history  |        103555072
 2017-02-04 03:04:33.691574+01 | 1486173873.69157 | pgbench_branches |         11714560

 2017-02-04 03:04:34.782127+01 | 1486173874.78213 | pgbench_accounts |      13925449728
 2017-02-04 03:04:34.782127+01 | 1486173874.78213 | pgbench_tellers  |         27975680
 2017-02-04 03:04:34.782127+01 | 1486173874.78213 | pgbench_history  |        108290048
 2017-02-04 03:04:34.782127+01 | 1486173874.78213 | pgbench_branches |         11714560

 2017-02-04 03:04:35.870461+01 | 1486173875.87046 | pgbench_accounts |      13925449728
 2017-02-04 03:04:35.870461+01 | 1486173875.87046 | pgbench_tellers  |         27975680
 2017-02-04 03:04:35.870461+01 | 1486173875.87046 | pgbench_history  |        108290048
 2017-02-04 03:04:35.870461+01 | 1486173875.87046 | pgbench_branches |         11714560

 2017-02-04 03:04:36.950209+01 | 1486173876.95021 | pgbench_accounts |      13925449728
 2017-02-04 03:04:36.950209+01 | 1486173876.95021 | pgbench_tellers  |         27975680
 2017-02-04 03:04:36.950209+01 | 1486173876.95021 | pgbench_history  |        108969984
 2017-02-04 03:04:36.950209+01 | 1486173876.95021 | pgbench_branches |         11714560

 2017-02-04 03:04:38.027352+01 | 1486173878.02735 | pgbench_accounts |      13925449728
 2017-02-04 03:04:38.027352+01 | 1486173878.02735 | pgbench_tellers  |         27975680
 2017-02-04 03:04:38.027352+01 | 1486173878.02735 | pgbench_history  |        111034368
 2017-02-04 03:04:38.027352+01 | 1486173878.02735 | pgbench_branches |         11714560

 2017-02-04 03:04:39.09718+01 | 1486173879.09718 | pgbench_accounts |      13925449728
 2017-02-04 03:04:39.09718+01 | 1486173879.09718 | pgbench_tellers  |         27975680
 2017-02-04 03:04:39.09718+01 | 1486173879.09718 | pgbench_history  |        112582656
 2017-02-04 03:04:39.09718+01 | 1486173879.09718 | pgbench_branches |         11714560

 2017-02-04 03:04:40.162336+01 | 1486173880.16234 | pgbench_accounts |      13925449728
 2017-02-04 03:04:40.162336+01 | 1486173880.16234 | pgbench_tellers  |         27975680
 2017-02-04 03:04:40.162336+01 | 1486173880.16234 | pgbench_history  |        114581504
 2017-02-04 03:04:40.162336+01 | 1486173880.16234 | pgbench_branches |         11714560

 2017-02-04 03:04:41.235938+01 | 1486173881.23594 | pgbench_accounts |      13925449728
 2017-02-04 03:04:41.235938+01 | 1486173881.23594 | pgbench_tellers  |         27975680
 2017-02-04 03:04:41.235938+01 | 1486173881.23594 | pgbench_history  |        116973568
 2017-02-04 03:04:41.235938+01 | 1486173881.23594 | pgbench_branches |         11714560

 2017-02-04 03:04:42.312143+01 | 1486173882.31214 | pgbench_accounts |      13925449728
 2017-02-04 03:04:42.312143+01 | 1486173882.31214 | pgbench_tellers  |         27975680
 2017-02-04 03:04:42.312143+01 | 1486173882.31214 | pgbench_history  |        118194176
 2017-02-04 03:04:42.312143+01 | 1486173882.31214 | pgbench_branches |         11714560

 2017-02-04 03:04:43.400244+01 | 1486173883.40024 | pgbench_accounts |      13925449728
 2017-02-04 03:04:43.400244+01 | 1486173883.40024 | pgbench_tellers  |         27975680
 2017-02-04 03:04:43.400244+01 | 1486173883.40024 | pgbench_history  |        119980032
 2017-02-04 03:04:43.400244+01 | 1486173883.40024 | pgbench_branches |         11714560

 2017-02-04 03:04:44.485641+01 | 1486173884.48564 | pgbench_accounts |      13925449728
 2017-02-04 03:04:44.485641+01 | 1486173884.48564 | pgbench_tellers  |         27975680
 2017-02-04 03:04:44.485641+01 | 1486173884.48564 | pgbench_history  |        121831424
 2017-02-04 03:04:44.485641+01 | 1486173884.48564 | pgbench_branches |         11714560

 2017-02-04 03:04:45.566242+01 | 1486173885.56624 | pgbench_accounts |      13925449728
 2017-02-04 03:04:45.566242+01 | 1486173885.56624 | pgbench_tellers  |         27975680
 2017-02-04 03:04:45.566242+01 | 1486173885.56624 | pgbench_history  |        123846656
 2017-02-04 03:04:45.566242+01 | 1486173885.56624 | pgbench_branches |         11714560

 2017-02-04 03:04:46.651149+01 | 1486173886.65115 | pgbench_accounts |      13925449728
 2017-02-04 03:04:46.651149+01 | 1486173886.65115 | pgbench_tellers  |         27975680
 2017-02-04 03:04:46.651149+01 | 1486173886.65115 | pgbench_history  |        126189568
 2017-02-04 03:04:46.651149+01 | 1486173886.65115 | pgbench_branches |         11714560

 2017-02-04 03:04:47.73901+01 | 1486173887.73901 | pgbench_accounts |      13925449728
 2017-02-04 03:04:47.73901+01 | 1486173887.73901 | pgbench_tellers  |         27975680
 2017-02-04 03:04:47.73901+01 | 1486173887.73901 | pgbench_history  |        127385600
 2017-02-04 03:04:47.73901+01 | 1486173887.73901 | pgbench_branches |         11714560

 2017-02-04 03:04:48.820713+01 | 1486173888.82071 | pgbench_accounts |      13925449728
 2017-02-04 03:04:48.820713+01 | 1486173888.82071 | pgbench_tellers  |         27975680
 2017-02-04 03:04:48.820713+01 | 1486173888.82071 | pgbench_history  |        129613824
 2017-02-04 03:04:48.820713+01 | 1486173888.82071 | pgbench_branches |         11714560

 2017-02-04 03:04:49.910173+01 | 1486173889.91017 | pgbench_accounts |      13925449728
 2017-02-04 03:04:49.910173+01 | 1486173889.91017 | pgbench_tellers  |         27975680
 2017-02-04 03:04:49.910173+01 | 1486173889.91017 | pgbench_history  |        131162112
 2017-02-04 03:04:49.910173+01 | 1486173889.91017 | pgbench_branches |         11714560

 2017-02-04 03:04:50.97961+01 | 1486173890.97961 | pgbench_accounts |      13925449728
 2017-02-04 03:04:50.97961+01 | 1486173890.97961 | pgbench_tellers  |         27975680
 2017-02-04 03:04:50.97961+01 | 1486173890.97961 | pgbench_history  |        132694016
 2017-02-04 03:04:50.97961+01 | 1486173890.97961 | pgbench_branches |         11714560

 2017-02-04 03:04:52.051839+01 | 1486173892.05184 | pgbench_accounts |      13925449728
 2017-02-04 03:04:52.051839+01 | 1486173892.05184 | pgbench_tellers  |         27975680
 2017-02-04 03:04:52.051839+01 | 1486173892.05184 | pgbench_history  |        133734400
 2017-02-04 03:04:52.051839+01 | 1486173892.05184 | pgbench_branches |         11714560

 2017-02-04 03:04:53.111944+01 | 1486173893.11194 | pgbench_accounts |      13925449728
 2017-02-04 03:04:53.111944+01 | 1486173893.11194 | pgbench_tellers  |         27975680
 2017-02-04 03:04:53.111944+01 | 1486173893.11194 | pgbench_history  |        135430144
 2017-02-04 03:04:53.111944+01 | 1486173893.11194 | pgbench_branches |         11714560

 2017-02-04 03:04:54.174708+01 | 1486173894.17471 | pgbench_accounts |      13925449728
 2017-02-04 03:04:54.174708+01 | 1486173894.17471 | pgbench_tellers  |         27975680
 2017-02-04 03:04:54.174708+01 | 1486173894.17471 | pgbench_history  |        137986048
 2017-02-04 03:04:54.174708+01 | 1486173894.17471 | pgbench_branches |         11714560

 2017-02-04 03:04:55.255601+01 | 1486173895.2556 | pgbench_accounts |      13925449728
 2017-02-04 03:04:55.255601+01 | 1486173895.2556 | pgbench_tellers  |         27975680
 2017-02-04 03:04:55.255601+01 | 1486173895.2556 | pgbench_history  |        139862016
 2017-02-04 03:04:55.255601+01 | 1486173895.2556 | pgbench_branches |         11714560

 2017-02-04 03:04:56.339936+01 | 1486173896.33994 | pgbench_accounts |      13925449728
 2017-02-04 03:04:56.339936+01 | 1486173896.33994 | pgbench_tellers  |         27975680
 2017-02-04 03:04:56.339936+01 | 1486173896.33994 | pgbench_history  |        141590528
 2017-02-04 03:04:56.339936+01 | 1486173896.33994 | pgbench_branches |         11714560

 2017-02-04 03:04:57.420496+01 | 1486173897.4205 | pgbench_accounts |      13925449728
 2017-02-04 03:04:57.420496+01 | 1486173897.4205 | pgbench_tellers  |         27975680
 2017-02-04 03:04:57.420496+01 | 1486173897.4205 | pgbench_history  |        143294464
 2017-02-04 03:04:57.420496+01 | 1486173897.4205 | pgbench_branches |         11714560

 2017-02-04 03:04:58.501696+01 | 1486173898.5017 | pgbench_accounts |      13925449728
 2017-02-04 03:04:58.501696+01 | 1486173898.5017 | pgbench_tellers  |         27975680
 2017-02-04 03:04:58.501696+01 | 1486173898.5017 | pgbench_history  |        145145856
 2017-02-04 03:04:58.501696+01 | 1486173898.5017 | pgbench_branches |         11714560

 2017-02-04 03:04:59.589659+01 | 1486173899.58966 | pgbench_accounts |      13925449728
 2017-02-04 03:04:59.589659+01 | 1486173899.58966 | pgbench_tellers  |         27975680
 2017-02-04 03:04:59.589659+01 | 1486173899.58966 | pgbench_history  |        146530304
 2017-02-04 03:04:59.589659+01 | 1486173899.58966 | pgbench_branches |         11714560

 2017-02-04 03:05:00.676701+01 | 1486173900.6767 | pgbench_accounts |      13925449728
 2017-02-04 03:05:00.676701+01 | 1486173900.6767 | pgbench_tellers  |         27975680
 2017-02-04 03:05:00.676701+01 | 1486173900.6767 | pgbench_history  |        149094400
 2017-02-04 03:05:00.676701+01 | 1486173900.6767 | pgbench_branches |         11714560

 2017-02-04 03:05:01.764714+01 | 1486173901.76471 | pgbench_accounts |      13925449728
 2017-02-04 03:05:01.764714+01 | 1486173901.76471 | pgbench_tellers  |         27975680
 2017-02-04 03:05:01.764714+01 | 1486173901.76471 | pgbench_history  |        149962752
 2017-02-04 03:05:01.764714+01 | 1486173901.76471 | pgbench_branches |         11714560

 2017-02-04 03:05:02.856764+01 | 1486173902.85676 | pgbench_accounts |      13925449728
 2017-02-04 03:05:02.856764+01 | 1486173902.85676 | pgbench_tellers  |         27975680
 2017-02-04 03:05:02.856764+01 | 1486173902.85676 | pgbench_history  |        151322624
 2017-02-04 03:05:02.856764+01 | 1486173902.85676 | pgbench_branches |         11714560

 2017-02-04 03:05:03.945491+01 | 1486173903.94549 | pgbench_accounts |      13925449728
 2017-02-04 03:05:03.945491+01 | 1486173903.94549 | pgbench_tellers  |         27975680
 2017-02-04 03:05:03.945491+01 | 1486173903.94549 | pgbench_history  |        152338432
 2017-02-04 03:05:03.945491+01 | 1486173903.94549 | pgbench_branches |         11714560

 2017-02-04 03:05:05.031854+01 | 1486173905.03185 | pgbench_accounts |      13925449728
 2017-02-04 03:05:05.031854+01 | 1486173905.03185 | pgbench_tellers  |         27975680
 2017-02-04 03:05:05.031854+01 | 1486173905.03185 | pgbench_history  |        157605888
 2017-02-04 03:05:05.031854+01 | 1486173905.03185 | pgbench_branches |         11714560

 2017-02-04 03:05:06.115795+01 | 1486173906.11579 | pgbench_accounts |      13925449728
 2017-02-04 03:05:06.115795+01 | 1486173906.11579 | pgbench_tellers  |         27975680
 2017-02-04 03:05:06.115795+01 | 1486173906.11579 | pgbench_history  |        157605888
 2017-02-04 03:05:06.115795+01 | 1486173906.11579 | pgbench_branches |         11714560

 2017-02-04 03:05:07.196124+01 | 1486173907.19612 | pgbench_accounts |      13925449728
 2017-02-04 03:05:07.196124+01 | 1486173907.19612 | pgbench_tellers  |         27975680
 2017-02-04 03:05:07.196124+01 | 1486173907.19612 | pgbench_history  |        157605888
 2017-02-04 03:05:07.196124+01 | 1486173907.19612 | pgbench_branches |         11714560

 2017-02-04 03:05:08.269253+01 | 1486173908.26925 | pgbench_accounts |      13925449728
 2017-02-04 03:05:08.269253+01 | 1486173908.26925 | pgbench_tellers  |         27975680
 2017-02-04 03:05:08.269253+01 | 1486173908.26925 | pgbench_history  |        157605888
 2017-02-04 03:05:08.269253+01 | 1486173908.26925 | pgbench_branches |         11714560

 2017-02-04 03:05:09.345198+01 | 1486173909.3452 | pgbench_accounts |      13925449728
 2017-02-04 03:05:09.345198+01 | 1486173909.3452 | pgbench_tellers  |         27975680
 2017-02-04 03:05:09.345198+01 | 1486173909.3452 | pgbench_history  |        159072256
 2017-02-04 03:05:09.345198+01 | 1486173909.3452 | pgbench_branches |         11714560

 2017-02-04 03:05:10.425646+01 | 1486173910.42565 | pgbench_accounts |      13925449728
 2017-02-04 03:05:10.425646+01 | 1486173910.42565 | pgbench_tellers  |         27975680
 2017-02-04 03:05:10.425646+01 | 1486173910.42565 | pgbench_history  |        160800768
 2017-02-04 03:05:10.425646+01 | 1486173910.42565 | pgbench_branches |         11714560

 2017-02-04 03:05:11.508191+01 | 1486173911.50819 | pgbench_accounts |      13925449728
 2017-02-04 03:05:11.508191+01 | 1486173911.50819 | pgbench_tellers  |         27975680
 2017-02-04 03:05:11.508191+01 | 1486173911.50819 | pgbench_history  |        161808384
 2017-02-04 03:05:11.508191+01 | 1486173911.50819 | pgbench_branches |         11714560

 2017-02-04 03:05:12.580565+01 | 1486173912.58056 | pgbench_accounts |      13925449728
 2017-02-04 03:05:12.580565+01 | 1486173912.58056 | pgbench_tellers  |         27975680
 2017-02-04 03:05:12.580565+01 | 1486173912.58056 | pgbench_history  |        163143680
 2017-02-04 03:05:12.580565+01 | 1486173912.58056 | pgbench_branches |         11714560

 2017-02-04 03:05:13.651979+01 | 1486173913.65198 | pgbench_accounts |      13925449728
 2017-02-04 03:05:13.651979+01 | 1486173913.65198 | pgbench_tellers  |         27975680
 2017-02-04 03:05:13.651979+01 | 1486173913.65198 | pgbench_history  |        164503552
 2017-02-04 03:05:13.651979+01 | 1486173913.65198 | pgbench_branches |         11714560

 2017-02-04 03:05:14.738098+01 | 1486173914.7381 | pgbench_accounts |      13925449728
 2017-02-04 03:05:14.738098+01 | 1486173914.7381 | pgbench_tellers  |         27975680
 2017-02-04 03:05:14.738098+01 | 1486173914.7381 | pgbench_history  |        166027264
 2017-02-04 03:05:14.738098+01 | 1486173914.7381 | pgbench_branches |         11714560

 2017-02-04 03:05:15.819896+01 | 1486173915.8199 | pgbench_accounts |      13925449728
 2017-02-04 03:05:15.819896+01 | 1486173915.8199 | pgbench_tellers  |         27975680
 2017-02-04 03:05:15.819896+01 | 1486173915.8199 | pgbench_history  |        167362560
 2017-02-04 03:05:15.819896+01 | 1486173915.8199 | pgbench_branches |         11714560

 2017-02-04 03:05:16.909989+01 | 1486173916.90999 | pgbench_accounts |      13925449728
 2017-02-04 03:05:16.909989+01 | 1486173916.90999 | pgbench_tellers  |         27975680
 2017-02-04 03:05:16.909989+01 | 1486173916.90999 | pgbench_history  |        168583168
 2017-02-04 03:05:16.909989+01 | 1486173916.90999 | pgbench_branches |         11714560

 2017-02-04 03:05:18.007173+01 | 1486173918.00717 | pgbench_accounts |      13925449728
 2017-02-04 03:05:18.007173+01 | 1486173918.00717 | pgbench_tellers  |         27975680
 2017-02-04 03:05:18.007173+01 | 1486173918.00717 | pgbench_history  |        169779200
 2017-02-04 03:05:18.007173+01 | 1486173918.00717 | pgbench_branches |         11714560

 2017-02-04 03:05:19.104008+01 | 1486173919.10401 | pgbench_accounts |      13925449728
 2017-02-04 03:05:19.104008+01 | 1486173919.10401 | pgbench_tellers  |         27975680
 2017-02-04 03:05:19.104008+01 | 1486173919.10401 | pgbench_history  |        171491328
 2017-02-04 03:05:19.104008+01 | 1486173919.10401 | pgbench_branches |         11714560

 2017-02-04 03:05:20.174757+01 | 1486173920.17476 | pgbench_accounts |      13925449728
 2017-02-04 03:05:20.174757+01 | 1486173920.17476 | pgbench_tellers  |         27975680
 2017-02-04 03:05:20.174757+01 | 1486173920.17476 | pgbench_history  |        172441600
 2017-02-04 03:05:20.174757+01 | 1486173920.17476 | pgbench_branches |         11714560

 2017-02-04 03:05:21.261016+01 | 1486173921.26102 | pgbench_accounts |      13925449728
 2017-02-04 03:05:21.261016+01 | 1486173921.26102 | pgbench_tellers  |         27975680
 2017-02-04 03:05:21.261016+01 | 1486173921.26102 | pgbench_history  |        174186496
 2017-02-04 03:05:21.261016+01 | 1486173921.26102 | pgbench_branches |         11714560

 2017-02-04 03:05:22.346975+01 | 1486173922.34698 | pgbench_accounts |      13925449728
 2017-02-04 03:05:22.346975+01 | 1486173922.34698 | pgbench_tellers  |         27975680
 2017-02-04 03:05:22.346975+01 | 1486173922.34698 | pgbench_history  |        175898624
 2017-02-04 03:05:22.346975+01 | 1486173922.34698 | pgbench_branches |         11714560

 2017-02-04 03:05:23.422794+01 | 1486173923.42279 | pgbench_accounts |      13925449728
 2017-02-04 03:05:23.422794+01 | 1486173923.42279 | pgbench_tellers  |         27975680
 2017-02-04 03:05:23.422794+01 | 1486173923.42279 | pgbench_history  |        177627136
 2017-02-04 03:05:23.422794+01 | 1486173923.42279 | pgbench_branches |         11714560

 2017-02-04 03:05:24.500494+01 | 1486173924.50049 | pgbench_accounts |      13925449728
 2017-02-04 03:05:24.500494+01 | 1486173924.50049 | pgbench_tellers  |         27975680
 2017-02-04 03:05:24.500494+01 | 1486173924.50049 | pgbench_history  |        179642368
 2017-02-04 03:05:24.500494+01 | 1486173924.50049 | pgbench_branches |         11714560

 2017-02-04 03:05:25.574003+01 | 1486173925.574 | pgbench_accounts |      13925449728
 2017-02-04 03:05:25.574003+01 | 1486173925.574 | pgbench_tellers  |         27975680
 2017-02-04 03:05:25.574003+01 | 1486173925.574 | pgbench_history  |        181559296
 2017-02-04 03:05:25.574003+01 | 1486173925.574 | pgbench_branches |         11714560

 2017-02-04 03:05:26.648747+01 | 1486173926.64875 | pgbench_accounts |      13925449728
 2017-02-04 03:05:26.648747+01 | 1486173926.64875 | pgbench_tellers  |         27975680
 2017-02-04 03:05:26.648747+01 | 1486173926.64875 | pgbench_history  |        182968320
 2017-02-04 03:05:26.648747+01 | 1486173926.64875 | pgbench_branches |         11714560

 2017-02-04 03:05:27.731885+01 | 1486173927.73188 | pgbench_accounts |      13925449728
 2017-02-04 03:05:27.731885+01 | 1486173927.73188 | pgbench_tellers  |         27975680
 2017-02-04 03:05:27.731885+01 | 1486173927.73188 | pgbench_history  |        185171968
 2017-02-04 03:05:27.731885+01 | 1486173927.73188 | pgbench_branches |         11714560

 2017-02-04 03:05:28.805333+01 | 1486173928.80533 | pgbench_accounts |      13925449728
 2017-02-04 03:05:28.805333+01 | 1486173928.80533 | pgbench_tellers  |         27975680
 2017-02-04 03:05:28.805333+01 | 1486173928.80533 | pgbench_history  |        187424768
 2017-02-04 03:05:28.805333+01 | 1486173928.80533 | pgbench_branches |         11714560

 2017-02-04 03:05:29.877659+01 | 1486173929.87766 | pgbench_accounts |      13925449728
 2017-02-04 03:05:29.877659+01 | 1486173929.87766 | pgbench_tellers  |         27975680
 2017-02-04 03:05:29.877659+01 | 1486173929.87766 | pgbench_history  |        188481536
 2017-02-04 03:05:29.877659+01 | 1486173929.87766 | pgbench_branches |         11714560

 2017-02-04 03:05:30.958637+01 | 1486173930.95864 | pgbench_accounts |      13925449728
 2017-02-04 03:05:30.958637+01 | 1486173930.95864 | pgbench_tellers  |         27975680
 2017-02-04 03:05:30.958637+01 | 1486173930.95864 | pgbench_history  |        190357504
 2017-02-04 03:05:30.958637+01 | 1486173930.95864 | pgbench_branches |         11714560

 2017-02-04 03:05:32.045293+01 | 1486173932.04529 | pgbench_accounts |      13925449728
 2017-02-04 03:05:32.045293+01 | 1486173932.04529 | pgbench_tellers  |         27975680
 2017-02-04 03:05:32.045293+01 | 1486173932.04529 | pgbench_history  |        192348160
 2017-02-04 03:05:32.045293+01 | 1486173932.04529 | pgbench_branches |         11714560

 2017-02-04 03:05:33.129339+01 | 1486173933.12934 | pgbench_accounts |      13925449728
 2017-02-04 03:05:33.129339+01 | 1486173933.12934 | pgbench_tellers  |         27975680
 2017-02-04 03:05:33.129339+01 | 1486173933.12934 | pgbench_history  |        193708032
 2017-02-04 03:05:33.129339+01 | 1486173933.12934 | pgbench_branches |         11714560

 2017-02-04 03:05:34.212087+01 | 1486173934.21209 | pgbench_accounts |      13925449728
 2017-02-04 03:05:34.212087+01 | 1486173934.21209 | pgbench_tellers  |         27975680
 2017-02-04 03:05:34.212087+01 | 1486173934.21209 | pgbench_history  |        196239360
 2017-02-04 03:05:34.212087+01 | 1486173934.21209 | pgbench_branches |         11714560

 2017-02-04 03:05:35.29646+01 | 1486173935.29646 | pgbench_accounts |      13925449728
 2017-02-04 03:05:35.29646+01 | 1486173935.29646 | pgbench_tellers  |         27975680
 2017-02-04 03:05:35.29646+01 | 1486173935.29646 | pgbench_history  |        196919296
 2017-02-04 03:05:35.29646+01 | 1486173935.29646 | pgbench_branches |         11714560

 2017-02-04 03:05:36.382299+01 | 1486173936.3823 | pgbench_accounts |      13925449728
 2017-02-04 03:05:36.382299+01 | 1486173936.3823 | pgbench_tellers  |         27975680
 2017-02-04 03:05:36.382299+01 | 1486173936.3823 | pgbench_history  |        198631424
 2017-02-04 03:05:36.382299+01 | 1486173936.3823 | pgbench_branches |         11714560

 2017-02-04 03:05:37.469059+01 | 1486173937.46906 | pgbench_accounts |      13925449728
 2017-02-04 03:05:37.469059+01 | 1486173937.46906 | pgbench_tellers  |         27975680
 2017-02-04 03:05:37.469059+01 | 1486173937.46906 | pgbench_history  |        199475200
 2017-02-04 03:05:37.469059+01 | 1486173937.46906 | pgbench_branches |         11714560

 2017-02-04 03:05:38.543726+01 | 1486173938.54373 | pgbench_accounts |      13925449728
 2017-02-04 03:05:38.543726+01 | 1486173938.54373 | pgbench_tellers  |         27975680
 2017-02-04 03:05:38.543726+01 | 1486173938.54373 | pgbench_history  |        201818112
 2017-02-04 03:05:38.543726+01 | 1486173938.54373 | pgbench_branches |         11714560

 2017-02-04 03:05:39.618659+01 | 1486173939.61866 | pgbench_accounts |      13925449728
 2017-02-04 03:05:39.618659+01 | 1486173939.61866 | pgbench_tellers  |         27975680
 2017-02-04 03:05:39.618659+01 | 1486173939.61866 | pgbench_history  |        202711040
 2017-02-04 03:05:39.618659+01 | 1486173939.61866 | pgbench_branches |         11714560

 2017-02-04 03:05:40.696819+01 | 1486173940.69682 | pgbench_accounts |      13925449728
 2017-02-04 03:05:40.696819+01 | 1486173940.69682 | pgbench_tellers  |         27975680
 2017-02-04 03:05:40.696819+01 | 1486173940.69682 | pgbench_history  |        204447744
 2017-02-04 03:05:40.696819+01 | 1486173940.69682 | pgbench_branches |         11714560

 2017-02-04 03:05:41.770522+01 | 1486173941.77052 | pgbench_accounts |      13925449728
 2017-02-04 03:05:41.770522+01 | 1486173941.77052 | pgbench_tellers  |         27975680
 2017-02-04 03:05:41.770522+01 | 1486173941.77052 | pgbench_history  |        205832192
 2017-02-04 03:05:41.770522+01 | 1486173941.77052 | pgbench_branches |         11714560

 2017-02-04 03:05:42.84779+01 | 1486173942.84779 | pgbench_accounts |      13925449728
 2017-02-04 03:05:42.84779+01 | 1486173942.84779 | pgbench_tellers  |         27975680
 2017-02-04 03:05:42.84779+01 | 1486173942.84779 | pgbench_history  |        208044032
 2017-02-04 03:05:42.84779+01 | 1486173942.84779 | pgbench_branches |         11714560

 2017-02-04 03:05:43.934218+01 | 1486173943.93422 | pgbench_accounts |      13925449728
 2017-02-04 03:05:43.934218+01 | 1486173943.93422 | pgbench_tellers  |         27975680
 2017-02-04 03:05:43.934218+01 | 1486173943.93422 | pgbench_history  |        210059264
 2017-02-04 03:05:43.934218+01 | 1486173943.93422 | pgbench_branches |         11714560

 2017-02-04 03:05:45.022358+01 | 1486173945.02236 | pgbench_accounts |      13925449728
 2017-02-04 03:05:45.022358+01 | 1486173945.02236 | pgbench_tellers  |         27975680
 2017-02-04 03:05:45.022358+01 | 1486173945.02236 | pgbench_history  |        211591168
 2017-02-04 03:05:45.022358+01 | 1486173945.02236 | pgbench_branches |         11714560

 2017-02-04 03:05:46.100621+01 | 1486173946.10062 | pgbench_accounts |      13925449728
 2017-02-04 03:05:46.100621+01 | 1486173946.10062 | pgbench_tellers  |         27975680
 2017-02-04 03:05:46.100621+01 | 1486173946.10062 | pgbench_history  |        213475328
 2017-02-04 03:05:46.100621+01 | 1486173946.10062 | pgbench_branches |         11714560

 2017-02-04 03:05:47.180737+01 | 1486173947.18074 | pgbench_accounts |      13925449728
 2017-02-04 03:05:47.180737+01 | 1486173947.18074 | pgbench_tellers  |         27975680
 2017-02-04 03:05:47.180737+01 | 1486173947.18074 | pgbench_history  |        214843392
 2017-02-04 03:05:47.180737+01 | 1486173947.18074 | pgbench_branches |         11714560

 2017-02-04 03:05:48.255436+01 | 1486173948.25544 | pgbench_accounts |      13925449728
 2017-02-04 03:05:48.255436+01 | 1486173948.25544 | pgbench_tellers  |         27975680
 2017-02-04 03:05:48.255436+01 | 1486173948.25544 | pgbench_history  |        216367104
 2017-02-04 03:05:48.255436+01 | 1486173948.25544 | pgbench_branches |         11714560

 2017-02-04 03:05:49.327463+01 | 1486173949.32746 | pgbench_accounts |      13925449728
 2017-02-04 03:05:49.327463+01 | 1486173949.32746 | pgbench_tellers  |         27975680
 2017-02-04 03:05:49.327463+01 | 1486173949.32746 | pgbench_history  |        217726976
 2017-02-04 03:05:49.327463+01 | 1486173949.32746 | pgbench_branches |         11714560

 2017-02-04 03:05:50.400657+01 | 1486173950.40066 | pgbench_accounts |      13925449728
 2017-02-04 03:05:50.400657+01 | 1486173950.40066 | pgbench_tellers  |         27975680
 2017-02-04 03:05:50.400657+01 | 1486173950.40066 | pgbench_history  |        218923008
 2017-02-04 03:05:50.400657+01 | 1486173950.40066 | pgbench_branches |         11714560

 2017-02-04 03:05:51.479724+01 | 1486173951.47972 | pgbench_accounts |      13925449728
 2017-02-04 03:05:51.479724+01 | 1486173951.47972 | pgbench_tellers  |         27975680
 2017-02-04 03:05:51.479724+01 | 1486173951.47972 | pgbench_history  |        220798976
 2017-02-04 03:05:51.479724+01 | 1486173951.47972 | pgbench_branches |         11714560

 2017-02-04 03:05:52.545954+01 | 1486173952.54595 | pgbench_accounts |      13925449728
 2017-02-04 03:05:52.545954+01 | 1486173952.54595 | pgbench_tellers  |         27975680
 2017-02-04 03:05:52.545954+01 | 1486173952.54595 | pgbench_history  |        222044160
 2017-02-04 03:05:52.545954+01 | 1486173952.54595 | pgbench_branches |         11714560

 2017-02-04 03:05:53.621965+01 | 1486173953.62196 | pgbench_accounts |      13925449728
 2017-02-04 03:05:53.621965+01 | 1486173953.62196 | pgbench_tellers  |         27975680
 2017-02-04 03:05:53.621965+01 | 1486173953.62196 | pgbench_history  |        223076352
 2017-02-04 03:05:53.621965+01 | 1486173953.62196 | pgbench_branches |         11714560

 2017-02-04 03:05:54.696964+01 | 1486173954.69696 | pgbench_accounts |      13925449728
 2017-02-04 03:05:54.696964+01 | 1486173954.69696 | pgbench_tellers  |         27975680
 2017-02-04 03:05:54.696964+01 | 1486173954.69696 | pgbench_history  |        224796672
 2017-02-04 03:05:54.696964+01 | 1486173954.69696 | pgbench_branches |         11714560

 2017-02-04 03:05:55.771355+01 | 1486173955.77135 | pgbench_accounts |      13925449728
 2017-02-04 03:05:55.771355+01 | 1486173955.77135 | pgbench_tellers  |         27975680
 2017-02-04 03:05:55.771355+01 | 1486173955.77135 | pgbench_history  |        226156544
 2017-02-04 03:05:55.771355+01 | 1486173955.77135 | pgbench_branches |         11714560

 2017-02-04 03:05:56.860547+01 | 1486173956.86055 | pgbench_accounts |      13925449728
 2017-02-04 03:05:56.860547+01 | 1486173956.86055 | pgbench_tellers  |         27975680
 2017-02-04 03:05:56.860547+01 | 1486173956.86055 | pgbench_history  |        227516416
 2017-02-04 03:05:56.860547+01 | 1486173956.86055 | pgbench_branches |         11714560

 2017-02-04 03:05:57.926598+01 | 1486173957.9266 | pgbench_accounts |      13925449728
 2017-02-04 03:05:57.926598+01 | 1486173957.9266 | pgbench_tellers  |         27975680
 2017-02-04 03:05:57.926598+01 | 1486173957.9266 | pgbench_history  |        228524032
 2017-02-04 03:05:57.926598+01 | 1486173957.9266 | pgbench_branches |         11714560

 2017-02-04 03:05:59.007434+01 | 1486173959.00743 | pgbench_accounts |      13925449728
 2017-02-04 03:05:59.007434+01 | 1486173959.00743 | pgbench_tellers  |         27975680
 2017-02-04 03:05:59.007434+01 | 1486173959.00743 | pgbench_history  |        230547456
 2017-02-04 03:05:59.007434+01 | 1486173959.00743 | pgbench_branches |         11714560

 2017-02-04 03:06:00.094928+01 | 1486173960.09493 | pgbench_accounts |      13925449728
 2017-02-04 03:06:00.094928+01 | 1486173960.09493 | pgbench_tellers  |         27975680
 2017-02-04 03:06:00.094928+01 | 1486173960.09493 | pgbench_history  |        231907328
 2017-02-04 03:06:00.094928+01 | 1486173960.09493 | pgbench_branches |         11714560

 2017-02-04 03:06:01.188978+01 | 1486173961.18898 | pgbench_accounts |      13925449728
 2017-02-04 03:06:01.188978+01 | 1486173961.18898 | pgbench_tellers  |         27975680
 2017-02-04 03:06:01.188978+01 | 1486173961.18898 | pgbench_history  |        233267200
 2017-02-04 03:06:01.188978+01 | 1486173961.18898 | pgbench_branches |         11714560

 2017-02-04 03:06:02.276371+01 | 1486173962.27637 | pgbench_accounts |      13925449728
 2017-02-04 03:06:02.276371+01 | 1486173962.27637 | pgbench_tellers  |         27975680
 2017-02-04 03:06:02.276371+01 | 1486173962.27637 | pgbench_history  |        233947136
 2017-02-04 03:06:02.276371+01 | 1486173962.27637 | pgbench_branches |         11714560

 2017-02-04 03:06:03.371169+01 | 1486173963.37117 | pgbench_accounts |      13925449728
 2017-02-04 03:06:03.371169+01 | 1486173963.37117 | pgbench_tellers  |         27975680
 2017-02-04 03:06:03.371169+01 | 1486173963.37117 | pgbench_history  |        235446272
 2017-02-04 03:06:03.371169+01 | 1486173963.37117 | pgbench_branches |         11714560

 2017-02-04 03:06:04.451116+01 | 1486173964.45112 | pgbench_accounts |      13925449728
 2017-02-04 03:06:04.451116+01 | 1486173964.45112 | pgbench_tellers  |         27975680
 2017-02-04 03:06:04.451116+01 | 1486173964.45112 | pgbench_history  |        237846528
 2017-02-04 03:06:04.451116+01 | 1486173964.45112 | pgbench_branches |         11714560

 2017-02-04 03:06:05.54911+01 | 1486173965.54911 | pgbench_accounts |      13925449728
 2017-02-04 03:06:05.54911+01 | 1486173965.54911 | pgbench_tellers  |         27975680
 2017-02-04 03:06:05.54911+01 | 1486173965.54911 | pgbench_history  |        239058944
 2017-02-04 03:06:05.54911+01 | 1486173965.54911 | pgbench_branches |         11714560

 2017-02-04 03:06:06.630505+01 | 1486173966.63051 | pgbench_accounts |      13925449728
 2017-02-04 03:06:06.630505+01 | 1486173966.63051 | pgbench_tellers  |         27975680
 2017-02-04 03:06:06.630505+01 | 1486173966.63051 | pgbench_history  |        241262592
 2017-02-04 03:06:06.630505+01 | 1486173966.63051 | pgbench_branches |         11714560

 2017-02-04 03:06:07.703458+01 | 1486173967.70346 | pgbench_accounts |      13925449728
 2017-02-04 03:06:07.703458+01 | 1486173967.70346 | pgbench_tellers  |         27975680
 2017-02-04 03:06:07.703458+01 | 1486173967.70346 | pgbench_history  |        242630656
 2017-02-04 03:06:07.703458+01 | 1486173967.70346 | pgbench_branches |         11714560

 2017-02-04 03:06:08.77961+01 | 1486173968.77961 | pgbench_accounts |      13925449728
 2017-02-04 03:06:08.77961+01 | 1486173968.77961 | pgbench_tellers  |         27975680
 2017-02-04 03:06:08.77961+01 | 1486173968.77961 | pgbench_history  |        244506624
 2017-02-04 03:06:08.77961+01 | 1486173968.77961 | pgbench_branches |         11714560

 2017-02-04 03:06:09.860392+01 | 1486173969.86039 | pgbench_accounts |      13925449728
 2017-02-04 03:06:09.860392+01 | 1486173969.86039 | pgbench_tellers  |         27975680
 2017-02-04 03:06:09.860392+01 | 1486173969.86039 | pgbench_history  |        247201792
 2017-02-04 03:06:09.860392+01 | 1486173969.86039 | pgbench_branches |         11714560

 2017-02-04 03:06:10.95478+01 | 1486173970.95478 | pgbench_accounts |      13925449728
 2017-02-04 03:06:10.95478+01 | 1486173970.95478 | pgbench_tellers  |         27975680
 2017-02-04 03:06:10.95478+01 | 1486173970.95478 | pgbench_history  |        248561664
 2017-02-04 03:06:10.95478+01 | 1486173970.95478 | pgbench_branches |         11714560

 2017-02-04 03:06:12.051787+01 | 1486173972.05179 | pgbench_accounts |      13925449728
 2017-02-04 03:06:12.051787+01 | 1486173972.05179 | pgbench_tellers  |         27975680
 2017-02-04 03:06:12.051787+01 | 1486173972.05179 | pgbench_history  |        250437632
 2017-02-04 03:06:12.051787+01 | 1486173972.05179 | pgbench_branches |         11714560

 2017-02-04 03:06:13.128783+01 | 1486173973.12878 | pgbench_accounts |      13925449728
 2017-02-04 03:06:13.128783+01 | 1486173973.12878 | pgbench_tellers  |         27975680
 2017-02-04 03:06:13.128783+01 | 1486173973.12878 | pgbench_history  |        251666432
 2017-02-04 03:06:13.128783+01 | 1486173973.12878 | pgbench_branches |         11714560

 2017-02-04 03:06:14.201597+01 | 1486173974.2016 | pgbench_accounts |      13925449728
 2017-02-04 03:06:14.201597+01 | 1486173974.2016 | pgbench_tellers  |         27975680
 2017-02-04 03:06:14.201597+01 | 1486173974.2016 | pgbench_history  |        253714432
 2017-02-04 03:06:14.201597+01 | 1486173974.2016 | pgbench_branches |         11714560

 2017-02-04 03:06:15.276622+01 | 1486173975.27662 | pgbench_accounts |      13925449728
 2017-02-04 03:06:15.276622+01 | 1486173975.27662 | pgbench_tellers  |         27975680
 2017-02-04 03:06:15.276622+01 | 1486173975.27662 | pgbench_history  |        255426560
 2017-02-04 03:06:15.276622+01 | 1486173975.27662 | pgbench_branches |         11714560

 2017-02-04 03:06:16.362625+01 | 1486173976.36262 | pgbench_accounts |      13925449728
 2017-02-04 03:06:16.362625+01 | 1486173976.36262 | pgbench_tellers  |         27975680
 2017-02-04 03:06:16.362625+01 | 1486173976.36262 | pgbench_history  |        257294336
 2017-02-04 03:06:16.362625+01 | 1486173976.36262 | pgbench_branches |         11714560

 2017-02-04 03:06:17.457675+01 | 1486173977.45767 | pgbench_accounts |      13925449728
 2017-02-04 03:06:17.457675+01 | 1486173977.45767 | pgbench_tellers  |         27975680
 2017-02-04 03:06:17.457675+01 | 1486173977.45767 | pgbench_history  |        259506176
 2017-02-04 03:06:17.457675+01 | 1486173977.45767 | pgbench_branches |         11714560

 2017-02-04 03:06:18.535253+01 | 1486173978.53525 | pgbench_accounts |      13925449728
 2017-02-04 03:06:18.535253+01 | 1486173978.53525 | pgbench_tellers  |         27975680
 2017-02-04 03:06:18.535253+01 | 1486173978.53525 | pgbench_history  |        262340608
 2017-02-04 03:06:18.535253+01 | 1486173978.53525 | pgbench_branches |         11714560

 2017-02-04 03:06:19.628833+01 | 1486173979.62883 | pgbench_accounts |      13925449728
 2017-02-04 03:06:19.628833+01 | 1486173979.62883 | pgbench_tellers  |         27975680
 2017-02-04 03:06:19.628833+01 | 1486173979.62883 | pgbench_history  |        262692864
 2017-02-04 03:06:19.628833+01 | 1486173979.62883 | pgbench_branches |         11714560

 2017-02-04 03:06:20.719874+01 | 1486173980.71987 | pgbench_accounts |      13925449728
 2017-02-04 03:06:20.719874+01 | 1486173980.71987 | pgbench_tellers  |         27975680
 2017-02-04 03:06:20.719874+01 | 1486173980.71987 | pgbench_history  |        264192000
 2017-02-04 03:06:20.719874+01 | 1486173980.71987 | pgbench_branches |         11714560

 2017-02-04 03:06:21.792633+01 | 1486173981.79263 | pgbench_accounts |      13925449728
 2017-02-04 03:06:21.792633+01 | 1486173981.79263 | pgbench_tellers  |         27975680
 2017-02-04 03:06:21.792633+01 | 1486173981.79263 | pgbench_history  |        266747904
 2017-02-04 03:06:21.792633+01 | 1486173981.79263 | pgbench_branches |         11714560

 2017-02-04 03:06:22.878438+01 | 1486173982.87844 | pgbench_accounts |      13925449728
 2017-02-04 03:06:22.878438+01 | 1486173982.87844 | pgbench_tellers  |         27975680
 2017-02-04 03:06:22.878438+01 | 1486173982.87844 | pgbench_history  |        268115968
 2017-02-04 03:06:22.878438+01 | 1486173982.87844 | pgbench_branches |         11714560

 2017-02-04 03:06:23.962757+01 | 1486173983.96276 | pgbench_accounts |      13925449728
 2017-02-04 03:06:23.962757+01 | 1486173983.96276 | pgbench_tellers  |         27975680
 2017-02-04 03:06:23.962757+01 | 1486173983.96276 | pgbench_history  |        270032896
 2017-02-04 03:06:23.962757+01 | 1486173983.96276 | pgbench_branches |         11714560

 2017-02-04 03:06:25.049891+01 | 1486173985.04989 | pgbench_accounts |      13925449728
 2017-02-04 03:06:25.049891+01 | 1486173985.04989 | pgbench_tellers  |         27975680
 2017-02-04 03:06:25.049891+01 | 1486173985.04989 | pgbench_history  |        271720448
 2017-02-04 03:06:25.049891+01 | 1486173985.04989 | pgbench_branches |         11714560

 2017-02-04 03:06:26.144229+01 | 1486173986.14423 | pgbench_accounts |      13925449728
 2017-02-04 03:06:26.144229+01 | 1486173986.14423 | pgbench_tellers  |         27975680
 2017-02-04 03:06:26.144229+01 | 1486173986.14423 | pgbench_history  |        274235392
 2017-02-04 03:06:26.144229+01 | 1486173986.14423 | pgbench_branches |         11714560

 2017-02-04 03:06:27.22717+01 | 1486173987.22717 | pgbench_accounts |      13925449728
 2017-02-04 03:06:27.22717+01 | 1486173987.22717 | pgbench_tellers  |         27975680
 2017-02-04 03:06:27.22717+01 | 1486173987.22717 | pgbench_history  |        275406848
 2017-02-04 03:06:27.22717+01 | 1486173987.22717 | pgbench_branches |         11714560

 2017-02-04 03:06:28.315985+01 | 1486173988.31598 | pgbench_accounts |      13925449728
 2017-02-04 03:06:28.315985+01 | 1486173988.31598 | pgbench_tellers  |         27975680
 2017-02-04 03:06:28.315985+01 | 1486173988.31598 | pgbench_history  |        277266432
 2017-02-04 03:06:28.315985+01 | 1486173988.31598 | pgbench_branches |         11714560

 2017-02-04 03:06:29.408839+01 | 1486173989.40884 | pgbench_accounts |      13925449728
 2017-02-04 03:06:29.408839+01 | 1486173989.40884 | pgbench_tellers  |         27975680
 2017-02-04 03:06:29.408839+01 | 1486173989.40884 | pgbench_history  |        278487040
 2017-02-04 03:06:29.408839+01 | 1486173989.40884 | pgbench_branches |         11714560

 2017-02-04 03:06:30.49665+01 | 1486173990.49665 | pgbench_accounts |      13925449728
 2017-02-04 03:06:30.49665+01 | 1486173990.49665 | pgbench_tellers  |         27975680
 2017-02-04 03:06:30.49665+01 | 1486173990.49665 | pgbench_history  |        279887872
 2017-02-04 03:06:30.49665+01 | 1486173990.49665 | pgbench_branches |         11714560

 2017-02-04 03:06:31.5791+01 | 1486173991.5791 | pgbench_accounts |      13925449728
 2017-02-04 03:06:31.5791+01 | 1486173991.5791 | pgbench_tellers  |         27975680
 2017-02-04 03:06:31.5791+01 | 1486173991.5791 | pgbench_history  |        281780224
 2017-02-04 03:06:31.5791+01 | 1486173991.5791 | pgbench_branches |         11714560

 2017-02-04 03:06:32.652703+01 | 1486173992.6527 | pgbench_accounts |      13925449728
 2017-02-04 03:06:32.652703+01 | 1486173992.6527 | pgbench_tellers  |         27975680
 2017-02-04 03:06:32.652703+01 | 1486173992.6527 | pgbench_history  |        282484736
 2017-02-04 03:06:32.652703+01 | 1486173992.6527 | pgbench_branches |         12607488

 2017-02-04 03:06:33.73891+01 | 1486173993.73891 | pgbench_accounts |      13925449728
 2017-02-04 03:06:33.73891+01 | 1486173993.73891 | pgbench_tellers  |         27975680
 2017-02-04 03:06:33.73891+01 | 1486173993.73891 | pgbench_history  |        284868608
 2017-02-04 03:06:33.73891+01 | 1486173993.73891 | pgbench_branches |         12607488

 2017-02-04 03:06:34.821359+01 | 1486173994.82136 | pgbench_accounts |      13925449728
 2017-02-04 03:06:34.821359+01 | 1486173994.82136 | pgbench_tellers  |         27975680
 2017-02-04 03:06:34.821359+01 | 1486173994.82136 | pgbench_history  |        286228480
 2017-02-04 03:06:34.821359+01 | 1486173994.82136 | pgbench_branches |         12607488

 2017-02-04 03:06:35.90532+01 | 1486173995.90532 | pgbench_accounts |      13925449728
 2017-02-04 03:06:35.90532+01 | 1486173995.90532 | pgbench_tellers  |         27975680
 2017-02-04 03:06:35.90532+01 | 1486173995.90532 | pgbench_history  |        288243712
 2017-02-04 03:06:35.90532+01 | 1486173995.90532 | pgbench_branches |         12607488

 2017-02-04 03:06:36.986911+01 | 1486173996.98691 | pgbench_accounts |      13925449728
 2017-02-04 03:06:36.986911+01 | 1486173996.98691 | pgbench_tellers  |         27975680
 2017-02-04 03:06:36.986911+01 | 1486173996.98691 | pgbench_history  |        289792000
 2017-02-04 03:06:36.986911+01 | 1486173996.98691 | pgbench_branches |         12607488

 2017-02-04 03:06:38.06912+01 | 1486173998.06912 | pgbench_accounts |      13925449728
 2017-02-04 03:06:38.06912+01 | 1486173998.06912 | pgbench_tellers  |         27975680
 2017-02-04 03:06:38.06912+01 | 1486173998.06912 | pgbench_history  |        291692544
 2017-02-04 03:06:38.06912+01 | 1486173998.06912 | pgbench_branches |         12607488

 2017-02-04 03:06:39.155786+01 | 1486173999.15579 | pgbench_accounts |      13925449728
 2017-02-04 03:06:39.155786+01 | 1486173999.15579 | pgbench_tellers  |         27975680
 2017-02-04 03:06:39.155786+01 | 1486173999.15579 | pgbench_history  |        294428672
 2017-02-04 03:06:39.155786+01 | 1486173999.15579 | pgbench_branches |         12607488

 2017-02-04 03:06:40.231242+01 | 1486174000.23124 | pgbench_accounts |      13925449728
 2017-02-04 03:06:40.231242+01 | 1486174000.23124 | pgbench_tellers  |         27975680
 2017-02-04 03:06:40.231242+01 | 1486174000.23124 | pgbench_history  |        295460864
 2017-02-04 03:06:40.231242+01 | 1486174000.23124 | pgbench_branches |         12607488

 2017-02-04 03:06:41.325798+01 | 1486174001.3258 | pgbench_accounts |      13925449728
 2017-02-04 03:06:41.325798+01 | 1486174001.3258 | pgbench_tellers  |         27975680
 2017-02-04 03:06:41.325798+01 | 1486174001.3258 | pgbench_history  |        297213952
 2017-02-04 03:06:41.325798+01 | 1486174001.3258 | pgbench_branches |         12607488

 2017-02-04 03:06:42.407346+01 | 1486174002.40735 | pgbench_accounts |      13925449728
 2017-02-04 03:06:42.407346+01 | 1486174002.40735 | pgbench_tellers  |         27975680
 2017-02-04 03:06:42.407346+01 | 1486174002.40735 | pgbench_history  |        299098112
 2017-02-04 03:06:42.407346+01 | 1486174002.40735 | pgbench_branches |         12607488

 2017-02-04 03:06:43.480348+01 | 1486174003.48035 | pgbench_accounts |      13925449728
 2017-02-04 03:06:43.480348+01 | 1486174003.48035 | pgbench_tellers  |         27975680
 2017-02-04 03:06:43.480348+01 | 1486174003.48035 | pgbench_history  |        301342720
 2017-02-04 03:06:43.480348+01 | 1486174003.48035 | pgbench_branches |         12607488

 2017-02-04 03:06:44.559987+01 | 1486174004.55999 | pgbench_accounts |      13925449728
 2017-02-04 03:06:44.559987+01 | 1486174004.55999 | pgbench_tellers  |         27975680
 2017-02-04 03:06:44.559987+01 | 1486174004.55999 | pgbench_history  |        302899200
 2017-02-04 03:06:44.559987+01 | 1486174004.55999 | pgbench_branches |         12607488

 2017-02-04 03:06:45.648082+01 | 1486174005.64808 | pgbench_accounts |      13925449728
 2017-02-04 03:06:45.648082+01 | 1486174005.64808 | pgbench_tellers  |         27975680
 2017-02-04 03:06:45.648082+01 | 1486174005.64808 | pgbench_history  |        304144384
 2017-02-04 03:06:45.648082+01 | 1486174005.64808 | pgbench_branches |         12607488

 2017-02-04 03:06:46.736186+01 | 1486174006.73619 | pgbench_accounts |      13925449728
 2017-02-04 03:06:46.736186+01 | 1486174006.73619 | pgbench_tellers  |         27975680
 2017-02-04 03:06:46.736186+01 | 1486174006.73619 | pgbench_history  |        305504256
 2017-02-04 03:06:46.736186+01 | 1486174006.73619 | pgbench_branches |         12607488

 2017-02-04 03:06:47.826068+01 | 1486174007.82607 | pgbench_accounts |      13925449728
 2017-02-04 03:06:47.826068+01 | 1486174007.82607 | pgbench_tellers  |         27975680
 2017-02-04 03:06:47.826068+01 | 1486174007.82607 | pgbench_history  |        306864128
 2017-02-04 03:06:47.826068+01 | 1486174007.82607 | pgbench_branches |         12607488

 2017-02-04 03:06:48.899439+01 | 1486174008.89944 | pgbench_accounts |      13925449728
 2017-02-04 03:06:48.899439+01 | 1486174008.89944 | pgbench_tellers  |         27975680
 2017-02-04 03:06:48.899439+01 | 1486174008.89944 | pgbench_history  |        308256768
 2017-02-04 03:06:48.899439+01 | 1486174008.89944 | pgbench_branches |         12607488

 2017-02-04 03:06:49.977084+01 | 1486174009.97708 | pgbench_accounts |      13925449728
 2017-02-04 03:06:49.977084+01 | 1486174009.97708 | pgbench_tellers  |         27975680
 2017-02-04 03:06:49.977084+01 | 1486174009.97708 | pgbench_history  |        309993472
 2017-02-04 03:06:49.977084+01 | 1486174009.97708 | pgbench_branches |         12607488

 2017-02-04 03:06:51.052996+01 | 1486174011.053 | pgbench_accounts |      13925449728
 2017-02-04 03:06:51.052996+01 | 1486174011.053 | pgbench_tellers  |         27975680
 2017-02-04 03:06:51.052996+01 | 1486174011.053 | pgbench_history  |        314351616
 2017-02-04 03:06:51.052996+01 | 1486174011.053 | pgbench_branches |         12607488

 2017-02-04 03:06:52.13524+01 | 1486174012.13524 | pgbench_accounts |      13925449728
 2017-02-04 03:06:52.13524+01 | 1486174012.13524 | pgbench_tellers  |         27975680
 2017-02-04 03:06:52.13524+01 | 1486174012.13524 | pgbench_history  |        314351616
 2017-02-04 03:06:52.13524+01 | 1486174012.13524 | pgbench_branches |         12607488

 2017-02-04 03:06:53.227562+01 | 1486174013.22756 | pgbench_accounts |      13925449728
 2017-02-04 03:06:53.227562+01 | 1486174013.22756 | pgbench_tellers  |         27975680
 2017-02-04 03:06:53.227562+01 | 1486174013.22756 | pgbench_history  |        315383808
 2017-02-04 03:06:53.227562+01 | 1486174013.22756 | pgbench_branches |         12607488

 2017-02-04 03:06:54.305445+01 | 1486174014.30544 | pgbench_accounts |      13925449728
 2017-02-04 03:06:54.305445+01 | 1486174014.30544 | pgbench_tellers  |         27975680
 2017-02-04 03:06:54.305445+01 | 1486174014.30544 | pgbench_history  |        317562880
 2017-02-04 03:06:54.305445+01 | 1486174014.30544 | pgbench_branches |         12607488

 2017-02-04 03:06:55.372381+01 | 1486174015.37238 | pgbench_accounts |      13925449728
 2017-02-04 03:06:55.372381+01 | 1486174015.37238 | pgbench_tellers  |         27975680
 2017-02-04 03:06:55.372381+01 | 1486174015.37238 | pgbench_history  |        319602688
 2017-02-04 03:06:55.372381+01 | 1486174015.37238 | pgbench_branches |         12607488

 2017-02-04 03:06:56.450551+01 | 1486174016.45055 | pgbench_accounts |      13925449728
 2017-02-04 03:06:56.450551+01 | 1486174016.45055 | pgbench_tellers  |         27975680
 2017-02-04 03:06:56.450551+01 | 1486174016.45055 | pgbench_history  |        320798720
 2017-02-04 03:06:56.450551+01 | 1486174016.45055 | pgbench_branches |         12607488

 2017-02-04 03:06:57.527902+01 | 1486174017.5279 | pgbench_accounts |      13925449728
 2017-02-04 03:06:57.527902+01 | 1486174017.5279 | pgbench_tellers  |         27975680
 2017-02-04 03:06:57.527902+01 | 1486174017.5279 | pgbench_history  |        322519040
 2017-02-04 03:06:57.527902+01 | 1486174017.5279 | pgbench_branches |         12607488

 2017-02-04 03:06:58.609914+01 | 1486174018.60991 | pgbench_accounts |      13925449728
 2017-02-04 03:06:58.609914+01 | 1486174018.60991 | pgbench_tellers  |         27975680
 2017-02-04 03:06:58.609914+01 | 1486174018.60991 | pgbench_history  |        324886528
 2017-02-04 03:06:58.609914+01 | 1486174018.60991 | pgbench_branches |         12607488

 2017-02-04 03:06:59.701451+01 | 1486174019.70145 | pgbench_accounts |      13925449728
 2017-02-04 03:06:59.701451+01 | 1486174019.70145 | pgbench_tellers  |         27975680
 2017-02-04 03:06:59.701451+01 | 1486174019.70145 | pgbench_history  |        326246400
 2017-02-04 03:06:59.701451+01 | 1486174019.70145 | pgbench_branches |         12607488

 2017-02-04 03:07:00.789556+01 | 1486174020.78956 | pgbench_accounts |      13925449728
 2017-02-04 03:07:00.789556+01 | 1486174020.78956 | pgbench_tellers  |         27975680
 2017-02-04 03:07:00.789556+01 | 1486174020.78956 | pgbench_history  |        328507392
 2017-02-04 03:07:00.789556+01 | 1486174020.78956 | pgbench_branches |         12607488

 2017-02-04 03:07:01.870751+01 | 1486174021.87075 | pgbench_accounts |      13925449728
 2017-02-04 03:07:01.870751+01 | 1486174021.87075 | pgbench_tellers  |         27975680
 2017-02-04 03:07:01.870751+01 | 1486174021.87075 | pgbench_history  |        329842688
 2017-02-04 03:07:01.870751+01 | 1486174021.87075 | pgbench_branches |         12607488

 2017-02-04 03:07:02.939694+01 | 1486174022.93969 | pgbench_accounts |      13925449728
 2017-02-04 03:07:02.939694+01 | 1486174022.93969 | pgbench_tellers  |         27975680
 2017-02-04 03:07:02.939694+01 | 1486174022.93969 | pgbench_history  |        331735040
 2017-02-04 03:07:02.939694+01 | 1486174022.93969 | pgbench_branches |         12607488

 2017-02-04 03:07:04.011729+01 | 1486174024.01173 | pgbench_accounts |      13925449728
 2017-02-04 03:07:04.011729+01 | 1486174024.01173 | pgbench_tellers  |         27975680
 2017-02-04 03:07:04.011729+01 | 1486174024.01173 | pgbench_history  |        333914112
 2017-02-04 03:07:04.011729+01 | 1486174024.01173 | pgbench_branches |         12607488

 2017-02-04 03:07:05.088563+01 | 1486174025.08856 | pgbench_accounts |      13925449728
 2017-02-04 03:07:05.088563+01 | 1486174025.08856 | pgbench_tellers  |         27975680
 2017-02-04 03:07:05.088563+01 | 1486174025.08856 | pgbench_history  |        335134720
 2017-02-04 03:07:05.088563+01 | 1486174025.08856 | pgbench_branches |         12607488

 2017-02-04 03:07:06.168751+01 | 1486174026.16875 | pgbench_accounts |      13925449728
 2017-02-04 03:07:06.168751+01 | 1486174026.16875 | pgbench_tellers  |         27975680
 2017-02-04 03:07:06.168751+01 | 1486174026.16875 | pgbench_history  |        337010688
 2017-02-04 03:07:06.168751+01 | 1486174026.16875 | pgbench_branches |         12607488

 2017-02-04 03:07:07.248381+01 | 1486174027.24838 | pgbench_accounts |      13925449728
 2017-02-04 03:07:07.248381+01 | 1486174027.24838 | pgbench_tellers  |         27975680
 2017-02-04 03:07:07.248381+01 | 1486174027.24838 | pgbench_history  |        341188608
 2017-02-04 03:07:07.248381+01 | 1486174027.24838 | pgbench_branches |         12607488

 2017-02-04 03:07:08.333164+01 | 1486174028.33316 | pgbench_accounts |      13925449728
 2017-02-04 03:07:08.333164+01 | 1486174028.33316 | pgbench_tellers  |         27975680
 2017-02-04 03:07:08.333164+01 | 1486174028.33316 | pgbench_history  |        341188608
 2017-02-04 03:07:08.333164+01 | 1486174028.33316 | pgbench_branches |         12607488

 2017-02-04 03:07:09.42024+01 | 1486174029.42024 | pgbench_accounts |      13925449728
 2017-02-04 03:07:09.42024+01 | 1486174029.42024 | pgbench_tellers  |         27975680
 2017-02-04 03:07:09.42024+01 | 1486174029.42024 | pgbench_history  |        342433792
 2017-02-04 03:07:09.42024+01 | 1486174029.42024 | pgbench_branches |         12607488

 2017-02-04 03:07:10.492452+01 | 1486174030.49245 | pgbench_accounts |      13925449728
 2017-02-04 03:07:10.492452+01 | 1486174030.49245 | pgbench_tellers  |         27975680
 2017-02-04 03:07:10.492452+01 | 1486174030.49245 | pgbench_history  |        344006656
 2017-02-04 03:07:10.492452+01 | 1486174030.49245 | pgbench_branches |         12607488

 2017-02-04 03:07:11.563238+01 | 1486174031.56324 | pgbench_accounts |      13925449728
 2017-02-04 03:07:11.563238+01 | 1486174031.56324 | pgbench_tellers  |         27975680
 2017-02-04 03:07:11.563238+01 | 1486174031.56324 | pgbench_history  |        345882624
 2017-02-04 03:07:11.563238+01 | 1486174031.56324 | pgbench_branches |         12607488

 2017-02-04 03:07:12.640265+01 | 1486174032.64026 | pgbench_accounts |      13925449728
 2017-02-04 03:07:12.640265+01 | 1486174032.64026 | pgbench_tellers  |         27975680
 2017-02-04 03:07:12.640265+01 | 1486174032.64026 | pgbench_history  |        347955200
 2017-02-04 03:07:12.640265+01 | 1486174032.64026 | pgbench_branches |         12607488

 2017-02-04 03:07:13.717593+01 | 1486174033.71759 | pgbench_accounts |      13925449728
 2017-02-04 03:07:13.717593+01 | 1486174033.71759 | pgbench_tellers  |         27975680
 2017-02-04 03:07:13.717593+01 | 1486174033.71759 | pgbench_history  |        349339648
 2017-02-04 03:07:13.717593+01 | 1486174033.71759 | pgbench_branches |         12607488

 2017-02-04 03:07:14.801728+01 | 1486174034.80173 | pgbench_accounts |      13925449728
 2017-02-04 03:07:14.801728+01 | 1486174034.80173 | pgbench_tellers  |         27975680
 2017-02-04 03:07:14.801728+01 | 1486174034.80173 | pgbench_history  |        352083968
 2017-02-04 03:07:14.801728+01 | 1486174034.80173 | pgbench_branches |         12607488

 2017-02-04 03:07:15.878737+01 | 1486174035.87874 | pgbench_accounts |      13925449728
 2017-02-04 03:07:15.878737+01 | 1486174035.87874 | pgbench_tellers  |         27975680
 2017-02-04 03:07:15.878737+01 | 1486174035.87874 | pgbench_history  |        353607680
 2017-02-04 03:07:15.878737+01 | 1486174035.87874 | pgbench_branches |         12607488

 2017-02-04 03:07:16.957039+01 | 1486174036.95704 | pgbench_accounts |      13925449728
 2017-02-04 03:07:16.957039+01 | 1486174036.95704 | pgbench_tellers  |         27975680
 2017-02-04 03:07:16.957039+01 | 1486174036.95704 | pgbench_history  |        354942976
 2017-02-04 03:07:16.957039+01 | 1486174036.95704 | pgbench_branches |         12607488

 2017-02-04 03:07:18.038482+01 | 1486174038.03848 | pgbench_accounts |      13925449728
 2017-02-04 03:07:18.038482+01 | 1486174038.03848 | pgbench_tellers  |         27975680
 2017-02-04 03:07:18.038482+01 | 1486174038.03848 | pgbench_history  |        356524032
 2017-02-04 03:07:18.038482+01 | 1486174038.03848 | pgbench_branches |         12607488

 2017-02-04 03:07:19.10846+01 | 1486174039.10846 | pgbench_accounts |      13925449728
 2017-02-04 03:07:19.10846+01 | 1486174039.10846 | pgbench_tellers  |         27975680
 2017-02-04 03:07:19.10846+01 | 1486174039.10846 | pgbench_history  |        358809600
 2017-02-04 03:07:19.10846+01 | 1486174039.10846 | pgbench_branches |         12607488

 2017-02-04 03:07:20.168699+01 | 1486174040.1687 | pgbench_accounts |      13925449728
 2017-02-04 03:07:20.168699+01 | 1486174040.1687 | pgbench_tellers  |         27975680
 2017-02-04 03:07:20.168699+01 | 1486174040.1687 | pgbench_history  |        360685568
 2017-02-04 03:07:20.168699+01 | 1486174040.1687 | pgbench_branches |         12607488

 2017-02-04 03:07:21.237203+01 | 1486174041.2372 | pgbench_accounts |      13925449728
 2017-02-04 03:07:21.237203+01 | 1486174041.2372 | pgbench_tellers  |         27975680
 2017-02-04 03:07:21.237203+01 | 1486174041.2372 | pgbench_history  |        362217472
 2017-02-04 03:07:21.237203+01 | 1486174041.2372 | pgbench_branches |         12607488

 2017-02-04 03:07:22.319234+01 | 1486174042.31923 | pgbench_accounts |      13925449728
 2017-02-04 03:07:22.319234+01 | 1486174042.31923 | pgbench_tellers  |         27975680
 2017-02-04 03:07:22.319234+01 | 1486174042.31923 | pgbench_history  |        365355008
 2017-02-04 03:07:22.319234+01 | 1486174042.31923 | pgbench_branches |         12607488

 2017-02-04 03:07:23.400748+01 | 1486174043.40075 | pgbench_accounts |      13925449728
 2017-02-04 03:07:23.400748+01 | 1486174043.40075 | pgbench_tellers  |         27975680
 2017-02-04 03:07:23.400748+01 | 1486174043.40075 | pgbench_history  |        366362624
 2017-02-04 03:07:23.400748+01 | 1486174043.40075 | pgbench_branches |         12607488

 2017-02-04 03:07:24.489797+01 | 1486174044.4898 | pgbench_accounts |      13925449728
 2017-02-04 03:07:24.489797+01 | 1486174044.4898 | pgbench_tellers  |         27975680
 2017-02-04 03:07:24.489797+01 | 1486174044.4898 | pgbench_history  |        369852416
 2017-02-04 03:07:24.489797+01 | 1486174044.4898 | pgbench_branches |         12607488

 2017-02-04 03:07:25.57729+01 | 1486174045.57729 | pgbench_accounts |      13925449728
 2017-02-04 03:07:25.57729+01 | 1486174045.57729 | pgbench_tellers  |         27975680
 2017-02-04 03:07:25.57729+01 | 1486174045.57729 | pgbench_history  |        369852416
 2017-02-04 03:07:25.57729+01 | 1486174045.57729 | pgbench_branches |         12607488

 2017-02-04 03:07:26.666957+01 | 1486174046.66696 | pgbench_accounts |      13925449728
 2017-02-04 03:07:26.666957+01 | 1486174046.66696 | pgbench_tellers  |         27975680
 2017-02-04 03:07:26.666957+01 | 1486174046.66696 | pgbench_history  |        370704384
 2017-02-04 03:07:26.666957+01 | 1486174046.66696 | pgbench_branches |         12607488

 2017-02-04 03:07:27.752243+01 | 1486174047.75224 | pgbench_accounts |      13925449728
 2017-02-04 03:07:27.752243+01 | 1486174047.75224 | pgbench_tellers  |         27975680
 2017-02-04 03:07:27.752243+01 | 1486174047.75224 | pgbench_history  |        371900416
 2017-02-04 03:07:27.752243+01 | 1486174047.75224 | pgbench_branches |         12607488

 2017-02-04 03:07:28.840109+01 | 1486174048.84011 | pgbench_accounts |      13925449728
 2017-02-04 03:07:28.840109+01 | 1486174048.84011 | pgbench_tellers  |         27975680
 2017-02-04 03:07:28.840109+01 | 1486174048.84011 | pgbench_history  |        372613120
 2017-02-04 03:07:28.840109+01 | 1486174048.84011 | pgbench_branches |         12607488

 2017-02-04 03:07:29.931534+01 | 1486174049.93153 | pgbench_accounts |      13925449728
 2017-02-04 03:07:29.931534+01 | 1486174049.93153 | pgbench_tellers  |         27975680
 2017-02-04 03:07:29.931534+01 | 1486174049.93153 | pgbench_history  |        376946688
 2017-02-04 03:07:29.931534+01 | 1486174049.93153 | pgbench_branches |         12607488

 2017-02-04 03:07:31.007524+01 | 1486174051.00752 | pgbench_accounts |      13925449728
 2017-02-04 03:07:31.007524+01 | 1486174051.00752 | pgbench_tellers  |         27975680
 2017-02-04 03:07:31.007524+01 | 1486174051.00752 | pgbench_history  |        376946688
 2017-02-04 03:07:31.007524+01 | 1486174051.00752 | pgbench_branches |         12607488

 2017-02-04 03:07:32.080331+01 | 1486174052.08033 | pgbench_accounts |      13925449728
 2017-02-04 03:07:32.080331+01 | 1486174052.08033 | pgbench_tellers  |         27975680
 2017-02-04 03:07:32.080331+01 | 1486174052.08033 | pgbench_history  |        376946688
 2017-02-04 03:07:32.080331+01 | 1486174052.08033 | pgbench_branches |         12607488

 2017-02-04 03:07:33.168139+01 | 1486174053.16814 | pgbench_accounts |      13925449728
 2017-02-04 03:07:33.168139+01 | 1486174053.16814 | pgbench_tellers  |         27975680
 2017-02-04 03:07:33.168139+01 | 1486174053.16814 | pgbench_history  |        378331136
 2017-02-04 03:07:33.168139+01 | 1486174053.16814 | pgbench_branches |         12607488

 2017-02-04 03:07:34.254191+01 | 1486174054.25419 | pgbench_accounts |      13925449728
 2017-02-04 03:07:34.254191+01 | 1486174054.25419 | pgbench_tellers  |         27975680
 2017-02-04 03:07:34.254191+01 | 1486174054.25419 | pgbench_history  |        380911616
 2017-02-04 03:07:34.254191+01 | 1486174054.25419 | pgbench_branches |         12607488

 2017-02-04 03:07:35.336502+01 | 1486174055.3365 | pgbench_accounts |      13925449728
 2017-02-04 03:07:35.336502+01 | 1486174055.3365 | pgbench_tellers  |         27975680
 2017-02-04 03:07:35.336502+01 | 1486174055.3365 | pgbench_history  |        382246912
 2017-02-04 03:07:35.336502+01 | 1486174055.3365 | pgbench_branches |         12607488

 2017-02-04 03:07:36.421411+01 | 1486174056.42141 | pgbench_accounts |      13925449728
 2017-02-04 03:07:36.421411+01 | 1486174056.42141 | pgbench_tellers  |         27975680
 2017-02-04 03:07:36.421411+01 | 1486174056.42141 | pgbench_history  |        385736704
 2017-02-04 03:07:36.421411+01 | 1486174056.42141 | pgbench_branches |         12607488

 2017-02-04 03:07:37.506058+01 | 1486174057.50606 | pgbench_accounts |      13925449728
 2017-02-04 03:07:37.506058+01 | 1486174057.50606 | pgbench_tellers  |         27975680
 2017-02-04 03:07:37.506058+01 | 1486174057.50606 | pgbench_history  |        385736704
 2017-02-04 03:07:37.506058+01 | 1486174057.50606 | pgbench_branches |         12607488

 2017-02-04 03:07:38.581918+01 | 1486174058.58192 | pgbench_accounts |      13925449728
 2017-02-04 03:07:38.581918+01 | 1486174058.58192 | pgbench_tellers  |         27975680
 2017-02-04 03:07:38.581918+01 | 1486174058.58192 | pgbench_history  |        387637248
 2017-02-04 03:07:38.581918+01 | 1486174058.58192 | pgbench_branches |         12607488

 2017-02-04 03:07:39.648352+01 | 1486174059.64835 | pgbench_accounts |      13925449728
 2017-02-04 03:07:39.648352+01 | 1486174059.64835 | pgbench_tellers  |         27975680
 2017-02-04 03:07:39.648352+01 | 1486174059.64835 | pgbench_history  |        390897664
 2017-02-04 03:07:39.648352+01 | 1486174059.64835 | pgbench_branches |         12607488

 2017-02-04 03:07:40.722475+01 | 1486174060.72248 | pgbench_accounts |      13925449728
 2017-02-04 03:07:40.722475+01 | 1486174060.72248 | pgbench_tellers  |         27975680
 2017-02-04 03:07:40.722475+01 | 1486174060.72248 | pgbench_history  |        391741440
 2017-02-04 03:07:40.722475+01 | 1486174060.72248 | pgbench_branches |         12607488

 2017-02-04 03:07:41.791048+01 | 1486174061.79105 | pgbench_accounts |      13925449728
 2017-02-04 03:07:41.791048+01 | 1486174061.79105 | pgbench_tellers  |         27975680
 2017-02-04 03:07:41.791048+01 | 1486174061.79105 | pgbench_history  |        393199616
 2017-02-04 03:07:41.791048+01 | 1486174061.79105 | pgbench_branches |         12607488

 2017-02-04 03:07:42.877314+01 | 1486174062.87731 | pgbench_accounts |      13925449728
 2017-02-04 03:07:42.877314+01 | 1486174062.87731 | pgbench_tellers  |         27975680
 2017-02-04 03:07:42.877314+01 | 1486174062.87731 | pgbench_history  |        396533760
 2017-02-04 03:07:42.877314+01 | 1486174062.87731 | pgbench_branches |         12607488

 2017-02-04 03:07:43.952421+01 | 1486174063.95242 | pgbench_accounts |      13925449728
 2017-02-04 03:07:43.952421+01 | 1486174063.95242 | pgbench_tellers  |         27975680
 2017-02-04 03:07:43.952421+01 | 1486174063.95242 | pgbench_history  |        396533760
 2017-02-04 03:07:43.952421+01 | 1486174063.95242 | pgbench_branches |         12607488

 2017-02-04 03:07:45.022421+01 | 1486174065.02242 | pgbench_accounts |      13925449728
 2017-02-04 03:07:45.022421+01 | 1486174065.02242 | pgbench_tellers  |         27975680
 2017-02-04 03:07:45.022421+01 | 1486174065.02242 | pgbench_history  |        398057472
 2017-02-04 03:07:45.022421+01 | 1486174065.02242 | pgbench_branches |         12607488

 2017-02-04 03:07:46.096158+01 | 1486174066.09616 | pgbench_accounts |      13925449728
 2017-02-04 03:07:46.096158+01 | 1486174066.09616 | pgbench_tellers  |         27975680
 2017-02-04 03:07:46.096158+01 | 1486174066.09616 | pgbench_history  |        399450112
 2017-02-04 03:07:46.096158+01 | 1486174066.09616 | pgbench_branches |         12607488

 2017-02-04 03:07:47.165459+01 | 1486174067.16546 | pgbench_accounts |      13925449728
 2017-02-04 03:07:47.165459+01 | 1486174067.16546 | pgbench_tellers  |         27975680
 2017-02-04 03:07:47.165459+01 | 1486174067.16546 | pgbench_history  |        400834560
 2017-02-04 03:07:47.165459+01 | 1486174067.16546 | pgbench_branches |         12607488

 2017-02-04 03:07:48.238184+01 | 1486174068.23818 | pgbench_accounts |      13925449728
 2017-02-04 03:07:48.238184+01 | 1486174068.23818 | pgbench_tellers  |         27975680
 2017-02-04 03:07:48.238184+01 | 1486174068.23818 | pgbench_history  |        403619840
 2017-02-04 03:07:48.238184+01 | 1486174068.23818 | pgbench_branches |         12607488

 2017-02-04 03:07:49.317267+01 | 1486174069.31727 | pgbench_accounts |      13925449728
 2017-02-04 03:07:49.317267+01 | 1486174069.31727 | pgbench_tellers  |         27975680
 2017-02-04 03:07:49.317267+01 | 1486174069.31727 | pgbench_history  |        404627456
 2017-02-04 03:07:49.317267+01 | 1486174069.31727 | pgbench_branches |         12607488

 2017-02-04 03:07:50.413345+01 | 1486174070.41335 | pgbench_accounts |      13925449728
 2017-02-04 03:07:50.413345+01 | 1486174070.41335 | pgbench_tellers  |         27975680
 2017-02-04 03:07:50.413345+01 | 1486174070.41335 | pgbench_history  |        406175744
 2017-02-04 03:07:50.413345+01 | 1486174070.41335 | pgbench_branches |         12607488

 2017-02-04 03:07:51.50057+01 | 1486174071.50057 | pgbench_accounts |      13925449728
 2017-02-04 03:07:51.50057+01 | 1486174071.50057 | pgbench_tellers  |         27975680
 2017-02-04 03:07:51.50057+01 | 1486174071.50057 | pgbench_history  |        408223744
 2017-02-04 03:07:51.50057+01 | 1486174071.50057 | pgbench_branches |         12607488

 2017-02-04 03:07:52.580897+01 | 1486174072.5809 | pgbench_accounts |      13925449728
 2017-02-04 03:07:52.580897+01 | 1486174072.5809 | pgbench_tellers  |         27975680
 2017-02-04 03:07:52.580897+01 | 1486174072.5809 | pgbench_history  |        411525120
 2017-02-04 03:07:52.580897+01 | 1486174072.5809 | pgbench_branches |         12607488

 2017-02-04 03:07:53.665235+01 | 1486174073.66524 | pgbench_accounts |      13925449728
 2017-02-04 03:07:53.665235+01 | 1486174073.66524 | pgbench_tellers  |         27975680
 2017-02-04 03:07:53.665235+01 | 1486174073.66524 | pgbench_history  |        411525120
 2017-02-04 03:07:53.665235+01 | 1486174073.66524 | pgbench_branches |         12607488

 2017-02-04 03:07:54.74724+01 | 1486174074.74724 | pgbench_accounts |      13925449728
 2017-02-04 03:07:54.74724+01 | 1486174074.74724 | pgbench_tellers  |         27975680
 2017-02-04 03:07:54.74724+01 | 1486174074.74724 | pgbench_history  |        412532736
 2017-02-04 03:07:54.74724+01 | 1486174074.74724 | pgbench_branches |         12607488

 2017-02-04 03:07:55.834404+01 | 1486174075.8344 | pgbench_accounts |      13925449728
 2017-02-04 03:07:55.834404+01 | 1486174075.8344 | pgbench_tellers  |         27975680
 2017-02-04 03:07:55.834404+01 | 1486174075.8344 | pgbench_history  |        416030720
 2017-02-04 03:07:55.834404+01 | 1486174075.8344 | pgbench_branches |         12607488

 2017-02-04 03:07:56.921025+01 | 1486174076.92103 | pgbench_accounts |      13925449728
 2017-02-04 03:07:56.921025+01 | 1486174076.92103 | pgbench_tellers  |         27975680
 2017-02-04 03:07:56.921025+01 | 1486174076.92103 | pgbench_history  |        416030720
 2017-02-04 03:07:56.921025+01 | 1486174076.92103 | pgbench_branches |         12607488

 2017-02-04 03:07:58.007143+01 | 1486174078.00714 | pgbench_accounts |      13925449728
 2017-02-04 03:07:58.007143+01 | 1486174078.00714 | pgbench_tellers  |         27975680
 2017-02-04 03:07:58.007143+01 | 1486174078.00714 | pgbench_history  |        417882112
 2017-02-04 03:07:58.007143+01 | 1486174078.00714 | pgbench_branches |         12607488

 2017-02-04 03:07:59.090542+01 | 1486174079.09054 | pgbench_accounts |      13925449728
 2017-02-04 03:07:59.090542+01 | 1486174079.09054 | pgbench_tellers  |         27975680
 2017-02-04 03:07:59.090542+01 | 1486174079.09054 | pgbench_history  |        422240256
 2017-02-04 03:07:59.090542+01 | 1486174079.09054 | pgbench_branches |         12607488

 2017-02-04 03:08:00.176989+01 | 1486174080.17699 | pgbench_accounts |      13925449728
 2017-02-04 03:08:00.176989+01 | 1486174080.17699 | pgbench_tellers  |         27975680
 2017-02-04 03:08:00.176989+01 | 1486174080.17699 | pgbench_history  |        422240256
 2017-02-04 03:08:00.176989+01 | 1486174080.17699 | pgbench_branches |         12607488

 2017-02-04 03:08:01.254733+01 | 1486174081.25473 | pgbench_accounts |      13925449728
 2017-02-04 03:08:01.254733+01 | 1486174081.25473 | pgbench_tellers  |         27975680
 2017-02-04 03:08:01.254733+01 | 1486174081.25473 | pgbench_history  |        423108608
 2017-02-04 03:08:01.254733+01 | 1486174081.25473 | pgbench_branches |         12607488

 2017-02-04 03:08:02.33353+01 | 1486174082.33353 | pgbench_accounts |      13925449728
 2017-02-04 03:08:02.33353+01 | 1486174082.33353 | pgbench_tellers  |         27975680
 2017-02-04 03:08:02.33353+01 | 1486174082.33353 | pgbench_history  |        425533440
 2017-02-04 03:08:02.33353+01 | 1486174082.33353 | pgbench_branches |         12607488

 2017-02-04 03:08:03.410766+01 | 1486174083.41077 | pgbench_accounts |      13925449728
 2017-02-04 03:08:03.410766+01 | 1486174083.41077 | pgbench_tellers  |         27975680
 2017-02-04 03:08:03.410766+01 | 1486174083.41077 | pgbench_history  |        428417024
 2017-02-04 03:08:03.410766+01 | 1486174083.41077 | pgbench_branches |         12607488

 2017-02-04 03:08:04.496218+01 | 1486174084.49622 | pgbench_accounts |      13925449728
 2017-02-04 03:08:04.496218+01 | 1486174084.49622 | pgbench_tellers  |         27975680
 2017-02-04 03:08:04.496218+01 | 1486174084.49622 | pgbench_history  |        428417024
 2017-02-04 03:08:04.496218+01 | 1486174084.49622 | pgbench_branches |         12607488

 2017-02-04 03:08:05.583226+01 | 1486174085.58323 | pgbench_accounts |      13925449728
 2017-02-04 03:08:05.583226+01 | 1486174085.58323 | pgbench_tellers  |         27975680
 2017-02-04 03:08:05.583226+01 | 1486174085.58323 | pgbench_history  |        430514176
 2017-02-04 03:08:05.583226+01 | 1486174085.58323 | pgbench_branches |         12607488

 2017-02-04 03:08:06.664481+01 | 1486174086.66448 | pgbench_accounts |      13925449728
 2017-02-04 03:08:06.664481+01 | 1486174086.66448 | pgbench_tellers  |         27975680
 2017-02-04 03:08:06.664481+01 | 1486174086.66448 | pgbench_history  |        432365568
 2017-02-04 03:08:06.664481+01 | 1486174086.66448 | pgbench_branches |         12607488

 2017-02-04 03:08:07.766539+01 | 1486174087.76654 | pgbench_accounts |      13925449728
 2017-02-04 03:08:07.766539+01 | 1486174087.76654 | pgbench_tellers  |         27975680
 2017-02-04 03:08:07.766539+01 | 1486174087.76654 | pgbench_history  |        434077696
 2017-02-04 03:08:07.766539+01 | 1486174087.76654 | pgbench_branches |         12607488

 2017-02-04 03:08:08.842644+01 | 1486174088.84264 | pgbench_accounts |      13925449728
 2017-02-04 03:08:08.842644+01 | 1486174088.84264 | pgbench_tellers  |         27975680
 2017-02-04 03:08:08.842644+01 | 1486174088.84264 | pgbench_history  |        435822592
 2017-02-04 03:08:08.842644+01 | 1486174088.84264 | pgbench_branches |         12607488

 2017-02-04 03:08:09.913754+01 | 1486174089.91375 | pgbench_accounts |      13925449728
 2017-02-04 03:08:09.913754+01 | 1486174089.91375 | pgbench_tellers  |         27975680
 2017-02-04 03:08:09.913754+01 | 1486174089.91375 | pgbench_history  |        437387264
 2017-02-04 03:08:09.913754+01 | 1486174089.91375 | pgbench_branches |         12607488

 2017-02-04 03:08:10.997645+01 | 1486174090.99764 | pgbench_accounts |      13925449728
 2017-02-04 03:08:10.997645+01 | 1486174090.99764 | pgbench_tellers  |         27975680
 2017-02-04 03:08:10.997645+01 | 1486174090.99764 | pgbench_history  |        439123968
 2017-02-04 03:08:10.997645+01 | 1486174090.99764 | pgbench_branches |         12607488

 2017-02-04 03:08:12.086456+01 | 1486174092.08646 | pgbench_accounts |      13925449728
 2017-02-04 03:08:12.086456+01 | 1486174092.08646 | pgbench_tellers  |         27975680
 2017-02-04 03:08:12.086456+01 | 1486174092.08646 | pgbench_history  |        440926208
 2017-02-04 03:08:12.086456+01 | 1486174092.08646 | pgbench_branches |         12607488

 2017-02-04 03:08:13.165393+01 | 1486174093.16539 | pgbench_accounts |      13925449728
 2017-02-04 03:08:13.165393+01 | 1486174093.16539 | pgbench_tellers  |         27975680
 2017-02-04 03:08:13.165393+01 | 1486174093.16539 | pgbench_history  |        442966016
 2017-02-04 03:08:13.165393+01 | 1486174093.16539 | pgbench_branches |         12607488

 2017-02-04 03:08:14.25105+01 | 1486174094.25105 | pgbench_accounts |      13925449728
 2017-02-04 03:08:14.25105+01 | 1486174094.25105 | pgbench_tellers  |         27975680
 2017-02-04 03:08:14.25105+01 | 1486174094.25105 | pgbench_history  |        444678144
 2017-02-04 03:08:14.25105+01 | 1486174094.25105 | pgbench_branches |         12607488

 2017-02-04 03:08:15.324157+01 | 1486174095.32416 | pgbench_accounts |      13925449728
 2017-02-04 03:08:15.324157+01 | 1486174095.32416 | pgbench_tellers  |         27975680
 2017-02-04 03:08:15.324157+01 | 1486174095.32416 | pgbench_history  |        447873024
 2017-02-04 03:08:15.324157+01 | 1486174095.32416 | pgbench_branches |         12607488

 2017-02-04 03:08:16.395518+01 | 1486174096.39552 | pgbench_accounts |      13925449728
 2017-02-04 03:08:16.395518+01 | 1486174096.39552 | pgbench_tellers  |         27975680
 2017-02-04 03:08:16.395518+01 | 1486174096.39552 | pgbench_history  |        447873024
 2017-02-04 03:08:16.395518+01 | 1486174096.39552 | pgbench_branches |         12607488

 2017-02-04 03:08:17.476052+01 | 1486174097.47605 | pgbench_accounts |      13925449728
 2017-02-04 03:08:17.476052+01 | 1486174097.47605 | pgbench_tellers  |         27975680
 2017-02-04 03:08:17.476052+01 | 1486174097.47605 | pgbench_history  |        449732608
 2017-02-04 03:08:17.476052+01 | 1486174097.47605 | pgbench_branches |         12607488

 2017-02-04 03:08:18.556104+01 | 1486174098.5561 | pgbench_accounts |      13925449728
 2017-02-04 03:08:18.556104+01 | 1486174098.5561 | pgbench_tellers  |         27975680
 2017-02-04 03:08:18.556104+01 | 1486174098.5561 | pgbench_history  |        451584000
 2017-02-04 03:08:18.556104+01 | 1486174098.5561 | pgbench_branches |         12607488

 2017-02-04 03:08:19.641445+01 | 1486174099.64144 | pgbench_accounts |      13925449728
 2017-02-04 03:08:19.641445+01 | 1486174099.64144 | pgbench_tellers  |         27975680
 2017-02-04 03:08:19.641445+01 | 1486174099.64144 | pgbench_history  |        453484544
 2017-02-04 03:08:19.641445+01 | 1486174099.64144 | pgbench_branches |         12607488

 2017-02-04 03:08:20.723897+01 | 1486174100.7239 | pgbench_accounts |      13925449728
 2017-02-04 03:08:20.723897+01 | 1486174100.7239 | pgbench_tellers  |         27975680
 2017-02-04 03:08:20.723897+01 | 1486174100.7239 | pgbench_history  |        455016448
 2017-02-04 03:08:20.723897+01 | 1486174100.7239 | pgbench_branches |         12607488

 2017-02-04 03:08:21.79677+01 | 1486174101.79677 | pgbench_accounts |      13925449728
 2017-02-04 03:08:21.79677+01 | 1486174101.79677 | pgbench_tellers  |         27975680
 2017-02-04 03:08:21.79677+01 | 1486174101.79677 | pgbench_history  |        457220096
 2017-02-04 03:08:21.79677+01 | 1486174101.79677 | pgbench_branches |         12607488

 2017-02-04 03:08:22.882788+01 | 1486174102.88279 | pgbench_accounts |      13925449728
 2017-02-04 03:08:22.882788+01 | 1486174102.88279 | pgbench_tellers  |         27975680
 2017-02-04 03:08:22.882788+01 | 1486174102.88279 | pgbench_history  |        459120640
 2017-02-04 03:08:22.882788+01 | 1486174102.88279 | pgbench_branches |         12607488

 2017-02-04 03:08:23.983011+01 | 1486174103.98301 | pgbench_accounts |      13925449728
 2017-02-04 03:08:23.983011+01 | 1486174103.98301 | pgbench_tellers  |         27975680
 2017-02-04 03:08:23.983011+01 | 1486174103.98301 | pgbench_history  |        460644352
 2017-02-04 03:08:23.983011+01 | 1486174103.98301 | pgbench_branches |         12607488

 2017-02-04 03:08:25.060103+01 | 1486174105.0601 | pgbench_accounts |      13925449728
 2017-02-04 03:08:25.060103+01 | 1486174105.0601 | pgbench_tellers  |         27975680
 2017-02-04 03:08:25.060103+01 | 1486174105.0601 | pgbench_history  |        462520320
 2017-02-04 03:08:25.060103+01 | 1486174105.0601 | pgbench_branches |         12607488

 2017-02-04 03:08:26.140443+01 | 1486174106.14044 | pgbench_accounts |      13925449728
 2017-02-04 03:08:26.140443+01 | 1486174106.14044 | pgbench_tellers  |         27975680
 2017-02-04 03:08:26.140443+01 | 1486174106.14044 | pgbench_history  |        464740352
 2017-02-04 03:08:26.140443+01 | 1486174106.14044 | pgbench_branches |         12607488

 2017-02-04 03:08:27.221574+01 | 1486174107.22157 | pgbench_accounts |      13925449728
 2017-02-04 03:08:27.221574+01 | 1486174107.22157 | pgbench_tellers  |         27975680
 2017-02-04 03:08:27.221574+01 | 1486174107.22157 | pgbench_history  |        465747968
 2017-02-04 03:08:27.221574+01 | 1486174107.22157 | pgbench_branches |         12607488

 2017-02-04 03:08:28.303721+01 | 1486174108.30372 | pgbench_accounts |      13925449728
 2017-02-04 03:08:28.303721+01 | 1486174108.30372 | pgbench_tellers  |         27975680
 2017-02-04 03:08:28.303721+01 | 1486174108.30372 | pgbench_history  |        467083264
 2017-02-04 03:08:28.303721+01 | 1486174108.30372 | pgbench_branches |         12607488

 2017-02-04 03:08:29.375858+01 | 1486174109.37586 | pgbench_accounts |      13925449728
 2017-02-04 03:08:29.375858+01 | 1486174109.37586 | pgbench_tellers  |         27975680
 2017-02-04 03:08:29.375858+01 | 1486174109.37586 | pgbench_history  |        469016576
 2017-02-04 03:08:29.375858+01 | 1486174109.37586 | pgbench_branches |         12607488

