 2017-02-04 03:03:28.966884+01 | 1486173808.96688 | 75/AED88000              |          505444597760

 2017-02-04 03:03:30.957477+01 | 1486173810.95748 | 75/B980BFD0              |          505623396304

 2017-02-04 03:03:32.029938+01 | 1486173812.02994 | 75/C85752B0              |          505872339632

 2017-02-04 03:03:33.121674+01 | 1486173813.12167 | 75/D6F296B8              |          506117396152

 2017-02-04 03:03:34.217098+01 | 1486173814.2171 | 75/E6FA4680              |          506386335360

 2017-02-04 03:03:35.299022+01 | 1486173815.29902 | 75/F6926000              |          506647961600

 2017-02-04 03:03:36.387259+01 | 1486173816.38726 | 76/6066D70               |          506907225456

 2017-02-04 03:03:37.467808+01 | 1486173817.46781 | 76/15B36B88              |          507170220936

 2017-02-04 03:03:38.547491+01 | 1486173818.54749 | 76/25E933F8              |          507442181112

 2017-02-04 03:03:39.6338+01 | 1486173819.6338 | 76/3664B5A8              |          507718710696

 2017-02-04 03:03:40.717492+01 | 1486173820.71749 | 76/450554D0              |          507964118224

 2017-02-04 03:03:41.800658+01 | 1486173821.80066 | 76/54BC0200              |          508227748352

 2017-02-04 03:03:42.879877+01 | 1486173822.87988 | 76/624AFEA8              |          508455222952

 2017-02-04 03:03:43.959524+01 | 1486173823.95952 | 76/7125A820              |          508704434208

 2017-02-04 03:03:45.040703+01 | 1486173825.0407 | 76/7FC5FAD8              |          508949822168

 2017-02-04 03:03:46.128777+01 | 1486173826.12878 | 76/8EC8CFB8              |          509201665976

 2017-02-04 03:03:47.213731+01 | 1486173827.21373 | 76/9E0FD388              |          509457978248

 2017-02-04 03:03:48.295412+01 | 1486173828.29541 | 76/AD117BE8              |          509709745128

 2017-02-04 03:03:49.374778+01 | 1486173829.37478 | 76/BC04E670              |          509960578672

 2017-02-04 03:03:50.458317+01 | 1486173830.45832 | 76/CA3CFD90              |          510199135632

 2017-02-04 03:03:51.53612+01 | 1486173831.53612 | 76/D7D9D530              |          510427518256

 2017-02-04 03:03:52.617684+01 | 1486173832.61768 | 76/E3140648              |          510615881288

 2017-02-04 03:03:53.695387+01 | 1486173833.69539 | 76/F05C3D68              |          510838717800

 2017-02-04 03:03:54.772269+01 | 1486173834.77227 | 76/FD44A000              |          511055273984

 2017-02-04 03:03:55.851385+01 | 1486173835.85139 | 77/9915B40               |          511261629248

 2017-02-04 03:03:56.935208+01 | 1486173836.93521 | 77/14FBD510              |          511453156624

 2017-02-04 03:03:58.018132+01 | 1486173838.01813 | 77/1F92E430              |          511630828592

 2017-02-04 03:03:59.100417+01 | 1486173839.10042 | 77/2ACA0C58              |          511818992728

 2017-02-04 03:04:00.181099+01 | 1486173840.1811 | 77/354F27F8              |          511995488248

 2017-02-04 03:04:01.258126+01 | 1486173841.25813 | 77/3D8486D8              |          512133203672

 2017-02-04 03:04:02.324886+01 | 1486173842.32489 | 77/45F9C448              |          512275104840

 2017-02-04 03:04:03.393193+01 | 1486173843.39319 | 77/4E4902B0              |          512414515888

 2017-02-04 03:04:04.475229+01 | 1486173844.47523 | 77/584BA938              |          512582461752

 2017-02-04 03:04:05.555196+01 | 1486173845.5552 | 77/61C04298              |          512741098136

 2017-02-04 03:04:06.6355+01 | 1486173846.6355 | 77/6C20BED8              |          512915193560

 2017-02-04 03:04:07.71832+01 | 1486173847.71832 | 77/75CF7760              |          513077639008

 2017-02-04 03:04:08.793926+01 | 1486173848.79393 | 77/7E8E1680              |          513224349312

 2017-02-04 03:04:09.876287+01 | 1486173849.87629 | 77/8650FCA0              |          513354562720

 2017-02-04 03:04:10.952805+01 | 1486173850.95281 | 77/8F0ADFC8              |          513500962760

 2017-02-04 03:04:12.036224+01 | 1486173852.03622 | 77/9719E390              |          513636164496

 2017-02-04 03:04:13.11717+01 | 1486173853.11717 | 77/9FFF5B98              |          513785420696

 2017-02-04 03:04:14.190251+01 | 1486173854.19025 | 77/A751AE38              |          513908256312

 2017-02-04 03:04:15.265701+01 | 1486173855.2657 | 77/AE8228A8              |          514028873896

 2017-02-04 03:04:16.333594+01 | 1486173856.33359 | 77/B630B060              |          514157752416

 2017-02-04 03:04:17.415742+01 | 1486173857.41574 | 77/BDDED770              |          514286606192

 2017-02-04 03:04:18.505174+01 | 1486173858.50517 | 77/C66B8DD0              |          514430045648

 2017-02-04 03:04:19.58901+01 | 1486173859.58901 | 77/CD9ABD68              |          514550578536

 2017-02-04 03:04:20.678599+01 | 1486173860.6786 | 77/D4778D70              |          514665713008

 2017-02-04 03:04:21.762981+01 | 1486173861.76298 | 77/DBD17850              |          514789046352

 2017-02-04 03:04:22.821879+01 | 1486173862.82188 | 77/E29AC918              |          514902903064

 2017-02-04 03:04:23.894259+01 | 1486173863.89426 | 77/E9AA9440              |          515021378624

 2017-02-04 03:04:24.976143+01 | 1486173864.97614 | 77/F0A8F4C8              |          515138712776

 2017-02-04 03:04:26.060241+01 | 1486173866.06024 | 77/F7610D78              |          515251441016

 2017-02-04 03:04:27.13902+01 | 1486173867.13902 | 77/FE1B3898              |          515364305048

 2017-02-04 03:04:28.215968+01 | 1486173868.21597 | 78/4EBB2B8               |          515478631096

 2017-02-04 03:04:29.291591+01 | 1486173869.29159 | 78/B5C2140               |          515586662720

 2017-02-04 03:04:30.386469+01 | 1486173870.38647 | 78/11D25418              |          515695072280

 2017-02-04 03:04:31.469703+01 | 1486173871.4697 | 78/180D89B8              |          515799615928

 2017-02-04 03:04:32.557442+01 | 1486173872.55744 | 78/1E333D58              |          515902750040

 2017-02-04 03:04:33.643457+01 | 1486173873.64346 | 78/24776A60              |          516007881312

 2017-02-04 03:04:34.726374+01 | 1486173874.72637 | 78/29FC7290              |          516100485776

 2017-02-04 03:04:35.819246+01 | 1486173875.81925 | 78/303E9528              |          516205483304

 2017-02-04 03:04:36.906542+01 | 1486173876.90654 | 78/3654E8F8              |          516307609848

 2017-02-04 03:04:37.977799+01 | 1486173877.9778 | 78/3C1E92C8              |          516404712136

 2017-02-04 03:04:39.054485+01 | 1486173879.05449 | 78/421069F0              |          516504447472

 2017-02-04 03:04:40.123707+01 | 1486173880.12371 | 78/47BE80C8              |          516599742664

 2017-02-04 03:04:41.187768+01 | 1486173881.18777 | 78/4D121830              |          516689106992

 2017-02-04 03:04:42.265397+01 | 1486173882.2654 | 78/5273C040              |          516779393088

 2017-02-04 03:04:43.344991+01 | 1486173883.34499 | 78/57CBF9E0              |          516869061088

 2017-02-04 03:04:44.435439+01 | 1486173884.43544 | 78/5D057088              |          516956713096

 2017-02-04 03:04:45.519436+01 | 1486173885.51944 | 78/6204C148              |          517040554312

 2017-02-04 03:04:46.599481+01 | 1486173886.59948 | 78/66E95B60              |          517122644832

 2017-02-04 03:04:47.686326+01 | 1486173887.68633 | 78/6B9F91F8              |          517201695224

 2017-02-04 03:04:48.767562+01 | 1486173888.76756 | 78/703AC118              |          517278974232

 2017-02-04 03:04:49.857878+01 | 1486173889.85788 | 78/749BAD10              |          517352434960

 2017-02-04 03:04:50.939644+01 | 1486173890.93964 | 78/785D8358              |          517415469912

 2017-02-04 03:04:52.009353+01 | 1486173892.00935 | 78/7BE98B30              |          517474978608

 2017-02-04 03:04:53.074975+01 | 1486173893.07498 | 78/806B7D90              |          517550603664

 2017-02-04 03:04:54.136189+01 | 1486173894.13619 | 78/8508C3E8              |          517628019688

 2017-02-04 03:04:55.199438+01 | 1486173895.19944 | 78/8920A9A0              |          517696694688

 2017-02-04 03:04:56.288802+01 | 1486173896.2888 | 78/8D5ACF70              |          517767614320

 2017-02-04 03:04:57.371303+01 | 1486173897.3713 | 78/918BC100              |          517837930752

 2017-02-04 03:04:58.453644+01 | 1486173898.45364 | 78/956820D0              |          517902704848

 2017-02-04 03:04:59.537207+01 | 1486173899.53721 | 78/9950A760              |          517968275296

 2017-02-04 03:05:00.625466+01 | 1486173900.62547 | 78/9D0E5240              |          518031036992

 2017-02-04 03:05:01.713236+01 | 1486173901.71324 | 78/A0101818              |          518081484824

 2017-02-04 03:05:02.801375+01 | 1486173902.80137 | 78/A2B0B008              |          518125563912

 2017-02-04 03:05:03.89416+01 | 1486173903.89416 | 78/A589ED80              |          518173355392

 2017-02-04 03:05:04.976509+01 | 1486173904.97651 | 78/A848E878              |          518219425912

 2017-02-04 03:05:06.065155+01 | 1486173906.06516 | 78/AAE298B8              |          518263052472

 2017-02-04 03:05:07.147655+01 | 1486173907.14766 | 78/ADA3FF98              |          518309281688

 2017-02-04 03:05:08.231263+01 | 1486173908.23126 | 78/B091AAE0              |          518358412000

 2017-02-04 03:05:09.293133+01 | 1486173909.29313 | 78/B3101130              |          518400250160

 2017-02-04 03:05:10.377826+01 | 1486173910.37783 | 78/B5B58B98              |          518444649368

 2017-02-04 03:05:11.45882+01 | 1486173911.45882 | 78/B83D85F0              |          518487115248

 2017-02-04 03:05:12.533228+01 | 1486173912.53323 | 78/BAC965A8              |          518529836456

 2017-02-04 03:05:13.609839+01 | 1486173913.60984 | 78/BD610508              |          518573327624

 2017-02-04 03:05:14.683114+01 | 1486173914.68311 | 78/BFC38F18              |          518613339928

 2017-02-04 03:05:15.77007+01 | 1486173915.77007 | 78/C278B7E0              |          518658766816

 2017-02-04 03:05:16.855462+01 | 1486173916.85546 | 78/C4B69820              |          518696376352

 2017-02-04 03:05:17.9527+01 | 1486173917.9527 | 78/C733F058              |          518738145368

 2017-02-04 03:05:19.040575+01 | 1486173919.04058 | 78/C9949110              |          518778032400

 2017-02-04 03:05:20.142045+01 | 1486173920.14205 | 78/CC152B38              |          518820014904

 2017-02-04 03:05:21.207441+01 | 1486173921.20744 | 78/CEE01948              |          518866868552

 2017-02-04 03:05:22.295231+01 | 1486173922.29523 | 78/D1C57590              |          518915454352

 2017-02-04 03:05:23.378961+01 | 1486173923.37896 | 78/D4EEFB70              |          518968507248

 2017-02-04 03:05:24.4495+01 | 1486173924.4495 | 78/D85EB838              |          519026161720

 2017-02-04 03:05:25.531107+01 | 1486173925.53111 | 78/DBE7AA58              |          519085468248

 2017-02-04 03:05:26.601623+01 | 1486173926.60162 | 78/DE9FABA0              |          519131081632

 2017-02-04 03:05:27.681721+01 | 1486173927.68172 | 78/E19FDF20              |          519181426464

 2017-02-04 03:05:28.765373+01 | 1486173928.76537 | 78/E489FE08              |          519230324232

 2017-02-04 03:05:29.83239+01 | 1486173929.83239 | 78/E76E91D8              |          519278858712

 2017-02-04 03:05:30.905168+01 | 1486173930.90517 | 78/E9FCCBF0              |          519321734128

 2017-02-04 03:05:31.994387+01 | 1486173931.99439 | 78/EC5C4E28              |          519361547816

 2017-02-04 03:05:33.076093+01 | 1486173933.07609 | 78/EEB32188              |          519400792456

 2017-02-04 03:05:34.16345+01 | 1486173934.16345 | 78/F15B2570              |          519445357936

 2017-02-04 03:05:35.246105+01 | 1486173935.2461 | 78/F3C1B7E0              |          519485634528

 2017-02-04 03:05:36.333982+01 | 1486173936.33398 | 78/F5D84730              |          519520667440

 2017-02-04 03:05:37.4182+01 | 1486173937.4182 | 78/F76A2D20              |          519547006240

 2017-02-04 03:05:38.501634+01 | 1486173938.50163 | 78/F9C1F4E0              |          519586313440

 2017-02-04 03:05:39.575095+01 | 1486173939.57509 | 78/FB9F8A40              |          519617612352

 2017-02-04 03:05:40.651592+01 | 1486173940.65159 | 78/FD774BD8              |          519648529368

 2017-02-04 03:05:41.723391+01 | 1486173941.72339 | 78/FFB885E8              |          519686358504

 2017-02-04 03:05:42.80123+01 | 1486173942.80123 | 79/1EDDC48               |          519723408456

 2017-02-04 03:05:43.881594+01 | 1486173943.88159 | 79/42FC9C8               |          519761283528

 2017-02-04 03:05:44.968517+01 | 1486173944.96852 | 79/66CD470               |          519798838384

 2017-02-04 03:05:46.059281+01 | 1486173946.05928 | 79/89D8730               |          519835584304

 2017-02-04 03:05:47.135539+01 | 1486173947.13554 | 79/AEF5498               |          519874499736

 2017-02-04 03:05:48.205688+01 | 1486173948.20569 | 79/C89FB38               |          519901412152

 2017-02-04 03:05:49.288064+01 | 1486173949.28806 | 79/E31FD18               |          519929199896

 2017-02-04 03:05:50.354032+01 | 1486173950.35403 | 79/FE3B208               |          519957623304

 2017-02-04 03:05:51.437068+01 | 1486173951.43707 | 79/11A5DE28              |          519987125800

 2017-02-04 03:05:52.503672+01 | 1486173952.50367 | 79/1334E6C8              |          520013276872

 2017-02-04 03:05:53.575774+01 | 1486173953.57577 | 79/14CE1028              |          520040091688

 2017-02-04 03:05:54.651726+01 | 1486173954.65173 | 79/16654260              |          520066777696

 2017-02-04 03:05:55.723171+01 | 1486173955.72317 | 79/17CD06C0              |          520090355392

 2017-02-04 03:05:56.806894+01 | 1486173956.80689 | 79/19389BE0              |          520114183136

 2017-02-04 03:05:57.890264+01 | 1486173957.89026 | 79/1AEEF218              |          520142909976

 2017-02-04 03:05:58.949448+01 | 1486173958.94945 | 79/1C5A1ED8              |          520166711000

 2017-02-04 03:06:00.042186+01 | 1486173960.04219 | 79/1DE41D58              |          520192531800

 2017-02-04 03:06:01.133281+01 | 1486173961.13328 | 79/1F490828              |          520215922728

 2017-02-04 03:06:02.222259+01 | 1486173962.22226 | 79/20BFB3F0              |          520240477168

 2017-02-04 03:06:03.313165+01 | 1486173963.31316 | 79/22486978              |          520266213752

 2017-02-04 03:06:04.39865+01 | 1486173964.39865 | 79/24125EC0              |          520296226496

 2017-02-04 03:06:05.490537+01 | 1486173965.49054 | 79/25DFBAA0              |          520326462112

 2017-02-04 03:06:06.586786+01 | 1486173966.58679 | 79/27D3DC78              |          520359238776

 2017-02-04 03:06:07.657558+01 | 1486173967.65756 | 79/29AECC10              |          520390364176

 2017-02-04 03:06:08.732838+01 | 1486173968.73284 | 79/2B665A70              |          520419170928

 2017-02-04 03:06:09.813478+01 | 1486173969.81348 | 79/2D1F33A8              |          520448062376

 2017-02-04 03:06:10.893822+01 | 1486173970.89382 | 79/2EEBC1F0              |          520478245360

 2017-02-04 03:06:11.999035+01 | 1486173971.99903 | 79/30C26C78              |          520509090936

 2017-02-04 03:06:13.087713+01 | 1486173973.08771 | 79/32A846D8              |          520540931800

 2017-02-04 03:06:14.153682+01 | 1486173974.15368 | 79/34774A58              |          520571275864

 2017-02-04 03:06:15.225024+01 | 1486173975.22502 | 79/3629C358              |          520599749464

 2017-02-04 03:06:16.309477+01 | 1486173976.30948 | 79/37E21EA8              |          520628608680

 2017-02-04 03:06:17.401918+01 | 1486173977.40192 | 79/3998C728              |          520657356584

 2017-02-04 03:06:18.487066+01 | 1486173978.48707 | 79/3B442070              |          520685363312

 2017-02-04 03:06:19.569943+01 | 1486173979.56994 | 79/3CD007A0              |          520711309216

 2017-02-04 03:06:20.663716+01 | 1486173980.66372 | 79/3E5CFA40              |          520737323584

 2017-02-04 03:06:21.750899+01 | 1486173981.7509 | 79/401EF848              |          520766814280

 2017-02-04 03:06:22.833389+01 | 1486173982.83339 | 79/42085058              |          520798883928

 2017-02-04 03:06:23.91159+01 | 1486173983.91159 | 79/441EA260              |          520833901152

 2017-02-04 03:06:24.993409+01 | 1486173984.99341 | 79/466D44B8              |          520872608952

 2017-02-04 03:06:26.08342+01 | 1486173986.08342 | 79/48E41B68              |          520913951592

 2017-02-04 03:06:27.172674+01 | 1486173987.17267 | 79/4B5B38E0              |          520955312352

 2017-02-04 03:06:28.264187+01 | 1486173988.26419 | 79/4DEE5340              |          520998507328

 2017-02-04 03:06:29.353876+01 | 1486173989.35388 | 79/50C36EE0              |          521046028000

 2017-02-04 03:06:30.438305+01 | 1486173990.4383 | 79/538B0778              |          521092663160

 2017-02-04 03:06:31.533148+01 | 1486173991.53315 | 79/56155C78              |          521135283320

 2017-02-04 03:06:32.605219+01 | 1486173992.60522 | 79/58ADC438              |          521178825784

 2017-02-04 03:06:33.685295+01 | 1486173993.6853 | 79/5AAEEB80              |          521212455808

 2017-02-04 03:06:34.773005+01 | 1486173994.77301 | 79/5C44BE20              |          521239051808

 2017-02-04 03:06:35.856185+01 | 1486173995.85618 | 79/5DDE8AA0              |          521265908384

 2017-02-04 03:06:36.934626+01 | 1486173996.93463 | 79/5F7AFE88              |          521292938888

 2017-02-04 03:06:38.018534+01 | 1486173998.01853 | 79/6117A600              |          521319982592

 2017-02-04 03:06:39.104647+01 | 1486173999.10465 | 79/62A33248              |          521345905224

 2017-02-04 03:06:40.188463+01 | 1486174000.18846 | 79/64233D48              |          521371073864

 2017-02-04 03:06:41.267959+01 | 1486174001.26796 | 79/65A2C6F8              |          521396209400

 2017-02-04 03:06:42.359242+01 | 1486174002.35924 | 79/672F7820              |          521422207008

 2017-02-04 03:06:43.434393+01 | 1486174003.43439 | 79/68A185E0              |          521446458848

 2017-02-04 03:06:44.508042+01 | 1486174004.50804 | 79/6A040BE0              |          521469692896

 2017-02-04 03:06:45.597159+01 | 1486174005.59716 | 79/6B039878              |          521486440568

 2017-02-04 03:06:46.684875+01 | 1486174006.68488 | 79/6C4B57A8              |          521507919784

 2017-02-04 03:06:47.775692+01 | 1486174007.77569 | 79/6D66E790              |          521526503312

 2017-02-04 03:06:48.857866+01 | 1486174008.85787 | 79/6E96DB28              |          521546423080

 2017-02-04 03:06:49.932272+01 | 1486174009.93227 | 79/6FC402A8              |          521566159528

 2017-02-04 03:06:51.010684+01 | 1486174011.01068 | 79/710F4950              |          521587870032

 2017-02-04 03:06:52.083394+01 | 1486174012.08339 | 79/7259FB00              |          521609542400

 2017-02-04 03:06:53.172191+01 | 1486174013.17219 | 79/73B5AC10              |          521632328720

 2017-02-04 03:06:54.260376+01 | 1486174014.26038 | 79/751270A8              |          521655185576

 2017-02-04 03:06:55.332321+01 | 1486174015.33232 | 79/76790928              |          521678686504

 2017-02-04 03:06:56.398358+01 | 1486174016.39836 | 79/77DD07C0              |          521702016960

 2017-02-04 03:06:57.475427+01 | 1486174017.47543 | 79/792558C8              |          521723533512

 2017-02-04 03:06:58.558508+01 | 1486174018.55851 | 79/7A706258              |          521745228376

 2017-02-04 03:06:59.645859+01 | 1486174019.64586 | 79/7BB51860              |          521766508640

 2017-02-04 03:07:00.739219+01 | 1486174020.73922 | 79/7CF5BEF8              |          521787522808

 2017-02-04 03:07:01.821099+01 | 1486174021.8211 | 79/7E462BA0              |          521809570720

 2017-02-04 03:07:02.902413+01 | 1486174022.90241 | 79/7FA63D40              |          521832643904

 2017-02-04 03:07:03.962931+01 | 1486174023.96293 | 79/80F00140              |          521854255424

 2017-02-04 03:07:05.041725+01 | 1486174025.04172 | 79/82266478              |          521874596984

 2017-02-04 03:07:06.118727+01 | 1486174026.11873 | 79/836CD6A8              |          521895990952

 2017-02-04 03:07:07.197745+01 | 1486174027.19775 | 79/84AC2C90              |          521916918928

 2017-02-04 03:07:08.282451+01 | 1486174028.28245 | 79/85D78510              |          521936536848

 2017-02-04 03:07:09.3665+01 | 1486174029.3665 | 79/871913D8              |          521957610456

 2017-02-04 03:07:10.453223+01 | 1486174030.45322 | 79/885E3A80              |          521978919552

 2017-02-04 03:07:11.518893+01 | 1486174031.51889 | 79/89A8E228              |          522000589352

 2017-02-04 03:07:12.591102+01 | 1486174032.5911 | 79/8AD3C180              |          522020176256

 2017-02-04 03:07:13.66977+01 | 1486174033.66977 | 79/8C07C110              |          522040361232

 2017-02-04 03:07:14.749446+01 | 1486174034.74945 | 79/8D53C680              |          522062120576

 2017-02-04 03:07:15.831777+01 | 1486174035.83178 | 79/8E81F080              |          522081923200

 2017-02-04 03:07:16.908233+01 | 1486174036.90823 | 79/8FA2DB68              |          522100857704

 2017-02-04 03:07:17.989451+01 | 1486174037.98945 | 79/90CA7150              |          522120229200

 2017-02-04 03:07:19.067255+01 | 1486174039.06726 | 79/92098F18              |          522141142808

 2017-02-04 03:07:20.133488+01 | 1486174040.13349 | 79/93499498              |          522162115736

 2017-02-04 03:07:21.191912+01 | 1486174041.19191 | 79/948832A8              |          522182996648

 2017-02-04 03:07:22.2677+01 | 1486174042.2677 | 79/95CCF470              |          522204279920

 2017-02-04 03:07:23.35175+01 | 1486174043.35175 | 79/9765E260              |          522231079520

 2017-02-04 03:07:24.433822+01 | 1486174044.43382 | 79/991C9840              |          522259830848

 2017-02-04 03:07:25.524289+01 | 1486174045.52429 | 79/9ADD93A8              |          522289255336

 2017-02-04 03:07:26.613082+01 | 1486174046.61308 | 79/9C4DE750              |          522313394000

 2017-02-04 03:07:27.697179+01 | 1486174047.69718 | 79/9DB2EAC0              |          522336791232

 2017-02-04 03:07:28.784316+01 | 1486174048.78432 | 79/9F69B758              |          522365548376

 2017-02-04 03:07:29.883089+01 | 1486174049.88309 | 79/A12DD628              |          522395178536

 2017-02-04 03:07:30.963318+01 | 1486174050.96332 | 79/A319F808              |          522427430920

 2017-02-04 03:07:32.033829+01 | 1486174052.03383 | 79/A55FB800              |          522465556480

 2017-02-04 03:07:33.117274+01 | 1486174053.11727 | 79/A7CA38B8              |          522506090680

 2017-02-04 03:07:34.202637+01 | 1486174054.20264 | 79/A960CFF8              |          522532737016

 2017-02-04 03:07:35.287616+01 | 1486174055.28762 | 79/AAA74AF0              |          522554133232

 2017-02-04 03:07:36.370078+01 | 1486174056.37008 | 79/ABE9DF80              |          522575273856

 2017-02-04 03:07:37.458092+01 | 1486174057.45809 | 79/AD2190E0              |          522595700960

 2017-02-04 03:07:38.537727+01 | 1486174058.53773 | 79/AE6DE958              |          522617481560

 2017-02-04 03:07:39.606292+01 | 1486174059.60629 | 79/AFA3DF30              |          522637795120

 2017-02-04 03:07:40.675099+01 | 1486174060.6751 | 79/B0CC2C70              |          522657213552

 2017-02-04 03:07:41.745482+01 | 1486174061.74548 | 79/B1F29CA8              |          522676509864

 2017-02-04 03:07:42.825231+01 | 1486174062.82523 | 79/B30EF670              |          522695145072

 2017-02-04 03:07:43.911038+01 | 1486174063.91104 | 79/B40A2670              |          522711606896

 2017-02-04 03:07:44.977046+01 | 1486174064.97705 | 79/B4E0D968              |          522725677416

 2017-02-04 03:07:46.048704+01 | 1486174066.0487 | 79/B5C4B830              |          522740611120

 2017-02-04 03:07:47.124667+01 | 1486174067.12467 | 79/B6D3A630              |          522758366768

 2017-02-04 03:07:48.192929+01 | 1486174068.19293 | 79/B7F0DF38              |          522777059128

 2017-02-04 03:07:49.267027+01 | 1486174069.26703 | 79/B90DA7A8              |          522795722664

 2017-02-04 03:07:50.35687+01 | 1486174070.35687 | 79/BA2F1C48              |          522814692424

 2017-02-04 03:07:51.45064+01 | 1486174071.45064 | 79/BB4D1D68              |          522833436008

 2017-02-04 03:07:52.534936+01 | 1486174072.53494 | 79/BC302D68              |          522848316776

 2017-02-04 03:07:53.615663+01 | 1486174073.61566 | 79/BD119F50              |          522863091536

 2017-02-04 03:07:54.695469+01 | 1486174074.69547 | 79/BE1DC320              |          522880664352

 2017-02-04 03:07:55.781785+01 | 1486174075.78179 | 79/BF4E0B50              |          522900605776

 2017-02-04 03:07:56.87082+01 | 1486174076.87082 | 79/C0647BA8              |          522918853544

 2017-02-04 03:07:57.95573+01 | 1486174077.95573 | 79/C17EC5F0              |          522937353712

 2017-02-04 03:07:59.039625+01 | 1486174079.03962 | 79/C2933AE0              |          522955471584

 2017-02-04 03:08:00.120506+01 | 1486174080.12051 | 79/C3AD4C98              |          522973957272

 2017-02-04 03:08:01.208429+01 | 1486174081.20843 | 79/C4C21E70              |          522992098928

 2017-02-04 03:08:02.286071+01 | 1486174082.28607 | 79/C5F00320              |          523011883808

 2017-02-04 03:08:03.358944+01 | 1486174083.35894 | 79/C7001428              |          523029713960

 2017-02-04 03:08:04.442678+01 | 1486174084.44268 | 79/C80270D0              |          523046645968

 2017-02-04 03:08:05.53256+01 | 1486174085.53256 | 79/C91835F0              |          523064849904

 2017-02-04 03:08:06.615623+01 | 1486174086.61562 | 79/CA2B6750              |          523082884944

 2017-02-04 03:08:07.700817+01 | 1486174087.70082 | 79/CB3D6CE0              |          523100856256

 2017-02-04 03:08:08.801121+01 | 1486174088.80112 | 79/CC64CDC0              |          523120201152

 2017-02-04 03:08:09.865778+01 | 1486174089.86578 | 79/CD668978              |          523137091960

 2017-02-04 03:08:10.946294+01 | 1486174090.94629 | 79/CE6D1498              |          523154298008

 2017-02-04 03:08:12.034796+01 | 1486174092.0348 | 79/CF780A50              |          523171793488

 2017-02-04 03:08:13.117014+01 | 1486174093.11701 | 79/D0762378              |          523188446072

 2017-02-04 03:08:14.194007+01 | 1486174094.19401 | 79/D1765C88              |          523205237896

 2017-02-04 03:08:15.284286+01 | 1486174095.28429 | 79/D295CE38              |          523224075832

 2017-02-04 03:08:16.348386+01 | 1486174096.34839 | 79/D3943738              |          523240748856

 2017-02-04 03:08:17.427617+01 | 1486174097.42762 | 79/D490F9E0              |          523257313760

 2017-02-04 03:08:18.506507+01 | 1486174098.50651 | 79/D59F09D0              |          523275012560

 2017-02-04 03:08:19.592141+01 | 1486174099.59214 | 79/D6AA1A88              |          523292514952

 2017-02-04 03:08:20.677408+01 | 1486174100.67741 | 79/D7D2CC28              |          523311959080

 2017-02-04 03:08:21.748433+01 | 1486174101.74843 | 79/D8E417F8              |          523329869816

 2017-02-04 03:08:22.830674+01 | 1486174102.83067 | 79/DA1C3D68              |          523350326632

 2017-02-04 03:08:23.92655+01 | 1486174103.92655 | 79/DBA35FE0              |          523375960032

 2017-02-04 03:08:25.013693+01 | 1486174105.01369 | 79/DD61FEA0              |          523405229728

 2017-02-04 03:08:26.089459+01 | 1486174106.08946 | 79/DF1378D8              |          523433638104

 2017-02-04 03:08:27.170227+01 | 1486174107.17023 | 79/E0DCA0F0              |          523463598320

 2017-02-04 03:08:28.252404+01 | 1486174108.2524 | 79/E2B2B060              |          523494404192

 2017-02-04 03:08:29.331141+01 | 1486174109.33114 | 79/E4E4FC88              |          523531254920

