 2017-02-04 21:26:21.394902+01 | 1486239981.3949 | pgbench_branches_pkey |          1318912
 2017-02-04 21:26:21.394902+01 | 1486239981.3949 | pgbench_tellers_pkey  |          3629056
 2017-02-04 21:26:21.394902+01 | 1486239981.3949 | pgbench_accounts_pkey |       2246197248

 2017-02-04 21:26:22.485001+01 | 1486239982.485 | pgbench_branches_pkey |          1318912
 2017-02-04 21:26:22.485001+01 | 1486239982.485 | pgbench_tellers_pkey  |          3629056
 2017-02-04 21:26:22.485001+01 | 1486239982.485 | pgbench_accounts_pkey |       2246197248

 2017-02-04 21:26:23.56403+01 | 1486239983.56403 | pgbench_branches_pkey |          1318912
 2017-02-04 21:26:23.56403+01 | 1486239983.56403 | pgbench_tellers_pkey  |          3629056
 2017-02-04 21:26:23.56403+01 | 1486239983.56403 | pgbench_accounts_pkey |       2246197248

 2017-02-04 21:26:24.651151+01 | 1486239984.65115 | pgbench_branches_pkey |          1318912
 2017-02-04 21:26:24.651151+01 | 1486239984.65115 | pgbench_tellers_pkey  |          3629056
 2017-02-04 21:26:24.651151+01 | 1486239984.65115 | pgbench_accounts_pkey |       2246197248

 2017-02-04 21:26:25.72658+01 | 1486239985.72658 | pgbench_branches_pkey |          1318912
 2017-02-04 21:26:25.72658+01 | 1486239985.72658 | pgbench_tellers_pkey  |          3629056
 2017-02-04 21:26:25.72658+01 | 1486239985.72658 | pgbench_accounts_pkey |       2246197248

 2017-02-04 21:26:26.803334+01 | 1486239986.80333 | pgbench_branches_pkey |          1318912
 2017-02-04 21:26:26.803334+01 | 1486239986.80333 | pgbench_tellers_pkey  |          3629056
 2017-02-04 21:26:26.803334+01 | 1486239986.80333 | pgbench_accounts_pkey |       2246197248

 2017-02-04 21:26:27.887225+01 | 1486239987.88722 | pgbench_branches_pkey |          1318912
 2017-02-04 21:26:27.887225+01 | 1486239987.88722 | pgbench_tellers_pkey  |          3629056
 2017-02-04 21:26:27.887225+01 | 1486239987.88722 | pgbench_accounts_pkey |       2246197248

 2017-02-04 21:26:28.974728+01 | 1486239988.97473 | pgbench_branches_pkey |          1318912
 2017-02-04 21:26:28.974728+01 | 1486239988.97473 | pgbench_tellers_pkey  |          3629056
 2017-02-04 21:26:28.974728+01 | 1486239988.97473 | pgbench_accounts_pkey |       2246197248

 2017-02-04 21:26:30.049928+01 | 1486239990.04993 | pgbench_branches_pkey |          1318912
 2017-02-04 21:26:30.049928+01 | 1486239990.04993 | pgbench_tellers_pkey  |          3629056
 2017-02-04 21:26:30.049928+01 | 1486239990.04993 | pgbench_accounts_pkey |       2246197248

 2017-02-04 21:26:31.132939+01 | 1486239991.13294 | pgbench_branches_pkey |          1318912
 2017-02-04 21:26:31.132939+01 | 1486239991.13294 | pgbench_tellers_pkey  |          3629056
 2017-02-04 21:26:31.132939+01 | 1486239991.13294 | pgbench_accounts_pkey |       2246197248

 2017-02-04 21:26:32.210548+01 | 1486239992.21055 | pgbench_branches_pkey |          1318912
 2017-02-04 21:26:32.210548+01 | 1486239992.21055 | pgbench_tellers_pkey  |          3629056
 2017-02-04 21:26:32.210548+01 | 1486239992.21055 | pgbench_accounts_pkey |       2246197248

 2017-02-04 21:26:33.293895+01 | 1486239993.2939 | pgbench_branches_pkey |          1318912
 2017-02-04 21:26:33.293895+01 | 1486239993.2939 | pgbench_tellers_pkey  |          3629056
 2017-02-04 21:26:33.293895+01 | 1486239993.2939 | pgbench_accounts_pkey |       2246197248

 2017-02-04 21:26:34.370679+01 | 1486239994.37068 | pgbench_branches_pkey |          1318912
 2017-02-04 21:26:34.370679+01 | 1486239994.37068 | pgbench_tellers_pkey  |          3629056
 2017-02-04 21:26:34.370679+01 | 1486239994.37068 | pgbench_accounts_pkey |       2246197248

 2017-02-04 21:26:35.449959+01 | 1486239995.44996 | pgbench_branches_pkey |          1318912
 2017-02-04 21:26:35.449959+01 | 1486239995.44996 | pgbench_tellers_pkey  |          3629056
 2017-02-04 21:26:35.449959+01 | 1486239995.44996 | pgbench_accounts_pkey |       2246197248

 2017-02-04 21:26:36.529912+01 | 1486239996.52991 | pgbench_branches_pkey |          1318912
 2017-02-04 21:26:36.529912+01 | 1486239996.52991 | pgbench_tellers_pkey  |          3629056
 2017-02-04 21:26:36.529912+01 | 1486239996.52991 | pgbench_accounts_pkey |       2246197248

 2017-02-04 21:26:37.612606+01 | 1486239997.61261 | pgbench_branches_pkey |          1318912
 2017-02-04 21:26:37.612606+01 | 1486239997.61261 | pgbench_tellers_pkey  |          3629056
 2017-02-04 21:26:37.612606+01 | 1486239997.61261 | pgbench_accounts_pkey |       2246197248

 2017-02-04 21:26:38.69287+01 | 1486239998.69287 | pgbench_branches_pkey |          1318912
 2017-02-04 21:26:38.69287+01 | 1486239998.69287 | pgbench_tellers_pkey  |          3629056
 2017-02-04 21:26:38.69287+01 | 1486239998.69287 | pgbench_accounts_pkey |       2246197248

 2017-02-04 21:26:39.770098+01 | 1486239999.7701 | pgbench_branches_pkey |          1318912
 2017-02-04 21:26:39.770098+01 | 1486239999.7701 | pgbench_tellers_pkey  |          3629056
 2017-02-04 21:26:39.770098+01 | 1486239999.7701 | pgbench_accounts_pkey |       2246197248

 2017-02-04 21:26:40.848636+01 | 1486240000.84864 | pgbench_branches_pkey |          1318912
 2017-02-04 21:26:40.848636+01 | 1486240000.84864 | pgbench_tellers_pkey  |          3629056
 2017-02-04 21:26:40.848636+01 | 1486240000.84864 | pgbench_accounts_pkey |       2246197248

 2017-02-04 21:26:41.933771+01 | 1486240001.93377 | pgbench_branches_pkey |          1318912
 2017-02-04 21:26:41.933771+01 | 1486240001.93377 | pgbench_tellers_pkey  |          3629056
 2017-02-04 21:26:41.933771+01 | 1486240001.93377 | pgbench_accounts_pkey |       2246197248

 2017-02-04 21:26:43.022248+01 | 1486240003.02225 | pgbench_branches_pkey |          1318912
 2017-02-04 21:26:43.022248+01 | 1486240003.02225 | pgbench_tellers_pkey  |          3629056
 2017-02-04 21:26:43.022248+01 | 1486240003.02225 | pgbench_accounts_pkey |       2246197248

 2017-02-04 21:26:44.106163+01 | 1486240004.10616 | pgbench_branches_pkey |          1318912
 2017-02-04 21:26:44.106163+01 | 1486240004.10616 | pgbench_tellers_pkey  |          3629056
 2017-02-04 21:26:44.106163+01 | 1486240004.10616 | pgbench_accounts_pkey |       2246197248

 2017-02-04 21:26:45.184616+01 | 1486240005.18462 | pgbench_branches_pkey |          1318912
 2017-02-04 21:26:45.184616+01 | 1486240005.18462 | pgbench_tellers_pkey  |          3629056
 2017-02-04 21:26:45.184616+01 | 1486240005.18462 | pgbench_accounts_pkey |       2246197248

 2017-02-04 21:26:46.26474+01 | 1486240006.26474 | pgbench_branches_pkey |          1318912
 2017-02-04 21:26:46.26474+01 | 1486240006.26474 | pgbench_tellers_pkey  |          3629056
 2017-02-04 21:26:46.26474+01 | 1486240006.26474 | pgbench_accounts_pkey |       2246197248

 2017-02-04 21:26:47.340498+01 | 1486240007.3405 | pgbench_branches_pkey |          1318912
 2017-02-04 21:26:47.340498+01 | 1486240007.3405 | pgbench_tellers_pkey  |          3629056
 2017-02-04 21:26:47.340498+01 | 1486240007.3405 | pgbench_accounts_pkey |       2246197248

 2017-02-04 21:26:48.420111+01 | 1486240008.42011 | pgbench_branches_pkey |          1318912
 2017-02-04 21:26:48.420111+01 | 1486240008.42011 | pgbench_tellers_pkey  |          3629056
 2017-02-04 21:26:48.420111+01 | 1486240008.42011 | pgbench_accounts_pkey |       2246197248

 2017-02-04 21:26:49.495655+01 | 1486240009.49566 | pgbench_branches_pkey |          1318912
 2017-02-04 21:26:49.495655+01 | 1486240009.49566 | pgbench_tellers_pkey  |          3629056
 2017-02-04 21:26:49.495655+01 | 1486240009.49566 | pgbench_accounts_pkey |       2246197248

 2017-02-04 21:26:50.572678+01 | 1486240010.57268 | pgbench_branches_pkey |          1318912
 2017-02-04 21:26:50.572678+01 | 1486240010.57268 | pgbench_tellers_pkey  |          3629056
 2017-02-04 21:26:50.572678+01 | 1486240010.57268 | pgbench_accounts_pkey |       2246197248

 2017-02-04 21:26:51.661002+01 | 1486240011.661 | pgbench_branches_pkey |          1318912
 2017-02-04 21:26:51.661002+01 | 1486240011.661 | pgbench_tellers_pkey  |          3629056
 2017-02-04 21:26:51.661002+01 | 1486240011.661 | pgbench_accounts_pkey |       2246197248

 2017-02-04 21:26:52.736405+01 | 1486240012.7364 | pgbench_branches_pkey |          1318912
 2017-02-04 21:26:52.736405+01 | 1486240012.7364 | pgbench_tellers_pkey  |          3629056
 2017-02-04 21:26:52.736405+01 | 1486240012.7364 | pgbench_accounts_pkey |       2246197248

 2017-02-04 21:26:53.81681+01 | 1486240013.81681 | pgbench_branches_pkey |          1318912
 2017-02-04 21:26:53.81681+01 | 1486240013.81681 | pgbench_tellers_pkey  |          3629056
 2017-02-04 21:26:53.81681+01 | 1486240013.81681 | pgbench_accounts_pkey |       2246197248

 2017-02-04 21:26:54.890382+01 | 1486240014.89038 | pgbench_branches_pkey |          1318912
 2017-02-04 21:26:54.890382+01 | 1486240014.89038 | pgbench_tellers_pkey  |          3629056
 2017-02-04 21:26:54.890382+01 | 1486240014.89038 | pgbench_accounts_pkey |       2246197248

 2017-02-04 21:26:55.967198+01 | 1486240015.9672 | pgbench_branches_pkey |          1318912
 2017-02-04 21:26:55.967198+01 | 1486240015.9672 | pgbench_tellers_pkey  |          3629056
 2017-02-04 21:26:55.967198+01 | 1486240015.9672 | pgbench_accounts_pkey |       2246197248

 2017-02-04 21:26:57.038629+01 | 1486240017.03863 | pgbench_branches_pkey |          1318912
 2017-02-04 21:26:57.038629+01 | 1486240017.03863 | pgbench_tellers_pkey  |          3629056
 2017-02-04 21:26:57.038629+01 | 1486240017.03863 | pgbench_accounts_pkey |       2246197248

 2017-02-04 21:26:58.111241+01 | 1486240018.11124 | pgbench_branches_pkey |          1318912
 2017-02-04 21:26:58.111241+01 | 1486240018.11124 | pgbench_tellers_pkey  |          3629056
 2017-02-04 21:26:58.111241+01 | 1486240018.11124 | pgbench_accounts_pkey |       2246197248

 2017-02-04 21:26:59.19264+01 | 1486240019.19264 | pgbench_branches_pkey |          1318912
 2017-02-04 21:26:59.19264+01 | 1486240019.19264 | pgbench_tellers_pkey  |          3629056
 2017-02-04 21:26:59.19264+01 | 1486240019.19264 | pgbench_accounts_pkey |       2246197248

 2017-02-04 21:27:00.275091+01 | 1486240020.27509 | pgbench_branches_pkey |          1318912
 2017-02-04 21:27:00.275091+01 | 1486240020.27509 | pgbench_tellers_pkey  |          3629056
 2017-02-04 21:27:00.275091+01 | 1486240020.27509 | pgbench_accounts_pkey |       2246197248

 2017-02-04 21:27:01.350331+01 | 1486240021.35033 | pgbench_branches_pkey |          1318912
 2017-02-04 21:27:01.350331+01 | 1486240021.35033 | pgbench_tellers_pkey  |          3629056
 2017-02-04 21:27:01.350331+01 | 1486240021.35033 | pgbench_accounts_pkey |       2246197248

 2017-02-04 21:27:02.419577+01 | 1486240022.41958 | pgbench_branches_pkey |          1318912
 2017-02-04 21:27:02.419577+01 | 1486240022.41958 | pgbench_tellers_pkey  |          3629056
 2017-02-04 21:27:02.419577+01 | 1486240022.41958 | pgbench_accounts_pkey |       2246197248

 2017-02-04 21:27:03.492139+01 | 1486240023.49214 | pgbench_branches_pkey |          1318912
 2017-02-04 21:27:03.492139+01 | 1486240023.49214 | pgbench_tellers_pkey  |          3629056
 2017-02-04 21:27:03.492139+01 | 1486240023.49214 | pgbench_accounts_pkey |       2246197248

 2017-02-04 21:27:04.568283+01 | 1486240024.56828 | pgbench_branches_pkey |          1318912
 2017-02-04 21:27:04.568283+01 | 1486240024.56828 | pgbench_tellers_pkey  |          3629056
 2017-02-04 21:27:04.568283+01 | 1486240024.56828 | pgbench_accounts_pkey |       2246197248

 2017-02-04 21:27:05.643557+01 | 1486240025.64356 | pgbench_branches_pkey |          1318912
 2017-02-04 21:27:05.643557+01 | 1486240025.64356 | pgbench_tellers_pkey  |          3629056
 2017-02-04 21:27:05.643557+01 | 1486240025.64356 | pgbench_accounts_pkey |       2246197248

 2017-02-04 21:27:06.721802+01 | 1486240026.7218 | pgbench_branches_pkey |          1318912
 2017-02-04 21:27:06.721802+01 | 1486240026.7218 | pgbench_tellers_pkey  |          3629056
 2017-02-04 21:27:06.721802+01 | 1486240026.7218 | pgbench_accounts_pkey |       2246197248

 2017-02-04 21:27:07.792104+01 | 1486240027.7921 | pgbench_branches_pkey |          1318912
 2017-02-04 21:27:07.792104+01 | 1486240027.7921 | pgbench_tellers_pkey  |          3629056
 2017-02-04 21:27:07.792104+01 | 1486240027.7921 | pgbench_accounts_pkey |       2246197248

 2017-02-04 21:27:08.871729+01 | 1486240028.87173 | pgbench_branches_pkey |          1318912
 2017-02-04 21:27:08.871729+01 | 1486240028.87173 | pgbench_tellers_pkey  |          3629056
 2017-02-04 21:27:08.871729+01 | 1486240028.87173 | pgbench_accounts_pkey |       2246197248

 2017-02-04 21:27:09.944667+01 | 1486240029.94467 | pgbench_branches_pkey |          1318912
 2017-02-04 21:27:09.944667+01 | 1486240029.94467 | pgbench_tellers_pkey  |          3629056
 2017-02-04 21:27:09.944667+01 | 1486240029.94467 | pgbench_accounts_pkey |       2246197248

 2017-02-04 21:27:11.028462+01 | 1486240031.02846 | pgbench_branches_pkey |          1318912
 2017-02-04 21:27:11.028462+01 | 1486240031.02846 | pgbench_tellers_pkey  |          3629056
 2017-02-04 21:27:11.028462+01 | 1486240031.02846 | pgbench_accounts_pkey |       2246197248

 2017-02-04 21:27:12.108144+01 | 1486240032.10814 | pgbench_branches_pkey |          1318912
 2017-02-04 21:27:12.108144+01 | 1486240032.10814 | pgbench_tellers_pkey  |          3629056
 2017-02-04 21:27:12.108144+01 | 1486240032.10814 | pgbench_accounts_pkey |       2246197248

 2017-02-04 21:27:13.18605+01 | 1486240033.18605 | pgbench_branches_pkey |          1318912
 2017-02-04 21:27:13.18605+01 | 1486240033.18605 | pgbench_tellers_pkey  |          3629056
 2017-02-04 21:27:13.18605+01 | 1486240033.18605 | pgbench_accounts_pkey |       2246197248

 2017-02-04 21:27:14.264613+01 | 1486240034.26461 | pgbench_branches_pkey |          1318912
 2017-02-04 21:27:14.264613+01 | 1486240034.26461 | pgbench_tellers_pkey  |          3629056
 2017-02-04 21:27:14.264613+01 | 1486240034.26461 | pgbench_accounts_pkey |       2246197248

 2017-02-04 21:27:15.341603+01 | 1486240035.3416 | pgbench_branches_pkey |          1318912
 2017-02-04 21:27:15.341603+01 | 1486240035.3416 | pgbench_tellers_pkey  |          3629056
 2017-02-04 21:27:15.341603+01 | 1486240035.3416 | pgbench_accounts_pkey |       2246197248

 2017-02-04 21:27:16.416926+01 | 1486240036.41693 | pgbench_branches_pkey |          1318912
 2017-02-04 21:27:16.416926+01 | 1486240036.41693 | pgbench_tellers_pkey  |          3629056
 2017-02-04 21:27:16.416926+01 | 1486240036.41693 | pgbench_accounts_pkey |       2246197248

 2017-02-04 21:27:17.492059+01 | 1486240037.49206 | pgbench_branches_pkey |          1318912
 2017-02-04 21:27:17.492059+01 | 1486240037.49206 | pgbench_tellers_pkey  |          3629056
 2017-02-04 21:27:17.492059+01 | 1486240037.49206 | pgbench_accounts_pkey |       2246197248

 2017-02-04 21:27:18.576902+01 | 1486240038.5769 | pgbench_branches_pkey |          1318912
 2017-02-04 21:27:18.576902+01 | 1486240038.5769 | pgbench_tellers_pkey  |          3629056
 2017-02-04 21:27:18.576902+01 | 1486240038.5769 | pgbench_accounts_pkey |       2246197248

 2017-02-04 21:27:19.660404+01 | 1486240039.6604 | pgbench_branches_pkey |          1318912
 2017-02-04 21:27:19.660404+01 | 1486240039.6604 | pgbench_tellers_pkey  |          3629056
 2017-02-04 21:27:19.660404+01 | 1486240039.6604 | pgbench_accounts_pkey |       2246197248

 2017-02-04 21:27:20.729737+01 | 1486240040.72974 | pgbench_branches_pkey |          1318912
 2017-02-04 21:27:20.729737+01 | 1486240040.72974 | pgbench_tellers_pkey  |          3629056
 2017-02-04 21:27:20.729737+01 | 1486240040.72974 | pgbench_accounts_pkey |       2246197248

 2017-02-04 21:27:21.80735+01 | 1486240041.80735 | pgbench_branches_pkey |          1318912
 2017-02-04 21:27:21.80735+01 | 1486240041.80735 | pgbench_tellers_pkey  |          3629056
 2017-02-04 21:27:21.80735+01 | 1486240041.80735 | pgbench_accounts_pkey |       2246197248

 2017-02-04 21:27:22.887228+01 | 1486240042.88723 | pgbench_branches_pkey |          1318912
 2017-02-04 21:27:22.887228+01 | 1486240042.88723 | pgbench_tellers_pkey  |          3629056
 2017-02-04 21:27:22.887228+01 | 1486240042.88723 | pgbench_accounts_pkey |       2246197248

 2017-02-04 21:27:23.975731+01 | 1486240043.97573 | pgbench_branches_pkey |          1318912
 2017-02-04 21:27:23.975731+01 | 1486240043.97573 | pgbench_tellers_pkey  |          3629056
 2017-02-04 21:27:23.975731+01 | 1486240043.97573 | pgbench_accounts_pkey |       2246197248

 2017-02-04 21:27:25.056021+01 | 1486240045.05602 | pgbench_branches_pkey |          1318912
 2017-02-04 21:27:25.056021+01 | 1486240045.05602 | pgbench_tellers_pkey  |          3629056
 2017-02-04 21:27:25.056021+01 | 1486240045.05602 | pgbench_accounts_pkey |       2246197248

 2017-02-04 21:27:26.143929+01 | 1486240046.14393 | pgbench_branches_pkey |          1318912
 2017-02-04 21:27:26.143929+01 | 1486240046.14393 | pgbench_tellers_pkey  |          3629056
 2017-02-04 21:27:26.143929+01 | 1486240046.14393 | pgbench_accounts_pkey |       2246197248

 2017-02-04 21:27:27.221775+01 | 1486240047.22178 | pgbench_branches_pkey |          1318912
 2017-02-04 21:27:27.221775+01 | 1486240047.22178 | pgbench_tellers_pkey  |          3629056
 2017-02-04 21:27:27.221775+01 | 1486240047.22178 | pgbench_accounts_pkey |       2246197248

 2017-02-04 21:27:28.300953+01 | 1486240048.30095 | pgbench_branches_pkey |          1318912
 2017-02-04 21:27:28.300953+01 | 1486240048.30095 | pgbench_tellers_pkey  |          3629056
 2017-02-04 21:27:28.300953+01 | 1486240048.30095 | pgbench_accounts_pkey |       2246197248

 2017-02-04 21:27:29.378039+01 | 1486240049.37804 | pgbench_branches_pkey |          1318912
 2017-02-04 21:27:29.378039+01 | 1486240049.37804 | pgbench_tellers_pkey  |          3629056
 2017-02-04 21:27:29.378039+01 | 1486240049.37804 | pgbench_accounts_pkey |       2246197248

 2017-02-04 21:27:30.451733+01 | 1486240050.45173 | pgbench_branches_pkey |          1318912
 2017-02-04 21:27:30.451733+01 | 1486240050.45173 | pgbench_tellers_pkey  |          3629056
 2017-02-04 21:27:30.451733+01 | 1486240050.45173 | pgbench_accounts_pkey |       2246197248

 2017-02-04 21:27:31.530438+01 | 1486240051.53044 | pgbench_branches_pkey |          1318912
 2017-02-04 21:27:31.530438+01 | 1486240051.53044 | pgbench_tellers_pkey  |          3629056
 2017-02-04 21:27:31.530438+01 | 1486240051.53044 | pgbench_accounts_pkey |       2246197248

 2017-02-04 21:27:32.606694+01 | 1486240052.60669 | pgbench_branches_pkey |          1318912
 2017-02-04 21:27:32.606694+01 | 1486240052.60669 | pgbench_tellers_pkey  |          3629056
 2017-02-04 21:27:32.606694+01 | 1486240052.60669 | pgbench_accounts_pkey |       2246197248

 2017-02-04 21:27:33.688008+01 | 1486240053.68801 | pgbench_branches_pkey |          1318912
 2017-02-04 21:27:33.688008+01 | 1486240053.68801 | pgbench_tellers_pkey  |          3629056
 2017-02-04 21:27:33.688008+01 | 1486240053.68801 | pgbench_accounts_pkey |       2246197248

 2017-02-04 21:27:34.766469+01 | 1486240054.76647 | pgbench_branches_pkey |          1318912
 2017-02-04 21:27:34.766469+01 | 1486240054.76647 | pgbench_tellers_pkey  |          3629056
 2017-02-04 21:27:34.766469+01 | 1486240054.76647 | pgbench_accounts_pkey |       2246197248

 2017-02-04 21:27:35.849123+01 | 1486240055.84912 | pgbench_branches_pkey |          1318912
 2017-02-04 21:27:35.849123+01 | 1486240055.84912 | pgbench_tellers_pkey  |          3629056
 2017-02-04 21:27:35.849123+01 | 1486240055.84912 | pgbench_accounts_pkey |       2246197248

 2017-02-04 21:27:36.929453+01 | 1486240056.92945 | pgbench_branches_pkey |          1318912
 2017-02-04 21:27:36.929453+01 | 1486240056.92945 | pgbench_tellers_pkey  |          3629056
 2017-02-04 21:27:36.929453+01 | 1486240056.92945 | pgbench_accounts_pkey |       2246197248

 2017-02-04 21:27:38.002377+01 | 1486240058.00238 | pgbench_branches_pkey |          1318912
 2017-02-04 21:27:38.002377+01 | 1486240058.00238 | pgbench_tellers_pkey  |          3629056
 2017-02-04 21:27:38.002377+01 | 1486240058.00238 | pgbench_accounts_pkey |       2246197248

 2017-02-04 21:27:39.073339+01 | 1486240059.07334 | pgbench_branches_pkey |          1318912
 2017-02-04 21:27:39.073339+01 | 1486240059.07334 | pgbench_tellers_pkey  |          3629056
 2017-02-04 21:27:39.073339+01 | 1486240059.07334 | pgbench_accounts_pkey |       2246197248

 2017-02-04 21:27:40.155196+01 | 1486240060.1552 | pgbench_branches_pkey |          1318912
 2017-02-04 21:27:40.155196+01 | 1486240060.1552 | pgbench_tellers_pkey  |          3629056
 2017-02-04 21:27:40.155196+01 | 1486240060.1552 | pgbench_accounts_pkey |       2246197248

 2017-02-04 21:27:41.231149+01 | 1486240061.23115 | pgbench_branches_pkey |          1318912
 2017-02-04 21:27:41.231149+01 | 1486240061.23115 | pgbench_tellers_pkey  |          3629056
 2017-02-04 21:27:41.231149+01 | 1486240061.23115 | pgbench_accounts_pkey |       2246197248

 2017-02-04 21:27:42.309977+01 | 1486240062.30998 | pgbench_branches_pkey |          1318912
 2017-02-04 21:27:42.309977+01 | 1486240062.30998 | pgbench_tellers_pkey  |          3629056
 2017-02-04 21:27:42.309977+01 | 1486240062.30998 | pgbench_accounts_pkey |       2246197248

 2017-02-04 21:27:43.380708+01 | 1486240063.38071 | pgbench_branches_pkey |          1318912
 2017-02-04 21:27:43.380708+01 | 1486240063.38071 | pgbench_tellers_pkey  |          3629056
 2017-02-04 21:27:43.380708+01 | 1486240063.38071 | pgbench_accounts_pkey |       2246197248

 2017-02-04 21:27:44.449375+01 | 1486240064.44937 | pgbench_branches_pkey |          1318912
 2017-02-04 21:27:44.449375+01 | 1486240064.44937 | pgbench_tellers_pkey  |          3629056
 2017-02-04 21:27:44.449375+01 | 1486240064.44937 | pgbench_accounts_pkey |       2246197248

 2017-02-04 21:27:45.528259+01 | 1486240065.52826 | pgbench_branches_pkey |          1318912
 2017-02-04 21:27:45.528259+01 | 1486240065.52826 | pgbench_tellers_pkey  |          3629056
 2017-02-04 21:27:45.528259+01 | 1486240065.52826 | pgbench_accounts_pkey |       2246197248

 2017-02-04 21:27:46.603415+01 | 1486240066.60342 | pgbench_branches_pkey |          1318912
 2017-02-04 21:27:46.603415+01 | 1486240066.60342 | pgbench_tellers_pkey  |          3629056
 2017-02-04 21:27:46.603415+01 | 1486240066.60342 | pgbench_accounts_pkey |       2246197248

 2017-02-04 21:27:47.673428+01 | 1486240067.67343 | pgbench_branches_pkey |          1318912
 2017-02-04 21:27:47.673428+01 | 1486240067.67343 | pgbench_tellers_pkey  |          3629056
 2017-02-04 21:27:47.673428+01 | 1486240067.67343 | pgbench_accounts_pkey |       2246197248

 2017-02-04 21:27:48.753653+01 | 1486240068.75365 | pgbench_branches_pkey |          1318912
 2017-02-04 21:27:48.753653+01 | 1486240068.75365 | pgbench_tellers_pkey  |          3629056
 2017-02-04 21:27:48.753653+01 | 1486240068.75365 | pgbench_accounts_pkey |       2246197248

 2017-02-04 21:27:49.832147+01 | 1486240069.83215 | pgbench_branches_pkey |          1318912
 2017-02-04 21:27:49.832147+01 | 1486240069.83215 | pgbench_tellers_pkey  |          3629056
 2017-02-04 21:27:49.832147+01 | 1486240069.83215 | pgbench_accounts_pkey |       2246197248

 2017-02-04 21:27:50.913183+01 | 1486240070.91318 | pgbench_branches_pkey |          1318912
 2017-02-04 21:27:50.913183+01 | 1486240070.91318 | pgbench_tellers_pkey  |          3629056
 2017-02-04 21:27:50.913183+01 | 1486240070.91318 | pgbench_accounts_pkey |       2246197248

 2017-02-04 21:27:51.990197+01 | 1486240071.9902 | pgbench_branches_pkey |          1318912
 2017-02-04 21:27:51.990197+01 | 1486240071.9902 | pgbench_tellers_pkey  |          3629056
 2017-02-04 21:27:51.990197+01 | 1486240071.9902 | pgbench_accounts_pkey |       2246197248

 2017-02-04 21:27:53.071527+01 | 1486240073.07153 | pgbench_branches_pkey |          1318912
 2017-02-04 21:27:53.071527+01 | 1486240073.07153 | pgbench_tellers_pkey  |          3629056
 2017-02-04 21:27:53.071527+01 | 1486240073.07153 | pgbench_accounts_pkey |       2246197248

 2017-02-04 21:27:54.147977+01 | 1486240074.14798 | pgbench_branches_pkey |          1318912
 2017-02-04 21:27:54.147977+01 | 1486240074.14798 | pgbench_tellers_pkey  |          3629056
 2017-02-04 21:27:54.147977+01 | 1486240074.14798 | pgbench_accounts_pkey |       2246197248

 2017-02-04 21:27:55.222182+01 | 1486240075.22218 | pgbench_branches_pkey |          1318912
 2017-02-04 21:27:55.222182+01 | 1486240075.22218 | pgbench_tellers_pkey  |          3629056
 2017-02-04 21:27:55.222182+01 | 1486240075.22218 | pgbench_accounts_pkey |       2246197248

 2017-02-04 21:27:56.302657+01 | 1486240076.30266 | pgbench_branches_pkey |          1318912
 2017-02-04 21:27:56.302657+01 | 1486240076.30266 | pgbench_tellers_pkey  |          3629056
 2017-02-04 21:27:56.302657+01 | 1486240076.30266 | pgbench_accounts_pkey |       2246197248

 2017-02-04 21:27:57.388093+01 | 1486240077.38809 | pgbench_branches_pkey |          1318912
 2017-02-04 21:27:57.388093+01 | 1486240077.38809 | pgbench_tellers_pkey  |          3629056
 2017-02-04 21:27:57.388093+01 | 1486240077.38809 | pgbench_accounts_pkey |       2246197248

 2017-02-04 21:27:58.466477+01 | 1486240078.46648 | pgbench_branches_pkey |          1318912
 2017-02-04 21:27:58.466477+01 | 1486240078.46648 | pgbench_tellers_pkey  |          3629056
 2017-02-04 21:27:58.466477+01 | 1486240078.46648 | pgbench_accounts_pkey |       2246197248

 2017-02-04 21:27:59.54328+01 | 1486240079.54328 | pgbench_branches_pkey |          1318912
 2017-02-04 21:27:59.54328+01 | 1486240079.54328 | pgbench_tellers_pkey  |          3629056
 2017-02-04 21:27:59.54328+01 | 1486240079.54328 | pgbench_accounts_pkey |       2246197248

 2017-02-04 21:28:00.619016+01 | 1486240080.61902 | pgbench_branches_pkey |          1318912
 2017-02-04 21:28:00.619016+01 | 1486240080.61902 | pgbench_tellers_pkey  |          3629056
 2017-02-04 21:28:00.619016+01 | 1486240080.61902 | pgbench_accounts_pkey |       2246197248

 2017-02-04 21:28:01.692694+01 | 1486240081.69269 | pgbench_branches_pkey |          1318912
 2017-02-04 21:28:01.692694+01 | 1486240081.69269 | pgbench_tellers_pkey  |          3629056
 2017-02-04 21:28:01.692694+01 | 1486240081.69269 | pgbench_accounts_pkey |       2246197248

 2017-02-04 21:28:02.770831+01 | 1486240082.77083 | pgbench_branches_pkey |          1318912
 2017-02-04 21:28:02.770831+01 | 1486240082.77083 | pgbench_tellers_pkey  |          3629056
 2017-02-04 21:28:02.770831+01 | 1486240082.77083 | pgbench_accounts_pkey |       2246197248

 2017-02-04 21:28:03.839724+01 | 1486240083.83972 | pgbench_branches_pkey |          1318912
 2017-02-04 21:28:03.839724+01 | 1486240083.83972 | pgbench_tellers_pkey  |          3629056
 2017-02-04 21:28:03.839724+01 | 1486240083.83972 | pgbench_accounts_pkey |       2246197248

 2017-02-04 21:28:04.909604+01 | 1486240084.9096 | pgbench_branches_pkey |          1318912
 2017-02-04 21:28:04.909604+01 | 1486240084.9096 | pgbench_tellers_pkey  |          3629056
 2017-02-04 21:28:04.909604+01 | 1486240084.9096 | pgbench_accounts_pkey |       2246197248

 2017-02-04 21:28:05.983688+01 | 1486240085.98369 | pgbench_branches_pkey |          1318912
 2017-02-04 21:28:05.983688+01 | 1486240085.98369 | pgbench_tellers_pkey  |          3629056
 2017-02-04 21:28:05.983688+01 | 1486240085.98369 | pgbench_accounts_pkey |       2246197248

 2017-02-04 21:28:07.062398+01 | 1486240087.0624 | pgbench_branches_pkey |          1318912
 2017-02-04 21:28:07.062398+01 | 1486240087.0624 | pgbench_tellers_pkey  |          3629056
 2017-02-04 21:28:07.062398+01 | 1486240087.0624 | pgbench_accounts_pkey |       2246197248

 2017-02-04 21:28:08.140499+01 | 1486240088.1405 | pgbench_branches_pkey |          1318912
 2017-02-04 21:28:08.140499+01 | 1486240088.1405 | pgbench_tellers_pkey  |          3629056
 2017-02-04 21:28:08.140499+01 | 1486240088.1405 | pgbench_accounts_pkey |       2246197248

 2017-02-04 21:28:09.217765+01 | 1486240089.21777 | pgbench_branches_pkey |          1318912
 2017-02-04 21:28:09.217765+01 | 1486240089.21777 | pgbench_tellers_pkey  |          3629056
 2017-02-04 21:28:09.217765+01 | 1486240089.21777 | pgbench_accounts_pkey |       2246197248

 2017-02-04 21:28:10.291966+01 | 1486240090.29197 | pgbench_branches_pkey |          1318912
 2017-02-04 21:28:10.291966+01 | 1486240090.29197 | pgbench_tellers_pkey  |          3629056
 2017-02-04 21:28:10.291966+01 | 1486240090.29197 | pgbench_accounts_pkey |       2246197248

 2017-02-04 21:28:11.367186+01 | 1486240091.36719 | pgbench_branches_pkey |          1318912
 2017-02-04 21:28:11.367186+01 | 1486240091.36719 | pgbench_tellers_pkey  |          3629056
 2017-02-04 21:28:11.367186+01 | 1486240091.36719 | pgbench_accounts_pkey |       2246197248

 2017-02-04 21:28:12.448321+01 | 1486240092.44832 | pgbench_branches_pkey |          1318912
 2017-02-04 21:28:12.448321+01 | 1486240092.44832 | pgbench_tellers_pkey  |          3629056
 2017-02-04 21:28:12.448321+01 | 1486240092.44832 | pgbench_accounts_pkey |       2246197248

 2017-02-04 21:28:13.531281+01 | 1486240093.53128 | pgbench_branches_pkey |          1318912
 2017-02-04 21:28:13.531281+01 | 1486240093.53128 | pgbench_tellers_pkey  |          3629056
 2017-02-04 21:28:13.531281+01 | 1486240093.53128 | pgbench_accounts_pkey |       2246197248

 2017-02-04 21:28:14.6034+01 | 1486240094.6034 | pgbench_branches_pkey |          1318912
 2017-02-04 21:28:14.6034+01 | 1486240094.6034 | pgbench_tellers_pkey  |          3629056
 2017-02-04 21:28:14.6034+01 | 1486240094.6034 | pgbench_accounts_pkey |       2246197248

 2017-02-04 21:28:15.68989+01 | 1486240095.68989 | pgbench_branches_pkey |          1318912
 2017-02-04 21:28:15.68989+01 | 1486240095.68989 | pgbench_tellers_pkey  |          3629056
 2017-02-04 21:28:15.68989+01 | 1486240095.68989 | pgbench_accounts_pkey |       2246197248

 2017-02-04 21:28:16.767244+01 | 1486240096.76724 | pgbench_branches_pkey |          1318912
 2017-02-04 21:28:16.767244+01 | 1486240096.76724 | pgbench_tellers_pkey  |          3629056
 2017-02-04 21:28:16.767244+01 | 1486240096.76724 | pgbench_accounts_pkey |       2246197248

 2017-02-04 21:28:17.841827+01 | 1486240097.84183 | pgbench_branches_pkey |          1318912
 2017-02-04 21:28:17.841827+01 | 1486240097.84183 | pgbench_tellers_pkey  |          3629056
 2017-02-04 21:28:17.841827+01 | 1486240097.84183 | pgbench_accounts_pkey |       2246197248

 2017-02-04 21:28:18.912263+01 | 1486240098.91226 | pgbench_branches_pkey |          1318912
 2017-02-04 21:28:18.912263+01 | 1486240098.91226 | pgbench_tellers_pkey  |          3629056
 2017-02-04 21:28:18.912263+01 | 1486240098.91226 | pgbench_accounts_pkey |       2246197248

 2017-02-04 21:28:19.9907+01 | 1486240099.9907 | pgbench_branches_pkey |          1318912
 2017-02-04 21:28:19.9907+01 | 1486240099.9907 | pgbench_tellers_pkey  |          3629056
 2017-02-04 21:28:19.9907+01 | 1486240099.9907 | pgbench_accounts_pkey |       2246197248

 2017-02-04 21:28:21.050988+01 | 1486240101.05099 | pgbench_branches_pkey |          1318912
 2017-02-04 21:28:21.050988+01 | 1486240101.05099 | pgbench_tellers_pkey  |          3629056
 2017-02-04 21:28:21.050988+01 | 1486240101.05099 | pgbench_accounts_pkey |       2246197248

 2017-02-04 21:28:22.120598+01 | 1486240102.1206 | pgbench_branches_pkey |          1318912
 2017-02-04 21:28:22.120598+01 | 1486240102.1206 | pgbench_tellers_pkey  |          3629056
 2017-02-04 21:28:22.120598+01 | 1486240102.1206 | pgbench_accounts_pkey |       2246197248

 2017-02-04 21:28:23.201099+01 | 1486240103.2011 | pgbench_branches_pkey |          1318912
 2017-02-04 21:28:23.201099+01 | 1486240103.2011 | pgbench_tellers_pkey  |          3629056
 2017-02-04 21:28:23.201099+01 | 1486240103.2011 | pgbench_accounts_pkey |       2246197248

 2017-02-04 21:28:24.285397+01 | 1486240104.2854 | pgbench_branches_pkey |          1318912
 2017-02-04 21:28:24.285397+01 | 1486240104.2854 | pgbench_tellers_pkey  |          3629056
 2017-02-04 21:28:24.285397+01 | 1486240104.2854 | pgbench_accounts_pkey |       2246197248

 2017-02-04 21:28:25.35775+01 | 1486240105.35775 | pgbench_branches_pkey |          1318912
 2017-02-04 21:28:25.35775+01 | 1486240105.35775 | pgbench_tellers_pkey  |          3629056
 2017-02-04 21:28:25.35775+01 | 1486240105.35775 | pgbench_accounts_pkey |       2246197248

 2017-02-04 21:28:26.434825+01 | 1486240106.43482 | pgbench_branches_pkey |          1318912
 2017-02-04 21:28:26.434825+01 | 1486240106.43482 | pgbench_tellers_pkey  |          3629056
 2017-02-04 21:28:26.434825+01 | 1486240106.43482 | pgbench_accounts_pkey |       2246197248

 2017-02-04 21:28:27.513773+01 | 1486240107.51377 | pgbench_branches_pkey |          1318912
 2017-02-04 21:28:27.513773+01 | 1486240107.51377 | pgbench_tellers_pkey  |          3629056
 2017-02-04 21:28:27.513773+01 | 1486240107.51377 | pgbench_accounts_pkey |       2246197248

 2017-02-04 21:28:28.594175+01 | 1486240108.59418 | pgbench_branches_pkey |          1318912
 2017-02-04 21:28:28.594175+01 | 1486240108.59418 | pgbench_tellers_pkey  |          3629056
 2017-02-04 21:28:28.594175+01 | 1486240108.59418 | pgbench_accounts_pkey |       2246197248

 2017-02-04 21:28:29.673195+01 | 1486240109.67319 | pgbench_branches_pkey |          1318912
 2017-02-04 21:28:29.673195+01 | 1486240109.67319 | pgbench_tellers_pkey  |          3629056
 2017-02-04 21:28:29.673195+01 | 1486240109.67319 | pgbench_accounts_pkey |       2246197248

 2017-02-04 21:28:30.75197+01 | 1486240110.75197 | pgbench_branches_pkey |          1318912
 2017-02-04 21:28:30.75197+01 | 1486240110.75197 | pgbench_tellers_pkey  |          3629056
 2017-02-04 21:28:30.75197+01 | 1486240110.75197 | pgbench_accounts_pkey |       2246197248

 2017-02-04 21:28:31.830275+01 | 1486240111.83028 | pgbench_branches_pkey |          1318912
 2017-02-04 21:28:31.830275+01 | 1486240111.83028 | pgbench_tellers_pkey  |          3629056
 2017-02-04 21:28:31.830275+01 | 1486240111.83028 | pgbench_accounts_pkey |       2246197248

 2017-02-04 21:28:32.908333+01 | 1486240112.90833 | pgbench_branches_pkey |          1318912
 2017-02-04 21:28:32.908333+01 | 1486240112.90833 | pgbench_tellers_pkey  |          3629056
 2017-02-04 21:28:32.908333+01 | 1486240112.90833 | pgbench_accounts_pkey |       2246197248

 2017-02-04 21:28:33.98528+01 | 1486240113.98528 | pgbench_branches_pkey |          1318912
 2017-02-04 21:28:33.98528+01 | 1486240113.98528 | pgbench_tellers_pkey  |          3629056
 2017-02-04 21:28:33.98528+01 | 1486240113.98528 | pgbench_accounts_pkey |       2246197248

 2017-02-04 21:28:35.06488+01 | 1486240115.06488 | pgbench_branches_pkey |          1318912
 2017-02-04 21:28:35.06488+01 | 1486240115.06488 | pgbench_tellers_pkey  |          3629056
 2017-02-04 21:28:35.06488+01 | 1486240115.06488 | pgbench_accounts_pkey |       2246197248

 2017-02-04 21:28:36.138261+01 | 1486240116.13826 | pgbench_branches_pkey |          1318912
 2017-02-04 21:28:36.138261+01 | 1486240116.13826 | pgbench_tellers_pkey  |          3629056
 2017-02-04 21:28:36.138261+01 | 1486240116.13826 | pgbench_accounts_pkey |       2246197248

 2017-02-04 21:28:37.21609+01 | 1486240117.21609 | pgbench_branches_pkey |          1318912
 2017-02-04 21:28:37.21609+01 | 1486240117.21609 | pgbench_tellers_pkey  |          3629056
 2017-02-04 21:28:37.21609+01 | 1486240117.21609 | pgbench_accounts_pkey |       2246197248

 2017-02-04 21:28:38.295636+01 | 1486240118.29564 | pgbench_branches_pkey |          1318912
 2017-02-04 21:28:38.295636+01 | 1486240118.29564 | pgbench_tellers_pkey  |          3629056
 2017-02-04 21:28:38.295636+01 | 1486240118.29564 | pgbench_accounts_pkey |       2246197248

 2017-02-04 21:28:39.376275+01 | 1486240119.37628 | pgbench_branches_pkey |          1318912
 2017-02-04 21:28:39.376275+01 | 1486240119.37628 | pgbench_tellers_pkey  |          3629056
 2017-02-04 21:28:39.376275+01 | 1486240119.37628 | pgbench_accounts_pkey |       2246197248

 2017-02-04 21:28:40.453196+01 | 1486240120.4532 | pgbench_branches_pkey |          1318912
 2017-02-04 21:28:40.453196+01 | 1486240120.4532 | pgbench_tellers_pkey  |          3629056
 2017-02-04 21:28:40.453196+01 | 1486240120.4532 | pgbench_accounts_pkey |       2246197248

 2017-02-04 21:28:41.530458+01 | 1486240121.53046 | pgbench_branches_pkey |          1318912
 2017-02-04 21:28:41.530458+01 | 1486240121.53046 | pgbench_tellers_pkey  |          3629056
 2017-02-04 21:28:41.530458+01 | 1486240121.53046 | pgbench_accounts_pkey |       2246197248

 2017-02-04 21:28:42.611513+01 | 1486240122.61151 | pgbench_branches_pkey |          1318912
 2017-02-04 21:28:42.611513+01 | 1486240122.61151 | pgbench_tellers_pkey  |          3629056
 2017-02-04 21:28:42.611513+01 | 1486240122.61151 | pgbench_accounts_pkey |       2246197248

 2017-02-04 21:28:43.684591+01 | 1486240123.68459 | pgbench_branches_pkey |          1318912
 2017-02-04 21:28:43.684591+01 | 1486240123.68459 | pgbench_tellers_pkey  |          3629056
 2017-02-04 21:28:43.684591+01 | 1486240123.68459 | pgbench_accounts_pkey |       2246197248

 2017-02-04 21:28:44.769697+01 | 1486240124.7697 | pgbench_branches_pkey |          1318912
 2017-02-04 21:28:44.769697+01 | 1486240124.7697 | pgbench_tellers_pkey  |          3629056
 2017-02-04 21:28:44.769697+01 | 1486240124.7697 | pgbench_accounts_pkey |       2246197248

 2017-02-04 21:28:45.849039+01 | 1486240125.84904 | pgbench_branches_pkey |          1318912
 2017-02-04 21:28:45.849039+01 | 1486240125.84904 | pgbench_tellers_pkey  |          3629056
 2017-02-04 21:28:45.849039+01 | 1486240125.84904 | pgbench_accounts_pkey |       2246197248

 2017-02-04 21:28:46.92301+01 | 1486240126.92301 | pgbench_branches_pkey |          1318912
 2017-02-04 21:28:46.92301+01 | 1486240126.92301 | pgbench_tellers_pkey  |          3629056
 2017-02-04 21:28:46.92301+01 | 1486240126.92301 | pgbench_accounts_pkey |       2246197248

 2017-02-04 21:28:48.010246+01 | 1486240128.01025 | pgbench_branches_pkey |          1318912
 2017-02-04 21:28:48.010246+01 | 1486240128.01025 | pgbench_tellers_pkey  |          3629056
 2017-02-04 21:28:48.010246+01 | 1486240128.01025 | pgbench_accounts_pkey |       2246197248

 2017-02-04 21:28:49.088298+01 | 1486240129.0883 | pgbench_branches_pkey |          1318912
 2017-02-04 21:28:49.088298+01 | 1486240129.0883 | pgbench_tellers_pkey  |          3629056
 2017-02-04 21:28:49.088298+01 | 1486240129.0883 | pgbench_accounts_pkey |       2246197248

 2017-02-04 21:28:50.164208+01 | 1486240130.16421 | pgbench_branches_pkey |          1318912
 2017-02-04 21:28:50.164208+01 | 1486240130.16421 | pgbench_tellers_pkey  |          3629056
 2017-02-04 21:28:50.164208+01 | 1486240130.16421 | pgbench_accounts_pkey |       2246197248

 2017-02-04 21:28:51.239998+01 | 1486240131.24 | pgbench_branches_pkey |          1318912
 2017-02-04 21:28:51.239998+01 | 1486240131.24 | pgbench_tellers_pkey  |          3629056
 2017-02-04 21:28:51.239998+01 | 1486240131.24 | pgbench_accounts_pkey |       2246197248

 2017-02-04 21:28:52.324895+01 | 1486240132.32489 | pgbench_branches_pkey |          1318912
 2017-02-04 21:28:52.324895+01 | 1486240132.32489 | pgbench_tellers_pkey  |          3629056
 2017-02-04 21:28:52.324895+01 | 1486240132.32489 | pgbench_accounts_pkey |       2246197248

 2017-02-04 21:28:53.400263+01 | 1486240133.40026 | pgbench_branches_pkey |          1318912
 2017-02-04 21:28:53.400263+01 | 1486240133.40026 | pgbench_tellers_pkey  |          3629056
 2017-02-04 21:28:53.400263+01 | 1486240133.40026 | pgbench_accounts_pkey |       2246197248

 2017-02-04 21:28:54.479626+01 | 1486240134.47963 | pgbench_branches_pkey |          1318912
 2017-02-04 21:28:54.479626+01 | 1486240134.47963 | pgbench_tellers_pkey  |          3629056
 2017-02-04 21:28:54.479626+01 | 1486240134.47963 | pgbench_accounts_pkey |       2246197248

 2017-02-04 21:28:55.55381+01 | 1486240135.55381 | pgbench_branches_pkey |          1318912
 2017-02-04 21:28:55.55381+01 | 1486240135.55381 | pgbench_tellers_pkey  |          3629056
 2017-02-04 21:28:55.55381+01 | 1486240135.55381 | pgbench_accounts_pkey |       2246197248

 2017-02-04 21:28:56.635237+01 | 1486240136.63524 | pgbench_branches_pkey |          1318912
 2017-02-04 21:28:56.635237+01 | 1486240136.63524 | pgbench_tellers_pkey  |          3629056
 2017-02-04 21:28:56.635237+01 | 1486240136.63524 | pgbench_accounts_pkey |       2246197248

 2017-02-04 21:28:57.71743+01 | 1486240137.71743 | pgbench_branches_pkey |          1318912
 2017-02-04 21:28:57.71743+01 | 1486240137.71743 | pgbench_tellers_pkey  |          3629056
 2017-02-04 21:28:57.71743+01 | 1486240137.71743 | pgbench_accounts_pkey |       2246197248

 2017-02-04 21:28:58.796232+01 | 1486240138.79623 | pgbench_branches_pkey |          1318912
 2017-02-04 21:28:58.796232+01 | 1486240138.79623 | pgbench_tellers_pkey  |          3629056
 2017-02-04 21:28:58.796232+01 | 1486240138.79623 | pgbench_accounts_pkey |       2246197248

 2017-02-04 21:28:59.867508+01 | 1486240139.86751 | pgbench_branches_pkey |          1318912
 2017-02-04 21:28:59.867508+01 | 1486240139.86751 | pgbench_tellers_pkey  |          3629056
 2017-02-04 21:28:59.867508+01 | 1486240139.86751 | pgbench_accounts_pkey |       2246197248

 2017-02-04 21:29:00.946155+01 | 1486240140.94616 | pgbench_branches_pkey |          1318912
 2017-02-04 21:29:00.946155+01 | 1486240140.94616 | pgbench_tellers_pkey  |          3629056
 2017-02-04 21:29:00.946155+01 | 1486240140.94616 | pgbench_accounts_pkey |       2246197248

 2017-02-04 21:29:02.021083+01 | 1486240142.02108 | pgbench_branches_pkey |          1318912
 2017-02-04 21:29:02.021083+01 | 1486240142.02108 | pgbench_tellers_pkey  |          3629056
 2017-02-04 21:29:02.021083+01 | 1486240142.02108 | pgbench_accounts_pkey |       2246197248

 2017-02-04 21:29:03.096664+01 | 1486240143.09666 | pgbench_branches_pkey |          1318912
 2017-02-04 21:29:03.096664+01 | 1486240143.09666 | pgbench_tellers_pkey  |          3629056
 2017-02-04 21:29:03.096664+01 | 1486240143.09666 | pgbench_accounts_pkey |       2246197248

 2017-02-04 21:29:04.171935+01 | 1486240144.17194 | pgbench_branches_pkey |          1318912
 2017-02-04 21:29:04.171935+01 | 1486240144.17194 | pgbench_tellers_pkey  |          3629056
 2017-02-04 21:29:04.171935+01 | 1486240144.17194 | pgbench_accounts_pkey |       2246197248

 2017-02-04 21:29:05.248531+01 | 1486240145.24853 | pgbench_branches_pkey |          1318912
 2017-02-04 21:29:05.248531+01 | 1486240145.24853 | pgbench_tellers_pkey  |          3629056
 2017-02-04 21:29:05.248531+01 | 1486240145.24853 | pgbench_accounts_pkey |       2246197248

 2017-02-04 21:29:06.322458+01 | 1486240146.32246 | pgbench_branches_pkey |          1318912
 2017-02-04 21:29:06.322458+01 | 1486240146.32246 | pgbench_tellers_pkey  |          3629056
 2017-02-04 21:29:06.322458+01 | 1486240146.32246 | pgbench_accounts_pkey |       2246197248

 2017-02-04 21:29:07.395651+01 | 1486240147.39565 | pgbench_branches_pkey |          1318912
 2017-02-04 21:29:07.395651+01 | 1486240147.39565 | pgbench_tellers_pkey  |          3629056
 2017-02-04 21:29:07.395651+01 | 1486240147.39565 | pgbench_accounts_pkey |       2246197248

 2017-02-04 21:29:08.470131+01 | 1486240148.47013 | pgbench_branches_pkey |          1318912
 2017-02-04 21:29:08.470131+01 | 1486240148.47013 | pgbench_tellers_pkey  |          3629056
 2017-02-04 21:29:08.470131+01 | 1486240148.47013 | pgbench_accounts_pkey |       2246197248

 2017-02-04 21:29:09.54468+01 | 1486240149.54468 | pgbench_branches_pkey |          1318912
 2017-02-04 21:29:09.54468+01 | 1486240149.54468 | pgbench_tellers_pkey  |          3629056
 2017-02-04 21:29:09.54468+01 | 1486240149.54468 | pgbench_accounts_pkey |       2246197248

 2017-02-04 21:29:10.632694+01 | 1486240150.63269 | pgbench_branches_pkey |          1318912
 2017-02-04 21:29:10.632694+01 | 1486240150.63269 | pgbench_tellers_pkey  |          3629056
 2017-02-04 21:29:10.632694+01 | 1486240150.63269 | pgbench_accounts_pkey |       2246197248

 2017-02-04 21:29:11.712153+01 | 1486240151.71215 | pgbench_branches_pkey |          1318912
 2017-02-04 21:29:11.712153+01 | 1486240151.71215 | pgbench_tellers_pkey  |          3629056
 2017-02-04 21:29:11.712153+01 | 1486240151.71215 | pgbench_accounts_pkey |       2246197248

 2017-02-04 21:29:12.790572+01 | 1486240152.79057 | pgbench_branches_pkey |          1318912
 2017-02-04 21:29:12.790572+01 | 1486240152.79057 | pgbench_tellers_pkey  |          3629056
 2017-02-04 21:29:12.790572+01 | 1486240152.79057 | pgbench_accounts_pkey |       2246197248

 2017-02-04 21:29:13.861361+01 | 1486240153.86136 | pgbench_branches_pkey |          1318912
 2017-02-04 21:29:13.861361+01 | 1486240153.86136 | pgbench_tellers_pkey  |          3629056
 2017-02-04 21:29:13.861361+01 | 1486240153.86136 | pgbench_accounts_pkey |       2246197248

 2017-02-04 21:29:14.930665+01 | 1486240154.93067 | pgbench_branches_pkey |          1318912
 2017-02-04 21:29:14.930665+01 | 1486240154.93067 | pgbench_tellers_pkey  |          3629056
 2017-02-04 21:29:14.930665+01 | 1486240154.93067 | pgbench_accounts_pkey |       2246197248

 2017-02-04 21:29:16.003289+01 | 1486240156.00329 | pgbench_branches_pkey |          1318912
 2017-02-04 21:29:16.003289+01 | 1486240156.00329 | pgbench_tellers_pkey  |          3629056
 2017-02-04 21:29:16.003289+01 | 1486240156.00329 | pgbench_accounts_pkey |       2246197248

 2017-02-04 21:29:17.078085+01 | 1486240157.07808 | pgbench_branches_pkey |          1318912
 2017-02-04 21:29:17.078085+01 | 1486240157.07808 | pgbench_tellers_pkey  |          3629056
 2017-02-04 21:29:17.078085+01 | 1486240157.07808 | pgbench_accounts_pkey |       2246197248

 2017-02-04 21:29:18.154959+01 | 1486240158.15496 | pgbench_branches_pkey |          1318912
 2017-02-04 21:29:18.154959+01 | 1486240158.15496 | pgbench_tellers_pkey  |          3629056
 2017-02-04 21:29:18.154959+01 | 1486240158.15496 | pgbench_accounts_pkey |       2246197248

 2017-02-04 21:29:19.230901+01 | 1486240159.2309 | pgbench_branches_pkey |          1318912
 2017-02-04 21:29:19.230901+01 | 1486240159.2309 | pgbench_tellers_pkey  |          3629056
 2017-02-04 21:29:19.230901+01 | 1486240159.2309 | pgbench_accounts_pkey |       2246197248

 2017-02-04 21:29:20.298471+01 | 1486240160.29847 | pgbench_branches_pkey |          1318912
 2017-02-04 21:29:20.298471+01 | 1486240160.29847 | pgbench_tellers_pkey  |          3629056
 2017-02-04 21:29:20.298471+01 | 1486240160.29847 | pgbench_accounts_pkey |       2246197248

 2017-02-04 21:29:21.37355+01 | 1486240161.37355 | pgbench_branches_pkey |          1318912
 2017-02-04 21:29:21.37355+01 | 1486240161.37355 | pgbench_tellers_pkey  |          3629056
 2017-02-04 21:29:21.37355+01 | 1486240161.37355 | pgbench_accounts_pkey |       2246197248

 2017-02-04 21:29:22.451603+01 | 1486240162.4516 | pgbench_branches_pkey |          1318912
 2017-02-04 21:29:22.451603+01 | 1486240162.4516 | pgbench_tellers_pkey  |          3629056
 2017-02-04 21:29:22.451603+01 | 1486240162.4516 | pgbench_accounts_pkey |       2246197248

 2017-02-04 21:29:23.531386+01 | 1486240163.53139 | pgbench_branches_pkey |          1318912
 2017-02-04 21:29:23.531386+01 | 1486240163.53139 | pgbench_tellers_pkey  |          3629056
 2017-02-04 21:29:23.531386+01 | 1486240163.53139 | pgbench_accounts_pkey |       2246197248

 2017-02-04 21:29:24.610948+01 | 1486240164.61095 | pgbench_branches_pkey |          1318912
 2017-02-04 21:29:24.610948+01 | 1486240164.61095 | pgbench_tellers_pkey  |          3629056
 2017-02-04 21:29:24.610948+01 | 1486240164.61095 | pgbench_accounts_pkey |       2246197248

 2017-02-04 21:29:25.686256+01 | 1486240165.68626 | pgbench_branches_pkey |          1318912
 2017-02-04 21:29:25.686256+01 | 1486240165.68626 | pgbench_tellers_pkey  |          3629056
 2017-02-04 21:29:25.686256+01 | 1486240165.68626 | pgbench_accounts_pkey |       2246197248

 2017-02-04 21:29:26.770519+01 | 1486240166.77052 | pgbench_branches_pkey |          1318912
 2017-02-04 21:29:26.770519+01 | 1486240166.77052 | pgbench_tellers_pkey  |          3629056
 2017-02-04 21:29:26.770519+01 | 1486240166.77052 | pgbench_accounts_pkey |       2246197248

 2017-02-04 21:29:27.848065+01 | 1486240167.84806 | pgbench_branches_pkey |          1318912
 2017-02-04 21:29:27.848065+01 | 1486240167.84806 | pgbench_tellers_pkey  |          3629056
 2017-02-04 21:29:27.848065+01 | 1486240167.84806 | pgbench_accounts_pkey |       2246197248

 2017-02-04 21:29:28.924212+01 | 1486240168.92421 | pgbench_branches_pkey |          1318912
 2017-02-04 21:29:28.924212+01 | 1486240168.92421 | pgbench_tellers_pkey  |          3629056
 2017-02-04 21:29:28.924212+01 | 1486240168.92421 | pgbench_accounts_pkey |       2246197248

 2017-02-04 21:29:30.008252+01 | 1486240170.00825 | pgbench_branches_pkey |          1318912
 2017-02-04 21:29:30.008252+01 | 1486240170.00825 | pgbench_tellers_pkey  |          3629056
 2017-02-04 21:29:30.008252+01 | 1486240170.00825 | pgbench_accounts_pkey |       2246197248

 2017-02-04 21:29:31.086347+01 | 1486240171.08635 | pgbench_branches_pkey |          1318912
 2017-02-04 21:29:31.086347+01 | 1486240171.08635 | pgbench_tellers_pkey  |          3629056
 2017-02-04 21:29:31.086347+01 | 1486240171.08635 | pgbench_accounts_pkey |       2246197248

 2017-02-04 21:29:32.165545+01 | 1486240172.16554 | pgbench_branches_pkey |          1318912
 2017-02-04 21:29:32.165545+01 | 1486240172.16554 | pgbench_tellers_pkey  |          3629056
 2017-02-04 21:29:32.165545+01 | 1486240172.16554 | pgbench_accounts_pkey |       2246197248

 2017-02-04 21:29:33.244058+01 | 1486240173.24406 | pgbench_branches_pkey |          1318912
 2017-02-04 21:29:33.244058+01 | 1486240173.24406 | pgbench_tellers_pkey  |          3629056
 2017-02-04 21:29:33.244058+01 | 1486240173.24406 | pgbench_accounts_pkey |       2246197248

 2017-02-04 21:29:34.324394+01 | 1486240174.32439 | pgbench_branches_pkey |          1318912
 2017-02-04 21:29:34.324394+01 | 1486240174.32439 | pgbench_tellers_pkey  |          3629056
 2017-02-04 21:29:34.324394+01 | 1486240174.32439 | pgbench_accounts_pkey |       2246197248

 2017-02-04 21:29:35.397069+01 | 1486240175.39707 | pgbench_branches_pkey |          1318912
 2017-02-04 21:29:35.397069+01 | 1486240175.39707 | pgbench_tellers_pkey  |          3629056
 2017-02-04 21:29:35.397069+01 | 1486240175.39707 | pgbench_accounts_pkey |       2246197248

 2017-02-04 21:29:36.479119+01 | 1486240176.47912 | pgbench_branches_pkey |          1318912
 2017-02-04 21:29:36.479119+01 | 1486240176.47912 | pgbench_tellers_pkey  |          3629056
 2017-02-04 21:29:36.479119+01 | 1486240176.47912 | pgbench_accounts_pkey |       2246197248

 2017-02-04 21:29:37.551572+01 | 1486240177.55157 | pgbench_branches_pkey |          1318912
 2017-02-04 21:29:37.551572+01 | 1486240177.55157 | pgbench_tellers_pkey  |          3629056
 2017-02-04 21:29:37.551572+01 | 1486240177.55157 | pgbench_accounts_pkey |       2246197248

 2017-02-04 21:29:38.631959+01 | 1486240178.63196 | pgbench_branches_pkey |          1318912
 2017-02-04 21:29:38.631959+01 | 1486240178.63196 | pgbench_tellers_pkey  |          3629056
 2017-02-04 21:29:38.631959+01 | 1486240178.63196 | pgbench_accounts_pkey |       2246197248

 2017-02-04 21:29:39.7088+01 | 1486240179.7088 | pgbench_branches_pkey |          1318912
 2017-02-04 21:29:39.7088+01 | 1486240179.7088 | pgbench_tellers_pkey  |          3629056
 2017-02-04 21:29:39.7088+01 | 1486240179.7088 | pgbench_accounts_pkey |       2246197248

 2017-02-04 21:29:40.788269+01 | 1486240180.78827 | pgbench_branches_pkey |          1318912
 2017-02-04 21:29:40.788269+01 | 1486240180.78827 | pgbench_tellers_pkey  |          3629056
 2017-02-04 21:29:40.788269+01 | 1486240180.78827 | pgbench_accounts_pkey |       2246197248

 2017-02-04 21:29:41.865687+01 | 1486240181.86569 | pgbench_branches_pkey |          1318912
 2017-02-04 21:29:41.865687+01 | 1486240181.86569 | pgbench_tellers_pkey  |          3629056
 2017-02-04 21:29:41.865687+01 | 1486240181.86569 | pgbench_accounts_pkey |       2246197248

 2017-02-04 21:29:42.937933+01 | 1486240182.93793 | pgbench_branches_pkey |          1318912
 2017-02-04 21:29:42.937933+01 | 1486240182.93793 | pgbench_tellers_pkey  |          3629056
 2017-02-04 21:29:42.937933+01 | 1486240182.93793 | pgbench_accounts_pkey |       2246197248

 2017-02-04 21:29:44.023535+01 | 1486240184.02354 | pgbench_branches_pkey |          1318912
 2017-02-04 21:29:44.023535+01 | 1486240184.02354 | pgbench_tellers_pkey  |          3629056
 2017-02-04 21:29:44.023535+01 | 1486240184.02354 | pgbench_accounts_pkey |       2246197248

 2017-02-04 21:29:45.114184+01 | 1486240185.11418 | pgbench_branches_pkey |          1318912
 2017-02-04 21:29:45.114184+01 | 1486240185.11418 | pgbench_tellers_pkey  |          3629056
 2017-02-04 21:29:45.114184+01 | 1486240185.11418 | pgbench_accounts_pkey |       2246197248

 2017-02-04 21:29:46.192382+01 | 1486240186.19238 | pgbench_branches_pkey |          1318912
 2017-02-04 21:29:46.192382+01 | 1486240186.19238 | pgbench_tellers_pkey  |          3629056
 2017-02-04 21:29:46.192382+01 | 1486240186.19238 | pgbench_accounts_pkey |       2246197248

 2017-02-04 21:29:47.267606+01 | 1486240187.26761 | pgbench_branches_pkey |          1318912
 2017-02-04 21:29:47.267606+01 | 1486240187.26761 | pgbench_tellers_pkey  |          3629056
 2017-02-04 21:29:47.267606+01 | 1486240187.26761 | pgbench_accounts_pkey |       2246197248

 2017-02-04 21:29:48.347722+01 | 1486240188.34772 | pgbench_branches_pkey |          1318912
 2017-02-04 21:29:48.347722+01 | 1486240188.34772 | pgbench_tellers_pkey  |          3629056
 2017-02-04 21:29:48.347722+01 | 1486240188.34772 | pgbench_accounts_pkey |       2246197248

 2017-02-04 21:29:49.435143+01 | 1486240189.43514 | pgbench_branches_pkey |          1318912
 2017-02-04 21:29:49.435143+01 | 1486240189.43514 | pgbench_tellers_pkey  |          3629056
 2017-02-04 21:29:49.435143+01 | 1486240189.43514 | pgbench_accounts_pkey |       2246197248

 2017-02-04 21:29:50.512643+01 | 1486240190.51264 | pgbench_branches_pkey |          1318912
 2017-02-04 21:29:50.512643+01 | 1486240190.51264 | pgbench_tellers_pkey  |          3629056
 2017-02-04 21:29:50.512643+01 | 1486240190.51264 | pgbench_accounts_pkey |       2246197248

 2017-02-04 21:29:51.600604+01 | 1486240191.6006 | pgbench_branches_pkey |          1318912
 2017-02-04 21:29:51.600604+01 | 1486240191.6006 | pgbench_tellers_pkey  |          3629056
 2017-02-04 21:29:51.600604+01 | 1486240191.6006 | pgbench_accounts_pkey |       2246197248

 2017-02-04 21:29:52.677953+01 | 1486240192.67795 | pgbench_branches_pkey |          1318912
 2017-02-04 21:29:52.677953+01 | 1486240192.67795 | pgbench_tellers_pkey  |          3629056
 2017-02-04 21:29:52.677953+01 | 1486240192.67795 | pgbench_accounts_pkey |       2246197248

 2017-02-04 21:29:53.759293+01 | 1486240193.75929 | pgbench_branches_pkey |          1318912
 2017-02-04 21:29:53.759293+01 | 1486240193.75929 | pgbench_tellers_pkey  |          3629056
 2017-02-04 21:29:53.759293+01 | 1486240193.75929 | pgbench_accounts_pkey |       2246197248

 2017-02-04 21:29:54.841416+01 | 1486240194.84142 | pgbench_branches_pkey |          1318912
 2017-02-04 21:29:54.841416+01 | 1486240194.84142 | pgbench_tellers_pkey  |          3629056
 2017-02-04 21:29:54.841416+01 | 1486240194.84142 | pgbench_accounts_pkey |       2246197248

 2017-02-04 21:29:55.922281+01 | 1486240195.92228 | pgbench_branches_pkey |          1318912
 2017-02-04 21:29:55.922281+01 | 1486240195.92228 | pgbench_tellers_pkey  |          3629056
 2017-02-04 21:29:55.922281+01 | 1486240195.92228 | pgbench_accounts_pkey |       2246197248

 2017-02-04 21:29:56.993366+01 | 1486240196.99337 | pgbench_branches_pkey |          1318912
 2017-02-04 21:29:56.993366+01 | 1486240196.99337 | pgbench_tellers_pkey  |          3629056
 2017-02-04 21:29:56.993366+01 | 1486240196.99337 | pgbench_accounts_pkey |       2246197248

 2017-02-04 21:29:58.074333+01 | 1486240198.07433 | pgbench_branches_pkey |          1318912
 2017-02-04 21:29:58.074333+01 | 1486240198.07433 | pgbench_tellers_pkey  |          3629056
 2017-02-04 21:29:58.074333+01 | 1486240198.07433 | pgbench_accounts_pkey |       2246197248

 2017-02-04 21:29:59.152756+01 | 1486240199.15276 | pgbench_branches_pkey |          1318912
 2017-02-04 21:29:59.152756+01 | 1486240199.15276 | pgbench_tellers_pkey  |          3629056
 2017-02-04 21:29:59.152756+01 | 1486240199.15276 | pgbench_accounts_pkey |       2246197248

 2017-02-04 21:30:00.225496+01 | 1486240200.2255 | pgbench_branches_pkey |          1318912
 2017-02-04 21:30:00.225496+01 | 1486240200.2255 | pgbench_tellers_pkey  |          3629056
 2017-02-04 21:30:00.225496+01 | 1486240200.2255 | pgbench_accounts_pkey |       2246197248

 2017-02-04 21:30:01.299483+01 | 1486240201.29948 | pgbench_branches_pkey |          1318912
 2017-02-04 21:30:01.299483+01 | 1486240201.29948 | pgbench_tellers_pkey  |          3629056
 2017-02-04 21:30:01.299483+01 | 1486240201.29948 | pgbench_accounts_pkey |       2246197248

 2017-02-04 21:30:02.379544+01 | 1486240202.37954 | pgbench_branches_pkey |          1318912
 2017-02-04 21:30:02.379544+01 | 1486240202.37954 | pgbench_tellers_pkey  |          3629056
 2017-02-04 21:30:02.379544+01 | 1486240202.37954 | pgbench_accounts_pkey |       2246197248

 2017-02-04 21:30:03.451927+01 | 1486240203.45193 | pgbench_branches_pkey |          1318912
 2017-02-04 21:30:03.451927+01 | 1486240203.45193 | pgbench_tellers_pkey  |          3629056
 2017-02-04 21:30:03.451927+01 | 1486240203.45193 | pgbench_accounts_pkey |       2246197248

 2017-02-04 21:30:04.526947+01 | 1486240204.52695 | pgbench_branches_pkey |          1318912
 2017-02-04 21:30:04.526947+01 | 1486240204.52695 | pgbench_tellers_pkey  |          3629056
 2017-02-04 21:30:04.526947+01 | 1486240204.52695 | pgbench_accounts_pkey |       2246197248

 2017-02-04 21:30:05.603518+01 | 1486240205.60352 | pgbench_branches_pkey |          1318912
 2017-02-04 21:30:05.603518+01 | 1486240205.60352 | pgbench_tellers_pkey  |          3629056
 2017-02-04 21:30:05.603518+01 | 1486240205.60352 | pgbench_accounts_pkey |       2246197248

 2017-02-04 21:30:06.686042+01 | 1486240206.68604 | pgbench_branches_pkey |          1318912
 2017-02-04 21:30:06.686042+01 | 1486240206.68604 | pgbench_tellers_pkey  |          3629056
 2017-02-04 21:30:06.686042+01 | 1486240206.68604 | pgbench_accounts_pkey |       2246197248

 2017-02-04 21:30:07.762006+01 | 1486240207.76201 | pgbench_branches_pkey |          1318912
 2017-02-04 21:30:07.762006+01 | 1486240207.76201 | pgbench_tellers_pkey  |          3629056
 2017-02-04 21:30:07.762006+01 | 1486240207.76201 | pgbench_accounts_pkey |       2246197248

 2017-02-04 21:30:08.836807+01 | 1486240208.83681 | pgbench_branches_pkey |          1318912
 2017-02-04 21:30:08.836807+01 | 1486240208.83681 | pgbench_tellers_pkey  |          3629056
 2017-02-04 21:30:08.836807+01 | 1486240208.83681 | pgbench_accounts_pkey |       2246197248

 2017-02-04 21:30:09.915999+01 | 1486240209.916 | pgbench_branches_pkey |          1318912
 2017-02-04 21:30:09.915999+01 | 1486240209.916 | pgbench_tellers_pkey  |          3629056
 2017-02-04 21:30:09.915999+01 | 1486240209.916 | pgbench_accounts_pkey |       2246197248

 2017-02-04 21:30:10.993717+01 | 1486240210.99372 | pgbench_branches_pkey |          1318912
 2017-02-04 21:30:10.993717+01 | 1486240210.99372 | pgbench_tellers_pkey  |          3629056
 2017-02-04 21:30:10.993717+01 | 1486240210.99372 | pgbench_accounts_pkey |       2246197248

 2017-02-04 21:30:12.065715+01 | 1486240212.06572 | pgbench_branches_pkey |          1318912
 2017-02-04 21:30:12.065715+01 | 1486240212.06572 | pgbench_tellers_pkey  |          3629056
 2017-02-04 21:30:12.065715+01 | 1486240212.06572 | pgbench_accounts_pkey |       2246197248

 2017-02-04 21:30:13.143962+01 | 1486240213.14396 | pgbench_branches_pkey |          1318912
 2017-02-04 21:30:13.143962+01 | 1486240213.14396 | pgbench_tellers_pkey  |          3629056
 2017-02-04 21:30:13.143962+01 | 1486240213.14396 | pgbench_accounts_pkey |       2246197248

 2017-02-04 21:30:14.216322+01 | 1486240214.21632 | pgbench_branches_pkey |          1318912
 2017-02-04 21:30:14.216322+01 | 1486240214.21632 | pgbench_tellers_pkey  |          3629056
 2017-02-04 21:30:14.216322+01 | 1486240214.21632 | pgbench_accounts_pkey |       2246197248

 2017-02-04 21:30:15.296759+01 | 1486240215.29676 | pgbench_branches_pkey |          1318912
 2017-02-04 21:30:15.296759+01 | 1486240215.29676 | pgbench_tellers_pkey  |          3629056
 2017-02-04 21:30:15.296759+01 | 1486240215.29676 | pgbench_accounts_pkey |       2246197248

 2017-02-04 21:30:16.374402+01 | 1486240216.3744 | pgbench_branches_pkey |          1318912
 2017-02-04 21:30:16.374402+01 | 1486240216.3744 | pgbench_tellers_pkey  |          3629056
 2017-02-04 21:30:16.374402+01 | 1486240216.3744 | pgbench_accounts_pkey |       2246197248

 2017-02-04 21:30:17.454021+01 | 1486240217.45402 | pgbench_branches_pkey |          1318912
 2017-02-04 21:30:17.454021+01 | 1486240217.45402 | pgbench_tellers_pkey  |          3629056
 2017-02-04 21:30:17.454021+01 | 1486240217.45402 | pgbench_accounts_pkey |       2246197248

 2017-02-04 21:30:18.534556+01 | 1486240218.53456 | pgbench_branches_pkey |          1318912
 2017-02-04 21:30:18.534556+01 | 1486240218.53456 | pgbench_tellers_pkey  |          3629056
 2017-02-04 21:30:18.534556+01 | 1486240218.53456 | pgbench_accounts_pkey |       2246197248

 2017-02-04 21:30:19.614323+01 | 1486240219.61432 | pgbench_branches_pkey |          1318912
 2017-02-04 21:30:19.614323+01 | 1486240219.61432 | pgbench_tellers_pkey  |          3629056
 2017-02-04 21:30:19.614323+01 | 1486240219.61432 | pgbench_accounts_pkey |       2246197248

 2017-02-04 21:30:20.687255+01 | 1486240220.68725 | pgbench_branches_pkey |          1318912
 2017-02-04 21:30:20.687255+01 | 1486240220.68725 | pgbench_tellers_pkey  |          3629056
 2017-02-04 21:30:20.687255+01 | 1486240220.68725 | pgbench_accounts_pkey |       2246197248

 2017-02-04 21:30:21.771217+01 | 1486240221.77122 | pgbench_branches_pkey |          1318912
 2017-02-04 21:30:21.771217+01 | 1486240221.77122 | pgbench_tellers_pkey  |          3629056
 2017-02-04 21:30:21.771217+01 | 1486240221.77122 | pgbench_accounts_pkey |       2246197248

 2017-02-04 21:30:22.858657+01 | 1486240222.85866 | pgbench_branches_pkey |          1318912
 2017-02-04 21:30:22.858657+01 | 1486240222.85866 | pgbench_tellers_pkey  |          3629056
 2017-02-04 21:30:22.858657+01 | 1486240222.85866 | pgbench_accounts_pkey |       2246197248

 2017-02-04 21:30:23.935367+01 | 1486240223.93537 | pgbench_branches_pkey |          1318912
 2017-02-04 21:30:23.935367+01 | 1486240223.93537 | pgbench_tellers_pkey  |          3629056
 2017-02-04 21:30:23.935367+01 | 1486240223.93537 | pgbench_accounts_pkey |       2246197248

 2017-02-04 21:30:25.017598+01 | 1486240225.0176 | pgbench_branches_pkey |          1318912
 2017-02-04 21:30:25.017598+01 | 1486240225.0176 | pgbench_tellers_pkey  |          3629056
 2017-02-04 21:30:25.017598+01 | 1486240225.0176 | pgbench_accounts_pkey |       2246197248

 2017-02-04 21:30:26.10015+01 | 1486240226.10015 | pgbench_branches_pkey |          1318912
 2017-02-04 21:30:26.10015+01 | 1486240226.10015 | pgbench_tellers_pkey  |          3629056
 2017-02-04 21:30:26.10015+01 | 1486240226.10015 | pgbench_accounts_pkey |       2246197248

 2017-02-04 21:30:27.180198+01 | 1486240227.1802 | pgbench_branches_pkey |          1318912
 2017-02-04 21:30:27.180198+01 | 1486240227.1802 | pgbench_tellers_pkey  |          3629056
 2017-02-04 21:30:27.180198+01 | 1486240227.1802 | pgbench_accounts_pkey |       2246197248

 2017-02-04 21:30:28.258276+01 | 1486240228.25828 | pgbench_branches_pkey |          1318912
 2017-02-04 21:30:28.258276+01 | 1486240228.25828 | pgbench_tellers_pkey  |          3629056
 2017-02-04 21:30:28.258276+01 | 1486240228.25828 | pgbench_accounts_pkey |       2246197248

 2017-02-04 21:30:29.335849+01 | 1486240229.33585 | pgbench_branches_pkey |          1318912
 2017-02-04 21:30:29.335849+01 | 1486240229.33585 | pgbench_tellers_pkey  |          3629056
 2017-02-04 21:30:29.335849+01 | 1486240229.33585 | pgbench_accounts_pkey |       2246197248

 2017-02-04 21:30:30.413711+01 | 1486240230.41371 | pgbench_branches_pkey |          1318912
 2017-02-04 21:30:30.413711+01 | 1486240230.41371 | pgbench_tellers_pkey  |          3629056
 2017-02-04 21:30:30.413711+01 | 1486240230.41371 | pgbench_accounts_pkey |       2246197248

 2017-02-04 21:30:31.488416+01 | 1486240231.48842 | pgbench_branches_pkey |          1318912
 2017-02-04 21:30:31.488416+01 | 1486240231.48842 | pgbench_tellers_pkey  |          3629056
 2017-02-04 21:30:31.488416+01 | 1486240231.48842 | pgbench_accounts_pkey |       2246197248

 2017-02-04 21:30:32.564148+01 | 1486240232.56415 | pgbench_branches_pkey |          1318912
 2017-02-04 21:30:32.564148+01 | 1486240232.56415 | pgbench_tellers_pkey  |          3629056
 2017-02-04 21:30:32.564148+01 | 1486240232.56415 | pgbench_accounts_pkey |       2246197248

 2017-02-04 21:30:33.637224+01 | 1486240233.63722 | pgbench_branches_pkey |          1318912
 2017-02-04 21:30:33.637224+01 | 1486240233.63722 | pgbench_tellers_pkey  |          3629056
 2017-02-04 21:30:33.637224+01 | 1486240233.63722 | pgbench_accounts_pkey |       2246197248

 2017-02-04 21:30:34.711233+01 | 1486240234.71123 | pgbench_branches_pkey |          1318912
 2017-02-04 21:30:34.711233+01 | 1486240234.71123 | pgbench_tellers_pkey  |          3629056
 2017-02-04 21:30:34.711233+01 | 1486240234.71123 | pgbench_accounts_pkey |       2246197248

 2017-02-04 21:30:35.799024+01 | 1486240235.79902 | pgbench_branches_pkey |          1318912
 2017-02-04 21:30:35.799024+01 | 1486240235.79902 | pgbench_tellers_pkey  |          3629056
 2017-02-04 21:30:35.799024+01 | 1486240235.79902 | pgbench_accounts_pkey |       2246197248

 2017-02-04 21:30:36.879639+01 | 1486240236.87964 | pgbench_branches_pkey |          1318912
 2017-02-04 21:30:36.879639+01 | 1486240236.87964 | pgbench_tellers_pkey  |          3629056
 2017-02-04 21:30:36.879639+01 | 1486240236.87964 | pgbench_accounts_pkey |       2246197248

 2017-02-04 21:30:37.96047+01 | 1486240237.96047 | pgbench_branches_pkey |          1318912
 2017-02-04 21:30:37.96047+01 | 1486240237.96047 | pgbench_tellers_pkey  |          3629056
 2017-02-04 21:30:37.96047+01 | 1486240237.96047 | pgbench_accounts_pkey |       2246197248

 2017-02-04 21:30:39.038643+01 | 1486240239.03864 | pgbench_branches_pkey |          1318912
 2017-02-04 21:30:39.038643+01 | 1486240239.03864 | pgbench_tellers_pkey  |          3629056
 2017-02-04 21:30:39.038643+01 | 1486240239.03864 | pgbench_accounts_pkey |       2246197248

 2017-02-04 21:30:40.117748+01 | 1486240240.11775 | pgbench_branches_pkey |          1318912
 2017-02-04 21:30:40.117748+01 | 1486240240.11775 | pgbench_tellers_pkey  |          3629056
 2017-02-04 21:30:40.117748+01 | 1486240240.11775 | pgbench_accounts_pkey |       2246197248

 2017-02-04 21:30:41.192957+01 | 1486240241.19296 | pgbench_branches_pkey |          1318912
 2017-02-04 21:30:41.192957+01 | 1486240241.19296 | pgbench_tellers_pkey  |          3629056
 2017-02-04 21:30:41.192957+01 | 1486240241.19296 | pgbench_accounts_pkey |       2246197248

 2017-02-04 21:30:42.267987+01 | 1486240242.26799 | pgbench_branches_pkey |          1318912
 2017-02-04 21:30:42.267987+01 | 1486240242.26799 | pgbench_tellers_pkey  |          3629056
 2017-02-04 21:30:42.267987+01 | 1486240242.26799 | pgbench_accounts_pkey |       2246197248

 2017-02-04 21:30:43.34519+01 | 1486240243.34519 | pgbench_branches_pkey |          1318912
 2017-02-04 21:30:43.34519+01 | 1486240243.34519 | pgbench_tellers_pkey  |          3629056
 2017-02-04 21:30:43.34519+01 | 1486240243.34519 | pgbench_accounts_pkey |       2246197248

 2017-02-04 21:30:44.420881+01 | 1486240244.42088 | pgbench_branches_pkey |          1318912
 2017-02-04 21:30:44.420881+01 | 1486240244.42088 | pgbench_tellers_pkey  |          3629056
 2017-02-04 21:30:44.420881+01 | 1486240244.42088 | pgbench_accounts_pkey |       2246197248

 2017-02-04 21:30:45.495192+01 | 1486240245.49519 | pgbench_branches_pkey |          1318912
 2017-02-04 21:30:45.495192+01 | 1486240245.49519 | pgbench_tellers_pkey  |          3629056
 2017-02-04 21:30:45.495192+01 | 1486240245.49519 | pgbench_accounts_pkey |       2246197248

 2017-02-04 21:30:46.568197+01 | 1486240246.5682 | pgbench_branches_pkey |          1318912
 2017-02-04 21:30:46.568197+01 | 1486240246.5682 | pgbench_tellers_pkey  |          3629056
 2017-02-04 21:30:46.568197+01 | 1486240246.5682 | pgbench_accounts_pkey |       2246197248

 2017-02-04 21:30:47.641484+01 | 1486240247.64148 | pgbench_branches_pkey |          1318912
 2017-02-04 21:30:47.641484+01 | 1486240247.64148 | pgbench_tellers_pkey  |          3629056
 2017-02-04 21:30:47.641484+01 | 1486240247.64148 | pgbench_accounts_pkey |       2246197248

 2017-02-04 21:30:48.716694+01 | 1486240248.71669 | pgbench_branches_pkey |          1318912
 2017-02-04 21:30:48.716694+01 | 1486240248.71669 | pgbench_tellers_pkey  |          3629056
 2017-02-04 21:30:48.716694+01 | 1486240248.71669 | pgbench_accounts_pkey |       2246197248

 2017-02-04 21:30:49.793542+01 | 1486240249.79354 | pgbench_branches_pkey |          1318912
 2017-02-04 21:30:49.793542+01 | 1486240249.79354 | pgbench_tellers_pkey  |          3629056
 2017-02-04 21:30:49.793542+01 | 1486240249.79354 | pgbench_accounts_pkey |       2246197248

 2017-02-04 21:30:50.870801+01 | 1486240250.8708 | pgbench_branches_pkey |          1318912
 2017-02-04 21:30:50.870801+01 | 1486240250.8708 | pgbench_tellers_pkey  |          3629056
 2017-02-04 21:30:50.870801+01 | 1486240250.8708 | pgbench_accounts_pkey |       2246197248

 2017-02-04 21:30:51.956428+01 | 1486240251.95643 | pgbench_branches_pkey |          1318912
 2017-02-04 21:30:51.956428+01 | 1486240251.95643 | pgbench_tellers_pkey  |          3629056
 2017-02-04 21:30:51.956428+01 | 1486240251.95643 | pgbench_accounts_pkey |       2246197248

 2017-02-04 21:30:53.03578+01 | 1486240253.03578 | pgbench_branches_pkey |          1318912
 2017-02-04 21:30:53.03578+01 | 1486240253.03578 | pgbench_tellers_pkey  |          3629056
 2017-02-04 21:30:53.03578+01 | 1486240253.03578 | pgbench_accounts_pkey |       2246197248

 2017-02-04 21:30:54.109279+01 | 1486240254.10928 | pgbench_branches_pkey |          1318912
 2017-02-04 21:30:54.109279+01 | 1486240254.10928 | pgbench_tellers_pkey  |          3629056
 2017-02-04 21:30:54.109279+01 | 1486240254.10928 | pgbench_accounts_pkey |       2246197248

 2017-02-04 21:30:55.185879+01 | 1486240255.18588 | pgbench_branches_pkey |          1318912
 2017-02-04 21:30:55.185879+01 | 1486240255.18588 | pgbench_tellers_pkey  |          3629056
 2017-02-04 21:30:55.185879+01 | 1486240255.18588 | pgbench_accounts_pkey |       2246197248

 2017-02-04 21:30:56.255371+01 | 1486240256.25537 | pgbench_branches_pkey |          1318912
 2017-02-04 21:30:56.255371+01 | 1486240256.25537 | pgbench_tellers_pkey  |          3629056
 2017-02-04 21:30:56.255371+01 | 1486240256.25537 | pgbench_accounts_pkey |       2246197248

 2017-02-04 21:30:57.331499+01 | 1486240257.3315 | pgbench_branches_pkey |          1318912
 2017-02-04 21:30:57.331499+01 | 1486240257.3315 | pgbench_tellers_pkey  |          3629056
 2017-02-04 21:30:57.331499+01 | 1486240257.3315 | pgbench_accounts_pkey |       2246197248

 2017-02-04 21:30:58.397979+01 | 1486240258.39798 | pgbench_branches_pkey |          1318912
 2017-02-04 21:30:58.397979+01 | 1486240258.39798 | pgbench_tellers_pkey  |          3629056
 2017-02-04 21:30:58.397979+01 | 1486240258.39798 | pgbench_accounts_pkey |       2246197248

 2017-02-04 21:30:59.470028+01 | 1486240259.47003 | pgbench_branches_pkey |          1318912
 2017-02-04 21:30:59.470028+01 | 1486240259.47003 | pgbench_tellers_pkey  |          3629056
 2017-02-04 21:30:59.470028+01 | 1486240259.47003 | pgbench_accounts_pkey |       2246197248

 2017-02-04 21:31:00.539793+01 | 1486240260.53979 | pgbench_branches_pkey |          1318912
 2017-02-04 21:31:00.539793+01 | 1486240260.53979 | pgbench_tellers_pkey  |          3629056
 2017-02-04 21:31:00.539793+01 | 1486240260.53979 | pgbench_accounts_pkey |       2246197248

 2017-02-04 21:31:01.612596+01 | 1486240261.6126 | pgbench_branches_pkey |          1318912
 2017-02-04 21:31:01.612596+01 | 1486240261.6126 | pgbench_tellers_pkey  |          3629056
 2017-02-04 21:31:01.612596+01 | 1486240261.6126 | pgbench_accounts_pkey |       2246197248

 2017-02-04 21:31:02.687596+01 | 1486240262.6876 | pgbench_branches_pkey |          1318912
 2017-02-04 21:31:02.687596+01 | 1486240262.6876 | pgbench_tellers_pkey  |          3629056
 2017-02-04 21:31:02.687596+01 | 1486240262.6876 | pgbench_accounts_pkey |       2246197248

 2017-02-04 21:31:03.764772+01 | 1486240263.76477 | pgbench_branches_pkey |          1318912
 2017-02-04 21:31:03.764772+01 | 1486240263.76477 | pgbench_tellers_pkey  |          3629056
 2017-02-04 21:31:03.764772+01 | 1486240263.76477 | pgbench_accounts_pkey |       2246197248

 2017-02-04 21:31:04.837909+01 | 1486240264.83791 | pgbench_branches_pkey |          1318912
 2017-02-04 21:31:04.837909+01 | 1486240264.83791 | pgbench_tellers_pkey  |          3629056
 2017-02-04 21:31:04.837909+01 | 1486240264.83791 | pgbench_accounts_pkey |       2246197248

 2017-02-04 21:31:05.914241+01 | 1486240265.91424 | pgbench_branches_pkey |          1318912
 2017-02-04 21:31:05.914241+01 | 1486240265.91424 | pgbench_tellers_pkey  |          3629056
 2017-02-04 21:31:05.914241+01 | 1486240265.91424 | pgbench_accounts_pkey |       2246197248

 2017-02-04 21:31:07.001489+01 | 1486240267.00149 | pgbench_branches_pkey |          1318912
 2017-02-04 21:31:07.001489+01 | 1486240267.00149 | pgbench_tellers_pkey  |          3629056
 2017-02-04 21:31:07.001489+01 | 1486240267.00149 | pgbench_accounts_pkey |       2246197248

 2017-02-04 21:31:08.08283+01 | 1486240268.08283 | pgbench_branches_pkey |          1318912
 2017-02-04 21:31:08.08283+01 | 1486240268.08283 | pgbench_tellers_pkey  |          3629056
 2017-02-04 21:31:08.08283+01 | 1486240268.08283 | pgbench_accounts_pkey |       2246197248

 2017-02-04 21:31:09.156915+01 | 1486240269.15691 | pgbench_branches_pkey |          1318912
 2017-02-04 21:31:09.156915+01 | 1486240269.15691 | pgbench_tellers_pkey  |          3629056
 2017-02-04 21:31:09.156915+01 | 1486240269.15691 | pgbench_accounts_pkey |       2246197248

 2017-02-04 21:31:10.231313+01 | 1486240270.23131 | pgbench_branches_pkey |          1318912
 2017-02-04 21:31:10.231313+01 | 1486240270.23131 | pgbench_tellers_pkey  |          3629056
 2017-02-04 21:31:10.231313+01 | 1486240270.23131 | pgbench_accounts_pkey |       2246197248

 2017-02-04 21:31:11.304576+01 | 1486240271.30458 | pgbench_branches_pkey |          1318912
 2017-02-04 21:31:11.304576+01 | 1486240271.30458 | pgbench_tellers_pkey  |          3629056
 2017-02-04 21:31:11.304576+01 | 1486240271.30458 | pgbench_accounts_pkey |       2246197248

 2017-02-04 21:31:12.370617+01 | 1486240272.37062 | pgbench_branches_pkey |          1318912
 2017-02-04 21:31:12.370617+01 | 1486240272.37062 | pgbench_tellers_pkey  |          3629056
 2017-02-04 21:31:12.370617+01 | 1486240272.37062 | pgbench_accounts_pkey |       2246197248

 2017-02-04 21:31:13.445426+01 | 1486240273.44543 | pgbench_branches_pkey |          1318912
 2017-02-04 21:31:13.445426+01 | 1486240273.44543 | pgbench_tellers_pkey  |          3629056
 2017-02-04 21:31:13.445426+01 | 1486240273.44543 | pgbench_accounts_pkey |       2246197248

 2017-02-04 21:31:14.522218+01 | 1486240274.52222 | pgbench_branches_pkey |          1318912
 2017-02-04 21:31:14.522218+01 | 1486240274.52222 | pgbench_tellers_pkey  |          3629056
 2017-02-04 21:31:14.522218+01 | 1486240274.52222 | pgbench_accounts_pkey |       2246197248

 2017-02-04 21:31:15.597234+01 | 1486240275.59723 | pgbench_branches_pkey |          1318912
 2017-02-04 21:31:15.597234+01 | 1486240275.59723 | pgbench_tellers_pkey  |          3629056
 2017-02-04 21:31:15.597234+01 | 1486240275.59723 | pgbench_accounts_pkey |       2246197248

 2017-02-04 21:31:16.676893+01 | 1486240276.67689 | pgbench_branches_pkey |          1318912
 2017-02-04 21:31:16.676893+01 | 1486240276.67689 | pgbench_tellers_pkey  |          3629056
 2017-02-04 21:31:16.676893+01 | 1486240276.67689 | pgbench_accounts_pkey |       2246197248

 2017-02-04 21:31:17.75282+01 | 1486240277.75282 | pgbench_branches_pkey |          1318912
 2017-02-04 21:31:17.75282+01 | 1486240277.75282 | pgbench_tellers_pkey  |          3629056
 2017-02-04 21:31:17.75282+01 | 1486240277.75282 | pgbench_accounts_pkey |       2246197248

 2017-02-04 21:31:18.826069+01 | 1486240278.82607 | pgbench_branches_pkey |          1318912
 2017-02-04 21:31:18.826069+01 | 1486240278.82607 | pgbench_tellers_pkey  |          3629056
 2017-02-04 21:31:18.826069+01 | 1486240278.82607 | pgbench_accounts_pkey |       2246197248

 2017-02-04 21:31:19.907471+01 | 1486240279.90747 | pgbench_branches_pkey |          1318912
 2017-02-04 21:31:19.907471+01 | 1486240279.90747 | pgbench_tellers_pkey  |          3629056
 2017-02-04 21:31:19.907471+01 | 1486240279.90747 | pgbench_accounts_pkey |       2246197248

 2017-02-04 21:31:20.97144+01 | 1486240280.97144 | pgbench_branches_pkey |          1318912
 2017-02-04 21:31:20.97144+01 | 1486240280.97144 | pgbench_tellers_pkey  |          3629056
 2017-02-04 21:31:20.97144+01 | 1486240280.97144 | pgbench_accounts_pkey |       2246197248

