 2017-02-05 20:40:16.868473+01 | 1486323616.86847 |                 0 |              29 |                295282 |                 5715 |           25816347 |       2850659 |            26915 |        16390657 |                     0 |      12092233 | 2017-02-05 18:10:53.010055+01

 2017-02-05 20:40:17.959481+01 | 1486323617.95948 |                 0 |              29 |                295282 |                 5715 |           25816347 |       2850659 |            26915 |        16390657 |                     0 |      12093293 | 2017-02-05 18:10:53.010055+01

 2017-02-05 20:40:19.051385+01 | 1486323619.05138 |                 0 |              29 |                295282 |                 5715 |           25816347 |       2850659 |            26915 |        16390657 |                     0 |      12094536 | 2017-02-05 18:10:53.010055+01

 2017-02-05 20:40:20.134213+01 | 1486323620.13421 |                 0 |              29 |                295282 |                 5715 |           25816347 |       2850659 |            26915 |        16390657 |                     0 |      12095608 | 2017-02-05 18:10:53.010055+01

 2017-02-05 20:40:21.211384+01 | 1486323621.21138 |                 0 |              29 |                295282 |                 5715 |           25816347 |       2850659 |            26915 |        16390657 |                     0 |      12096714 | 2017-02-05 18:10:53.010055+01

 2017-02-05 20:40:22.291807+01 | 1486323622.29181 |                 0 |              29 |                295282 |                 5715 |           25816347 |       2850659 |            26915 |        16390657 |                     0 |      12098120 | 2017-02-05 18:10:53.010055+01

 2017-02-05 20:40:23.365771+01 | 1486323623.36577 |                 0 |              29 |                295282 |                 5715 |           25816347 |       2850659 |            26915 |        16390657 |                     0 |      12099529 | 2017-02-05 18:10:53.010055+01

 2017-02-05 20:40:24.44938+01 | 1486323624.44938 |                 0 |              29 |                295282 |                 5715 |           25816347 |       2850659 |            26915 |        16390657 |                     0 |      12100691 | 2017-02-05 18:10:53.010055+01

 2017-02-05 20:40:25.531233+01 | 1486323625.53123 |                 0 |              29 |                295282 |                 5715 |           25816347 |       2850659 |            26915 |        16390657 |                     0 |      12102298 | 2017-02-05 18:10:53.010055+01

 2017-02-05 20:40:26.601015+01 | 1486323626.60102 |                 0 |              29 |                295282 |                 5715 |           25816347 |       2850659 |            26915 |        16390657 |                     0 |      12103576 | 2017-02-05 18:10:53.010055+01

 2017-02-05 20:40:27.674374+01 | 1486323627.67437 |                 0 |              29 |                295282 |                 5715 |           25816347 |       2850659 |            26915 |        16390657 |                     0 |      12104847 | 2017-02-05 18:10:53.010055+01

 2017-02-05 20:40:28.754948+01 | 1486323628.75495 |                 0 |              29 |                295282 |                 5715 |           25816347 |       2850659 |            26915 |        16390657 |                     0 |      12106429 | 2017-02-05 18:10:53.010055+01

 2017-02-05 20:40:29.841129+01 | 1486323629.84113 |                 0 |              29 |                295282 |                 5715 |           25816347 |       2850659 |            26915 |        16390657 |                     0 |      12107584 | 2017-02-05 18:10:53.010055+01

 2017-02-05 20:40:30.911471+01 | 1486323630.91147 |                 0 |              29 |                295282 |                 5715 |           25816347 |       2850659 |            26915 |        16390657 |                     0 |      12109209 | 2017-02-05 18:10:53.010055+01

 2017-02-05 20:40:31.98883+01 | 1486323631.98883 |                 0 |              29 |                295282 |                 5715 |           25816347 |       2850659 |            26915 |        16390657 |                     0 |      12110556 | 2017-02-05 18:10:53.010055+01

 2017-02-05 20:40:33.06179+01 | 1486323633.06179 |                 0 |              29 |                295282 |                 5715 |           25816347 |       2850659 |            26915 |        16390657 |                     0 |      12111657 | 2017-02-05 18:10:53.010055+01

 2017-02-05 20:40:34.139042+01 | 1486323634.13904 |                 0 |              29 |                295282 |                 5715 |           25816347 |       2850659 |            26915 |        16390657 |                     0 |      12113337 | 2017-02-05 18:10:53.010055+01

 2017-02-05 20:40:35.219137+01 | 1486323635.21914 |                 0 |              29 |                295282 |                 5715 |           25816347 |       2850659 |            26915 |        16390657 |                     0 |      12114649 | 2017-02-05 18:10:53.010055+01

 2017-02-05 20:40:36.297254+01 | 1486323636.29725 |                 0 |              29 |                295282 |                 5715 |           25816347 |       2850659 |            26915 |        16390657 |                     0 |      12116012 | 2017-02-05 18:10:53.010055+01

 2017-02-05 20:40:37.370301+01 | 1486323637.3703 |                 0 |              29 |                295282 |                 5715 |           25816347 |       2850659 |            26915 |        16390657 |                     0 |      12117674 | 2017-02-05 18:10:53.010055+01

 2017-02-05 20:40:38.44921+01 | 1486323638.44921 |                 0 |              29 |                295282 |                 5715 |           25816347 |       2850659 |            26915 |        16390657 |                     0 |      12119451 | 2017-02-05 18:10:53.010055+01

 2017-02-05 20:40:39.533163+01 | 1486323639.53316 |                 0 |              29 |                295282 |                 5715 |           25816347 |       2850659 |            26915 |        16390657 |                     0 |      12120779 | 2017-02-05 18:10:53.010055+01

 2017-02-05 20:40:40.606447+01 | 1486323640.60645 |                 0 |              29 |                295282 |                 5715 |           25816347 |       2850659 |            26915 |        16390657 |                     0 |      12122066 | 2017-02-05 18:10:53.010055+01

 2017-02-05 20:40:41.682022+01 | 1486323641.68202 |                 0 |              29 |                295282 |                 5715 |           25816347 |       2850659 |            26915 |        16390657 |                     0 |      12123354 | 2017-02-05 18:10:53.010055+01

 2017-02-05 20:40:42.767299+01 | 1486323642.7673 |                 0 |              29 |                295282 |                 5715 |           25816347 |       2850659 |            26915 |        16390657 |                     0 |      12124944 | 2017-02-05 18:10:53.010055+01

 2017-02-05 20:40:43.845379+01 | 1486323643.84538 |                 0 |              29 |                295282 |                 5715 |           25816347 |       2850659 |            26915 |        16390657 |                     0 |      12126252 | 2017-02-05 18:10:53.010055+01

 2017-02-05 20:40:44.922687+01 | 1486323644.92269 |                 0 |              29 |                295282 |                 5715 |           25816347 |       2850659 |            26915 |        16390657 |                     0 |      12128007 | 2017-02-05 18:10:53.010055+01

 2017-02-05 20:40:45.99866+01 | 1486323645.99866 |                 0 |              29 |                295282 |                 5715 |           25816347 |       2850659 |            26915 |        16390657 |                     0 |      12129172 | 2017-02-05 18:10:53.010055+01

 2017-02-05 20:40:47.078483+01 | 1486323647.07848 |                 0 |              29 |                295282 |                 5715 |           25816347 |       2850659 |            26915 |        16390657 |                     0 |      12130236 | 2017-02-05 18:10:53.010055+01

 2017-02-05 20:40:48.154665+01 | 1486323648.15466 |                 0 |              29 |                295282 |                 5715 |           25816347 |       2850659 |            26915 |        16390657 |                     0 |      12131847 | 2017-02-05 18:10:53.010055+01

 2017-02-05 20:40:49.232097+01 | 1486323649.2321 |                 0 |              29 |                295282 |                 5715 |           25816347 |       2850659 |            26915 |        16390657 |                     0 |      12133120 | 2017-02-05 18:10:53.010055+01

 2017-02-05 20:40:50.305742+01 | 1486323650.30574 |                 0 |              29 |                295282 |                 5715 |           25816347 |       2850659 |            26915 |        16390657 |                     0 |      12134393 | 2017-02-05 18:10:53.010055+01

 2017-02-05 20:40:51.37917+01 | 1486323651.37917 |                 0 |              29 |                295282 |                 5715 |           25816347 |       2850659 |            26915 |        16390657 |                     0 |      12136026 | 2017-02-05 18:10:53.010055+01

 2017-02-05 20:40:52.455019+01 | 1486323652.45502 |                 0 |              29 |                295282 |                 5715 |           25816347 |       2850659 |            26915 |        16390657 |                     0 |      12137092 | 2017-02-05 18:10:53.010055+01

 2017-02-05 20:40:53.533604+01 | 1486323653.5336 |                 0 |              29 |                295282 |                 5715 |           25816347 |       2850659 |            26915 |        16390657 |                     0 |      12138577 | 2017-02-05 18:10:53.010055+01

 2017-02-05 20:40:54.607838+01 | 1486323654.60784 |                 0 |              29 |                295282 |                 5715 |           25816347 |       2850659 |            26915 |        16390657 |                     0 |      12139819 | 2017-02-05 18:10:53.010055+01

 2017-02-05 20:40:55.688134+01 | 1486323655.68813 |                 0 |              29 |                295282 |                 5715 |           25816347 |       2850659 |            26915 |        16390657 |                     0 |      12141032 | 2017-02-05 18:10:53.010055+01

 2017-02-05 20:40:56.767194+01 | 1486323656.76719 |                 0 |              29 |                295282 |                 5715 |           25816347 |       2850659 |            26915 |        16390657 |                     0 |      12142610 | 2017-02-05 18:10:53.010055+01

 2017-02-05 20:40:57.844378+01 | 1486323657.84438 |                 0 |              29 |                295282 |                 5715 |           25816347 |       2850659 |            26915 |        16390657 |                     0 |      12143771 | 2017-02-05 18:10:53.010055+01

 2017-02-05 20:40:58.921206+01 | 1486323658.92121 |                 0 |              29 |                295282 |                 5715 |           25816347 |       2850659 |            26915 |        16390657 |                     0 |      12145002 | 2017-02-05 18:10:53.010055+01

 2017-02-05 20:41:00.000442+01 | 1486323660.00044 |                 0 |              29 |                295282 |                 5715 |           25816347 |       2850691 |            26915 |        16390657 |                     0 |      12146476 | 2017-02-05 18:10:53.010055+01

 2017-02-05 20:41:01.073495+01 | 1486323661.07349 |                 0 |              29 |                295282 |                 5715 |           25816347 |       2850736 |            26915 |        16390657 |                     0 |      12147690 | 2017-02-05 18:10:53.010055+01

 2017-02-05 20:41:02.144787+01 | 1486323662.14479 |                 0 |              29 |                295282 |                 5715 |           25816347 |       2850777 |            26915 |        16390657 |                     0 |      12149187 | 2017-02-05 18:10:53.010055+01

 2017-02-05 20:41:03.226433+01 | 1486323663.22643 |                 0 |              29 |                295282 |                 5715 |           25816347 |       2850828 |            26915 |        16390657 |                     0 |      12150498 | 2017-02-05 18:10:53.010055+01

 2017-02-05 20:41:04.305748+01 | 1486323664.30575 |                 0 |              29 |                295282 |                 5715 |           25816347 |       2850871 |            26915 |        16390657 |                     0 |      12151719 | 2017-02-05 18:10:53.010055+01

 2017-02-05 20:41:05.378757+01 | 1486323665.37876 |                 0 |              29 |                295282 |                 5715 |           25816347 |       2850919 |            26915 |        16390657 |                     0 |      12153011 | 2017-02-05 18:10:53.010055+01

 2017-02-05 20:41:06.455594+01 | 1486323666.45559 |                 0 |              29 |                295282 |                 5715 |           25816347 |       2850961 |            26915 |        16390657 |                     0 |      12154222 | 2017-02-05 18:10:53.010055+01

 2017-02-05 20:41:07.537944+01 | 1486323667.53794 |                 0 |              29 |                295282 |                 5715 |           25816347 |       2850986 |            26915 |        16390657 |                     0 |      12155248 | 2017-02-05 18:10:53.010055+01

 2017-02-05 20:41:08.613832+01 | 1486323668.61383 |                 0 |              29 |                295282 |                 5715 |           25816347 |       2851034 |            26915 |        16390657 |                     0 |      12156521 | 2017-02-05 18:10:53.010055+01

 2017-02-05 20:41:09.691696+01 | 1486323669.6917 |                 0 |              29 |                295282 |                 5715 |           25816347 |       2851072 |            26915 |        16390657 |                     0 |      12157586 | 2017-02-05 18:10:53.010055+01

 2017-02-05 20:41:10.763956+01 | 1486323670.76396 |                 0 |              29 |                295282 |                 5715 |           25816347 |       2851120 |            26915 |        16390657 |                     0 |      12158758 | 2017-02-05 18:10:53.010055+01

 2017-02-05 20:41:11.838356+01 | 1486323671.83836 |                 0 |              29 |                295282 |                 5715 |           25816347 |       2851167 |            26915 |        16390657 |                     0 |      12160118 | 2017-02-05 18:10:53.010055+01

 2017-02-05 20:41:12.912015+01 | 1486323672.91201 |                 0 |              29 |                295282 |                 5715 |           25816347 |       2851214 |            26915 |        16390657 |                     0 |      12161467 | 2017-02-05 18:10:53.010055+01

 2017-02-05 20:41:13.984118+01 | 1486323673.98412 |                 0 |              29 |                295282 |                 5715 |           25816347 |       2851277 |            26915 |        16390657 |                     0 |      12162987 | 2017-02-05 18:10:53.010055+01

 2017-02-05 20:41:15.067209+01 | 1486323675.06721 |                 0 |              29 |                295282 |                 5715 |           25816347 |       2851327 |            26915 |        16390657 |                     0 |      12164292 | 2017-02-05 18:10:53.010055+01

 2017-02-05 20:41:16.143172+01 | 1486323676.14317 |                 0 |              29 |                295282 |                 5715 |           25816347 |       2851374 |            26915 |        16390657 |                     0 |      12165384 | 2017-02-05 18:10:53.010055+01

 2017-02-05 20:41:17.217382+01 | 1486323677.21738 |                 0 |              29 |                295282 |                 5715 |           25816347 |       2851435 |            26915 |        16390657 |                     0 |      12166978 | 2017-02-05 18:10:53.010055+01

 2017-02-05 20:41:18.289508+01 | 1486323678.28951 |                 0 |              29 |                295282 |                 5715 |           25816347 |       2851467 |            26915 |        16390657 |                     0 |      12168286 | 2017-02-05 18:10:53.010055+01

 2017-02-05 20:41:19.36588+01 | 1486323679.36588 |                 0 |              29 |                295282 |                 5715 |           25816347 |       2851519 |            26915 |        16390657 |                     0 |      12169491 | 2017-02-05 18:10:53.010055+01

 2017-02-05 20:41:20.439798+01 | 1486323680.4398 |                 0 |              29 |                295282 |                 5715 |           25816347 |       2851580 |            26915 |        16390657 |                     0 |      12171069 | 2017-02-05 18:10:53.010055+01

 2017-02-05 20:41:21.513972+01 | 1486323681.51397 |                 0 |              29 |                295282 |                 5715 |           25816347 |       2851627 |            26915 |        16390657 |                     0 |      12172395 | 2017-02-05 18:10:53.010055+01

 2017-02-05 20:41:22.586984+01 | 1486323682.58698 |                 0 |              29 |                295282 |                 5715 |           25816347 |       2851683 |            26915 |        16390657 |                     0 |      12173607 | 2017-02-05 18:10:53.010055+01

 2017-02-05 20:41:23.659834+01 | 1486323683.65983 |                 0 |              29 |                295282 |                 5715 |           25816347 |       2851731 |            26915 |        16390657 |                     0 |      12174989 | 2017-02-05 18:10:53.010055+01

 2017-02-05 20:41:24.742692+01 | 1486323684.74269 |                 0 |              29 |                295282 |                 5715 |           25816347 |       2851765 |            26915 |        16390657 |                     0 |      12176152 | 2017-02-05 18:10:53.010055+01

 2017-02-05 20:41:25.820091+01 | 1486323685.82009 |                 0 |              29 |                295282 |                 5715 |           25816347 |       2851811 |            26915 |        16390657 |                     0 |      12177524 | 2017-02-05 18:10:53.010055+01

 2017-02-05 20:41:26.900063+01 | 1486323686.90006 |                 0 |              29 |                295282 |                 5715 |           25816347 |       2851845 |            26915 |        16390657 |                     0 |      12178732 | 2017-02-05 18:10:53.010055+01

 2017-02-05 20:41:27.975978+01 | 1486323687.97598 |                 0 |              29 |                295282 |                 5715 |           25816347 |       2851893 |            26915 |        16390657 |                     0 |      12179877 | 2017-02-05 18:10:53.010055+01

 2017-02-05 20:41:29.053161+01 | 1486323689.05316 |                 0 |              29 |                295282 |                 5715 |           25816347 |       2851945 |            26915 |        16390657 |                     0 |      12181265 | 2017-02-05 18:10:53.010055+01

 2017-02-05 20:41:30.125502+01 | 1486323690.1255 |                 0 |              29 |                295282 |                 5715 |           25816347 |       2851991 |            26915 |        16390657 |                     0 |      12182380 | 2017-02-05 18:10:53.010055+01

 2017-02-05 20:41:31.19961+01 | 1486323691.19961 |                 0 |              29 |                295282 |                 5715 |           25816347 |       2852033 |            26915 |        16390657 |                     0 |      12183448 | 2017-02-05 18:10:53.010055+01

 2017-02-05 20:41:32.278295+01 | 1486323692.2783 |                 0 |              29 |                295282 |                 5715 |           25816347 |       2852083 |            26915 |        16390657 |                     0 |      12184801 | 2017-02-05 18:10:53.010055+01

 2017-02-05 20:41:33.352448+01 | 1486323693.35245 |                 0 |              29 |                295282 |                 5715 |           25816347 |       2852123 |            26915 |        16390657 |                     0 |      12185795 | 2017-02-05 18:10:53.010055+01

 2017-02-05 20:41:34.434949+01 | 1486323694.43495 |                 0 |              29 |                295282 |                 5715 |           25816347 |       2852172 |            26915 |        16390657 |                     0 |      12187160 | 2017-02-05 18:10:53.010055+01

 2017-02-05 20:41:35.510298+01 | 1486323695.5103 |                 0 |              29 |                295282 |                 5715 |           25816347 |       2852200 |            26915 |        16390657 |                     0 |      12188161 | 2017-02-05 18:10:53.010055+01

 2017-02-05 20:41:36.58732+01 | 1486323696.58732 |                 0 |              29 |                295282 |                 5715 |           25816347 |       2852239 |            26915 |        16390657 |                     0 |      12189180 | 2017-02-05 18:10:53.010055+01

 2017-02-05 20:41:37.667563+01 | 1486323697.66756 |                 0 |              29 |                295282 |                 5715 |           25816347 |       2852566 |            26918 |        16390657 |                     0 |      12190438 | 2017-02-05 18:10:53.010055+01

 2017-02-05 20:41:38.747693+01 | 1486323698.74769 |                 0 |              29 |                295282 |                 5715 |           25816347 |       2853066 |            26923 |        16390657 |                     0 |      12191741 | 2017-02-05 18:10:53.010055+01

 2017-02-05 20:41:39.826637+01 | 1486323699.82664 |                 0 |              29 |                295282 |                 5715 |           25816347 |       2853566 |            26928 |        16390657 |                     0 |      12192934 | 2017-02-05 18:10:53.010055+01

 2017-02-05 20:41:40.90346+01 | 1486323700.90346 |                 0 |              29 |                295282 |                 5715 |           25816347 |       2854166 |            26934 |        16390657 |                     0 |      12194515 | 2017-02-05 18:10:53.010055+01

 2017-02-05 20:41:41.984982+01 | 1486323701.98498 |                 0 |              29 |                295282 |                 5715 |           25816347 |       2854666 |            26939 |        16390657 |                     0 |      12195904 | 2017-02-05 18:10:53.010055+01

 2017-02-05 20:41:43.059359+01 | 1486323703.05936 |                 0 |              29 |                295282 |                 5715 |           25816347 |       2855166 |            26944 |        16390657 |                     0 |      12197150 | 2017-02-05 18:10:53.010055+01

 2017-02-05 20:41:44.135218+01 | 1486323704.13522 |                 0 |              29 |                295282 |                 5715 |           25816347 |       2855766 |            26950 |        16390657 |                     0 |      12198707 | 2017-02-05 18:10:53.010055+01

 2017-02-05 20:41:45.216748+01 | 1486323705.21675 |                 0 |              29 |                295282 |                 5715 |           25816347 |       2856266 |            26955 |        16390657 |                     0 |      12200029 | 2017-02-05 18:10:53.010055+01

 2017-02-05 20:41:46.2907+01 | 1486323706.2907 |                 0 |              29 |                295282 |                 5715 |           25816347 |       2856766 |            26960 |        16390657 |                     0 |      12201161 | 2017-02-05 18:10:53.010055+01

 2017-02-05 20:41:47.36744+01 | 1486323707.36744 |                 0 |              29 |                295282 |                 5715 |           25816347 |       2857366 |            26966 |        16390657 |                     0 |      12202534 | 2017-02-05 18:10:53.010055+01

 2017-02-05 20:41:48.44875+01 | 1486323708.44875 |                 0 |              29 |                295282 |                 5715 |           25816347 |       2857866 |            26971 |        16390657 |                     0 |      12203622 | 2017-02-05 18:10:53.010055+01

 2017-02-05 20:41:49.521787+01 | 1486323709.52179 |                 0 |              29 |                295282 |                 5715 |           25816347 |       2858366 |            26976 |        16390657 |                     0 |      12204946 | 2017-02-05 18:10:53.010055+01

 2017-02-05 20:41:50.598148+01 | 1486323710.59815 |                 0 |              29 |                295282 |                 5715 |           25816347 |       2858966 |            26982 |        16390657 |                     0 |      12206470 | 2017-02-05 18:10:53.010055+01

 2017-02-05 20:41:51.676451+01 | 1486323711.67645 |                 0 |              29 |                295282 |                 5715 |           25816347 |       2859466 |            26987 |        16390657 |                     0 |      12207803 | 2017-02-05 18:10:53.010055+01

 2017-02-05 20:41:52.755659+01 | 1486323712.75566 |                 0 |              29 |                295282 |                 5715 |           25816347 |       2859966 |            26992 |        16390657 |                     0 |      12208964 | 2017-02-05 18:10:53.010055+01

 2017-02-05 20:41:53.829619+01 | 1486323713.82962 |                 0 |              29 |                295282 |                 5715 |           25816347 |       2860566 |            26998 |        16390657 |                     0 |      12210616 | 2017-02-05 18:10:53.010055+01

 2017-02-05 20:41:54.910697+01 | 1486323714.9107 |                 0 |              29 |                295282 |                 5715 |           25816347 |       2861066 |            27003 |        16390657 |                     0 |      12211923 | 2017-02-05 18:10:53.010055+01

 2017-02-05 20:41:55.987206+01 | 1486323715.98721 |                 0 |              29 |                295282 |                 5715 |           25816347 |       2861566 |            27008 |        16390657 |                     0 |      12213142 | 2017-02-05 18:10:53.010055+01

 2017-02-05 20:41:57.055432+01 | 1486323717.05543 |                 0 |              29 |                295282 |                 5715 |           25816347 |       2862166 |            27014 |        16390657 |                     0 |      12214648 | 2017-02-05 18:10:53.010055+01

 2017-02-05 20:41:58.133401+01 | 1486323718.1334 |                 0 |              29 |                295282 |                 5715 |           25816347 |       2862666 |            27019 |        16390657 |                     0 |      12215976 | 2017-02-05 18:10:53.010055+01

 2017-02-05 20:41:59.214822+01 | 1486323719.21482 |                 0 |              29 |                295282 |                 5715 |           25816347 |       2863166 |            27024 |        16390657 |                     0 |      12217310 | 2017-02-05 18:10:53.010055+01

 2017-02-05 20:42:00.293171+01 | 1486323720.29317 |                 0 |              29 |                295282 |                 5715 |           25816347 |       2863766 |            27030 |        16390657 |                     0 |      12218944 | 2017-02-05 18:10:53.010055+01

 2017-02-05 20:42:01.370306+01 | 1486323721.37031 |                 0 |              29 |                295282 |                 5715 |           25816347 |       2864266 |            27035 |        16390657 |                     0 |      12220134 | 2017-02-05 18:10:53.010055+01

 2017-02-05 20:42:02.439659+01 | 1486323722.43966 |                 0 |              29 |                295282 |                 5715 |           25816347 |       2864766 |            27040 |        16390657 |                     0 |      12221901 | 2017-02-05 18:10:53.010055+01

 2017-02-05 20:42:03.520327+01 | 1486323723.52033 |                 0 |              29 |                295282 |                 5715 |           25816347 |       2865366 |            27046 |        16390657 |                     0 |      12223325 | 2017-02-05 18:10:53.010055+01

 2017-02-05 20:42:04.601489+01 | 1486323724.60149 |                 0 |              29 |                295282 |                 5715 |           25816347 |       2865866 |            27051 |        16390657 |                     0 |      12224525 | 2017-02-05 18:10:53.010055+01

 2017-02-05 20:42:05.678244+01 | 1486323725.67824 |                 0 |              29 |                295282 |                 5715 |           25816347 |       2866366 |            27056 |        16390657 |                     0 |      12225784 | 2017-02-05 18:10:53.010055+01

 2017-02-05 20:42:06.758132+01 | 1486323726.75813 |                 0 |              29 |                295282 |                 5715 |           25816347 |       2866966 |            27062 |        16390657 |                     0 |      12227569 | 2017-02-05 18:10:53.010055+01

 2017-02-05 20:42:07.841219+01 | 1486323727.84122 |                 0 |              29 |                295282 |                 5715 |           25816347 |       2867466 |            27067 |        16390657 |                     0 |      12228703 | 2017-02-05 18:10:53.010055+01

 2017-02-05 20:42:08.91778+01 | 1486323728.91778 |                 0 |              29 |                295282 |                 5715 |           25816347 |       2867966 |            27072 |        16390657 |                     0 |      12229971 | 2017-02-05 18:10:53.010055+01

 2017-02-05 20:42:09.994957+01 | 1486323729.99496 |                 0 |              29 |                295282 |                 5715 |           25816347 |       2868566 |            27078 |        16390657 |                     0 |      12231494 | 2017-02-05 18:10:53.010055+01

 2017-02-05 20:42:11.069738+01 | 1486323731.06974 |                 0 |              29 |                295282 |                 5715 |           25816347 |       2869066 |            27083 |        16390657 |                     0 |      12232659 | 2017-02-05 18:10:53.010055+01

 2017-02-05 20:42:12.150109+01 | 1486323732.15011 |                 0 |              29 |                295282 |                 5715 |           25816347 |       2869566 |            27088 |        16390657 |                     0 |      12233960 | 2017-02-05 18:10:53.010055+01

 2017-02-05 20:42:13.22971+01 | 1486323733.22971 |                 0 |              29 |                295282 |                 5715 |           25816347 |       2870166 |            27094 |        16390657 |                     0 |      12235439 | 2017-02-05 18:10:53.010055+01

 2017-02-05 20:42:14.312455+01 | 1486323734.31245 |                 0 |              29 |                295282 |                 5715 |           25816347 |       2870666 |            27099 |        16390657 |                     0 |      12236760 | 2017-02-05 18:10:53.010055+01

 2017-02-05 20:42:15.390265+01 | 1486323735.39026 |                 0 |              29 |                295282 |                 5715 |           25816347 |       2871166 |            27104 |        16390657 |                     0 |      12237988 | 2017-02-05 18:10:53.010055+01

 2017-02-05 20:42:16.46346+01 | 1486323736.46346 |                 0 |              29 |                295282 |                 5715 |           25816347 |       2871766 |            27110 |        16390657 |                     0 |      12239785 | 2017-02-05 18:10:53.010055+01

 2017-02-05 20:42:17.541226+01 | 1486323737.54123 |                 0 |              29 |                295282 |                 5715 |           25816347 |       2872266 |            27115 |        16390657 |                     0 |      12240918 | 2017-02-05 18:10:53.010055+01

 2017-02-05 20:42:18.616718+01 | 1486323738.61672 |                 0 |              29 |                295282 |                 5715 |           25816347 |       2872766 |            27120 |        16390657 |                     0 |      12242186 | 2017-02-05 18:10:53.010055+01

 2017-02-05 20:42:19.697114+01 | 1486323739.69711 |                 0 |              29 |                295282 |                 5715 |           25816347 |       2873366 |            27126 |        16390657 |                     0 |      12243810 | 2017-02-05 18:10:53.010055+01

 2017-02-05 20:42:20.772953+01 | 1486323740.77295 |                 0 |              29 |                295282 |                 5715 |           25816347 |       2873866 |            27131 |        16390657 |                     0 |      12244987 | 2017-02-05 18:10:53.010055+01

 2017-02-05 20:42:21.85288+01 | 1486323741.85288 |                 0 |              29 |                295282 |                 5715 |           25816347 |       2874366 |            27136 |        16390657 |                     0 |      12246249 | 2017-02-05 18:10:53.010055+01

 2017-02-05 20:42:22.94204+01 | 1486323742.94204 |                 0 |              29 |                295282 |                 5715 |           25816347 |       2874966 |            27142 |        16390657 |                     0 |      12247798 | 2017-02-05 18:10:53.010055+01

 2017-02-05 20:42:24.022743+01 | 1486323744.02274 |                 0 |              29 |                295282 |                 5715 |           25816347 |       2875466 |            27147 |        16390657 |                     0 |      12249002 | 2017-02-05 18:10:53.010055+01

 2017-02-05 20:42:25.098273+01 | 1486323745.09827 |                 0 |              29 |                295282 |                 5715 |           25816347 |       2876066 |            27153 |        16390657 |                     0 |      12250603 | 2017-02-05 18:10:53.010055+01

 2017-02-05 20:42:26.173542+01 | 1486323746.17354 |                 0 |              29 |                295282 |                 5715 |           25816347 |       2876566 |            27158 |        16390657 |                     0 |      12251839 | 2017-02-05 18:10:53.010055+01

 2017-02-05 20:42:27.246948+01 | 1486323747.24695 |                 0 |              29 |                295282 |                 5715 |           25816347 |       2877066 |            27163 |        16390657 |                     0 |      12253241 | 2017-02-05 18:10:53.010055+01

 2017-02-05 20:42:28.324925+01 | 1486323748.32492 |                 0 |              29 |                295282 |                 5715 |           25816347 |       2877566 |            27168 |        16390657 |                     0 |      12254469 | 2017-02-05 18:10:53.010055+01

 2017-02-05 20:42:29.39869+01 | 1486323749.39869 |                 0 |              29 |                295282 |                 5715 |           25816347 |       2878166 |            27174 |        16390657 |                     0 |      12256020 | 2017-02-05 18:10:53.010055+01

 2017-02-05 20:42:30.471321+01 | 1486323750.47132 |                 0 |              29 |                295282 |                 5715 |           25816347 |       2878666 |            27179 |        16390657 |                     0 |      12257306 | 2017-02-05 18:10:53.010055+01

 2017-02-05 20:42:31.540849+01 | 1486323751.54085 |                 0 |              29 |                295282 |                 5715 |           25816347 |       2879066 |            27183 |        16390657 |                     0 |      12258331 | 2017-02-05 18:10:53.010055+01

 2017-02-05 20:42:32.619019+01 | 1486323752.61902 |                 0 |              29 |                295282 |                 5715 |           25816347 |       2879766 |            27190 |        16390657 |                     0 |      12260205 | 2017-02-05 18:10:53.010055+01

 2017-02-05 20:42:33.704191+01 | 1486323753.70419 |                 0 |              29 |                295282 |                 5715 |           25816347 |       2880266 |            27195 |        16390657 |                     0 |      12261716 | 2017-02-05 18:10:53.010055+01

 2017-02-05 20:42:34.788903+01 | 1486323754.7889 |                 0 |              29 |                295282 |                 5715 |           25816347 |       2880866 |            27201 |        16390657 |                     0 |      12263268 | 2017-02-05 18:10:53.010055+01

 2017-02-05 20:42:35.867005+01 | 1486323755.86701 |                 0 |              29 |                295282 |                 5715 |           25816347 |       2881366 |            27206 |        16390657 |                     0 |      12264562 | 2017-02-05 18:10:53.010055+01

 2017-02-05 20:42:36.942155+01 | 1486323756.94215 |                 0 |              29 |                295282 |                 5715 |           25816347 |       2881866 |            27211 |        16390657 |                     0 |      12265798 | 2017-02-05 18:10:53.010055+01

 2017-02-05 20:42:38.019204+01 | 1486323758.0192 |                 0 |              29 |                295282 |                 5715 |           25816347 |       2882466 |            27217 |        16390657 |                     0 |      12267361 | 2017-02-05 18:10:53.010055+01

 2017-02-05 20:42:39.095832+01 | 1486323759.09583 |                 0 |              29 |                295282 |                 5715 |           25816347 |       2882966 |            27222 |        16390657 |                     0 |      12268654 | 2017-02-05 18:10:53.010055+01

 2017-02-05 20:42:40.16642+01 | 1486323760.16642 |                 0 |              29 |                295282 |                 5715 |           25816347 |       2883466 |            27227 |        16390657 |                     0 |      12269908 | 2017-02-05 18:10:53.010055+01

 2017-02-05 20:42:41.255874+01 | 1486323761.25587 |                 0 |              29 |                295282 |                 5715 |           25816347 |       2884066 |            27233 |        16390657 |                     0 |      12271554 | 2017-02-05 18:10:53.010055+01

 2017-02-05 20:42:42.33454+01 | 1486323762.33454 |                 0 |              29 |                295282 |                 5715 |           25816347 |       2884566 |            27238 |        16390657 |                     0 |      12272666 | 2017-02-05 18:10:53.010055+01

 2017-02-05 20:42:43.41663+01 | 1486323763.41663 |                 0 |              29 |                295282 |                 5715 |           25816347 |       2885066 |            27243 |        16390657 |                     0 |      12273892 | 2017-02-05 18:10:53.010055+01

 2017-02-05 20:42:44.495642+01 | 1486323764.49564 |                 0 |              29 |                295282 |                 5715 |           25816347 |       2885666 |            27249 |        16390657 |                     0 |      12275422 | 2017-02-05 18:10:53.010055+01

 2017-02-05 20:42:45.575566+01 | 1486323765.57557 |                 0 |              29 |                295282 |                 5715 |           25816347 |       2886166 |            27254 |        16390657 |                     0 |      12276708 | 2017-02-05 18:10:53.010055+01

 2017-02-05 20:42:46.654317+01 | 1486323766.65432 |                 0 |              29 |                295282 |                 5715 |           25816347 |       2886666 |            27259 |        16390657 |                     0 |      12277999 | 2017-02-05 18:10:53.010055+01

 2017-02-05 20:42:47.733815+01 | 1486323767.73381 |                 0 |              29 |                295282 |                 5715 |           25816347 |       2887266 |            27265 |        16390657 |                     0 |      12279530 | 2017-02-05 18:10:53.010055+01

 2017-02-05 20:42:48.807695+01 | 1486323768.80769 |                 0 |              29 |                295282 |                 5715 |           25816347 |       2887766 |            27270 |        16390657 |                     0 |      12280707 | 2017-02-05 18:10:53.010055+01

 2017-02-05 20:42:49.880209+01 | 1486323769.88021 |                 0 |              29 |                295282 |                 5715 |           25816347 |       2888266 |            27275 |        16390657 |                     0 |      12281967 | 2017-02-05 18:10:53.010055+01

 2017-02-05 20:42:50.957357+01 | 1486323770.95736 |                 0 |              29 |                295282 |                 5715 |           25816347 |       2888866 |            27281 |        16390657 |                     0 |      12283533 | 2017-02-05 18:10:53.010055+01

 2017-02-05 20:42:52.031276+01 | 1486323772.03128 |                 0 |              29 |                295282 |                 5715 |           25816347 |       2889366 |            27286 |        16390657 |                     0 |      12284834 | 2017-02-05 18:10:53.010055+01

 2017-02-05 20:42:53.116959+01 | 1486323773.11696 |                 0 |              29 |                295282 |                 5715 |           25816347 |       2889866 |            27291 |        16390657 |                     0 |      12286138 | 2017-02-05 18:10:53.010055+01

 2017-02-05 20:42:54.194746+01 | 1486323774.19475 |                 0 |              29 |                295282 |                 5715 |           25816347 |       2890466 |            27297 |        16390657 |                     0 |      12287708 | 2017-02-05 18:10:53.010055+01

 2017-02-05 20:42:55.2686+01 | 1486323775.2686 |                 0 |              29 |                295282 |                 5715 |           25816347 |       2890966 |            27302 |        16390657 |                     0 |      12288922 | 2017-02-05 18:10:53.010055+01

 2017-02-05 20:42:56.338986+01 | 1486323776.33899 |                 0 |              29 |                295282 |                 5715 |           25816347 |       2891466 |            27307 |        16390657 |                     0 |      12290006 | 2017-02-05 18:10:53.010055+01

 2017-02-05 20:42:57.422499+01 | 1486323777.4225 |                 0 |              29 |                295282 |                 5715 |           25816347 |       2892066 |            27313 |        16390657 |                     0 |      12291662 | 2017-02-05 18:10:53.010055+01

 2017-02-05 20:42:58.497008+01 | 1486323778.49701 |                 0 |              29 |                295282 |                 5715 |           25816347 |       2892566 |            27318 |        16390657 |                     0 |      12292903 | 2017-02-05 18:10:53.010055+01

 2017-02-05 20:42:59.574418+01 | 1486323779.57442 |                 0 |              29 |                295282 |                 5715 |           25816347 |       2893066 |            27323 |        16390657 |                     0 |      12294186 | 2017-02-05 18:10:53.010055+01

 2017-02-05 20:43:00.650761+01 | 1486323780.65076 |                 0 |              29 |                295282 |                 5715 |           25816347 |       2893666 |            27329 |        16390657 |                     0 |      12295728 | 2017-02-05 18:10:53.010055+01

 2017-02-05 20:43:01.731051+01 | 1486323781.73105 |                 0 |              29 |                295282 |                 5715 |           25816347 |       2894166 |            27334 |        16390657 |                     0 |      12296972 | 2017-02-05 18:10:53.010055+01

 2017-02-05 20:43:02.805589+01 | 1486323782.80559 |                 0 |              29 |                295282 |                 5715 |           25816347 |       2894666 |            27339 |        16390657 |                     0 |      12298307 | 2017-02-05 18:10:53.010055+01

 2017-02-05 20:43:03.879797+01 | 1486323783.8798 |                 0 |              29 |                295282 |                 5715 |           25816347 |       2895266 |            27345 |        16390657 |                     0 |      12299967 | 2017-02-05 18:10:53.010055+01

 2017-02-05 20:43:04.952173+01 | 1486323784.95217 |                 0 |              29 |                295282 |                 5715 |           25816347 |       2895766 |            27350 |        16390657 |                     0 |      12301212 | 2017-02-05 18:10:53.010055+01

 2017-02-05 20:43:06.026427+01 | 1486323786.02643 |                 0 |              29 |                295282 |                 5715 |           25816347 |       2896266 |            27355 |        16390657 |                     0 |      12302540 | 2017-02-05 18:10:53.010055+01

 2017-02-05 20:43:07.101502+01 | 1486323787.1015 |                 0 |              29 |                295282 |                 5715 |           25816347 |       2896866 |            27361 |        16390657 |                     0 |      12304151 | 2017-02-05 18:10:53.010055+01

 2017-02-05 20:43:08.177355+01 | 1486323788.17736 |                 0 |              29 |                295282 |                 5715 |           25816347 |       2897366 |            27366 |        16390657 |                     0 |      12305672 | 2017-02-05 18:10:53.010055+01

 2017-02-05 20:43:09.255603+01 | 1486323789.2556 |                 0 |              29 |                295282 |                 5715 |           25816347 |       2897866 |            27371 |        16390657 |                     0 |      12306775 | 2017-02-05 18:10:53.010055+01

 2017-02-05 20:43:10.325468+01 | 1486323790.32547 |                 0 |              29 |                295282 |                 5715 |           25816347 |       2898466 |            27377 |        16390657 |                     0 |      12308497 | 2017-02-05 18:10:53.010055+01

 2017-02-05 20:43:11.403132+01 | 1486323791.40313 |                 0 |              29 |                295282 |                 5715 |           25816347 |       2898966 |            27382 |        16390657 |                     0 |      12309714 | 2017-02-05 18:10:53.010055+01

 2017-02-05 20:43:12.477408+01 | 1486323792.47741 |                 0 |              29 |                295282 |                 5715 |           25816347 |       2899466 |            27387 |        16390657 |                     0 |      12310997 | 2017-02-05 18:10:53.010055+01

 2017-02-05 20:43:13.561489+01 | 1486323793.56149 |                 0 |              29 |                295282 |                 5715 |           25816347 |       2900066 |            27393 |        16390657 |                     0 |      12312599 | 2017-02-05 18:10:53.010055+01

 2017-02-05 20:43:14.649547+01 | 1486323794.64955 |                 0 |              29 |                295282 |                 5715 |           25816347 |       2900566 |            27398 |        16390657 |                     0 |      12314001 | 2017-02-05 18:10:53.010055+01

 2017-02-05 20:43:15.7316+01 | 1486323795.7316 |                 0 |              29 |                295282 |                 5715 |           25816347 |       2901066 |            27403 |        16390657 |                     0 |      12315163 | 2017-02-05 18:10:53.010055+01

 2017-02-05 20:43:16.80821+01 | 1486323796.80821 |                 0 |              29 |                295282 |                 5715 |           25816347 |       2901666 |            27409 |        16390657 |                     0 |      12316737 | 2017-02-05 18:10:53.010055+01

 2017-02-05 20:43:17.883488+01 | 1486323797.88349 |                 0 |              29 |                295282 |                 5715 |           25816347 |       2902166 |            27414 |        16390657 |                     0 |      12318093 | 2017-02-05 18:10:53.010055+01

 2017-02-05 20:43:18.963444+01 | 1486323798.96344 |                 0 |              29 |                295282 |                 5715 |           25816347 |       2902666 |            27419 |        16390657 |                     0 |      12319419 | 2017-02-05 18:10:53.010055+01

 2017-02-05 20:43:20.038612+01 | 1486323800.03861 |                 0 |              29 |                295282 |                 5715 |           25816347 |       2903266 |            27425 |        16390657 |                     0 |      12321105 | 2017-02-05 18:10:53.010055+01

 2017-02-05 20:43:21.111461+01 | 1486323801.11146 |                 0 |              29 |                295282 |                 5715 |           25816347 |       2903766 |            27430 |        16390657 |                     0 |      12322280 | 2017-02-05 18:10:53.010055+01

 2017-02-05 20:43:22.182339+01 | 1486323802.18234 |                 0 |              29 |                295282 |                 5715 |           25816347 |       2904266 |            27435 |        16390657 |                     0 |      12323399 | 2017-02-05 18:10:53.010055+01

 2017-02-05 20:43:23.262165+01 | 1486323803.26217 |                 0 |              29 |                295282 |                 5715 |           25816347 |       2904866 |            27441 |        16390657 |                     0 |      12324908 | 2017-02-05 18:10:53.010055+01

 2017-02-05 20:43:24.3418+01 | 1486323804.3418 |                 0 |              29 |                295282 |                 5715 |           25816347 |       2905366 |            27446 |        16390657 |                     0 |      12326161 | 2017-02-05 18:10:53.010055+01

 2017-02-05 20:43:25.424786+01 | 1486323805.42479 |                 0 |              29 |                295282 |                 5715 |           25816347 |       2905866 |            27451 |        16390657 |                     0 |      12327562 | 2017-02-05 18:10:53.010055+01

 2017-02-05 20:43:26.502748+01 | 1486323806.50275 |                 0 |              29 |                295282 |                 5715 |           25816347 |       2906466 |            27457 |        16390657 |                     0 |      12329054 | 2017-02-05 18:10:53.010055+01

 2017-02-05 20:43:27.582357+01 | 1486323807.58236 |                 0 |              29 |                295282 |                 5715 |           25816347 |       2906966 |            27462 |        16390657 |                     0 |      12330305 | 2017-02-05 18:10:53.010055+01

 2017-02-05 20:43:28.665086+01 | 1486323808.66509 |                 0 |              29 |                295282 |                 5715 |           25816347 |       2907466 |            27467 |        16390657 |                     0 |      12331608 | 2017-02-05 18:10:53.010055+01

 2017-02-05 20:43:29.745522+01 | 1486323809.74552 |                 0 |              29 |                295282 |                 5715 |           25816347 |       2908066 |            27473 |        16390657 |                     0 |      12333159 | 2017-02-05 18:10:53.010055+01

 2017-02-05 20:43:30.817919+01 | 1486323810.81792 |                 0 |              29 |                295282 |                 5715 |           25816347 |       2908566 |            27478 |        16390657 |                     0 |      12334408 | 2017-02-05 18:10:53.010055+01

 2017-02-05 20:43:31.899932+01 | 1486323811.89993 |                 0 |              29 |                295282 |                 5715 |           25816347 |       2909066 |            27483 |        16390657 |                     0 |      12335646 | 2017-02-05 18:10:53.010055+01

 2017-02-05 20:43:32.975212+01 | 1486323812.97521 |                 0 |              29 |                295282 |                 5715 |           25816347 |       2909666 |            27489 |        16390657 |                     0 |      12337092 | 2017-02-05 18:10:53.010055+01

 2017-02-05 20:43:34.05293+01 | 1486323814.05293 |                 0 |              29 |                295282 |                 5715 |           25816347 |       2910166 |            27494 |        16390657 |                     0 |      12338392 | 2017-02-05 18:10:53.010055+01

 2017-02-05 20:43:35.127461+01 | 1486323815.12746 |                 0 |              29 |                295282 |                 5715 |           25816347 |       2910666 |            27499 |        16390657 |                     0 |      12339734 | 2017-02-05 18:10:53.010055+01

 2017-02-05 20:43:36.204887+01 | 1486323816.20489 |                 0 |              29 |                295282 |                 5715 |           25816347 |       2911266 |            27505 |        16390657 |                     0 |      12341294 | 2017-02-05 18:10:53.010055+01

 2017-02-05 20:43:37.287563+01 | 1486323817.28756 |                 0 |              29 |                295282 |                 5715 |           25816347 |       2911766 |            27510 |        16390657 |                     0 |      12342545 | 2017-02-05 18:10:53.010055+01

 2017-02-05 20:43:38.362958+01 | 1486323818.36296 |                 0 |              29 |                295282 |                 5715 |           25816347 |       2912266 |            27515 |        16390657 |                     0 |      12343781 | 2017-02-05 18:10:53.010055+01

 2017-02-05 20:43:39.433316+01 | 1486323819.43332 |                 0 |              29 |                295282 |                 5715 |           25816347 |       2912866 |            27521 |        16390657 |                     0 |      12345294 | 2017-02-05 18:10:53.010055+01

 2017-02-05 20:43:40.52035+01 | 1486323820.52035 |                 0 |              29 |                295282 |                 5715 |           25816347 |       2913366 |            27526 |        16390657 |                     0 |      12346424 | 2017-02-05 18:10:53.010055+01

 2017-02-05 20:43:41.604179+01 | 1486323821.60418 |                 0 |              29 |                295282 |                 5715 |           25816347 |       2913866 |            27531 |        16390657 |                     0 |      12347700 | 2017-02-05 18:10:53.010055+01

 2017-02-05 20:43:42.675911+01 | 1486323822.67591 |                 0 |              29 |                295282 |                 5715 |           25816347 |       2914466 |            27537 |        16390657 |                     0 |      12348973 | 2017-02-05 18:10:53.010055+01

 2017-02-05 20:43:43.749225+01 | 1486323823.74922 |                 0 |              29 |                295282 |                 5715 |           25816347 |       2914966 |            27542 |        16390657 |                     0 |      12349980 | 2017-02-05 18:10:53.010055+01

 2017-02-05 20:43:44.83085+01 | 1486323824.83085 |                 0 |              29 |                295282 |                 5715 |           25816347 |       2915466 |            27547 |        16390657 |                     0 |      12351154 | 2017-02-05 18:10:53.010055+01

 2017-02-05 20:43:45.907572+01 | 1486323825.90757 |                 0 |              29 |                295282 |                 5715 |           25816347 |       2916066 |            27553 |        16390657 |                     0 |      12352484 | 2017-02-05 18:10:53.010055+01

 2017-02-05 20:43:46.982115+01 | 1486323826.98212 |                 0 |              29 |                295282 |                 5715 |           25816347 |       2916566 |            27558 |        16390657 |                     0 |      12353667 | 2017-02-05 18:10:53.010055+01

 2017-02-05 20:43:48.0692+01 | 1486323828.0692 |                 0 |              29 |                295282 |                 5715 |           25816347 |       2917066 |            27563 |        16390657 |                     0 |      12354819 | 2017-02-05 18:10:53.010055+01

 2017-02-05 20:43:49.146698+01 | 1486323829.1467 |                 0 |              29 |                295282 |                 5715 |           25816347 |       2917666 |            27569 |        16390657 |                     0 |      12355945 | 2017-02-05 18:10:53.010055+01

 2017-02-05 20:43:50.216147+01 | 1486323830.21615 |                 0 |              29 |                295282 |                 5715 |           25816347 |       2918166 |            27574 |        16390657 |                     0 |      12356995 | 2017-02-05 18:10:53.010055+01

 2017-02-05 20:43:51.28913+01 | 1486323831.28913 |                 0 |              29 |                295282 |                 5715 |           25816347 |       2918666 |            27579 |        16390657 |                     0 |      12358050 | 2017-02-05 18:10:53.010055+01

 2017-02-05 20:43:52.361266+01 | 1486323832.36127 |                 0 |              29 |                295282 |                 5715 |           25816347 |       2919266 |            27585 |        16390657 |                     0 |      12359363 | 2017-02-05 18:10:53.010055+01

 2017-02-05 20:43:53.433887+01 | 1486323833.43389 |                 0 |              29 |                295282 |                 5715 |           25816347 |       2919766 |            27590 |        16390657 |                     0 |      12360406 | 2017-02-05 18:10:53.010055+01

 2017-02-05 20:43:54.511087+01 | 1486323834.51109 |                 0 |              29 |                295282 |                 5715 |           25816347 |       2920266 |            27595 |        16390657 |                     0 |      12361659 | 2017-02-05 18:10:53.010055+01

 2017-02-05 20:43:55.584428+01 | 1486323835.58443 |                 0 |              29 |                295282 |                 5715 |           25816347 |       2920866 |            27601 |        16390657 |                     0 |      12363218 | 2017-02-05 18:10:53.010055+01

 2017-02-05 20:43:56.660685+01 | 1486323836.66069 |                 0 |              29 |                295282 |                 5715 |           25816347 |       2921366 |            27606 |        16390657 |                     0 |      12364399 | 2017-02-05 18:10:53.010055+01

 2017-02-05 20:43:57.739045+01 | 1486323837.73904 |                 0 |              29 |                295282 |                 5715 |           25816347 |       2921866 |            27611 |        16390657 |                     0 |      12365804 | 2017-02-05 18:10:53.010055+01

 2017-02-05 20:43:58.813013+01 | 1486323838.81301 |                 0 |              29 |                295282 |                 5715 |           25816347 |       2922466 |            27617 |        16390657 |                     0 |      12367553 | 2017-02-05 18:10:53.010055+01

 2017-02-05 20:43:59.890069+01 | 1486323839.89007 |                 0 |              29 |                295282 |                 5715 |           25816347 |       2922966 |            27622 |        16390657 |                     0 |      12368888 | 2017-02-05 18:10:53.010055+01

 2017-02-05 20:44:00.960336+01 | 1486323840.96034 |                 0 |              29 |                295282 |                 5715 |           25816347 |       2923466 |            27627 |        16390657 |                     0 |      12370089 | 2017-02-05 18:10:53.010055+01

 2017-02-05 20:44:02.03447+01 | 1486323842.03447 |                 0 |              29 |                295282 |                 5715 |           25816347 |       2924066 |            27633 |        16390657 |                     0 |      12371640 | 2017-02-05 18:10:53.010055+01

 2017-02-05 20:44:03.112189+01 | 1486323843.11219 |                 0 |              29 |                295282 |                 5715 |           25816347 |       2924566 |            27638 |        16390657 |                     0 |      12373020 | 2017-02-05 18:10:53.010055+01

 2017-02-05 20:44:04.198037+01 | 1486323844.19804 |                 0 |              29 |                295282 |                 5715 |           25816347 |       2925066 |            27643 |        16390657 |                     0 |      12374291 | 2017-02-05 18:10:53.010055+01

 2017-02-05 20:44:05.27713+01 | 1486323845.27713 |                 0 |              29 |                295282 |                 5715 |           25816347 |       2925666 |            27649 |        16390657 |                     0 |      12375949 | 2017-02-05 18:10:53.010055+01

 2017-02-05 20:44:06.350866+01 | 1486323846.35087 |                 0 |              29 |                295282 |                 5715 |           25816347 |       2926166 |            27654 |        16390657 |                     0 |      12376906 | 2017-02-05 18:10:53.010055+01

 2017-02-05 20:44:07.431677+01 | 1486323847.43168 |                 0 |              29 |                295282 |                 5715 |           25816347 |       2926666 |            27659 |        16390657 |                     0 |      12378124 | 2017-02-05 18:10:53.010055+01

 2017-02-05 20:44:08.507371+01 | 1486323848.50737 |                 0 |              29 |                295282 |                 5715 |           25816347 |       2927266 |            27665 |        16390657 |                     0 |      12379401 | 2017-02-05 18:10:53.010055+01

 2017-02-05 20:44:09.595499+01 | 1486323849.5955 |                 0 |              29 |                295282 |                 5715 |           25816347 |       2927766 |            27670 |        16390657 |                     0 |      12380570 | 2017-02-05 18:10:53.010055+01

 2017-02-05 20:44:10.668916+01 | 1486323850.66892 |                 0 |              29 |                295282 |                 5715 |           25816347 |       2928266 |            27675 |        16390657 |                     0 |      12381681 | 2017-02-05 18:10:53.010055+01

 2017-02-05 20:44:11.748224+01 | 1486323851.74822 |                 0 |              29 |                295282 |                 5715 |           25816347 |       2928866 |            27681 |        16390657 |                     0 |      12382894 | 2017-02-05 18:10:53.010055+01

 2017-02-05 20:44:12.820544+01 | 1486323852.82054 |                 0 |              29 |                295282 |                 5715 |           25816347 |       2929366 |            27686 |        16390657 |                     0 |      12384089 | 2017-02-05 18:10:53.010055+01

 2017-02-05 20:44:13.901449+01 | 1486323853.90145 |                 0 |              29 |                295282 |                 5715 |           25816347 |       2929866 |            27691 |        16390657 |                     0 |      12385455 | 2017-02-05 18:10:53.010055+01

 2017-02-05 20:44:14.983216+01 | 1486323854.98322 |                 0 |              29 |                295282 |                 5715 |           25816347 |       2930466 |            27697 |        16390657 |                     0 |      12387077 | 2017-02-05 18:10:53.010055+01

 2017-02-05 20:44:16.060643+01 | 1486323856.06064 |                 0 |              29 |                295282 |                 5715 |           25816347 |       2930966 |            27702 |        16390657 |                     0 |      12388347 | 2017-02-05 18:10:53.010055+01

 2017-02-05 20:44:17.132771+01 | 1486323857.13277 |                 0 |              29 |                295282 |                 5715 |           25816347 |       2931566 |            27708 |        16390657 |                     0 |      12390063 | 2017-02-05 18:10:53.010055+01

 2017-02-05 20:44:18.205858+01 | 1486323858.20586 |                 0 |              29 |                295282 |                 5715 |           25816347 |       2932066 |            27713 |        16390657 |                     0 |      12391404 | 2017-02-05 18:10:53.010055+01

 2017-02-05 20:44:19.281348+01 | 1486323859.28135 |                 0 |              29 |                295282 |                 5715 |           25816347 |       2932566 |            27718 |        16390657 |                     0 |      12392602 | 2017-02-05 18:10:53.010055+01

 2017-02-05 20:44:20.355941+01 | 1486323860.35594 |                 0 |              29 |                295282 |                 5715 |           25816347 |       2933066 |            27723 |        16390657 |                     0 |      12394006 | 2017-02-05 18:10:53.010055+01

 2017-02-05 20:44:21.426423+01 | 1486323861.42642 |                 0 |              29 |                295282 |                 5715 |           25816347 |       2933666 |            27729 |        16390657 |                     0 |      12395653 | 2017-02-05 18:10:53.010055+01

 2017-02-05 20:44:22.506609+01 | 1486323862.50661 |                 0 |              29 |                295282 |                 5715 |           25816347 |       2934166 |            27734 |        16390657 |                     0 |      12397022 | 2017-02-05 18:10:53.010055+01

 2017-02-05 20:44:23.582407+01 | 1486323863.58241 |                 0 |              29 |                295282 |                 5715 |           25816347 |       2934666 |            27739 |        16390657 |                     0 |      12398425 | 2017-02-05 18:10:53.010055+01

 2017-02-05 20:44:24.657719+01 | 1486323864.65772 |                 0 |              29 |                295282 |                 5715 |           25816347 |       2935266 |            27745 |        16390657 |                     0 |      12400078 | 2017-02-05 18:10:53.010055+01

 2017-02-05 20:44:25.729982+01 | 1486323865.72998 |                 0 |              29 |                295282 |                 5715 |           25816347 |       2935766 |            27750 |        16390657 |                     0 |      12401233 | 2017-02-05 18:10:53.010055+01

 2017-02-05 20:44:26.806778+01 | 1486323866.80678 |                 0 |              29 |                295282 |                 5715 |           25816347 |       2936266 |            27755 |        16390657 |                     0 |      12402642 | 2017-02-05 18:10:53.010055+01

 2017-02-05 20:44:27.880982+01 | 1486323867.88098 |                 0 |              29 |                295282 |                 5715 |           25816347 |       2936866 |            27761 |        16390657 |                     0 |      12404261 | 2017-02-05 18:10:53.010055+01

 2017-02-05 20:44:28.960962+01 | 1486323868.96096 |                 0 |              29 |                295282 |                 5715 |           25816347 |       2937366 |            27766 |        16390657 |                     0 |      12405502 | 2017-02-05 18:10:53.010055+01

 2017-02-05 20:44:30.039938+01 | 1486323870.03994 |                 0 |              29 |                295282 |                 5715 |           25816347 |       2937866 |            27771 |        16390657 |                     0 |      12406797 | 2017-02-05 18:10:53.010055+01

 2017-02-05 20:44:31.11449+01 | 1486323871.11449 |                 0 |              29 |                295282 |                 5715 |           25816347 |       2938466 |            27777 |        16390657 |                     0 |      12408320 | 2017-02-05 18:10:53.010055+01

 2017-02-05 20:44:32.189696+01 | 1486323872.1897 |                 0 |              29 |                295282 |                 5715 |           25816347 |       2938966 |            27782 |        16390657 |                     0 |      12409718 | 2017-02-05 18:10:53.010055+01

 2017-02-05 20:44:33.266261+01 | 1486323873.26626 |                 0 |              29 |                295282 |                 5715 |           25816347 |       2939466 |            27787 |        16390657 |                     0 |      12411006 | 2017-02-05 18:10:53.010055+01

 2017-02-05 20:44:34.339366+01 | 1486323874.33937 |                 0 |              29 |                295282 |                 5715 |           25816347 |       2940066 |            27793 |        16390657 |                     0 |      12412699 | 2017-02-05 18:10:53.010055+01

 2017-02-05 20:44:35.413899+01 | 1486323875.4139 |                 0 |              29 |                295282 |                 5715 |           25816347 |       2940566 |            27798 |        16390657 |                     0 |      12414130 | 2017-02-05 18:10:53.010055+01

 2017-02-05 20:44:36.485549+01 | 1486323876.48555 |                 0 |              29 |                295282 |                 5715 |           25816347 |       2941066 |            27803 |        16390657 |                     0 |      12415404 | 2017-02-05 18:10:53.010055+01

 2017-02-05 20:44:37.557949+01 | 1486323877.55795 |                 0 |              29 |                295282 |                 5715 |           25816347 |       2941666 |            27809 |        16390657 |                     0 |      12416985 | 2017-02-05 18:10:53.010055+01

 2017-02-05 20:44:38.632583+01 | 1486323878.63258 |                 0 |              29 |                295282 |                 5715 |           25816347 |       2942166 |            27814 |        16390657 |                     0 |      12418443 | 2017-02-05 18:10:53.010055+01

 2017-02-05 20:44:39.704498+01 | 1486323879.7045 |                 0 |              29 |                295282 |                 5715 |           25816347 |       2942666 |            27819 |        16390657 |                     0 |      12420034 | 2017-02-05 18:10:53.010055+01

 2017-02-05 20:44:40.781825+01 | 1486323880.78183 |                 0 |              29 |                295282 |                 5715 |           25816347 |       2943266 |            27825 |        16390657 |                     0 |      12421492 | 2017-02-05 18:10:53.010055+01

 2017-02-05 20:44:41.859554+01 | 1486323881.85955 |                 0 |              29 |                295282 |                 5715 |           25816347 |       2943766 |            27830 |        16390657 |                     0 |      12422878 | 2017-02-05 18:10:53.010055+01

 2017-02-05 20:44:42.930831+01 | 1486323882.93083 |                 0 |              29 |                295282 |                 5715 |           25816347 |       2944266 |            27835 |        16390657 |                     0 |      12424160 | 2017-02-05 18:10:53.010055+01

 2017-02-05 20:44:44.00523+01 | 1486323884.00523 |                 0 |              29 |                295282 |                 5715 |           25816347 |       2944866 |            27841 |        16390657 |                     0 |      12425814 | 2017-02-05 18:10:53.010055+01

 2017-02-05 20:44:45.077008+01 | 1486323885.07701 |                 0 |              29 |                295282 |                 5715 |           25816347 |       2945366 |            27846 |        16390657 |                     0 |      12427287 | 2017-02-05 18:10:53.010055+01

 2017-02-05 20:44:46.152486+01 | 1486323886.15249 |                 0 |              29 |                295282 |                 5715 |           25816347 |       2945866 |            27851 |        16390657 |                     0 |      12428645 | 2017-02-05 18:10:53.010055+01

 2017-02-05 20:44:47.239666+01 | 1486323887.23967 |                 0 |              29 |                295282 |                 5715 |           25816347 |       2946466 |            27857 |        16390657 |                     0 |      12430372 | 2017-02-05 18:10:53.010055+01

 2017-02-05 20:44:48.309659+01 | 1486323888.30966 |                 0 |              29 |                295282 |                 5715 |           25816347 |       2946966 |            27862 |        16390657 |                     0 |      12431786 | 2017-02-05 18:10:53.010055+01

 2017-02-05 20:44:49.386188+01 | 1486323889.38619 |                 0 |              29 |                295282 |                 5715 |           25816347 |       2947466 |            27867 |        16390657 |                     0 |      12433269 | 2017-02-05 18:10:53.010055+01

 2017-02-05 20:44:50.463396+01 | 1486323890.4634 |                 0 |              29 |                295282 |                 5715 |           25816347 |       2948066 |            27873 |        16390657 |                     0 |      12434820 | 2017-02-05 18:10:53.010055+01

 2017-02-05 20:44:51.536757+01 | 1486323891.53676 |                 0 |              29 |                295282 |                 5715 |           25816347 |       2948566 |            27878 |        16390657 |                     0 |      12436100 | 2017-02-05 18:10:53.010055+01

 2017-02-05 20:44:52.614198+01 | 1486323892.6142 |                 0 |              29 |                295282 |                 5715 |           25816347 |       2949066 |            27883 |        16390657 |                     0 |      12437531 | 2017-02-05 18:10:53.010055+01

 2017-02-05 20:44:53.693313+01 | 1486323893.69331 |                 0 |              29 |                295282 |                 5715 |           25816347 |       2949666 |            27889 |        16390657 |                     0 |      12439210 | 2017-02-05 18:10:53.010055+01

 2017-02-05 20:44:54.772819+01 | 1486323894.77282 |                 0 |              29 |                295282 |                 5715 |           25816347 |       2950166 |            27894 |        16390657 |                     0 |      12440557 | 2017-02-05 18:10:53.010055+01

 2017-02-05 20:44:55.857272+01 | 1486323895.85727 |                 0 |              29 |                295282 |                 5715 |           25816347 |       2950666 |            27899 |        16390657 |                     0 |      12441768 | 2017-02-05 18:10:53.010055+01

 2017-02-05 20:44:56.93816+01 | 1486323896.93816 |                 0 |              29 |                295282 |                 5715 |           25816347 |       2951266 |            27905 |        16390657 |                     0 |      12443057 | 2017-02-05 18:10:53.010055+01

 2017-02-05 20:44:58.01793+01 | 1486323898.01793 |                 0 |              29 |                295282 |                 5715 |           25816347 |       2951766 |            27910 |        16390657 |                     0 |      12444419 | 2017-02-05 18:10:53.010055+01

 2017-02-05 20:44:59.097818+01 | 1486323899.09782 |                 0 |              29 |                295282 |                 5715 |           25816347 |       2952266 |            27915 |        16390657 |                     0 |      12445765 | 2017-02-05 18:10:53.010055+01

 2017-02-05 20:45:00.176006+01 | 1486323900.17601 |                 0 |              29 |                295282 |                 5715 |           25816347 |       2952866 |            27921 |        16390657 |                     0 |      12447370 | 2017-02-05 18:10:53.010055+01

 2017-02-05 20:45:01.245238+01 | 1486323901.24524 |                 0 |              29 |                295282 |                 5715 |           25816347 |       2953366 |            27926 |        16390657 |                     0 |      12448534 | 2017-02-05 18:10:53.010055+01

 2017-02-05 20:45:02.319111+01 | 1486323902.31911 |                 0 |              29 |                295282 |                 5715 |           25816347 |       2953866 |            27931 |        16390657 |                     0 |      12449799 | 2017-02-05 18:10:53.010055+01

 2017-02-05 20:45:03.391129+01 | 1486323903.39113 |                 0 |              29 |                295282 |                 5715 |           25816347 |       2954466 |            27937 |        16390657 |                     0 |      12451568 | 2017-02-05 18:10:53.010055+01

 2017-02-05 20:45:04.464634+01 | 1486323904.46463 |                 0 |              29 |                295282 |                 5715 |           25816347 |       2954966 |            27942 |        16390657 |                     0 |      12452944 | 2017-02-05 18:10:53.010055+01

 2017-02-05 20:45:05.541511+01 | 1486323905.54151 |                 0 |              29 |                295282 |                 5715 |           25816347 |       2955466 |            27947 |        16390657 |                     0 |      12454268 | 2017-02-05 18:10:53.010055+01

 2017-02-05 20:45:06.621011+01 | 1486323906.62101 |                 0 |              29 |                295282 |                 5715 |           25816347 |       2956066 |            27953 |        16390657 |                     0 |      12456012 | 2017-02-05 18:10:53.010055+01

 2017-02-05 20:45:07.694393+01 | 1486323907.69439 |                 0 |              29 |                295282 |                 5715 |           25816347 |       2956566 |            27958 |        16390657 |                     0 |      12457496 | 2017-02-05 18:10:53.010055+01

 2017-02-05 20:45:08.771533+01 | 1486323908.77153 |                 0 |              29 |                295282 |                 5715 |           25816347 |       2957066 |            27963 |        16390657 |                     0 |      12458768 | 2017-02-05 18:10:53.010055+01

 2017-02-05 20:45:09.85493+01 | 1486323909.85493 |                 0 |              29 |                295282 |                 5715 |           25816347 |       2957666 |            27969 |        16390657 |                     0 |      12460398 | 2017-02-05 18:10:53.010055+01

 2017-02-05 20:45:10.932492+01 | 1486323910.93249 |                 0 |              29 |                295282 |                 5715 |           25816347 |       2958166 |            27974 |        16390657 |                     0 |      12461796 | 2017-02-05 18:10:53.010055+01

 2017-02-05 20:45:12.01531+01 | 1486323912.01531 |                 0 |              29 |                295282 |                 5715 |           25816347 |       2958666 |            27979 |        16390657 |                     0 |      12463153 | 2017-02-05 18:10:53.010055+01

 2017-02-05 20:45:13.090824+01 | 1486323913.09082 |                 0 |              29 |                295282 |                 5715 |           25816347 |       2959266 |            27985 |        16390657 |                     0 |      12464932 | 2017-02-05 18:10:53.010055+01

 2017-02-05 20:45:14.165721+01 | 1486323914.16572 |                 0 |              29 |                295282 |                 5715 |           25816347 |       2959766 |            27990 |        16390657 |                     0 |      12466197 | 2017-02-05 18:10:53.010055+01

 2017-02-05 20:45:15.244608+01 | 1486323915.24461 |                 0 |              29 |                295282 |                 5715 |           25816347 |       2960266 |            27995 |        16390657 |                     0 |      12467697 | 2017-02-05 18:10:53.010055+01

 2017-02-05 20:45:16.326444+01 | 1486323916.32644 |                 0 |              29 |                295282 |                 5715 |           25816347 |       2960866 |            28001 |        16390657 |                     0 |      12469236 | 2017-02-05 18:10:53.010055+01

