 2017-02-05 20:40:16.794135+01 | 1486323616.79414 | 50/B2763550              |          346591475024

 2017-02-05 20:40:17.889384+01 | 1486323617.88938 | 50/C2F59E98              |          346868260504

 2017-02-05 20:40:18.977464+01 | 1486323618.97746 | 50/D22B26E0              |          347123427040

 2017-02-05 20:40:20.070224+01 | 1486323620.07022 | 50/E0CF04E8              |          347369047272

 2017-02-05 20:40:21.147826+01 | 1486323621.14783 | 50/EF1108F8              |          347608254712

 2017-02-05 20:40:22.226738+01 | 1486323622.22674 | 50/FD58C538              |          347847836984

 2017-02-05 20:40:23.309264+01 | 1486323623.30926 | 51/B5FEAE8               |          348083186408

 2017-02-05 20:40:24.382858+01 | 1486323624.38286 | 51/17B4DB80              |          348290079616

 2017-02-05 20:40:25.464036+01 | 1486323625.46404 | 51/237E05B8              |          348487812536

 2017-02-05 20:40:26.544745+01 | 1486323626.54474 | 51/2E878448              |          348672984136

 2017-02-05 20:40:27.613593+01 | 1486323627.61359 | 51/388A0F30              |          348840922928

 2017-02-05 20:40:28.689643+01 | 1486323628.68964 | 51/41EAA068              |          348998246504

 2017-02-05 20:40:29.770676+01 | 1486323629.77068 | 51/4AFD7B50              |          349150477136

 2017-02-05 20:40:30.854292+01 | 1486323630.85429 | 51/53E91B20              |          349300136736

 2017-02-05 20:40:31.926064+01 | 1486323631.92606 | 51/5C0C5800              |          349436663808

 2017-02-05 20:40:33.00355+01 | 1486323633.00355 | 51/62AB3E48              |          349547740744

 2017-02-05 20:40:34.075629+01 | 1486323634.07563 | 51/69FD8848              |          349670574152

 2017-02-05 20:40:35.155545+01 | 1486323635.15554 | 51/7103BA68              |          349788420712

 2017-02-05 20:40:36.234335+01 | 1486323636.23433 | 51/77D9AC10              |          349903105040

 2017-02-05 20:40:37.311769+01 | 1486323637.31177 | 51/7E8A6858              |          350015350872

 2017-02-05 20:40:38.385037+01 | 1486323638.38504 | 51/8492CF50              |          350116564816

 2017-02-05 20:40:39.467339+01 | 1486323639.46734 | 51/8AA92088              |          350218690696

 2017-02-05 20:40:40.547032+01 | 1486323640.54703 | 51/9032F8D0              |          350311610576

 2017-02-05 20:40:41.62242+01 | 1486323641.62242 | 51/9598AAC0              |          350402161344

 2017-02-05 20:40:42.697434+01 | 1486323642.69743 | 51/9ADEDBE8              |          350490647528

 2017-02-05 20:40:43.78129+01 | 1486323643.78129 | 51/9FBF9108              |          350572482824

 2017-02-05 20:40:44.860306+01 | 1486323644.86031 | 51/A47837B0              |          350651692976

 2017-02-05 20:40:45.936081+01 | 1486323645.93608 | 51/A8DCE670              |          350725400176

 2017-02-05 20:40:47.012369+01 | 1486323647.01237 | 51/AD064578              |          350795220344

 2017-02-05 20:40:48.093003+01 | 1486323648.093 | 51/B1518C80              |          350867262592

 2017-02-05 20:40:49.170137+01 | 1486323649.17014 | 51/B58ADF00              |          350938128128

 2017-02-05 20:40:50.245664+01 | 1486323650.24566 | 51/B9E16D88              |          351010909576

 2017-02-05 20:40:51.320376+01 | 1486323651.32038 | 51/BDF1CC60              |          351079091296

 2017-02-05 20:40:52.39583+01 | 1486323652.39583 | 51/C163B5E8              |          351136888296

 2017-02-05 20:40:53.469963+01 | 1486323653.46996 | 51/C51CCAB8              |          351199349432

 2017-02-05 20:40:54.552234+01 | 1486323654.55223 | 51/C8C3F530              |          351260636464

 2017-02-05 20:40:55.624519+01 | 1486323655.62452 | 51/CC57C8A0              |          351320656032

 2017-02-05 20:40:56.70357+01 | 1486323656.70357 | 51/CFE26AF8              |          351380073208

 2017-02-05 20:40:57.782141+01 | 1486323657.78214 | 51/D3494A80              |          351437146752

 2017-02-05 20:40:58.858004+01 | 1486323658.858 | 51/D6A3F248              |          351493419592

 2017-02-05 20:40:59.937669+01 | 1486323659.93767 | 51/DA0B1608              |          351550510600

 2017-02-05 20:41:01.015028+01 | 1486323661.01503 | 51/DD4BA758              |          351605073752

 2017-02-05 20:41:02.087919+01 | 1486323662.08792 | 51/E07AD0E0              |          351658496224

 2017-02-05 20:41:03.160106+01 | 1486323663.16011 | 51/E3846120              |          351709454624

 2017-02-05 20:41:04.240758+01 | 1486323664.24076 | 51/E66CEBF0              |          351758248944

 2017-02-05 20:41:05.321753+01 | 1486323665.32175 | 51/E9130788              |          351802689416

 2017-02-05 20:41:06.39496+01 | 1486323666.39496 | 51/EBCAF540              |          351848297792

 2017-02-05 20:41:07.470496+01 | 1486323667.4705 | 51/EE498680              |          351890146944

 2017-02-05 20:41:08.552595+01 | 1486323668.55259 | 51/F0C1BB80              |          351931579264

 2017-02-05 20:41:09.627604+01 | 1486323669.6276 | 51/F3193830              |          351970867248

 2017-02-05 20:41:10.705497+01 | 1486323670.7055 | 51/F5AF1F00              |          352014245632

 2017-02-05 20:41:11.779117+01 | 1486323671.77912 | 51/F86E8910              |          352060344592

 2017-02-05 20:41:12.853988+01 | 1486323672.85399 | 51/FB3F6340              |          352107586368

 2017-02-05 20:41:13.926577+01 | 1486323673.92658 | 51/FDF9AEC8              |          352153349832

 2017-02-05 20:41:15.001193+01 | 1486323675.00119 | 52/A3D0E0                |          352198054112

 2017-02-05 20:41:16.080597+01 | 1486323676.0806 | 52/2F284E8               |          352236766440

 2017-02-05 20:41:17.157074+01 | 1486323677.15707 | 52/57FA2F0               |          352279569136

 2017-02-05 20:41:18.232338+01 | 1486323678.23234 | 52/804D8E8               |          352321853672

 2017-02-05 20:41:19.305209+01 | 1486323679.30521 | 52/A95D580               |          352364909952

 2017-02-05 20:41:20.379411+01 | 1486323680.37941 | 52/D0A9848               |          352406116424

 2017-02-05 20:41:21.455096+01 | 1486323681.4551 | 52/F7CBBF8               |          352447151096

 2017-02-05 20:41:22.529739+01 | 1486323682.52974 | 52/11D1DBF0              |          352486284272

 2017-02-05 20:41:23.601036+01 | 1486323683.60104 | 52/140EEA38              |          352523840056

 2017-02-05 20:41:24.676235+01 | 1486323684.67623 | 52/16328AA0              |          352559729312

 2017-02-05 20:41:25.757748+01 | 1486323685.75775 | 52/184E6DA0              |          352595111328

 2017-02-05 20:41:26.835607+01 | 1486323686.83561 | 52/1A805F08              |          352631938824

 2017-02-05 20:41:27.914046+01 | 1486323687.91405 | 52/1C916F00              |          352666611456

 2017-02-05 20:41:28.993252+01 | 1486323688.99325 | 52/1EAF70E0              |          352702132448

 2017-02-05 20:41:30.068028+01 | 1486323690.06803 | 52/20A980C8              |          352735297736

 2017-02-05 20:41:31.139856+01 | 1486323691.13986 | 52/228DE540              |          352767042880

 2017-02-05 20:41:32.215729+01 | 1486323692.21573 | 52/2474B380              |          352798946176

 2017-02-05 20:41:33.292338+01 | 1486323693.29234 | 52/264B6C50              |          352829795408

 2017-02-05 20:41:34.369067+01 | 1486323694.36907 | 52/2815FDA8              |          352859848104

 2017-02-05 20:41:35.448905+01 | 1486323695.4489 | 52/29D82EF0              |          352889351920

 2017-02-05 20:41:36.524832+01 | 1486323696.52483 | 52/2B978668              |          352918668904

 2017-02-05 20:41:37.602172+01 | 1486323697.60217 | 52/2D64B358              |          352948892504

 2017-02-05 20:41:38.683511+01 | 1486323698.68351 | 52/2F79A858              |          352983820376

 2017-02-05 20:41:39.763827+01 | 1486323699.76383 | 52/319477A8              |          353019131816

 2017-02-05 20:41:40.841237+01 | 1486323700.84124 | 52/33BD7CF0              |          353055374576

 2017-02-05 20:41:41.921069+01 | 1486323701.92107 | 52/35F3F5E0              |          353092498912

 2017-02-05 20:41:42.9991+01 | 1486323702.9991 | 52/380B17A0              |          353127569312

 2017-02-05 20:41:44.075533+01 | 1486323704.07553 | 52/3A4042E0              |          353164608224

 2017-02-05 20:41:45.151497+01 | 1486323705.1515 | 52/3C5D1650              |          353200051792

 2017-02-05 20:41:46.231413+01 | 1486323706.23141 | 52/3EE6F6B8              |          353242642104

 2017-02-05 20:41:47.304248+01 | 1486323707.30425 | 52/412BCA68              |          353280707176

 2017-02-05 20:41:48.384913+01 | 1486323708.38491 | 52/43C66B68              |          353324395368

 2017-02-05 20:41:49.46303+01 | 1486323709.46303 | 52/46C1F250              |          353374433872

 2017-02-05 20:41:50.536361+01 | 1486323710.53636 | 52/49B1EE58              |          353423715928

 2017-02-05 20:41:51.611887+01 | 1486323711.61189 | 52/4C8B52E0              |          353471517408

 2017-02-05 20:41:52.694345+01 | 1486323712.69434 | 52/4F6CA0C0              |          353519837376

 2017-02-05 20:41:53.770171+01 | 1486323713.77017 | 52/52594BC0              |          353568902080

 2017-02-05 20:41:54.844442+01 | 1486323714.84444 | 52/55393BE8              |          353617132520

 2017-02-05 20:41:55.927128+01 | 1486323715.92713 | 52/5814BC70              |          353665072240

 2017-02-05 20:41:57.00123+01 | 1486323717.00123 | 52/5ADB1518              |          353711625496

 2017-02-05 20:41:58.068583+01 | 1486323718.06858 | 52/5DAA5EE0              |          353758764768

 2017-02-05 20:41:59.148475+01 | 1486323719.14847 | 52/6076BA60              |          353805711968

 2017-02-05 20:42:00.230551+01 | 1486323720.23055 | 52/634BF778              |          353853241208

 2017-02-05 20:42:01.3097+01 | 1486323721.3097 | 52/66035B00              |          353898814208

 2017-02-05 20:42:02.3854+01 | 1486323722.3854 | 52/68961540              |          353941984576

 2017-02-05 20:42:03.45448+01 | 1486323723.45448 | 52/6B309B40              |          353985665856

 2017-02-05 20:42:04.536457+01 | 1486323724.53646 | 52/6DEC50C0              |          354031521984

 2017-02-05 20:42:05.61536+01 | 1486323725.61536 | 52/708A6460              |          354075436128

 2017-02-05 20:42:06.69375+01 | 1486323726.69375 | 52/733CC938              |          354120681784

 2017-02-05 20:42:07.774636+01 | 1486323727.77464 | 52/75EDC958              |          354165836120

 2017-02-05 20:42:08.855752+01 | 1486323728.85575 | 52/7879D200              |          354208567808

 2017-02-05 20:42:09.934396+01 | 1486323729.9344 | 52/7AFB5C68              |          354250611816

 2017-02-05 20:42:11.008483+01 | 1486323731.00848 | 52/7D67CF40              |          354291273536

 2017-02-05 20:42:12.083652+01 | 1486323732.08365 | 52/7FDAE3C0              |          354332369856

 2017-02-05 20:42:13.165492+01 | 1486323733.16549 | 52/82306660              |          354371528288

 2017-02-05 20:42:14.244087+01 | 1486323734.24409 | 52/84689D18              |          354408766744

 2017-02-05 20:42:15.32829+01 | 1486323735.32829 | 52/86D104E0              |          354449163488

 2017-02-05 20:42:16.404382+01 | 1486323736.40438 | 52/895DE0F0              |          354491949296

 2017-02-05 20:42:17.478347+01 | 1486323737.47835 | 52/8BCA8250              |          354532622928

 2017-02-05 20:42:18.556461+01 | 1486323738.55646 | 52/8E575980              |          354575407488

 2017-02-05 20:42:19.632701+01 | 1486323739.6327 | 52/90D3AA30              |          354617109040

 2017-02-05 20:42:20.712379+01 | 1486323740.71238 | 52/93427798              |          354657925016

 2017-02-05 20:42:21.789205+01 | 1486323741.78921 | 52/958B54E8              |          354696254696

 2017-02-05 20:42:22.870859+01 | 1486323742.87086 | 52/97E8BF08              |          354735931144

 2017-02-05 20:42:23.95733+01 | 1486323743.95733 | 52/9A3530C0              |          354774495424

 2017-02-05 20:42:25.036567+01 | 1486323745.03657 | 52/9C8ED230              |          354813923888

 2017-02-05 20:42:26.113456+01 | 1486323746.11346 | 52/9EFE5100              |          354854785280

 2017-02-05 20:42:27.187963+01 | 1486323747.18796 | 52/A1681B60              |          354895272800

 2017-02-05 20:42:28.26088+01 | 1486323748.26088 | 52/A3C77308              |          354935075592

 2017-02-05 20:42:29.339003+01 | 1486323749.339 | 52/A61FE518              |          354974426392

 2017-02-05 20:42:30.412394+01 | 1486323750.41239 | 52/A85B5510              |          355011876112

 2017-02-05 20:42:31.485199+01 | 1486323751.4852 | 52/AA9EC480              |          355049849984

 2017-02-05 20:42:32.553962+01 | 1486323752.55396 | 52/AC946E78              |          355082727032

 2017-02-05 20:42:33.638936+01 | 1486323753.63894 | 52/AE8CC330              |          355115778864

 2017-02-05 20:42:34.722455+01 | 1486323754.72246 | 52/B0A1F960              |          355150723424

 2017-02-05 20:42:35.804901+01 | 1486323755.8049 | 52/B2E91F60              |          355188940640

 2017-02-05 20:42:36.881223+01 | 1486323756.88122 | 52/B50F85A8              |          355225011624

 2017-02-05 20:42:37.955885+01 | 1486323757.95588 | 52/B73815F8              |          355261224440

 2017-02-05 20:42:39.035129+01 | 1486323759.03513 | 52/B94B30A0              |          355296030880

 2017-02-05 20:42:40.110369+01 | 1486323760.11037 | 52/BB78B9F0              |          355332569584

 2017-02-05 20:42:41.179734+01 | 1486323761.17973 | 52/BDA4A6A0              |          355369002656

 2017-02-05 20:42:42.268783+01 | 1486323762.26878 | 52/BF781120              |          355399635232

 2017-02-05 20:42:43.350613+01 | 1486323763.35061 | 52/C17D01C8              |          355433513416

 2017-02-05 20:42:44.430008+01 | 1486323764.43001 | 52/C3834E78              |          355467480696

 2017-02-05 20:42:45.510968+01 | 1486323765.51097 | 52/C57D9DF0              |          355500662256

 2017-02-05 20:42:46.590462+01 | 1486323766.59046 | 52/C773D960              |          355533576544

 2017-02-05 20:42:47.66971+01 | 1486323767.66971 | 52/C961A2F8              |          355565937400

 2017-02-05 20:42:48.747827+01 | 1486323768.74783 | 52/CB476A50              |          355597773392

 2017-02-05 20:42:49.820395+01 | 1486323769.82039 | 52/CD205F88              |          355628769160

 2017-02-05 20:42:50.894149+01 | 1486323770.89415 | 52/CEF56560              |          355659507040

 2017-02-05 20:42:51.972191+01 | 1486323771.97219 | 52/D0D168C8              |          355690703048

 2017-02-05 20:42:53.049104+01 | 1486323773.0491 | 52/D2A9E710              |          355721668368

 2017-02-05 20:42:54.132506+01 | 1486323774.13251 | 52/D47F8938              |          355752446264

 2017-02-05 20:42:55.21037+01 | 1486323775.21037 | 52/D643AFB0              |          355782078384

 2017-02-05 20:42:56.282103+01 | 1486323776.2821 | 52/D7D1E090              |          355808174224

 2017-02-05 20:42:57.352417+01 | 1486323777.35242 | 52/D98E3000              |          355837292544

 2017-02-05 20:42:58.435765+01 | 1486323778.43577 | 52/DB37AD78              |          355865177464

 2017-02-05 20:42:59.512857+01 | 1486323779.51286 | 52/DCE52280              |          355893322368

 2017-02-05 20:43:00.588359+01 | 1486323780.58836 | 52/DE88F4A8              |          355920835752

 2017-02-05 20:43:01.666999+01 | 1486323781.667 | 52/E024AD30              |          355947818288

 2017-02-05 20:43:02.744821+01 | 1486323782.74482 | 52/E1CBE4F8              |          355975554296

 2017-02-05 20:43:03.819747+01 | 1486323783.81975 | 52/E3761660              |          356003485280

 2017-02-05 20:43:04.893925+01 | 1486323784.89392 | 52/E50FE928              |          356030343464

 2017-02-05 20:43:05.966194+01 | 1486323785.96619 | 52/E6956DB8              |          356055870904

 2017-02-05 20:43:07.040436+01 | 1486323787.04044 | 52/E81ABFB8              |          356081385400

 2017-02-05 20:43:08.118+01 | 1486323788.118 | 52/E99D47F0              |          356106717168

 2017-02-05 20:43:09.194543+01 | 1486323789.19454 | 52/EB1C7AF8              |          356131830520

 2017-02-05 20:43:10.270072+01 | 1486323790.27007 | 52/EC9227E8              |          356156319720

 2017-02-05 20:43:11.340542+01 | 1486323791.34054 | 52/EE0028B0              |          356180306096

 2017-02-05 20:43:12.416381+01 | 1486323792.41638 | 52/EF6726A0              |          356203832992

 2017-02-05 20:43:13.494927+01 | 1486323793.49493 | 52/F0C64C90              |          356226845840

 2017-02-05 20:43:14.580649+01 | 1486323794.58065 | 52/F235B388              |          356250923912

 2017-02-05 20:43:15.665991+01 | 1486323795.66599 | 52/F38B87D0              |          356273326032

 2017-02-05 20:43:16.746446+01 | 1486323796.74645 | 52/F4E80058              |          356296163416

 2017-02-05 20:43:17.822058+01 | 1486323797.82206 | 52/F640A688              |          356318750344

 2017-02-05 20:43:18.898333+01 | 1486323798.89833 | 52/F79DFE50              |          356341644880

 2017-02-05 20:43:19.978096+01 | 1486323799.9781 | 52/F92E1980              |          356367866240

 2017-02-05 20:43:21.053125+01 | 1486323801.05312 | 52/FB0957C8              |          356399011784

 2017-02-05 20:43:22.123951+01 | 1486323802.12395 | 52/FCAEAB60              |          356426623840

 2017-02-05 20:43:23.19677+01 | 1486323803.19677 | 52/FE88ADF8              |          356457688568

 2017-02-05 20:43:24.278378+01 | 1486323804.27838 | 53/694608                |          356489184776

 2017-02-05 20:43:25.358225+01 | 1486323805.35823 | 53/24B95C0               |          356520793536

 2017-02-05 20:43:26.439691+01 | 1486323806.43969 | 53/42F5460               |          356552496224

 2017-02-05 20:43:27.518225+01 | 1486323807.51822 | 53/615A380               |          356584366976

 2017-02-05 20:43:28.59815+01 | 1486323808.59815 | 53/7FE2050               |          356616380496

 2017-02-05 20:43:29.679785+01 | 1486323809.67979 | 53/9E27010               |          356648120336

 2017-02-05 20:43:30.761092+01 | 1486323810.76109 | 53/BCD3888               |          356680284296

 2017-02-05 20:43:31.833321+01 | 1486323811.83332 | 53/D811128               |          356708847912

 2017-02-05 20:43:32.914898+01 | 1486323812.9149 | 53/EFD47D0               |          356733765584

 2017-02-05 20:43:33.991066+01 | 1486323813.99107 | 53/10DD9618              |          356765242904

 2017-02-05 20:43:35.067022+01 | 1486323815.06702 | 53/12C23FE0              |          356797005792

 2017-02-05 20:43:36.143768+01 | 1486323816.14377 | 53/14A4C090              |          356828627088

 2017-02-05 20:43:37.219904+01 | 1486323817.2199 | 53/168988D0              |          356860397776

 2017-02-05 20:43:38.300964+01 | 1486323818.30096 | 53/185FEEB8              |          356891225784

 2017-02-05 20:43:39.378532+01 | 1486323819.37853 | 53/1A3414C0              |          356921906368

 2017-02-05 20:43:40.448442+01 | 1486323820.44844 | 53/1BFA2400              |          356951663616

 2017-02-05 20:43:41.535372+01 | 1486323821.53537 | 53/1DBF7988              |          356981373320

 2017-02-05 20:43:42.619397+01 | 1486323822.6194 | 53/1F7C3370              |          357010518896

 2017-02-05 20:43:43.68957+01 | 1486323823.68957 | 53/21167310              |          357037404944

 2017-02-05 20:43:44.763509+01 | 1486323824.76351 | 53/22DF0280              |          357067326080

 2017-02-05 20:43:45.845882+01 | 1486323825.84588 | 53/2491B438              |          357095814200

 2017-02-05 20:43:46.922564+01 | 1486323826.92256 | 53/265B0B18              |          357125786392

 2017-02-05 20:43:47.996773+01 | 1486323827.99677 | 53/280A1FC8              |          357154037704

 2017-02-05 20:43:49.088321+01 | 1486323829.08832 | 53/29AF4508              |          357181637896

 2017-02-05 20:43:50.161204+01 | 1486323830.1612 | 53/2B569A38              |          357209381432

 2017-02-05 20:43:51.230488+01 | 1486323831.23049 | 53/2D097240              |          357237879360

 2017-02-05 20:43:52.305435+01 | 1486323832.30543 | 53/2EBDC200              |          357266473472

 2017-02-05 20:43:53.374459+01 | 1486323833.37446 | 53/306A0520              |          357294540064

 2017-02-05 20:43:54.44772+01 | 1486323834.44772 | 53/323CD090              |          357325131920

 2017-02-05 20:43:55.525458+01 | 1486323835.52546 | 53/3422D278              |          357356982904

 2017-02-05 20:43:56.598024+01 | 1486323836.59802 | 53/35EAF2E8              |          357386875624

 2017-02-05 20:43:57.675561+01 | 1486323837.67556 | 53/37D2DA08              |          357418850824

 2017-02-05 20:43:58.752305+01 | 1486323838.75231 | 53/39C32820              |          357451376672

 2017-02-05 20:43:59.827049+01 | 1486323839.82705 | 53/3BA1B2C8              |          357482738376

 2017-02-05 20:44:00.906123+01 | 1486323840.90612 | 53/3D803808              |          357514098696

 2017-02-05 20:44:01.974471+01 | 1486323841.97447 | 53/3F476B00              |          357543930624

 2017-02-05 20:44:03.048504+01 | 1486323843.0485 | 53/41282510              |          357575435536

 2017-02-05 20:44:04.126674+01 | 1486323844.12667 | 53/4301D320              |          357606478624

 2017-02-05 20:44:05.217652+01 | 1486323845.21765 | 53/44EFDA58              |          357638855256

 2017-02-05 20:44:06.291852+01 | 1486323846.29185 | 53/46721DC0              |          357664169408

 2017-02-05 20:44:07.365832+01 | 1486323847.36583 | 53/4822EA68              |          357692533352

 2017-02-05 20:44:08.446615+01 | 1486323848.44661 | 53/49DB00D8              |          357721374936

 2017-02-05 20:44:09.525029+01 | 1486323849.52503 | 53/4B97A628              |          357750515240

 2017-02-05 20:44:10.608373+01 | 1486323850.60837 | 53/4D4EBF30              |          357779291952

 2017-02-05 20:44:11.685712+01 | 1486323851.68571 | 53/4ECF5318              |          357804495640

 2017-02-05 20:44:12.762294+01 | 1486323852.76229 | 53/50997330              |          357834519344

 2017-02-05 20:44:13.834719+01 | 1486323853.83472 | 53/52774C88              |          357865835656

 2017-02-05 20:44:14.916507+01 | 1486323854.91651 | 53/5458D170              |          357897392496

 2017-02-05 20:44:15.996908+01 | 1486323855.99691 | 53/56368F38              |          357928701752

 2017-02-05 20:44:17.07498+01 | 1486323857.07498 | 53/581DE6C0              |          357960640192

 2017-02-05 20:44:18.14627+01 | 1486323858.14627 | 53/59DA0DE0              |          357989748192

 2017-02-05 20:44:19.220951+01 | 1486323859.22095 | 53/5BB20390              |          358020678544

 2017-02-05 20:44:20.296697+01 | 1486323860.2967 | 53/5D9A1540              |          358052664640

 2017-02-05 20:44:21.370761+01 | 1486323861.37076 | 53/5F7B30F8              |          358084194552

 2017-02-05 20:44:22.439895+01 | 1486323862.43989 | 53/6155C500              |          358115296512

 2017-02-05 20:44:23.521058+01 | 1486323863.52106 | 53/6331A938              |          358146484536

 2017-02-05 20:44:24.59738+01 | 1486323864.59738 | 53/6508D968              |          358177364328

 2017-02-05 20:44:25.671706+01 | 1486323865.67171 | 53/66B07248              |          358205125192

 2017-02-05 20:44:26.743772+01 | 1486323866.74377 | 53/6889C640              |          358236145216

 2017-02-05 20:44:27.82021+01 | 1486323867.82021 | 53/6A6C7DE8              |          358267780584

 2017-02-05 20:44:28.896761+01 | 1486323868.89676 | 53/6C36FB50              |          358297828176

 2017-02-05 20:44:29.975031+01 | 1486323869.97503 | 53/6E137938              |          358329055544

 2017-02-05 20:44:31.055183+01 | 1486323871.05518 | 53/6FCFE980              |          358358182272

 2017-02-05 20:44:32.128432+01 | 1486323872.12843 | 53/715FF1D0              |          358384398800

 2017-02-05 20:44:33.204875+01 | 1486323873.20487 | 53/72DE3510              |          358409450768

 2017-02-05 20:44:34.280479+01 | 1486323874.28048 | 53/74BE0DD0              |          358440898000

 2017-02-05 20:44:35.354565+01 | 1486323875.35456 | 53/769EAB98              |          358472395672

 2017-02-05 20:44:36.427873+01 | 1486323876.42787 | 53/784919A0              |          358500342176

 2017-02-05 20:44:37.498769+01 | 1486323877.49877 | 53/7A295DE8              |          358531816936

 2017-02-05 20:44:38.573904+01 | 1486323878.5739 | 53/7C0EDE50              |          358563634768

 2017-02-05 20:44:39.646638+01 | 1486323879.64664 | 53/7DEFAF68              |          358595145576

 2017-02-05 20:44:40.720123+01 | 1486323880.72012 | 53/7FD03210              |          358626636304

 2017-02-05 20:44:41.797064+01 | 1486323881.79706 | 53/81B49A20              |          358658382368

 2017-02-05 20:44:42.873395+01 | 1486323882.87339 | 53/8363D560              |          358686643552

 2017-02-05 20:44:43.945209+01 | 1486323883.94521 | 53/85456930              |          358718204208

 2017-02-05 20:44:45.019797+01 | 1486323885.0198 | 53/86E654D8              |          358745527512

 2017-02-05 20:44:46.091628+01 | 1486323886.09163 | 53/885CA460              |          358770058336

 2017-02-05 20:44:47.169067+01 | 1486323887.16907 | 53/89D82370              |          358794929008

 2017-02-05 20:44:48.253803+01 | 1486323888.2538 | 53/8B387288              |          358818017928

 2017-02-05 20:44:49.322928+01 | 1486323889.32293 | 53/8CA9AD38              |          358842215736

 2017-02-05 20:44:50.400991+01 | 1486323890.40099 | 53/8DF9D180              |          358864245120

 2017-02-05 20:44:51.478156+01 | 1486323891.47816 | 53/8F6B6B50              |          358888467280

 2017-02-05 20:44:52.550724+01 | 1486323892.55072 | 53/90E80BD0              |          358913412048

 2017-02-05 20:44:53.628406+01 | 1486323893.62841 | 53/92593938              |          358937606456

 2017-02-05 20:44:54.710032+01 | 1486323894.71003 | 53/93CB7828              |          358961870888

 2017-02-05 20:44:55.792727+01 | 1486323895.79273 | 53/95136598              |          358983361944

 2017-02-05 20:44:56.876977+01 | 1486323896.87698 | 53/964F6160              |          359004070240

 2017-02-05 20:44:57.953282+01 | 1486323897.95328 | 53/97B0D6E8              |          359027234536

 2017-02-05 20:44:59.034442+01 | 1486323899.03444 | 53/9919F060              |          359050899552

 2017-02-05 20:45:00.113278+01 | 1486323900.11328 | 53/9A799758              |          359073945432

 2017-02-05 20:45:01.189456+01 | 1486323901.18946 | 53/9BC7D1F0              |          359095849456

 2017-02-05 20:45:02.260209+01 | 1486323902.26021 | 53/9D0AF8F8              |          359117027576

 2017-02-05 20:45:03.334083+01 | 1486323903.33408 | 53/9E7D7778              |          359141308280

 2017-02-05 20:45:04.405753+01 | 1486323904.40575 | 53/9FEF1BF0              |          359165533168

 2017-02-05 20:45:05.480729+01 | 1486323905.48073 | 53/A1413030              |          359187689520

 2017-02-05 20:45:06.557112+01 | 1486323906.55711 | 53/A2A5C080              |          359211057280

 2017-02-05 20:45:07.634498+01 | 1486323907.6345 | 53/A40E7340              |          359234696000

 2017-02-05 20:45:08.709943+01 | 1486323908.70994 | 53/A5774FD0              |          359258345424

 2017-02-05 20:45:09.786861+01 | 1486323909.78686 | 53/A6CE1F68              |          359280811880

 2017-02-05 20:45:10.869809+01 | 1486323910.86981 | 53/A81D4E88              |          359302778504

 2017-02-05 20:45:11.949015+01 | 1486323911.94901 | 53/A932E328              |          359320970024

 2017-02-05 20:45:13.03187+01 | 1486323913.03187 | 53/AA3B1A60              |          359338285664

 2017-02-05 20:45:14.105789+01 | 1486323914.10579 | 53/AB247588              |          359353578888

 2017-02-05 20:45:15.182651+01 | 1486323915.18265 | 53/AC239948              |          359370299720

 2017-02-05 20:45:16.260089+01 | 1486323916.26009 | 53/AD147220              |          359386083872

