 2017-02-03 17:17:47.410101+01 | 1486138667.4101 | pgbench_accounts |       1342955520
 2017-02-03 17:17:47.410101+01 | 1486138667.4101 | pgbench_tellers  |            49152
 2017-02-03 17:17:47.410101+01 | 1486138667.4101 | pgbench_history  |                0
 2017-02-03 17:17:47.410101+01 | 1486138667.4101 | pgbench_branches |             8192

 2017-02-03 17:17:48.506701+01 | 1486138668.5067 | pgbench_accounts |       1342955520
 2017-02-03 17:17:48.506701+01 | 1486138668.5067 | pgbench_tellers  |            49152
 2017-02-03 17:17:48.506701+01 | 1486138668.5067 | pgbench_history  |                0
 2017-02-03 17:17:48.506701+01 | 1486138668.5067 | pgbench_branches |             8192

 2017-02-03 17:17:49.607159+01 | 1486138669.60716 | pgbench_accounts |       1342955520
 2017-02-03 17:17:49.607159+01 | 1486138669.60716 | pgbench_tellers  |            49152
 2017-02-03 17:17:49.607159+01 | 1486138669.60716 | pgbench_history  |                0
 2017-02-03 17:17:49.607159+01 | 1486138669.60716 | pgbench_branches |             8192

 2017-02-03 17:17:50.73785+01 | 1486138670.73785 | pgbench_accounts |       1342955520
 2017-02-03 17:17:50.73785+01 | 1486138670.73785 | pgbench_tellers  |            49152
 2017-02-03 17:17:50.73785+01 | 1486138670.73785 | pgbench_history  |                0
 2017-02-03 17:17:50.73785+01 | 1486138670.73785 | pgbench_branches |             8192

 2017-02-03 17:17:51.865191+01 | 1486138671.86519 | pgbench_accounts |       1342955520
 2017-02-03 17:17:51.865191+01 | 1486138671.86519 | pgbench_tellers  |            49152
 2017-02-03 17:17:51.865191+01 | 1486138671.86519 | pgbench_history  |                0
 2017-02-03 17:17:51.865191+01 | 1486138671.86519 | pgbench_branches |             8192

 2017-02-03 17:17:52.960678+01 | 1486138672.96068 | pgbench_accounts |       1342955520
 2017-02-03 17:17:52.960678+01 | 1486138672.96068 | pgbench_tellers  |            49152
 2017-02-03 17:17:52.960678+01 | 1486138672.96068 | pgbench_history  |                0
 2017-02-03 17:17:52.960678+01 | 1486138672.96068 | pgbench_branches |             8192

 2017-02-03 17:17:54.083351+01 | 1486138674.08335 | pgbench_accounts |       1342955520
 2017-02-03 17:17:54.083351+01 | 1486138674.08335 | pgbench_tellers  |            49152
 2017-02-03 17:17:54.083351+01 | 1486138674.08335 | pgbench_history  |                0
 2017-02-03 17:17:54.083351+01 | 1486138674.08335 | pgbench_branches |             8192

 2017-02-03 17:17:55.218091+01 | 1486138675.21809 | pgbench_accounts |       1342955520
 2017-02-03 17:17:55.218091+01 | 1486138675.21809 | pgbench_tellers  |            49152
 2017-02-03 17:17:55.218091+01 | 1486138675.21809 | pgbench_history  |                0
 2017-02-03 17:17:55.218091+01 | 1486138675.21809 | pgbench_branches |             8192

 2017-02-03 17:17:56.334577+01 | 1486138676.33458 | pgbench_accounts |       1342955520
 2017-02-03 17:17:56.334577+01 | 1486138676.33458 | pgbench_tellers  |            49152
 2017-02-03 17:17:56.334577+01 | 1486138676.33458 | pgbench_history  |                0
 2017-02-03 17:17:56.334577+01 | 1486138676.33458 | pgbench_branches |             8192

 2017-02-03 17:17:57.455653+01 | 1486138677.45565 | pgbench_accounts |       1342955520
 2017-02-03 17:17:57.455653+01 | 1486138677.45565 | pgbench_tellers  |            49152
 2017-02-03 17:17:57.455653+01 | 1486138677.45565 | pgbench_history  |                0
 2017-02-03 17:17:57.455653+01 | 1486138677.45565 | pgbench_branches |             8192

 2017-02-03 17:17:58.57312+01 | 1486138678.57312 | pgbench_accounts |       1342955520
 2017-02-03 17:17:58.57312+01 | 1486138678.57312 | pgbench_tellers  |            49152
 2017-02-03 17:17:58.57312+01 | 1486138678.57312 | pgbench_history  |                0
 2017-02-03 17:17:58.57312+01 | 1486138678.57312 | pgbench_branches |             8192

 2017-02-03 17:17:59.722616+01 | 1486138679.72262 | pgbench_accounts |       1342955520
 2017-02-03 17:17:59.722616+01 | 1486138679.72262 | pgbench_tellers  |            49152
 2017-02-03 17:17:59.722616+01 | 1486138679.72262 | pgbench_history  |                0
 2017-02-03 17:17:59.722616+01 | 1486138679.72262 | pgbench_branches |             8192

 2017-02-03 17:18:00.871916+01 | 1486138680.87192 | pgbench_accounts |       1342955520
 2017-02-03 17:18:00.871916+01 | 1486138680.87192 | pgbench_tellers  |            49152
 2017-02-03 17:18:00.871916+01 | 1486138680.87192 | pgbench_history  |                0
 2017-02-03 17:18:00.871916+01 | 1486138680.87192 | pgbench_branches |             8192

 2017-02-03 17:18:01.978054+01 | 1486138681.97805 | pgbench_accounts |       1342955520
 2017-02-03 17:18:01.978054+01 | 1486138681.97805 | pgbench_tellers  |            49152
 2017-02-03 17:18:01.978054+01 | 1486138681.97805 | pgbench_history  |                0
 2017-02-03 17:18:01.978054+01 | 1486138681.97805 | pgbench_branches |             8192

 2017-02-03 17:18:03.077072+01 | 1486138683.07707 | pgbench_accounts |       1342955520
 2017-02-03 17:18:03.077072+01 | 1486138683.07707 | pgbench_tellers  |            49152
 2017-02-03 17:18:03.077072+01 | 1486138683.07707 | pgbench_history  |                0
 2017-02-03 17:18:03.077072+01 | 1486138683.07707 | pgbench_branches |             8192

 2017-02-03 17:18:04.172491+01 | 1486138684.17249 | pgbench_accounts |       1342955520
 2017-02-03 17:18:04.172491+01 | 1486138684.17249 | pgbench_tellers  |            49152
 2017-02-03 17:18:04.172491+01 | 1486138684.17249 | pgbench_history  |                0
 2017-02-03 17:18:04.172491+01 | 1486138684.17249 | pgbench_branches |             8192

 2017-02-03 17:18:05.272605+01 | 1486138685.2726 | pgbench_accounts |       1342955520
 2017-02-03 17:18:05.272605+01 | 1486138685.2726 | pgbench_tellers  |            49152
 2017-02-03 17:18:05.272605+01 | 1486138685.2726 | pgbench_history  |                0
 2017-02-03 17:18:05.272605+01 | 1486138685.2726 | pgbench_branches |             8192

 2017-02-03 17:18:06.369583+01 | 1486138686.36958 | pgbench_accounts |       1342955520
 2017-02-03 17:18:06.369583+01 | 1486138686.36958 | pgbench_tellers  |            49152
 2017-02-03 17:18:06.369583+01 | 1486138686.36958 | pgbench_history  |                0
 2017-02-03 17:18:06.369583+01 | 1486138686.36958 | pgbench_branches |             8192

 2017-02-03 17:18:07.487245+01 | 1486138687.48725 | pgbench_accounts |       1342955520
 2017-02-03 17:18:07.487245+01 | 1486138687.48725 | pgbench_tellers  |            49152
 2017-02-03 17:18:07.487245+01 | 1486138687.48725 | pgbench_history  |                0
 2017-02-03 17:18:07.487245+01 | 1486138687.48725 | pgbench_branches |             8192

 2017-02-03 17:18:08.590054+01 | 1486138688.59005 | pgbench_accounts |       1342955520
 2017-02-03 17:18:08.590054+01 | 1486138688.59005 | pgbench_tellers  |            49152
 2017-02-03 17:18:08.590054+01 | 1486138688.59005 | pgbench_history  |                0
 2017-02-03 17:18:08.590054+01 | 1486138688.59005 | pgbench_branches |             8192

 2017-02-03 17:18:09.700198+01 | 1486138689.7002 | pgbench_accounts |       1342955520
 2017-02-03 17:18:09.700198+01 | 1486138689.7002 | pgbench_tellers  |            49152
 2017-02-03 17:18:09.700198+01 | 1486138689.7002 | pgbench_history  |                0
 2017-02-03 17:18:09.700198+01 | 1486138689.7002 | pgbench_branches |             8192

 2017-02-03 17:18:10.821398+01 | 1486138690.8214 | pgbench_accounts |       1342955520
 2017-02-03 17:18:10.821398+01 | 1486138690.8214 | pgbench_tellers  |            49152
 2017-02-03 17:18:10.821398+01 | 1486138690.8214 | pgbench_history  |                0
 2017-02-03 17:18:10.821398+01 | 1486138690.8214 | pgbench_branches |             8192

 2017-02-03 17:18:11.968576+01 | 1486138691.96858 | pgbench_accounts |       1342955520
 2017-02-03 17:18:11.968576+01 | 1486138691.96858 | pgbench_tellers  |            49152
 2017-02-03 17:18:11.968576+01 | 1486138691.96858 | pgbench_history  |                0
 2017-02-03 17:18:11.968576+01 | 1486138691.96858 | pgbench_branches |             8192

 2017-02-03 17:18:13.090519+01 | 1486138693.09052 | pgbench_accounts |       1342955520
 2017-02-03 17:18:13.090519+01 | 1486138693.09052 | pgbench_tellers  |            49152
 2017-02-03 17:18:13.090519+01 | 1486138693.09052 | pgbench_history  |                0
 2017-02-03 17:18:13.090519+01 | 1486138693.09052 | pgbench_branches |             8192

 2017-02-03 17:18:14.187042+01 | 1486138694.18704 | pgbench_accounts |       1342955520
 2017-02-03 17:18:14.187042+01 | 1486138694.18704 | pgbench_tellers  |            49152
 2017-02-03 17:18:14.187042+01 | 1486138694.18704 | pgbench_history  |                0
 2017-02-03 17:18:14.187042+01 | 1486138694.18704 | pgbench_branches |             8192

 2017-02-03 17:18:15.282078+01 | 1486138695.28208 | pgbench_accounts |       1342955520
 2017-02-03 17:18:15.282078+01 | 1486138695.28208 | pgbench_tellers  |            49152
 2017-02-03 17:18:15.282078+01 | 1486138695.28208 | pgbench_history  |                0
 2017-02-03 17:18:15.282078+01 | 1486138695.28208 | pgbench_branches |             8192

 2017-02-03 17:18:16.381172+01 | 1486138696.38117 | pgbench_accounts |       1342955520
 2017-02-03 17:18:16.381172+01 | 1486138696.38117 | pgbench_tellers  |            49152
 2017-02-03 17:18:16.381172+01 | 1486138696.38117 | pgbench_history  |                0
 2017-02-03 17:18:16.381172+01 | 1486138696.38117 | pgbench_branches |             8192

 2017-02-03 17:18:17.481619+01 | 1486138697.48162 | pgbench_accounts |       1342955520
 2017-02-03 17:18:17.481619+01 | 1486138697.48162 | pgbench_tellers  |            49152
 2017-02-03 17:18:17.481619+01 | 1486138697.48162 | pgbench_history  |                0
 2017-02-03 17:18:17.481619+01 | 1486138697.48162 | pgbench_branches |             8192

 2017-02-03 17:18:18.592512+01 | 1486138698.59251 | pgbench_accounts |       1342955520
 2017-02-03 17:18:18.592512+01 | 1486138698.59251 | pgbench_tellers  |            49152
 2017-02-03 17:18:18.592512+01 | 1486138698.59251 | pgbench_history  |                0
 2017-02-03 17:18:18.592512+01 | 1486138698.59251 | pgbench_branches |             8192

 2017-02-03 17:18:19.691335+01 | 1486138699.69133 | pgbench_accounts |       1342955520
 2017-02-03 17:18:19.691335+01 | 1486138699.69133 | pgbench_tellers  |            49152
 2017-02-03 17:18:19.691335+01 | 1486138699.69133 | pgbench_history  |                0
 2017-02-03 17:18:19.691335+01 | 1486138699.69133 | pgbench_branches |             8192

 2017-02-03 17:18:20.828494+01 | 1486138700.82849 | pgbench_accounts |       1342955520
 2017-02-03 17:18:20.828494+01 | 1486138700.82849 | pgbench_tellers  |            49152
 2017-02-03 17:18:20.828494+01 | 1486138700.82849 | pgbench_history  |                0
 2017-02-03 17:18:20.828494+01 | 1486138700.82849 | pgbench_branches |             8192

 2017-02-03 17:18:22.00426+01 | 1486138702.00426 | pgbench_accounts |       1342955520
 2017-02-03 17:18:22.00426+01 | 1486138702.00426 | pgbench_tellers  |            49152
 2017-02-03 17:18:22.00426+01 | 1486138702.00426 | pgbench_history  |                0
 2017-02-03 17:18:22.00426+01 | 1486138702.00426 | pgbench_branches |             8192

 2017-02-03 17:18:23.16693+01 | 1486138703.16693 | pgbench_accounts |       1342955520
 2017-02-03 17:18:23.16693+01 | 1486138703.16693 | pgbench_tellers  |            49152
 2017-02-03 17:18:23.16693+01 | 1486138703.16693 | pgbench_history  |                0
 2017-02-03 17:18:23.16693+01 | 1486138703.16693 | pgbench_branches |             8192

 2017-02-03 17:18:24.264984+01 | 1486138704.26498 | pgbench_accounts |       1342955520
 2017-02-03 17:18:24.264984+01 | 1486138704.26498 | pgbench_tellers  |            49152
 2017-02-03 17:18:24.264984+01 | 1486138704.26498 | pgbench_history  |                0
 2017-02-03 17:18:24.264984+01 | 1486138704.26498 | pgbench_branches |             8192

 2017-02-03 17:18:25.366442+01 | 1486138705.36644 | pgbench_accounts |       1342955520
 2017-02-03 17:18:25.366442+01 | 1486138705.36644 | pgbench_tellers  |            49152
 2017-02-03 17:18:25.366442+01 | 1486138705.36644 | pgbench_history  |                0
 2017-02-03 17:18:25.366442+01 | 1486138705.36644 | pgbench_branches |             8192

 2017-02-03 17:18:26.462039+01 | 1486138706.46204 | pgbench_accounts |       1342955520
 2017-02-03 17:18:26.462039+01 | 1486138706.46204 | pgbench_tellers  |            49152
 2017-02-03 17:18:26.462039+01 | 1486138706.46204 | pgbench_history  |                0
 2017-02-03 17:18:26.462039+01 | 1486138706.46204 | pgbench_branches |             8192

 2017-02-03 17:18:27.559616+01 | 1486138707.55962 | pgbench_accounts |       1342955520
 2017-02-03 17:18:27.559616+01 | 1486138707.55962 | pgbench_tellers  |            49152
 2017-02-03 17:18:27.559616+01 | 1486138707.55962 | pgbench_history  |                0
 2017-02-03 17:18:27.559616+01 | 1486138707.55962 | pgbench_branches |             8192

 2017-02-03 17:18:28.664713+01 | 1486138708.66471 | pgbench_accounts |       1342955520
 2017-02-03 17:18:28.664713+01 | 1486138708.66471 | pgbench_tellers  |            49152
 2017-02-03 17:18:28.664713+01 | 1486138708.66471 | pgbench_history  |                0
 2017-02-03 17:18:28.664713+01 | 1486138708.66471 | pgbench_branches |             8192

 2017-02-03 17:18:29.760648+01 | 1486138709.76065 | pgbench_accounts |       1342955520
 2017-02-03 17:18:29.760648+01 | 1486138709.76065 | pgbench_tellers  |            49152
 2017-02-03 17:18:29.760648+01 | 1486138709.76065 | pgbench_history  |                0
 2017-02-03 17:18:29.760648+01 | 1486138709.76065 | pgbench_branches |             8192

 2017-02-03 17:18:30.871021+01 | 1486138710.87102 | pgbench_accounts |       1342955520
 2017-02-03 17:18:30.871021+01 | 1486138710.87102 | pgbench_tellers  |            49152
 2017-02-03 17:18:30.871021+01 | 1486138710.87102 | pgbench_history  |                0
 2017-02-03 17:18:30.871021+01 | 1486138710.87102 | pgbench_branches |             8192

 2017-02-03 17:18:31.985098+01 | 1486138711.9851 | pgbench_accounts |       1342955520
 2017-02-03 17:18:31.985098+01 | 1486138711.9851 | pgbench_tellers  |            49152
 2017-02-03 17:18:31.985098+01 | 1486138711.9851 | pgbench_history  |                0
 2017-02-03 17:18:31.985098+01 | 1486138711.9851 | pgbench_branches |             8192

 2017-02-03 17:18:33.101029+01 | 1486138713.10103 | pgbench_accounts |       1342955520
 2017-02-03 17:18:33.101029+01 | 1486138713.10103 | pgbench_tellers  |            49152
 2017-02-03 17:18:33.101029+01 | 1486138713.10103 | pgbench_history  |                0
 2017-02-03 17:18:33.101029+01 | 1486138713.10103 | pgbench_branches |             8192

 2017-02-03 17:18:34.22402+01 | 1486138714.22402 | pgbench_accounts |       1342955520
 2017-02-03 17:18:34.22402+01 | 1486138714.22402 | pgbench_tellers  |            49152
 2017-02-03 17:18:34.22402+01 | 1486138714.22402 | pgbench_history  |                0
 2017-02-03 17:18:34.22402+01 | 1486138714.22402 | pgbench_branches |             8192

 2017-02-03 17:18:35.343544+01 | 1486138715.34354 | pgbench_accounts |       1342955520
 2017-02-03 17:18:35.343544+01 | 1486138715.34354 | pgbench_tellers  |            49152
 2017-02-03 17:18:35.343544+01 | 1486138715.34354 | pgbench_history  |                0
 2017-02-03 17:18:35.343544+01 | 1486138715.34354 | pgbench_branches |             8192

 2017-02-03 17:18:36.442731+01 | 1486138716.44273 | pgbench_accounts |       1342955520
 2017-02-03 17:18:36.442731+01 | 1486138716.44273 | pgbench_tellers  |            49152
 2017-02-03 17:18:36.442731+01 | 1486138716.44273 | pgbench_history  |                0
 2017-02-03 17:18:36.442731+01 | 1486138716.44273 | pgbench_branches |             8192

 2017-02-03 17:18:37.543359+01 | 1486138717.54336 | pgbench_accounts |       1342955520
 2017-02-03 17:18:37.543359+01 | 1486138717.54336 | pgbench_tellers  |            49152
 2017-02-03 17:18:37.543359+01 | 1486138717.54336 | pgbench_history  |                0
 2017-02-03 17:18:37.543359+01 | 1486138717.54336 | pgbench_branches |             8192

 2017-02-03 17:18:38.645909+01 | 1486138718.64591 | pgbench_accounts |       1342955520
 2017-02-03 17:18:38.645909+01 | 1486138718.64591 | pgbench_tellers  |            49152
 2017-02-03 17:18:38.645909+01 | 1486138718.64591 | pgbench_history  |                0
 2017-02-03 17:18:38.645909+01 | 1486138718.64591 | pgbench_branches |             8192

 2017-02-03 17:18:39.746014+01 | 1486138719.74601 | pgbench_accounts |       1342955520
 2017-02-03 17:18:39.746014+01 | 1486138719.74601 | pgbench_tellers  |            49152
 2017-02-03 17:18:39.746014+01 | 1486138719.74601 | pgbench_history  |                0
 2017-02-03 17:18:39.746014+01 | 1486138719.74601 | pgbench_branches |             8192

 2017-02-03 17:18:40.839281+01 | 1486138720.83928 | pgbench_accounts |       1342955520
 2017-02-03 17:18:40.839281+01 | 1486138720.83928 | pgbench_tellers  |            49152
 2017-02-03 17:18:40.839281+01 | 1486138720.83928 | pgbench_history  |                0
 2017-02-03 17:18:40.839281+01 | 1486138720.83928 | pgbench_branches |             8192

 2017-02-03 17:18:41.935551+01 | 1486138721.93555 | pgbench_accounts |       1342955520
 2017-02-03 17:18:41.935551+01 | 1486138721.93555 | pgbench_tellers  |            49152
 2017-02-03 17:18:41.935551+01 | 1486138721.93555 | pgbench_history  |                0
 2017-02-03 17:18:41.935551+01 | 1486138721.93555 | pgbench_branches |             8192

 2017-02-03 17:18:43.067117+01 | 1486138723.06712 | pgbench_accounts |       1342955520
 2017-02-03 17:18:43.067117+01 | 1486138723.06712 | pgbench_tellers  |            49152
 2017-02-03 17:18:43.067117+01 | 1486138723.06712 | pgbench_history  |                0
 2017-02-03 17:18:43.067117+01 | 1486138723.06712 | pgbench_branches |             8192

 2017-02-03 17:18:44.213898+01 | 1486138724.2139 | pgbench_accounts |       1342955520
 2017-02-03 17:18:44.213898+01 | 1486138724.2139 | pgbench_tellers  |            49152
 2017-02-03 17:18:44.213898+01 | 1486138724.2139 | pgbench_history  |                0
 2017-02-03 17:18:44.213898+01 | 1486138724.2139 | pgbench_branches |             8192

 2017-02-03 17:18:45.362242+01 | 1486138725.36224 | pgbench_accounts |       1342955520
 2017-02-03 17:18:45.362242+01 | 1486138725.36224 | pgbench_tellers  |            49152
 2017-02-03 17:18:45.362242+01 | 1486138725.36224 | pgbench_history  |                0
 2017-02-03 17:18:45.362242+01 | 1486138725.36224 | pgbench_branches |             8192

 2017-02-03 17:18:46.486484+01 | 1486138726.48648 | pgbench_accounts |       1342955520
 2017-02-03 17:18:46.486484+01 | 1486138726.48648 | pgbench_tellers  |            49152
 2017-02-03 17:18:46.486484+01 | 1486138726.48648 | pgbench_history  |                0
 2017-02-03 17:18:46.486484+01 | 1486138726.48648 | pgbench_branches |             8192

 2017-02-03 17:18:47.610991+01 | 1486138727.61099 | pgbench_accounts |       1342955520
 2017-02-03 17:18:47.610991+01 | 1486138727.61099 | pgbench_tellers  |            49152
 2017-02-03 17:18:47.610991+01 | 1486138727.61099 | pgbench_history  |                0
 2017-02-03 17:18:47.610991+01 | 1486138727.61099 | pgbench_branches |             8192

 2017-02-03 17:18:48.713219+01 | 1486138728.71322 | pgbench_accounts |       1342955520
 2017-02-03 17:18:48.713219+01 | 1486138728.71322 | pgbench_tellers  |            49152
 2017-02-03 17:18:48.713219+01 | 1486138728.71322 | pgbench_history  |                0
 2017-02-03 17:18:48.713219+01 | 1486138728.71322 | pgbench_branches |             8192

 2017-02-03 17:18:49.808164+01 | 1486138729.80816 | pgbench_accounts |       1342955520
 2017-02-03 17:18:49.808164+01 | 1486138729.80816 | pgbench_tellers  |            49152
 2017-02-03 17:18:49.808164+01 | 1486138729.80816 | pgbench_history  |                0
 2017-02-03 17:18:49.808164+01 | 1486138729.80816 | pgbench_branches |             8192

 2017-02-03 17:18:50.912265+01 | 1486138730.91227 | pgbench_accounts |       1342955520
 2017-02-03 17:18:50.912265+01 | 1486138730.91227 | pgbench_tellers  |            49152
 2017-02-03 17:18:50.912265+01 | 1486138730.91227 | pgbench_history  |                0
 2017-02-03 17:18:50.912265+01 | 1486138730.91227 | pgbench_branches |             8192

 2017-02-03 17:18:52.01509+01 | 1486138732.01509 | pgbench_accounts |       1342955520
 2017-02-03 17:18:52.01509+01 | 1486138732.01509 | pgbench_tellers  |            49152
 2017-02-03 17:18:52.01509+01 | 1486138732.01509 | pgbench_history  |                0
 2017-02-03 17:18:52.01509+01 | 1486138732.01509 | pgbench_branches |             8192

 2017-02-03 17:18:53.104161+01 | 1486138733.10416 | pgbench_accounts |       1342955520
 2017-02-03 17:18:53.104161+01 | 1486138733.10416 | pgbench_tellers  |            49152
 2017-02-03 17:18:53.104161+01 | 1486138733.10416 | pgbench_history  |                0
 2017-02-03 17:18:53.104161+01 | 1486138733.10416 | pgbench_branches |             8192

 2017-02-03 17:18:54.203399+01 | 1486138734.2034 | pgbench_accounts |       1342955520
 2017-02-03 17:18:54.203399+01 | 1486138734.2034 | pgbench_tellers  |            49152
 2017-02-03 17:18:54.203399+01 | 1486138734.2034 | pgbench_history  |                0
 2017-02-03 17:18:54.203399+01 | 1486138734.2034 | pgbench_branches |             8192

 2017-02-03 17:18:55.330299+01 | 1486138735.3303 | pgbench_accounts |       1342955520
 2017-02-03 17:18:55.330299+01 | 1486138735.3303 | pgbench_tellers  |            49152
 2017-02-03 17:18:55.330299+01 | 1486138735.3303 | pgbench_history  |                0
 2017-02-03 17:18:55.330299+01 | 1486138735.3303 | pgbench_branches |             8192

 2017-02-03 17:18:56.458056+01 | 1486138736.45806 | pgbench_accounts |       1342955520
 2017-02-03 17:18:56.458056+01 | 1486138736.45806 | pgbench_tellers  |            49152
 2017-02-03 17:18:56.458056+01 | 1486138736.45806 | pgbench_history  |                0
 2017-02-03 17:18:56.458056+01 | 1486138736.45806 | pgbench_branches |             8192

 2017-02-03 17:18:57.622824+01 | 1486138737.62282 | pgbench_accounts |       1342955520
 2017-02-03 17:18:57.622824+01 | 1486138737.62282 | pgbench_tellers  |            49152
 2017-02-03 17:18:57.622824+01 | 1486138737.62282 | pgbench_history  |                0
 2017-02-03 17:18:57.622824+01 | 1486138737.62282 | pgbench_branches |             8192

 2017-02-03 17:18:58.731373+01 | 1486138738.73137 | pgbench_accounts |       1342955520
 2017-02-03 17:18:58.731373+01 | 1486138738.73137 | pgbench_tellers  |            49152
 2017-02-03 17:18:58.731373+01 | 1486138738.73137 | pgbench_history  |                0
 2017-02-03 17:18:58.731373+01 | 1486138738.73137 | pgbench_branches |             8192

 2017-02-03 17:18:59.831427+01 | 1486138739.83143 | pgbench_accounts |       1342955520
 2017-02-03 17:18:59.831427+01 | 1486138739.83143 | pgbench_tellers  |            49152
 2017-02-03 17:18:59.831427+01 | 1486138739.83143 | pgbench_history  |                0
 2017-02-03 17:18:59.831427+01 | 1486138739.83143 | pgbench_branches |             8192

 2017-02-03 17:19:00.935061+01 | 1486138740.93506 | pgbench_accounts |       1342955520
 2017-02-03 17:19:00.935061+01 | 1486138740.93506 | pgbench_tellers  |            49152
 2017-02-03 17:19:00.935061+01 | 1486138740.93506 | pgbench_history  |                0
 2017-02-03 17:19:00.935061+01 | 1486138740.93506 | pgbench_branches |             8192

 2017-02-03 17:19:02.045108+01 | 1486138742.04511 | pgbench_accounts |       1342955520
 2017-02-03 17:19:02.045108+01 | 1486138742.04511 | pgbench_tellers  |            49152
 2017-02-03 17:19:02.045108+01 | 1486138742.04511 | pgbench_history  |                0
 2017-02-03 17:19:02.045108+01 | 1486138742.04511 | pgbench_branches |             8192

 2017-02-03 17:19:03.148668+01 | 1486138743.14867 | pgbench_accounts |       1342955520
 2017-02-03 17:19:03.148668+01 | 1486138743.14867 | pgbench_tellers  |            49152
 2017-02-03 17:19:03.148668+01 | 1486138743.14867 | pgbench_history  |                0
 2017-02-03 17:19:03.148668+01 | 1486138743.14867 | pgbench_branches |             8192

 2017-02-03 17:19:04.267121+01 | 1486138744.26712 | pgbench_accounts |       1342955520
 2017-02-03 17:19:04.267121+01 | 1486138744.26712 | pgbench_tellers  |            49152
 2017-02-03 17:19:04.267121+01 | 1486138744.26712 | pgbench_history  |                0
 2017-02-03 17:19:04.267121+01 | 1486138744.26712 | pgbench_branches |             8192

 2017-02-03 17:19:05.395378+01 | 1486138745.39538 | pgbench_accounts |       1342955520
 2017-02-03 17:19:05.395378+01 | 1486138745.39538 | pgbench_tellers  |            49152
 2017-02-03 17:19:05.395378+01 | 1486138745.39538 | pgbench_history  |                0
 2017-02-03 17:19:05.395378+01 | 1486138745.39538 | pgbench_branches |             8192

 2017-02-03 17:19:06.516446+01 | 1486138746.51645 | pgbench_accounts |       1342955520
 2017-02-03 17:19:06.516446+01 | 1486138746.51645 | pgbench_tellers  |            49152
 2017-02-03 17:19:06.516446+01 | 1486138746.51645 | pgbench_history  |                0
 2017-02-03 17:19:06.516446+01 | 1486138746.51645 | pgbench_branches |             8192

 2017-02-03 17:19:07.677122+01 | 1486138747.67712 | pgbench_accounts |       1342955520
 2017-02-03 17:19:07.677122+01 | 1486138747.67712 | pgbench_tellers  |            49152
 2017-02-03 17:19:07.677122+01 | 1486138747.67712 | pgbench_history  |                0
 2017-02-03 17:19:07.677122+01 | 1486138747.67712 | pgbench_branches |             8192

 2017-02-03 17:19:08.781249+01 | 1486138748.78125 | pgbench_accounts |       1342955520
 2017-02-03 17:19:08.781249+01 | 1486138748.78125 | pgbench_tellers  |            49152
 2017-02-03 17:19:08.781249+01 | 1486138748.78125 | pgbench_history  |                0
 2017-02-03 17:19:08.781249+01 | 1486138748.78125 | pgbench_branches |             8192

 2017-02-03 17:19:09.887919+01 | 1486138749.88792 | pgbench_accounts |       1342955520
 2017-02-03 17:19:09.887919+01 | 1486138749.88792 | pgbench_tellers  |            49152
 2017-02-03 17:19:09.887919+01 | 1486138749.88792 | pgbench_history  |                0
 2017-02-03 17:19:09.887919+01 | 1486138749.88792 | pgbench_branches |             8192

 2017-02-03 17:19:10.9744+01 | 1486138750.9744 | pgbench_accounts |       1342955520
 2017-02-03 17:19:10.9744+01 | 1486138750.9744 | pgbench_tellers  |            49152
 2017-02-03 17:19:10.9744+01 | 1486138750.9744 | pgbench_history  |                0
 2017-02-03 17:19:10.9744+01 | 1486138750.9744 | pgbench_branches |             8192

 2017-02-03 17:19:12.085479+01 | 1486138752.08548 | pgbench_accounts |       1342955520
 2017-02-03 17:19:12.085479+01 | 1486138752.08548 | pgbench_tellers  |            49152
 2017-02-03 17:19:12.085479+01 | 1486138752.08548 | pgbench_history  |                0
 2017-02-03 17:19:12.085479+01 | 1486138752.08548 | pgbench_branches |             8192

 2017-02-03 17:19:13.194199+01 | 1486138753.1942 | pgbench_accounts |       1342955520
 2017-02-03 17:19:13.194199+01 | 1486138753.1942 | pgbench_tellers  |            49152
 2017-02-03 17:19:13.194199+01 | 1486138753.1942 | pgbench_history  |                0
 2017-02-03 17:19:13.194199+01 | 1486138753.1942 | pgbench_branches |             8192

 2017-02-03 17:19:14.284411+01 | 1486138754.28441 | pgbench_accounts |       1342955520
 2017-02-03 17:19:14.284411+01 | 1486138754.28441 | pgbench_tellers  |            49152
 2017-02-03 17:19:14.284411+01 | 1486138754.28441 | pgbench_history  |                0
 2017-02-03 17:19:14.284411+01 | 1486138754.28441 | pgbench_branches |             8192

 2017-02-03 17:19:15.394005+01 | 1486138755.39401 | pgbench_accounts |       1342955520
 2017-02-03 17:19:15.394005+01 | 1486138755.39401 | pgbench_tellers  |            49152
 2017-02-03 17:19:15.394005+01 | 1486138755.39401 | pgbench_history  |                0
 2017-02-03 17:19:15.394005+01 | 1486138755.39401 | pgbench_branches |             8192

 2017-02-03 17:19:16.508962+01 | 1486138756.50896 | pgbench_accounts |       1342955520
 2017-02-03 17:19:16.508962+01 | 1486138756.50896 | pgbench_tellers  |            49152
 2017-02-03 17:19:16.508962+01 | 1486138756.50896 | pgbench_history  |                0
 2017-02-03 17:19:16.508962+01 | 1486138756.50896 | pgbench_branches |             8192

 2017-02-03 17:19:17.624147+01 | 1486138757.62415 | pgbench_accounts |       1342955520
 2017-02-03 17:19:17.624147+01 | 1486138757.62415 | pgbench_tellers  |            49152
 2017-02-03 17:19:17.624147+01 | 1486138757.62415 | pgbench_history  |                0
 2017-02-03 17:19:17.624147+01 | 1486138757.62415 | pgbench_branches |             8192

 2017-02-03 17:19:18.742057+01 | 1486138758.74206 | pgbench_accounts |       1342955520
 2017-02-03 17:19:18.742057+01 | 1486138758.74206 | pgbench_tellers  |            49152
 2017-02-03 17:19:18.742057+01 | 1486138758.74206 | pgbench_history  |                0
 2017-02-03 17:19:18.742057+01 | 1486138758.74206 | pgbench_branches |             8192

 2017-02-03 17:19:19.853115+01 | 1486138759.85312 | pgbench_accounts |       1342955520
 2017-02-03 17:19:19.853115+01 | 1486138759.85312 | pgbench_tellers  |            49152
 2017-02-03 17:19:19.853115+01 | 1486138759.85312 | pgbench_history  |                0
 2017-02-03 17:19:19.853115+01 | 1486138759.85312 | pgbench_branches |             8192

 2017-02-03 17:19:20.964861+01 | 1486138760.96486 | pgbench_accounts |       1342955520
 2017-02-03 17:19:20.964861+01 | 1486138760.96486 | pgbench_tellers  |            49152
 2017-02-03 17:19:20.964861+01 | 1486138760.96486 | pgbench_history  |                0
 2017-02-03 17:19:20.964861+01 | 1486138760.96486 | pgbench_branches |             8192

 2017-02-03 17:19:22.077967+01 | 1486138762.07797 | pgbench_accounts |       1342955520
 2017-02-03 17:19:22.077967+01 | 1486138762.07797 | pgbench_tellers  |            49152
 2017-02-03 17:19:22.077967+01 | 1486138762.07797 | pgbench_history  |                0
 2017-02-03 17:19:22.077967+01 | 1486138762.07797 | pgbench_branches |             8192

 2017-02-03 17:19:23.176663+01 | 1486138763.17666 | pgbench_accounts |       1342955520
 2017-02-03 17:19:23.176663+01 | 1486138763.17666 | pgbench_tellers  |            49152
 2017-02-03 17:19:23.176663+01 | 1486138763.17666 | pgbench_history  |                0
 2017-02-03 17:19:23.176663+01 | 1486138763.17666 | pgbench_branches |             8192

 2017-02-03 17:19:24.26343+01 | 1486138764.26343 | pgbench_accounts |       1342955520
 2017-02-03 17:19:24.26343+01 | 1486138764.26343 | pgbench_tellers  |            49152
 2017-02-03 17:19:24.26343+01 | 1486138764.26343 | pgbench_history  |                0
 2017-02-03 17:19:24.26343+01 | 1486138764.26343 | pgbench_branches |             8192

 2017-02-03 17:19:25.3561+01 | 1486138765.3561 | pgbench_accounts |       1342955520
 2017-02-03 17:19:25.3561+01 | 1486138765.3561 | pgbench_tellers  |            49152
 2017-02-03 17:19:25.3561+01 | 1486138765.3561 | pgbench_history  |                0
 2017-02-03 17:19:25.3561+01 | 1486138765.3561 | pgbench_branches |             8192

 2017-02-03 17:19:26.461025+01 | 1486138766.46102 | pgbench_accounts |       1342955520
 2017-02-03 17:19:26.461025+01 | 1486138766.46102 | pgbench_tellers  |            49152
 2017-02-03 17:19:26.461025+01 | 1486138766.46102 | pgbench_history  |                0
 2017-02-03 17:19:26.461025+01 | 1486138766.46102 | pgbench_branches |             8192

 2017-02-03 17:19:27.566522+01 | 1486138767.56652 | pgbench_accounts |       1342955520
 2017-02-03 17:19:27.566522+01 | 1486138767.56652 | pgbench_tellers  |            49152
 2017-02-03 17:19:27.566522+01 | 1486138767.56652 | pgbench_history  |                0
 2017-02-03 17:19:27.566522+01 | 1486138767.56652 | pgbench_branches |             8192

 2017-02-03 17:19:28.677537+01 | 1486138768.67754 | pgbench_accounts |       1342955520
 2017-02-03 17:19:28.677537+01 | 1486138768.67754 | pgbench_tellers  |            49152
 2017-02-03 17:19:28.677537+01 | 1486138768.67754 | pgbench_history  |                0
 2017-02-03 17:19:28.677537+01 | 1486138768.67754 | pgbench_branches |             8192

 2017-02-03 17:19:29.787649+01 | 1486138769.78765 | pgbench_accounts |       1342955520
 2017-02-03 17:19:29.787649+01 | 1486138769.78765 | pgbench_tellers  |            49152
 2017-02-03 17:19:29.787649+01 | 1486138769.78765 | pgbench_history  |                0
 2017-02-03 17:19:29.787649+01 | 1486138769.78765 | pgbench_branches |             8192

 2017-02-03 17:19:30.901908+01 | 1486138770.90191 | pgbench_accounts |       1342955520
 2017-02-03 17:19:30.901908+01 | 1486138770.90191 | pgbench_tellers  |            49152
 2017-02-03 17:19:30.901908+01 | 1486138770.90191 | pgbench_history  |                0
 2017-02-03 17:19:30.901908+01 | 1486138770.90191 | pgbench_branches |             8192

 2017-02-03 17:19:32.026928+01 | 1486138772.02693 | pgbench_accounts |       1342955520
 2017-02-03 17:19:32.026928+01 | 1486138772.02693 | pgbench_tellers  |            49152
 2017-02-03 17:19:32.026928+01 | 1486138772.02693 | pgbench_history  |                0
 2017-02-03 17:19:32.026928+01 | 1486138772.02693 | pgbench_branches |             8192

 2017-02-03 17:19:33.145051+01 | 1486138773.14505 | pgbench_accounts |       1342955520
 2017-02-03 17:19:33.145051+01 | 1486138773.14505 | pgbench_tellers  |            49152
 2017-02-03 17:19:33.145051+01 | 1486138773.14505 | pgbench_history  |                0
 2017-02-03 17:19:33.145051+01 | 1486138773.14505 | pgbench_branches |             8192

 2017-02-03 17:19:34.244405+01 | 1486138774.24441 | pgbench_accounts |       1342955520
 2017-02-03 17:19:34.244405+01 | 1486138774.24441 | pgbench_tellers  |            49152
 2017-02-03 17:19:34.244405+01 | 1486138774.24441 | pgbench_history  |                0
 2017-02-03 17:19:34.244405+01 | 1486138774.24441 | pgbench_branches |             8192

 2017-02-03 17:19:35.353835+01 | 1486138775.35384 | pgbench_accounts |       1342955520
 2017-02-03 17:19:35.353835+01 | 1486138775.35384 | pgbench_tellers  |            49152
 2017-02-03 17:19:35.353835+01 | 1486138775.35384 | pgbench_history  |                0
 2017-02-03 17:19:35.353835+01 | 1486138775.35384 | pgbench_branches |             8192

 2017-02-03 17:19:36.444305+01 | 1486138776.4443 | pgbench_accounts |       1342955520
 2017-02-03 17:19:36.444305+01 | 1486138776.4443 | pgbench_tellers  |            49152
 2017-02-03 17:19:36.444305+01 | 1486138776.4443 | pgbench_history  |                0
 2017-02-03 17:19:36.444305+01 | 1486138776.4443 | pgbench_branches |             8192

 2017-02-03 17:19:37.582763+01 | 1486138777.58276 | pgbench_accounts |       1342955520
 2017-02-03 17:19:37.582763+01 | 1486138777.58276 | pgbench_tellers  |            49152
 2017-02-03 17:19:37.582763+01 | 1486138777.58276 | pgbench_history  |                0
 2017-02-03 17:19:37.582763+01 | 1486138777.58276 | pgbench_branches |             8192

 2017-02-03 17:19:38.690934+01 | 1486138778.69093 | pgbench_accounts |       1342955520
 2017-02-03 17:19:38.690934+01 | 1486138778.69093 | pgbench_tellers  |            49152
 2017-02-03 17:19:38.690934+01 | 1486138778.69093 | pgbench_history  |                0
 2017-02-03 17:19:38.690934+01 | 1486138778.69093 | pgbench_branches |             8192

 2017-02-03 17:19:39.794163+01 | 1486138779.79416 | pgbench_accounts |       1342955520
 2017-02-03 17:19:39.794163+01 | 1486138779.79416 | pgbench_tellers  |            49152
 2017-02-03 17:19:39.794163+01 | 1486138779.79416 | pgbench_history  |                0
 2017-02-03 17:19:39.794163+01 | 1486138779.79416 | pgbench_branches |             8192

 2017-02-03 17:19:40.951045+01 | 1486138780.95105 | pgbench_accounts |       1342955520
 2017-02-03 17:19:40.951045+01 | 1486138780.95105 | pgbench_tellers  |            49152
 2017-02-03 17:19:40.951045+01 | 1486138780.95105 | pgbench_history  |                0
 2017-02-03 17:19:40.951045+01 | 1486138780.95105 | pgbench_branches |             8192

 2017-02-03 17:19:42.095523+01 | 1486138782.09552 | pgbench_accounts |       1342955520
 2017-02-03 17:19:42.095523+01 | 1486138782.09552 | pgbench_tellers  |            49152
 2017-02-03 17:19:42.095523+01 | 1486138782.09552 | pgbench_history  |                0
 2017-02-03 17:19:42.095523+01 | 1486138782.09552 | pgbench_branches |             8192

 2017-02-03 17:19:43.22085+01 | 1486138783.22085 | pgbench_accounts |       1342955520
 2017-02-03 17:19:43.22085+01 | 1486138783.22085 | pgbench_tellers  |            49152
 2017-02-03 17:19:43.22085+01 | 1486138783.22085 | pgbench_history  |                0
 2017-02-03 17:19:43.22085+01 | 1486138783.22085 | pgbench_branches |             8192

 2017-02-03 17:19:44.349+01 | 1486138784.349 | pgbench_accounts |       1342955520
 2017-02-03 17:19:44.349+01 | 1486138784.349 | pgbench_tellers  |            49152
 2017-02-03 17:19:44.349+01 | 1486138784.349 | pgbench_history  |                0
 2017-02-03 17:19:44.349+01 | 1486138784.349 | pgbench_branches |             8192

 2017-02-03 17:19:45.448937+01 | 1486138785.44894 | pgbench_accounts |       1342955520
 2017-02-03 17:19:45.448937+01 | 1486138785.44894 | pgbench_tellers  |            49152
 2017-02-03 17:19:45.448937+01 | 1486138785.44894 | pgbench_history  |                0
 2017-02-03 17:19:45.448937+01 | 1486138785.44894 | pgbench_branches |             8192

 2017-02-03 17:19:46.542599+01 | 1486138786.5426 | pgbench_accounts |       1342955520
 2017-02-03 17:19:46.542599+01 | 1486138786.5426 | pgbench_tellers  |            49152
 2017-02-03 17:19:46.542599+01 | 1486138786.5426 | pgbench_history  |                0
 2017-02-03 17:19:46.542599+01 | 1486138786.5426 | pgbench_branches |             8192

 2017-02-03 17:19:47.648098+01 | 1486138787.6481 | pgbench_accounts |       1342955520
 2017-02-03 17:19:47.648098+01 | 1486138787.6481 | pgbench_tellers  |            49152
 2017-02-03 17:19:47.648098+01 | 1486138787.6481 | pgbench_history  |                0
 2017-02-03 17:19:47.648098+01 | 1486138787.6481 | pgbench_branches |             8192

 2017-02-03 17:19:48.763019+01 | 1486138788.76302 | pgbench_accounts |       1342955520
 2017-02-03 17:19:48.763019+01 | 1486138788.76302 | pgbench_tellers  |            49152
 2017-02-03 17:19:48.763019+01 | 1486138788.76302 | pgbench_history  |                0
 2017-02-03 17:19:48.763019+01 | 1486138788.76302 | pgbench_branches |             8192

 2017-02-03 17:19:49.869261+01 | 1486138789.86926 | pgbench_accounts |       1342955520
 2017-02-03 17:19:49.869261+01 | 1486138789.86926 | pgbench_tellers  |            49152
 2017-02-03 17:19:49.869261+01 | 1486138789.86926 | pgbench_history  |                0
 2017-02-03 17:19:49.869261+01 | 1486138789.86926 | pgbench_branches |             8192

 2017-02-03 17:19:50.974243+01 | 1486138790.97424 | pgbench_accounts |       1342955520
 2017-02-03 17:19:50.974243+01 | 1486138790.97424 | pgbench_tellers  |            49152
 2017-02-03 17:19:50.974243+01 | 1486138790.97424 | pgbench_history  |                0
 2017-02-03 17:19:50.974243+01 | 1486138790.97424 | pgbench_branches |             8192

 2017-02-03 17:19:52.099839+01 | 1486138792.09984 | pgbench_accounts |       1342955520
 2017-02-03 17:19:52.099839+01 | 1486138792.09984 | pgbench_tellers  |            49152
 2017-02-03 17:19:52.099839+01 | 1486138792.09984 | pgbench_history  |                0
 2017-02-03 17:19:52.099839+01 | 1486138792.09984 | pgbench_branches |             8192

 2017-02-03 17:19:53.209119+01 | 1486138793.20912 | pgbench_accounts |       1342955520
 2017-02-03 17:19:53.209119+01 | 1486138793.20912 | pgbench_tellers  |            49152
 2017-02-03 17:19:53.209119+01 | 1486138793.20912 | pgbench_history  |                0
 2017-02-03 17:19:53.209119+01 | 1486138793.20912 | pgbench_branches |             8192

 2017-02-03 17:19:54.321433+01 | 1486138794.32143 | pgbench_accounts |       1342955520
 2017-02-03 17:19:54.321433+01 | 1486138794.32143 | pgbench_tellers  |            49152
 2017-02-03 17:19:54.321433+01 | 1486138794.32143 | pgbench_history  |                0
 2017-02-03 17:19:54.321433+01 | 1486138794.32143 | pgbench_branches |             8192

 2017-02-03 17:19:55.435092+01 | 1486138795.43509 | pgbench_accounts |       1342955520
 2017-02-03 17:19:55.435092+01 | 1486138795.43509 | pgbench_tellers  |            49152
 2017-02-03 17:19:55.435092+01 | 1486138795.43509 | pgbench_history  |                0
 2017-02-03 17:19:55.435092+01 | 1486138795.43509 | pgbench_branches |             8192

 2017-02-03 17:19:56.540194+01 | 1486138796.54019 | pgbench_accounts |       1342955520
 2017-02-03 17:19:56.540194+01 | 1486138796.54019 | pgbench_tellers  |            49152
 2017-02-03 17:19:56.540194+01 | 1486138796.54019 | pgbench_history  |                0
 2017-02-03 17:19:56.540194+01 | 1486138796.54019 | pgbench_branches |             8192

 2017-02-03 17:19:57.679143+01 | 1486138797.67914 | pgbench_accounts |       1342955520
 2017-02-03 17:19:57.679143+01 | 1486138797.67914 | pgbench_tellers  |            49152
 2017-02-03 17:19:57.679143+01 | 1486138797.67914 | pgbench_history  |                0
 2017-02-03 17:19:57.679143+01 | 1486138797.67914 | pgbench_branches |             8192

 2017-02-03 17:19:58.779003+01 | 1486138798.779 | pgbench_accounts |       1342955520
 2017-02-03 17:19:58.779003+01 | 1486138798.779 | pgbench_tellers  |            49152
 2017-02-03 17:19:58.779003+01 | 1486138798.779 | pgbench_history  |                0
 2017-02-03 17:19:58.779003+01 | 1486138798.779 | pgbench_branches |             8192

 2017-02-03 17:19:59.873862+01 | 1486138799.87386 | pgbench_accounts |       1342955520
 2017-02-03 17:19:59.873862+01 | 1486138799.87386 | pgbench_tellers  |            49152
 2017-02-03 17:19:59.873862+01 | 1486138799.87386 | pgbench_history  |                0
 2017-02-03 17:19:59.873862+01 | 1486138799.87386 | pgbench_branches |             8192

 2017-02-03 17:20:00.98677+01 | 1486138800.98677 | pgbench_accounts |       1342955520
 2017-02-03 17:20:00.98677+01 | 1486138800.98677 | pgbench_tellers  |            49152
 2017-02-03 17:20:00.98677+01 | 1486138800.98677 | pgbench_history  |                0
 2017-02-03 17:20:00.98677+01 | 1486138800.98677 | pgbench_branches |             8192

 2017-02-03 17:20:02.10069+01 | 1486138802.10069 | pgbench_accounts |       1342955520
 2017-02-03 17:20:02.10069+01 | 1486138802.10069 | pgbench_tellers  |            49152
 2017-02-03 17:20:02.10069+01 | 1486138802.10069 | pgbench_history  |                0
 2017-02-03 17:20:02.10069+01 | 1486138802.10069 | pgbench_branches |             8192

 2017-02-03 17:20:03.207297+01 | 1486138803.2073 | pgbench_accounts |       1342955520
 2017-02-03 17:20:03.207297+01 | 1486138803.2073 | pgbench_tellers  |            49152
 2017-02-03 17:20:03.207297+01 | 1486138803.2073 | pgbench_history  |                0
 2017-02-03 17:20:03.207297+01 | 1486138803.2073 | pgbench_branches |             8192

 2017-02-03 17:20:04.329618+01 | 1486138804.32962 | pgbench_accounts |       1342955520
 2017-02-03 17:20:04.329618+01 | 1486138804.32962 | pgbench_tellers  |            49152
 2017-02-03 17:20:04.329618+01 | 1486138804.32962 | pgbench_history  |                0
 2017-02-03 17:20:04.329618+01 | 1486138804.32962 | pgbench_branches |             8192

 2017-02-03 17:20:05.449077+01 | 1486138805.44908 | pgbench_accounts |       1342955520
 2017-02-03 17:20:05.449077+01 | 1486138805.44908 | pgbench_tellers  |            49152
 2017-02-03 17:20:05.449077+01 | 1486138805.44908 | pgbench_history  |                0
 2017-02-03 17:20:05.449077+01 | 1486138805.44908 | pgbench_branches |             8192

 2017-02-03 17:20:06.563306+01 | 1486138806.56331 | pgbench_accounts |       1342955520
 2017-02-03 17:20:06.563306+01 | 1486138806.56331 | pgbench_tellers  |            49152
 2017-02-03 17:20:06.563306+01 | 1486138806.56331 | pgbench_history  |                0
 2017-02-03 17:20:06.563306+01 | 1486138806.56331 | pgbench_branches |             8192

 2017-02-03 17:20:07.668835+01 | 1486138807.66883 | pgbench_accounts |       1342955520
 2017-02-03 17:20:07.668835+01 | 1486138807.66883 | pgbench_tellers  |            49152
 2017-02-03 17:20:07.668835+01 | 1486138807.66883 | pgbench_history  |                0
 2017-02-03 17:20:07.668835+01 | 1486138807.66883 | pgbench_branches |             8192

 2017-02-03 17:20:08.770921+01 | 1486138808.77092 | pgbench_accounts |       1342955520
 2017-02-03 17:20:08.770921+01 | 1486138808.77092 | pgbench_tellers  |            49152
 2017-02-03 17:20:08.770921+01 | 1486138808.77092 | pgbench_history  |                0
 2017-02-03 17:20:08.770921+01 | 1486138808.77092 | pgbench_branches |             8192

 2017-02-03 17:20:09.854787+01 | 1486138809.85479 | pgbench_accounts |       1342955520
 2017-02-03 17:20:09.854787+01 | 1486138809.85479 | pgbench_tellers  |            49152
 2017-02-03 17:20:09.854787+01 | 1486138809.85479 | pgbench_history  |                0
 2017-02-03 17:20:09.854787+01 | 1486138809.85479 | pgbench_branches |             8192

 2017-02-03 17:20:10.956568+01 | 1486138810.95657 | pgbench_accounts |       1342955520
 2017-02-03 17:20:10.956568+01 | 1486138810.95657 | pgbench_tellers  |            49152
 2017-02-03 17:20:10.956568+01 | 1486138810.95657 | pgbench_history  |                0
 2017-02-03 17:20:10.956568+01 | 1486138810.95657 | pgbench_branches |             8192

 2017-02-03 17:20:12.060101+01 | 1486138812.0601 | pgbench_accounts |       1342955520
 2017-02-03 17:20:12.060101+01 | 1486138812.0601 | pgbench_tellers  |            49152
 2017-02-03 17:20:12.060101+01 | 1486138812.0601 | pgbench_history  |                0
 2017-02-03 17:20:12.060101+01 | 1486138812.0601 | pgbench_branches |             8192

 2017-02-03 17:20:13.169411+01 | 1486138813.16941 | pgbench_accounts |       1342955520
 2017-02-03 17:20:13.169411+01 | 1486138813.16941 | pgbench_tellers  |            49152
 2017-02-03 17:20:13.169411+01 | 1486138813.16941 | pgbench_history  |                0
 2017-02-03 17:20:13.169411+01 | 1486138813.16941 | pgbench_branches |             8192

 2017-02-03 17:20:14.278939+01 | 1486138814.27894 | pgbench_accounts |       1342955520
 2017-02-03 17:20:14.278939+01 | 1486138814.27894 | pgbench_tellers  |            49152
 2017-02-03 17:20:14.278939+01 | 1486138814.27894 | pgbench_history  |                0
 2017-02-03 17:20:14.278939+01 | 1486138814.27894 | pgbench_branches |             8192

 2017-02-03 17:20:15.411269+01 | 1486138815.41127 | pgbench_accounts |       1342955520
 2017-02-03 17:20:15.411269+01 | 1486138815.41127 | pgbench_tellers  |            49152
 2017-02-03 17:20:15.411269+01 | 1486138815.41127 | pgbench_history  |                0
 2017-02-03 17:20:15.411269+01 | 1486138815.41127 | pgbench_branches |             8192

 2017-02-03 17:20:16.563395+01 | 1486138816.5634 | pgbench_accounts |       1342955520
 2017-02-03 17:20:16.563395+01 | 1486138816.5634 | pgbench_tellers  |            49152
 2017-02-03 17:20:16.563395+01 | 1486138816.5634 | pgbench_history  |                0
 2017-02-03 17:20:16.563395+01 | 1486138816.5634 | pgbench_branches |             8192

 2017-02-03 17:20:17.684947+01 | 1486138817.68495 | pgbench_accounts |       1342955520
 2017-02-03 17:20:17.684947+01 | 1486138817.68495 | pgbench_tellers  |            49152
 2017-02-03 17:20:17.684947+01 | 1486138817.68495 | pgbench_history  |                0
 2017-02-03 17:20:17.684947+01 | 1486138817.68495 | pgbench_branches |             8192

 2017-02-03 17:20:18.776671+01 | 1486138818.77667 | pgbench_accounts |       1342955520
 2017-02-03 17:20:18.776671+01 | 1486138818.77667 | pgbench_tellers  |            49152
 2017-02-03 17:20:18.776671+01 | 1486138818.77667 | pgbench_history  |                0
 2017-02-03 17:20:18.776671+01 | 1486138818.77667 | pgbench_branches |             8192

 2017-02-03 17:20:19.870443+01 | 1486138819.87044 | pgbench_accounts |       1342955520
 2017-02-03 17:20:19.870443+01 | 1486138819.87044 | pgbench_tellers  |            49152
 2017-02-03 17:20:19.870443+01 | 1486138819.87044 | pgbench_history  |                0
 2017-02-03 17:20:19.870443+01 | 1486138819.87044 | pgbench_branches |             8192

 2017-02-03 17:20:20.996815+01 | 1486138820.99681 | pgbench_accounts |       1342955520
 2017-02-03 17:20:20.996815+01 | 1486138820.99681 | pgbench_tellers  |            49152
 2017-02-03 17:20:20.996815+01 | 1486138820.99681 | pgbench_history  |                0
 2017-02-03 17:20:20.996815+01 | 1486138820.99681 | pgbench_branches |             8192

 2017-02-03 17:20:22.113891+01 | 1486138822.11389 | pgbench_accounts |       1342955520
 2017-02-03 17:20:22.113891+01 | 1486138822.11389 | pgbench_tellers  |            49152
 2017-02-03 17:20:22.113891+01 | 1486138822.11389 | pgbench_history  |                0
 2017-02-03 17:20:22.113891+01 | 1486138822.11389 | pgbench_branches |             8192

 2017-02-03 17:20:23.234287+01 | 1486138823.23429 | pgbench_accounts |       1342955520
 2017-02-03 17:20:23.234287+01 | 1486138823.23429 | pgbench_tellers  |            49152
 2017-02-03 17:20:23.234287+01 | 1486138823.23429 | pgbench_history  |                0
 2017-02-03 17:20:23.234287+01 | 1486138823.23429 | pgbench_branches |             8192

 2017-02-03 17:20:24.328981+01 | 1486138824.32898 | pgbench_accounts |       1342955520
 2017-02-03 17:20:24.328981+01 | 1486138824.32898 | pgbench_tellers  |            49152
 2017-02-03 17:20:24.328981+01 | 1486138824.32898 | pgbench_history  |                0
 2017-02-03 17:20:24.328981+01 | 1486138824.32898 | pgbench_branches |             8192

 2017-02-03 17:20:25.42529+01 | 1486138825.42529 | pgbench_accounts |       1342955520
 2017-02-03 17:20:25.42529+01 | 1486138825.42529 | pgbench_tellers  |            49152
 2017-02-03 17:20:25.42529+01 | 1486138825.42529 | pgbench_history  |                0
 2017-02-03 17:20:25.42529+01 | 1486138825.42529 | pgbench_branches |             8192

 2017-02-03 17:20:26.554106+01 | 1486138826.55411 | pgbench_accounts |       1342955520
 2017-02-03 17:20:26.554106+01 | 1486138826.55411 | pgbench_tellers  |            49152
 2017-02-03 17:20:26.554106+01 | 1486138826.55411 | pgbench_history  |                0
 2017-02-03 17:20:26.554106+01 | 1486138826.55411 | pgbench_branches |             8192

 2017-02-03 17:20:27.675117+01 | 1486138827.67512 | pgbench_accounts |       1342955520
 2017-02-03 17:20:27.675117+01 | 1486138827.67512 | pgbench_tellers  |            49152
 2017-02-03 17:20:27.675117+01 | 1486138827.67512 | pgbench_history  |                0
 2017-02-03 17:20:27.675117+01 | 1486138827.67512 | pgbench_branches |             8192

 2017-02-03 17:20:28.80197+01 | 1486138828.80197 | pgbench_accounts |       1342955520
 2017-02-03 17:20:28.80197+01 | 1486138828.80197 | pgbench_tellers  |            49152
 2017-02-03 17:20:28.80197+01 | 1486138828.80197 | pgbench_history  |                0
 2017-02-03 17:20:28.80197+01 | 1486138828.80197 | pgbench_branches |             8192

 2017-02-03 17:20:29.924244+01 | 1486138829.92424 | pgbench_accounts |       1342955520
 2017-02-03 17:20:29.924244+01 | 1486138829.92424 | pgbench_tellers  |            49152
 2017-02-03 17:20:29.924244+01 | 1486138829.92424 | pgbench_history  |                0
 2017-02-03 17:20:29.924244+01 | 1486138829.92424 | pgbench_branches |             8192

 2017-02-03 17:20:31.020418+01 | 1486138831.02042 | pgbench_accounts |       1342955520
 2017-02-03 17:20:31.020418+01 | 1486138831.02042 | pgbench_tellers  |            49152
 2017-02-03 17:20:31.020418+01 | 1486138831.02042 | pgbench_history  |                0
 2017-02-03 17:20:31.020418+01 | 1486138831.02042 | pgbench_branches |             8192

 2017-02-03 17:20:32.119901+01 | 1486138832.1199 | pgbench_accounts |       1342955520
 2017-02-03 17:20:32.119901+01 | 1486138832.1199 | pgbench_tellers  |            49152
 2017-02-03 17:20:32.119901+01 | 1486138832.1199 | pgbench_history  |                0
 2017-02-03 17:20:32.119901+01 | 1486138832.1199 | pgbench_branches |             8192

 2017-02-03 17:20:33.207485+01 | 1486138833.20748 | pgbench_accounts |       1342955520
 2017-02-03 17:20:33.207485+01 | 1486138833.20748 | pgbench_tellers  |            49152
 2017-02-03 17:20:33.207485+01 | 1486138833.20748 | pgbench_history  |                0
 2017-02-03 17:20:33.207485+01 | 1486138833.20748 | pgbench_branches |             8192

 2017-02-03 17:20:34.308888+01 | 1486138834.30889 | pgbench_accounts |       1342955520
 2017-02-03 17:20:34.308888+01 | 1486138834.30889 | pgbench_tellers  |            49152
 2017-02-03 17:20:34.308888+01 | 1486138834.30889 | pgbench_history  |                0
 2017-02-03 17:20:34.308888+01 | 1486138834.30889 | pgbench_branches |             8192

 2017-02-03 17:20:35.398908+01 | 1486138835.39891 | pgbench_accounts |       1342955520
 2017-02-03 17:20:35.398908+01 | 1486138835.39891 | pgbench_tellers  |            49152
 2017-02-03 17:20:35.398908+01 | 1486138835.39891 | pgbench_history  |                0
 2017-02-03 17:20:35.398908+01 | 1486138835.39891 | pgbench_branches |             8192

 2017-02-03 17:20:36.485438+01 | 1486138836.48544 | pgbench_accounts |       1342955520
 2017-02-03 17:20:36.485438+01 | 1486138836.48544 | pgbench_tellers  |            49152
 2017-02-03 17:20:36.485438+01 | 1486138836.48544 | pgbench_history  |                0
 2017-02-03 17:20:36.485438+01 | 1486138836.48544 | pgbench_branches |             8192

 2017-02-03 17:20:37.580811+01 | 1486138837.58081 | pgbench_accounts |       1342955520
 2017-02-03 17:20:37.580811+01 | 1486138837.58081 | pgbench_tellers  |            49152
 2017-02-03 17:20:37.580811+01 | 1486138837.58081 | pgbench_history  |                0
 2017-02-03 17:20:37.580811+01 | 1486138837.58081 | pgbench_branches |             8192

 2017-02-03 17:20:38.703008+01 | 1486138838.70301 | pgbench_accounts |       1342955520
 2017-02-03 17:20:38.703008+01 | 1486138838.70301 | pgbench_tellers  |            49152
 2017-02-03 17:20:38.703008+01 | 1486138838.70301 | pgbench_history  |                0
 2017-02-03 17:20:38.703008+01 | 1486138838.70301 | pgbench_branches |             8192

 2017-02-03 17:20:39.813268+01 | 1486138839.81327 | pgbench_accounts |       1342955520
 2017-02-03 17:20:39.813268+01 | 1486138839.81327 | pgbench_tellers  |            49152
 2017-02-03 17:20:39.813268+01 | 1486138839.81327 | pgbench_history  |                0
 2017-02-03 17:20:39.813268+01 | 1486138839.81327 | pgbench_branches |             8192

 2017-02-03 17:20:40.947722+01 | 1486138840.94772 | pgbench_accounts |       1342955520
 2017-02-03 17:20:40.947722+01 | 1486138840.94772 | pgbench_tellers  |            49152
 2017-02-03 17:20:40.947722+01 | 1486138840.94772 | pgbench_history  |                0
 2017-02-03 17:20:40.947722+01 | 1486138840.94772 | pgbench_branches |             8192

 2017-02-03 17:20:42.051873+01 | 1486138842.05187 | pgbench_accounts |       1342955520
 2017-02-03 17:20:42.051873+01 | 1486138842.05187 | pgbench_tellers  |            49152
 2017-02-03 17:20:42.051873+01 | 1486138842.05187 | pgbench_history  |                0
 2017-02-03 17:20:42.051873+01 | 1486138842.05187 | pgbench_branches |             8192

 2017-02-03 17:20:43.157833+01 | 1486138843.15783 | pgbench_accounts |       1342955520
 2017-02-03 17:20:43.157833+01 | 1486138843.15783 | pgbench_tellers  |            49152
 2017-02-03 17:20:43.157833+01 | 1486138843.15783 | pgbench_history  |                0
 2017-02-03 17:20:43.157833+01 | 1486138843.15783 | pgbench_branches |             8192

 2017-02-03 17:20:44.259032+01 | 1486138844.25903 | pgbench_accounts |       1342955520
 2017-02-03 17:20:44.259032+01 | 1486138844.25903 | pgbench_tellers  |            49152
 2017-02-03 17:20:44.259032+01 | 1486138844.25903 | pgbench_history  |                0
 2017-02-03 17:20:44.259032+01 | 1486138844.25903 | pgbench_branches |             8192

 2017-02-03 17:20:45.362367+01 | 1486138845.36237 | pgbench_accounts |       1342955520
 2017-02-03 17:20:45.362367+01 | 1486138845.36237 | pgbench_tellers  |            49152
 2017-02-03 17:20:45.362367+01 | 1486138845.36237 | pgbench_history  |                0
 2017-02-03 17:20:45.362367+01 | 1486138845.36237 | pgbench_branches |             8192

 2017-02-03 17:20:46.459285+01 | 1486138846.45929 | pgbench_accounts |       1342955520
 2017-02-03 17:20:46.459285+01 | 1486138846.45929 | pgbench_tellers  |            49152
 2017-02-03 17:20:46.459285+01 | 1486138846.45929 | pgbench_history  |                0
 2017-02-03 17:20:46.459285+01 | 1486138846.45929 | pgbench_branches |             8192

 2017-02-03 17:20:47.574064+01 | 1486138847.57406 | pgbench_accounts |       1342955520
 2017-02-03 17:20:47.574064+01 | 1486138847.57406 | pgbench_tellers  |            49152
 2017-02-03 17:20:47.574064+01 | 1486138847.57406 | pgbench_history  |                0
 2017-02-03 17:20:47.574064+01 | 1486138847.57406 | pgbench_branches |             8192

 2017-02-03 17:20:48.674191+01 | 1486138848.67419 | pgbench_accounts |       1342955520
 2017-02-03 17:20:48.674191+01 | 1486138848.67419 | pgbench_tellers  |            49152
 2017-02-03 17:20:48.674191+01 | 1486138848.67419 | pgbench_history  |                0
 2017-02-03 17:20:48.674191+01 | 1486138848.67419 | pgbench_branches |             8192

 2017-02-03 17:20:49.770986+01 | 1486138849.77099 | pgbench_accounts |       1342955520
 2017-02-03 17:20:49.770986+01 | 1486138849.77099 | pgbench_tellers  |            49152
 2017-02-03 17:20:49.770986+01 | 1486138849.77099 | pgbench_history  |                0
 2017-02-03 17:20:49.770986+01 | 1486138849.77099 | pgbench_branches |             8192

 2017-02-03 17:20:50.89614+01 | 1486138850.89614 | pgbench_accounts |       1342955520
 2017-02-03 17:20:50.89614+01 | 1486138850.89614 | pgbench_tellers  |            49152
 2017-02-03 17:20:50.89614+01 | 1486138850.89614 | pgbench_history  |                0
 2017-02-03 17:20:50.89614+01 | 1486138850.89614 | pgbench_branches |             8192

 2017-02-03 17:20:52.011052+01 | 1486138852.01105 | pgbench_accounts |       1342955520
 2017-02-03 17:20:52.011052+01 | 1486138852.01105 | pgbench_tellers  |            49152
 2017-02-03 17:20:52.011052+01 | 1486138852.01105 | pgbench_history  |                0
 2017-02-03 17:20:52.011052+01 | 1486138852.01105 | pgbench_branches |             8192

 2017-02-03 17:20:53.150095+01 | 1486138853.15009 | pgbench_accounts |       1342955520
 2017-02-03 17:20:53.150095+01 | 1486138853.15009 | pgbench_tellers  |            49152
 2017-02-03 17:20:53.150095+01 | 1486138853.15009 | pgbench_history  |                0
 2017-02-03 17:20:53.150095+01 | 1486138853.15009 | pgbench_branches |             8192

 2017-02-03 17:20:54.256051+01 | 1486138854.25605 | pgbench_accounts |       1342955520
 2017-02-03 17:20:54.256051+01 | 1486138854.25605 | pgbench_tellers  |            49152
 2017-02-03 17:20:54.256051+01 | 1486138854.25605 | pgbench_history  |                0
 2017-02-03 17:20:54.256051+01 | 1486138854.25605 | pgbench_branches |             8192

 2017-02-03 17:20:55.359032+01 | 1486138855.35903 | pgbench_accounts |       1342955520
 2017-02-03 17:20:55.359032+01 | 1486138855.35903 | pgbench_tellers  |            49152
 2017-02-03 17:20:55.359032+01 | 1486138855.35903 | pgbench_history  |                0
 2017-02-03 17:20:55.359032+01 | 1486138855.35903 | pgbench_branches |             8192

 2017-02-03 17:20:56.461099+01 | 1486138856.4611 | pgbench_accounts |       1342955520
 2017-02-03 17:20:56.461099+01 | 1486138856.4611 | pgbench_tellers  |            49152
 2017-02-03 17:20:56.461099+01 | 1486138856.4611 | pgbench_history  |                0
 2017-02-03 17:20:56.461099+01 | 1486138856.4611 | pgbench_branches |             8192

 2017-02-03 17:20:57.568946+01 | 1486138857.56895 | pgbench_accounts |       1342955520
 2017-02-03 17:20:57.568946+01 | 1486138857.56895 | pgbench_tellers  |            49152
 2017-02-03 17:20:57.568946+01 | 1486138857.56895 | pgbench_history  |                0
 2017-02-03 17:20:57.568946+01 | 1486138857.56895 | pgbench_branches |             8192

 2017-02-03 17:20:58.666099+01 | 1486138858.6661 | pgbench_accounts |       1342955520
 2017-02-03 17:20:58.666099+01 | 1486138858.6661 | pgbench_tellers  |            49152
 2017-02-03 17:20:58.666099+01 | 1486138858.6661 | pgbench_history  |                0
 2017-02-03 17:20:58.666099+01 | 1486138858.6661 | pgbench_branches |             8192

 2017-02-03 17:20:59.780045+01 | 1486138859.78005 | pgbench_accounts |       1342955520
 2017-02-03 17:20:59.780045+01 | 1486138859.78005 | pgbench_tellers  |            49152
 2017-02-03 17:20:59.780045+01 | 1486138859.78005 | pgbench_history  |                0
 2017-02-03 17:20:59.780045+01 | 1486138859.78005 | pgbench_branches |             8192

 2017-02-03 17:21:00.89106+01 | 1486138860.89106 | pgbench_accounts |       1342955520
 2017-02-03 17:21:00.89106+01 | 1486138860.89106 | pgbench_tellers  |            49152
 2017-02-03 17:21:00.89106+01 | 1486138860.89106 | pgbench_history  |                0
 2017-02-03 17:21:00.89106+01 | 1486138860.89106 | pgbench_branches |             8192

 2017-02-03 17:21:02.036092+01 | 1486138862.03609 | pgbench_accounts |       1342955520
 2017-02-03 17:21:02.036092+01 | 1486138862.03609 | pgbench_tellers  |            49152
 2017-02-03 17:21:02.036092+01 | 1486138862.03609 | pgbench_history  |                0
 2017-02-03 17:21:02.036092+01 | 1486138862.03609 | pgbench_branches |             8192

 2017-02-03 17:21:03.156042+01 | 1486138863.15604 | pgbench_accounts |       1342955520
 2017-02-03 17:21:03.156042+01 | 1486138863.15604 | pgbench_tellers  |            49152
 2017-02-03 17:21:03.156042+01 | 1486138863.15604 | pgbench_history  |                0
 2017-02-03 17:21:03.156042+01 | 1486138863.15604 | pgbench_branches |             8192

 2017-02-03 17:21:04.255306+01 | 1486138864.25531 | pgbench_accounts |       1342955520
 2017-02-03 17:21:04.255306+01 | 1486138864.25531 | pgbench_tellers  |            49152
 2017-02-03 17:21:04.255306+01 | 1486138864.25531 | pgbench_history  |                0
 2017-02-03 17:21:04.255306+01 | 1486138864.25531 | pgbench_branches |             8192

 2017-02-03 17:21:05.360893+01 | 1486138865.36089 | pgbench_accounts |       1342955520
 2017-02-03 17:21:05.360893+01 | 1486138865.36089 | pgbench_tellers  |            49152
 2017-02-03 17:21:05.360893+01 | 1486138865.36089 | pgbench_history  |                0
 2017-02-03 17:21:05.360893+01 | 1486138865.36089 | pgbench_branches |             8192

 2017-02-03 17:21:06.463928+01 | 1486138866.46393 | pgbench_accounts |       1342955520
 2017-02-03 17:21:06.463928+01 | 1486138866.46393 | pgbench_tellers  |            49152
 2017-02-03 17:21:06.463928+01 | 1486138866.46393 | pgbench_history  |                0
 2017-02-03 17:21:06.463928+01 | 1486138866.46393 | pgbench_branches |             8192

 2017-02-03 17:21:07.563492+01 | 1486138867.56349 | pgbench_accounts |       1342955520
 2017-02-03 17:21:07.563492+01 | 1486138867.56349 | pgbench_tellers  |            49152
 2017-02-03 17:21:07.563492+01 | 1486138867.56349 | pgbench_history  |                0
 2017-02-03 17:21:07.563492+01 | 1486138867.56349 | pgbench_branches |             8192

 2017-02-03 17:21:08.689901+01 | 1486138868.6899 | pgbench_accounts |       1342955520
 2017-02-03 17:21:08.689901+01 | 1486138868.6899 | pgbench_tellers  |            49152
 2017-02-03 17:21:08.689901+01 | 1486138868.6899 | pgbench_history  |                0
 2017-02-03 17:21:08.689901+01 | 1486138868.6899 | pgbench_branches |             8192

 2017-02-03 17:21:09.799685+01 | 1486138869.79969 | pgbench_accounts |       1342955520
 2017-02-03 17:21:09.799685+01 | 1486138869.79969 | pgbench_tellers  |            49152
 2017-02-03 17:21:09.799685+01 | 1486138869.79969 | pgbench_history  |                0
 2017-02-03 17:21:09.799685+01 | 1486138869.79969 | pgbench_branches |             8192

 2017-02-03 17:21:10.915722+01 | 1486138870.91572 | pgbench_accounts |       1342955520
 2017-02-03 17:21:10.915722+01 | 1486138870.91572 | pgbench_tellers  |            49152
 2017-02-03 17:21:10.915722+01 | 1486138870.91572 | pgbench_history  |                0
 2017-02-03 17:21:10.915722+01 | 1486138870.91572 | pgbench_branches |             8192

 2017-02-03 17:21:12.042629+01 | 1486138872.04263 | pgbench_accounts |       1342955520
 2017-02-03 17:21:12.042629+01 | 1486138872.04263 | pgbench_tellers  |            49152
 2017-02-03 17:21:12.042629+01 | 1486138872.04263 | pgbench_history  |                0
 2017-02-03 17:21:12.042629+01 | 1486138872.04263 | pgbench_branches |             8192

 2017-02-03 17:21:13.151722+01 | 1486138873.15172 | pgbench_accounts |       1342955520
 2017-02-03 17:21:13.151722+01 | 1486138873.15172 | pgbench_tellers  |            49152
 2017-02-03 17:21:13.151722+01 | 1486138873.15172 | pgbench_history  |                0
 2017-02-03 17:21:13.151722+01 | 1486138873.15172 | pgbench_branches |             8192

 2017-02-03 17:21:14.253706+01 | 1486138874.25371 | pgbench_accounts |       1342955520
 2017-02-03 17:21:14.253706+01 | 1486138874.25371 | pgbench_tellers  |            49152
 2017-02-03 17:21:14.253706+01 | 1486138874.25371 | pgbench_history  |                0
 2017-02-03 17:21:14.253706+01 | 1486138874.25371 | pgbench_branches |             8192

 2017-02-03 17:21:15.386689+01 | 1486138875.38669 | pgbench_accounts |       1342955520
 2017-02-03 17:21:15.386689+01 | 1486138875.38669 | pgbench_tellers  |            49152
 2017-02-03 17:21:15.386689+01 | 1486138875.38669 | pgbench_history  |                0
 2017-02-03 17:21:15.386689+01 | 1486138875.38669 | pgbench_branches |             8192

 2017-02-03 17:21:16.507097+01 | 1486138876.5071 | pgbench_accounts |       1342955520
 2017-02-03 17:21:16.507097+01 | 1486138876.5071 | pgbench_tellers  |            49152
 2017-02-03 17:21:16.507097+01 | 1486138876.5071 | pgbench_history  |                0
 2017-02-03 17:21:16.507097+01 | 1486138876.5071 | pgbench_branches |             8192

 2017-02-03 17:21:17.634772+01 | 1486138877.63477 | pgbench_accounts |       1342955520
 2017-02-03 17:21:17.634772+01 | 1486138877.63477 | pgbench_tellers  |            49152
 2017-02-03 17:21:17.634772+01 | 1486138877.63477 | pgbench_history  |                0
 2017-02-03 17:21:17.634772+01 | 1486138877.63477 | pgbench_branches |             8192

 2017-02-03 17:21:18.739028+01 | 1486138878.73903 | pgbench_accounts |       1342955520
 2017-02-03 17:21:18.739028+01 | 1486138878.73903 | pgbench_tellers  |            49152
 2017-02-03 17:21:18.739028+01 | 1486138878.73903 | pgbench_history  |                0
 2017-02-03 17:21:18.739028+01 | 1486138878.73903 | pgbench_branches |             8192

 2017-02-03 17:21:19.853954+01 | 1486138879.85395 | pgbench_accounts |       1342955520
 2017-02-03 17:21:19.853954+01 | 1486138879.85395 | pgbench_tellers  |            49152
 2017-02-03 17:21:19.853954+01 | 1486138879.85395 | pgbench_history  |                0
 2017-02-03 17:21:19.853954+01 | 1486138879.85395 | pgbench_branches |             8192

 2017-02-03 17:21:20.960522+01 | 1486138880.96052 | pgbench_accounts |       1342955520
 2017-02-03 17:21:20.960522+01 | 1486138880.96052 | pgbench_tellers  |            49152
 2017-02-03 17:21:20.960522+01 | 1486138880.96052 | pgbench_history  |                0
 2017-02-03 17:21:20.960522+01 | 1486138880.96052 | pgbench_branches |             8192

 2017-02-03 17:21:22.060067+01 | 1486138882.06007 | pgbench_accounts |       1342955520
 2017-02-03 17:21:22.060067+01 | 1486138882.06007 | pgbench_tellers  |            49152
 2017-02-03 17:21:22.060067+01 | 1486138882.06007 | pgbench_history  |                0
 2017-02-03 17:21:22.060067+01 | 1486138882.06007 | pgbench_branches |             8192

 2017-02-03 17:21:23.158633+01 | 1486138883.15863 | pgbench_accounts |       1342955520
 2017-02-03 17:21:23.158633+01 | 1486138883.15863 | pgbench_tellers  |            49152
 2017-02-03 17:21:23.158633+01 | 1486138883.15863 | pgbench_history  |                0
 2017-02-03 17:21:23.158633+01 | 1486138883.15863 | pgbench_branches |             8192

 2017-02-03 17:21:24.256547+01 | 1486138884.25655 | pgbench_accounts |       1342955520
 2017-02-03 17:21:24.256547+01 | 1486138884.25655 | pgbench_tellers  |            49152
 2017-02-03 17:21:24.256547+01 | 1486138884.25655 | pgbench_history  |                0
 2017-02-03 17:21:24.256547+01 | 1486138884.25655 | pgbench_branches |             8192

 2017-02-03 17:21:25.384442+01 | 1486138885.38444 | pgbench_accounts |       1342955520
 2017-02-03 17:21:25.384442+01 | 1486138885.38444 | pgbench_tellers  |            49152
 2017-02-03 17:21:25.384442+01 | 1486138885.38444 | pgbench_history  |                0
 2017-02-03 17:21:25.384442+01 | 1486138885.38444 | pgbench_branches |             8192

 2017-02-03 17:21:26.527177+01 | 1486138886.52718 | pgbench_accounts |       1342955520
 2017-02-03 17:21:26.527177+01 | 1486138886.52718 | pgbench_tellers  |            49152
 2017-02-03 17:21:26.527177+01 | 1486138886.52718 | pgbench_history  |                0
 2017-02-03 17:21:26.527177+01 | 1486138886.52718 | pgbench_branches |             8192

 2017-02-03 17:21:27.680226+01 | 1486138887.68023 | pgbench_accounts |       1342955520
 2017-02-03 17:21:27.680226+01 | 1486138887.68023 | pgbench_tellers  |            49152
 2017-02-03 17:21:27.680226+01 | 1486138887.68023 | pgbench_history  |                0
 2017-02-03 17:21:27.680226+01 | 1486138887.68023 | pgbench_branches |             8192

 2017-02-03 17:21:28.807722+01 | 1486138888.80772 | pgbench_accounts |       1342955520
 2017-02-03 17:21:28.807722+01 | 1486138888.80772 | pgbench_tellers  |            49152
 2017-02-03 17:21:28.807722+01 | 1486138888.80772 | pgbench_history  |                0
 2017-02-03 17:21:28.807722+01 | 1486138888.80772 | pgbench_branches |             8192

 2017-02-03 17:21:29.906994+01 | 1486138889.90699 | pgbench_accounts |       1342955520
 2017-02-03 17:21:29.906994+01 | 1486138889.90699 | pgbench_tellers  |            49152
 2017-02-03 17:21:29.906994+01 | 1486138889.90699 | pgbench_history  |                0
 2017-02-03 17:21:29.906994+01 | 1486138889.90699 | pgbench_branches |             8192

 2017-02-03 17:21:31.001805+01 | 1486138891.00181 | pgbench_accounts |       1342955520
 2017-02-03 17:21:31.001805+01 | 1486138891.00181 | pgbench_tellers  |            49152
 2017-02-03 17:21:31.001805+01 | 1486138891.00181 | pgbench_history  |                0
 2017-02-03 17:21:31.001805+01 | 1486138891.00181 | pgbench_branches |             8192

 2017-02-03 17:21:32.101514+01 | 1486138892.10151 | pgbench_accounts |       1342955520
 2017-02-03 17:21:32.101514+01 | 1486138892.10151 | pgbench_tellers  |            49152
 2017-02-03 17:21:32.101514+01 | 1486138892.10151 | pgbench_history  |                0
 2017-02-03 17:21:32.101514+01 | 1486138892.10151 | pgbench_branches |             8192

 2017-02-03 17:21:33.204249+01 | 1486138893.20425 | pgbench_accounts |       1342955520
 2017-02-03 17:21:33.204249+01 | 1486138893.20425 | pgbench_tellers  |            49152
 2017-02-03 17:21:33.204249+01 | 1486138893.20425 | pgbench_history  |                0
 2017-02-03 17:21:33.204249+01 | 1486138893.20425 | pgbench_branches |             8192

 2017-02-03 17:21:34.317874+01 | 1486138894.31787 | pgbench_accounts |       1342955520
 2017-02-03 17:21:34.317874+01 | 1486138894.31787 | pgbench_tellers  |            49152
 2017-02-03 17:21:34.317874+01 | 1486138894.31787 | pgbench_history  |                0
 2017-02-03 17:21:34.317874+01 | 1486138894.31787 | pgbench_branches |             8192

 2017-02-03 17:21:35.429895+01 | 1486138895.42989 | pgbench_accounts |       1342955520
 2017-02-03 17:21:35.429895+01 | 1486138895.42989 | pgbench_tellers  |            49152
 2017-02-03 17:21:35.429895+01 | 1486138895.42989 | pgbench_history  |                0
 2017-02-03 17:21:35.429895+01 | 1486138895.42989 | pgbench_branches |             8192

 2017-02-03 17:21:36.556219+01 | 1486138896.55622 | pgbench_accounts |       1342955520
 2017-02-03 17:21:36.556219+01 | 1486138896.55622 | pgbench_tellers  |            49152
 2017-02-03 17:21:36.556219+01 | 1486138896.55622 | pgbench_history  |                0
 2017-02-03 17:21:36.556219+01 | 1486138896.55622 | pgbench_branches |             8192

 2017-02-03 17:21:37.657267+01 | 1486138897.65727 | pgbench_accounts |       1342955520
 2017-02-03 17:21:37.657267+01 | 1486138897.65727 | pgbench_tellers  |            49152
 2017-02-03 17:21:37.657267+01 | 1486138897.65727 | pgbench_history  |                0
 2017-02-03 17:21:37.657267+01 | 1486138897.65727 | pgbench_branches |             8192

 2017-02-03 17:21:38.762796+01 | 1486138898.7628 | pgbench_accounts |       1342955520
 2017-02-03 17:21:38.762796+01 | 1486138898.7628 | pgbench_tellers  |            49152
 2017-02-03 17:21:38.762796+01 | 1486138898.7628 | pgbench_history  |                0
 2017-02-03 17:21:38.762796+01 | 1486138898.7628 | pgbench_branches |             8192

 2017-02-03 17:21:39.86973+01 | 1486138899.86973 | pgbench_accounts |       1342955520
 2017-02-03 17:21:39.86973+01 | 1486138899.86973 | pgbench_tellers  |            49152
 2017-02-03 17:21:39.86973+01 | 1486138899.86973 | pgbench_history  |                0
 2017-02-03 17:21:39.86973+01 | 1486138899.86973 | pgbench_branches |             8192

 2017-02-03 17:21:40.98236+01 | 1486138900.98236 | pgbench_accounts |       1342955520
 2017-02-03 17:21:40.98236+01 | 1486138900.98236 | pgbench_tellers  |            49152
 2017-02-03 17:21:40.98236+01 | 1486138900.98236 | pgbench_history  |                0
 2017-02-03 17:21:40.98236+01 | 1486138900.98236 | pgbench_branches |             8192

 2017-02-03 17:21:42.101388+01 | 1486138902.10139 | pgbench_accounts |       1342955520
 2017-02-03 17:21:42.101388+01 | 1486138902.10139 | pgbench_tellers  |            49152
 2017-02-03 17:21:42.101388+01 | 1486138902.10139 | pgbench_history  |                0
 2017-02-03 17:21:42.101388+01 | 1486138902.10139 | pgbench_branches |             8192

 2017-02-03 17:21:43.22541+01 | 1486138903.22541 | pgbench_accounts |       1342955520
 2017-02-03 17:21:43.22541+01 | 1486138903.22541 | pgbench_tellers  |            49152
 2017-02-03 17:21:43.22541+01 | 1486138903.22541 | pgbench_history  |                0
 2017-02-03 17:21:43.22541+01 | 1486138903.22541 | pgbench_branches |             8192

 2017-02-03 17:21:44.32754+01 | 1486138904.32754 | pgbench_accounts |       1342955520
 2017-02-03 17:21:44.32754+01 | 1486138904.32754 | pgbench_tellers  |            49152
 2017-02-03 17:21:44.32754+01 | 1486138904.32754 | pgbench_history  |                0
 2017-02-03 17:21:44.32754+01 | 1486138904.32754 | pgbench_branches |             8192

 2017-02-03 17:21:45.415396+01 | 1486138905.4154 | pgbench_accounts |       1342955520
 2017-02-03 17:21:45.415396+01 | 1486138905.4154 | pgbench_tellers  |            49152
 2017-02-03 17:21:45.415396+01 | 1486138905.4154 | pgbench_history  |                0
 2017-02-03 17:21:45.415396+01 | 1486138905.4154 | pgbench_branches |             8192

 2017-02-03 17:21:46.514941+01 | 1486138906.51494 | pgbench_accounts |       1342955520
 2017-02-03 17:21:46.514941+01 | 1486138906.51494 | pgbench_tellers  |            49152
 2017-02-03 17:21:46.514941+01 | 1486138906.51494 | pgbench_history  |                0
 2017-02-03 17:21:46.514941+01 | 1486138906.51494 | pgbench_branches |             8192

 2017-02-03 17:21:47.644499+01 | 1486138907.6445 | pgbench_accounts |       1342955520
 2017-02-03 17:21:47.644499+01 | 1486138907.6445 | pgbench_tellers  |            49152
 2017-02-03 17:21:47.644499+01 | 1486138907.6445 | pgbench_history  |                0
 2017-02-03 17:21:47.644499+01 | 1486138907.6445 | pgbench_branches |             8192

 2017-02-03 17:21:48.763223+01 | 1486138908.76322 | pgbench_accounts |       1342955520
 2017-02-03 17:21:48.763223+01 | 1486138908.76322 | pgbench_tellers  |            49152
 2017-02-03 17:21:48.763223+01 | 1486138908.76322 | pgbench_history  |                0
 2017-02-03 17:21:48.763223+01 | 1486138908.76322 | pgbench_branches |             8192

 2017-02-03 17:21:49.869207+01 | 1486138909.86921 | pgbench_accounts |       1342955520
 2017-02-03 17:21:49.869207+01 | 1486138909.86921 | pgbench_tellers  |            49152
 2017-02-03 17:21:49.869207+01 | 1486138909.86921 | pgbench_history  |                0
 2017-02-03 17:21:49.869207+01 | 1486138909.86921 | pgbench_branches |             8192

 2017-02-03 17:21:51.01417+01 | 1486138911.01417 | pgbench_accounts |       1342955520
 2017-02-03 17:21:51.01417+01 | 1486138911.01417 | pgbench_tellers  |            49152
 2017-02-03 17:21:51.01417+01 | 1486138911.01417 | pgbench_history  |                0
 2017-02-03 17:21:51.01417+01 | 1486138911.01417 | pgbench_branches |             8192

 2017-02-03 17:21:52.167492+01 | 1486138912.16749 | pgbench_accounts |       1342955520
 2017-02-03 17:21:52.167492+01 | 1486138912.16749 | pgbench_tellers  |            49152
 2017-02-03 17:21:52.167492+01 | 1486138912.16749 | pgbench_history  |                0
 2017-02-03 17:21:52.167492+01 | 1486138912.16749 | pgbench_branches |             8192

 2017-02-03 17:21:53.271033+01 | 1486138913.27103 | pgbench_accounts |       1342955520
 2017-02-03 17:21:53.271033+01 | 1486138913.27103 | pgbench_tellers  |            49152
 2017-02-03 17:21:53.271033+01 | 1486138913.27103 | pgbench_history  |                0
 2017-02-03 17:21:53.271033+01 | 1486138913.27103 | pgbench_branches |             8192

 2017-02-03 17:21:54.384246+01 | 1486138914.38425 | pgbench_accounts |       1342955520
 2017-02-03 17:21:54.384246+01 | 1486138914.38425 | pgbench_tellers  |            49152
 2017-02-03 17:21:54.384246+01 | 1486138914.38425 | pgbench_history  |                0
 2017-02-03 17:21:54.384246+01 | 1486138914.38425 | pgbench_branches |             8192

 2017-02-03 17:21:55.485688+01 | 1486138915.48569 | pgbench_accounts |       1342955520
 2017-02-03 17:21:55.485688+01 | 1486138915.48569 | pgbench_tellers  |            49152
 2017-02-03 17:21:55.485688+01 | 1486138915.48569 | pgbench_history  |                0
 2017-02-03 17:21:55.485688+01 | 1486138915.48569 | pgbench_branches |             8192

 2017-02-03 17:21:56.594201+01 | 1486138916.5942 | pgbench_accounts |       1342955520
 2017-02-03 17:21:56.594201+01 | 1486138916.5942 | pgbench_tellers  |            49152
 2017-02-03 17:21:56.594201+01 | 1486138916.5942 | pgbench_history  |                0
 2017-02-03 17:21:56.594201+01 | 1486138916.5942 | pgbench_branches |             8192

 2017-02-03 17:21:57.693453+01 | 1486138917.69345 | pgbench_accounts |       1342955520
 2017-02-03 17:21:57.693453+01 | 1486138917.69345 | pgbench_tellers  |            49152
 2017-02-03 17:21:57.693453+01 | 1486138917.69345 | pgbench_history  |                0
 2017-02-03 17:21:57.693453+01 | 1486138917.69345 | pgbench_branches |             8192

 2017-02-03 17:21:58.802296+01 | 1486138918.8023 | pgbench_accounts |       1342955520
 2017-02-03 17:21:58.802296+01 | 1486138918.8023 | pgbench_tellers  |            49152
 2017-02-03 17:21:58.802296+01 | 1486138918.8023 | pgbench_history  |                0
 2017-02-03 17:21:58.802296+01 | 1486138918.8023 | pgbench_branches |             8192

 2017-02-03 17:21:59.900138+01 | 1486138919.90014 | pgbench_accounts |       1342955520
 2017-02-03 17:21:59.900138+01 | 1486138919.90014 | pgbench_tellers  |            49152
 2017-02-03 17:21:59.900138+01 | 1486138919.90014 | pgbench_history  |                0
 2017-02-03 17:21:59.900138+01 | 1486138919.90014 | pgbench_branches |             8192

 2017-02-03 17:22:01.030652+01 | 1486138921.03065 | pgbench_accounts |       1342955520
 2017-02-03 17:22:01.030652+01 | 1486138921.03065 | pgbench_tellers  |            49152
 2017-02-03 17:22:01.030652+01 | 1486138921.03065 | pgbench_history  |                0
 2017-02-03 17:22:01.030652+01 | 1486138921.03065 | pgbench_branches |             8192

 2017-02-03 17:22:02.161295+01 | 1486138922.16129 | pgbench_accounts |       1342955520
 2017-02-03 17:22:02.161295+01 | 1486138922.16129 | pgbench_tellers  |            49152
 2017-02-03 17:22:02.161295+01 | 1486138922.16129 | pgbench_history  |                0
 2017-02-03 17:22:02.161295+01 | 1486138922.16129 | pgbench_branches |             8192

 2017-02-03 17:22:03.290341+01 | 1486138923.29034 | pgbench_accounts |       1342955520
 2017-02-03 17:22:03.290341+01 | 1486138923.29034 | pgbench_tellers  |            49152
 2017-02-03 17:22:03.290341+01 | 1486138923.29034 | pgbench_history  |                0
 2017-02-03 17:22:03.290341+01 | 1486138923.29034 | pgbench_branches |             8192

 2017-02-03 17:22:04.411563+01 | 1486138924.41156 | pgbench_accounts |       1342955520
 2017-02-03 17:22:04.411563+01 | 1486138924.41156 | pgbench_tellers  |            49152
 2017-02-03 17:22:04.411563+01 | 1486138924.41156 | pgbench_history  |                0
 2017-02-03 17:22:04.411563+01 | 1486138924.41156 | pgbench_branches |             8192

 2017-02-03 17:22:05.53643+01 | 1486138925.53643 | pgbench_accounts |       1342955520
 2017-02-03 17:22:05.53643+01 | 1486138925.53643 | pgbench_tellers  |            49152
 2017-02-03 17:22:05.53643+01 | 1486138925.53643 | pgbench_history  |                0
 2017-02-03 17:22:05.53643+01 | 1486138925.53643 | pgbench_branches |             8192

 2017-02-03 17:22:06.661732+01 | 1486138926.66173 | pgbench_accounts |       1342955520
 2017-02-03 17:22:06.661732+01 | 1486138926.66173 | pgbench_tellers  |            49152
 2017-02-03 17:22:06.661732+01 | 1486138926.66173 | pgbench_history  |                0
 2017-02-03 17:22:06.661732+01 | 1486138926.66173 | pgbench_branches |             8192

 2017-02-03 17:22:07.771118+01 | 1486138927.77112 | pgbench_accounts |       1342955520
 2017-02-03 17:22:07.771118+01 | 1486138927.77112 | pgbench_tellers  |            49152
 2017-02-03 17:22:07.771118+01 | 1486138927.77112 | pgbench_history  |                0
 2017-02-03 17:22:07.771118+01 | 1486138927.77112 | pgbench_branches |             8192

 2017-02-03 17:22:08.875949+01 | 1486138928.87595 | pgbench_accounts |       1342955520
 2017-02-03 17:22:08.875949+01 | 1486138928.87595 | pgbench_tellers  |            49152
 2017-02-03 17:22:08.875949+01 | 1486138928.87595 | pgbench_history  |                0
 2017-02-03 17:22:08.875949+01 | 1486138928.87595 | pgbench_branches |             8192

 2017-02-03 17:22:09.979166+01 | 1486138929.97917 | pgbench_accounts |       1342955520
 2017-02-03 17:22:09.979166+01 | 1486138929.97917 | pgbench_tellers  |            49152
 2017-02-03 17:22:09.979166+01 | 1486138929.97917 | pgbench_history  |                0
 2017-02-03 17:22:09.979166+01 | 1486138929.97917 | pgbench_branches |             8192

 2017-02-03 17:22:11.0809+01 | 1486138931.0809 | pgbench_accounts |       1342955520
 2017-02-03 17:22:11.0809+01 | 1486138931.0809 | pgbench_tellers  |            49152
 2017-02-03 17:22:11.0809+01 | 1486138931.0809 | pgbench_history  |                0
 2017-02-03 17:22:11.0809+01 | 1486138931.0809 | pgbench_branches |             8192

 2017-02-03 17:22:12.207427+01 | 1486138932.20743 | pgbench_accounts |       1342955520
 2017-02-03 17:22:12.207427+01 | 1486138932.20743 | pgbench_tellers  |            49152
 2017-02-03 17:22:12.207427+01 | 1486138932.20743 | pgbench_history  |                0
 2017-02-03 17:22:12.207427+01 | 1486138932.20743 | pgbench_branches |             8192

 2017-02-03 17:22:13.294876+01 | 1486138933.29488 | pgbench_accounts |       1342955520
 2017-02-03 17:22:13.294876+01 | 1486138933.29488 | pgbench_tellers  |            49152
 2017-02-03 17:22:13.294876+01 | 1486138933.29488 | pgbench_history  |                0
 2017-02-03 17:22:13.294876+01 | 1486138933.29488 | pgbench_branches |             8192

 2017-02-03 17:22:14.382899+01 | 1486138934.3829 | pgbench_accounts |       1342955520
 2017-02-03 17:22:14.382899+01 | 1486138934.3829 | pgbench_tellers  |            49152
 2017-02-03 17:22:14.382899+01 | 1486138934.3829 | pgbench_history  |                0
 2017-02-03 17:22:14.382899+01 | 1486138934.3829 | pgbench_branches |             8192

 2017-02-03 17:22:15.492733+01 | 1486138935.49273 | pgbench_accounts |       1342955520
 2017-02-03 17:22:15.492733+01 | 1486138935.49273 | pgbench_tellers  |            49152
 2017-02-03 17:22:15.492733+01 | 1486138935.49273 | pgbench_history  |                0
 2017-02-03 17:22:15.492733+01 | 1486138935.49273 | pgbench_branches |             8192

 2017-02-03 17:22:16.61163+01 | 1486138936.61163 | pgbench_accounts |       1342955520
 2017-02-03 17:22:16.61163+01 | 1486138936.61163 | pgbench_tellers  |            49152
 2017-02-03 17:22:16.61163+01 | 1486138936.61163 | pgbench_history  |                0
 2017-02-03 17:22:16.61163+01 | 1486138936.61163 | pgbench_branches |             8192

 2017-02-03 17:22:17.724335+01 | 1486138937.72433 | pgbench_accounts |       1342955520
 2017-02-03 17:22:17.724335+01 | 1486138937.72433 | pgbench_tellers  |            49152
 2017-02-03 17:22:17.724335+01 | 1486138937.72433 | pgbench_history  |                0
 2017-02-03 17:22:17.724335+01 | 1486138937.72433 | pgbench_branches |             8192

 2017-02-03 17:22:18.823307+01 | 1486138938.82331 | pgbench_accounts |       1342955520
 2017-02-03 17:22:18.823307+01 | 1486138938.82331 | pgbench_tellers  |            49152
 2017-02-03 17:22:18.823307+01 | 1486138938.82331 | pgbench_history  |                0
 2017-02-03 17:22:18.823307+01 | 1486138938.82331 | pgbench_branches |             8192

 2017-02-03 17:22:19.936857+01 | 1486138939.93686 | pgbench_accounts |       1342955520
 2017-02-03 17:22:19.936857+01 | 1486138939.93686 | pgbench_tellers  |            49152
 2017-02-03 17:22:19.936857+01 | 1486138939.93686 | pgbench_history  |                0
 2017-02-03 17:22:19.936857+01 | 1486138939.93686 | pgbench_branches |             8192

 2017-02-03 17:22:21.048352+01 | 1486138941.04835 | pgbench_accounts |       1342955520
 2017-02-03 17:22:21.048352+01 | 1486138941.04835 | pgbench_tellers  |            49152
 2017-02-03 17:22:21.048352+01 | 1486138941.04835 | pgbench_history  |                0
 2017-02-03 17:22:21.048352+01 | 1486138941.04835 | pgbench_branches |             8192

 2017-02-03 17:22:22.152154+01 | 1486138942.15215 | pgbench_accounts |       1342955520
 2017-02-03 17:22:22.152154+01 | 1486138942.15215 | pgbench_tellers  |            49152
 2017-02-03 17:22:22.152154+01 | 1486138942.15215 | pgbench_history  |                0
 2017-02-03 17:22:22.152154+01 | 1486138942.15215 | pgbench_branches |             8192

 2017-02-03 17:22:23.274565+01 | 1486138943.27456 | pgbench_accounts |       1342955520
 2017-02-03 17:22:23.274565+01 | 1486138943.27456 | pgbench_tellers  |            49152
 2017-02-03 17:22:23.274565+01 | 1486138943.27456 | pgbench_history  |                0
 2017-02-03 17:22:23.274565+01 | 1486138943.27456 | pgbench_branches |             8192

 2017-02-03 17:22:24.377223+01 | 1486138944.37722 | pgbench_accounts |       1342955520
 2017-02-03 17:22:24.377223+01 | 1486138944.37722 | pgbench_tellers  |            49152
 2017-02-03 17:22:24.377223+01 | 1486138944.37722 | pgbench_history  |                0
 2017-02-03 17:22:24.377223+01 | 1486138944.37722 | pgbench_branches |             8192

 2017-02-03 17:22:25.512159+01 | 1486138945.51216 | pgbench_accounts |       1342955520
 2017-02-03 17:22:25.512159+01 | 1486138945.51216 | pgbench_tellers  |            49152
 2017-02-03 17:22:25.512159+01 | 1486138945.51216 | pgbench_history  |                0
 2017-02-03 17:22:25.512159+01 | 1486138945.51216 | pgbench_branches |             8192

 2017-02-03 17:22:26.632398+01 | 1486138946.6324 | pgbench_accounts |       1342955520
 2017-02-03 17:22:26.632398+01 | 1486138946.6324 | pgbench_tellers  |            49152
 2017-02-03 17:22:26.632398+01 | 1486138946.6324 | pgbench_history  |                0
 2017-02-03 17:22:26.632398+01 | 1486138946.6324 | pgbench_branches |             8192

 2017-02-03 17:22:27.761436+01 | 1486138947.76144 | pgbench_accounts |       1342955520
 2017-02-03 17:22:27.761436+01 | 1486138947.76144 | pgbench_tellers  |            49152
 2017-02-03 17:22:27.761436+01 | 1486138947.76144 | pgbench_history  |                0
 2017-02-03 17:22:27.761436+01 | 1486138947.76144 | pgbench_branches |             8192

 2017-02-03 17:22:28.885362+01 | 1486138948.88536 | pgbench_accounts |       1342955520
 2017-02-03 17:22:28.885362+01 | 1486138948.88536 | pgbench_tellers  |            49152
 2017-02-03 17:22:28.885362+01 | 1486138948.88536 | pgbench_history  |                0
 2017-02-03 17:22:28.885362+01 | 1486138948.88536 | pgbench_branches |             8192

 2017-02-03 17:22:29.979104+01 | 1486138949.9791 | pgbench_accounts |       1342955520
 2017-02-03 17:22:29.979104+01 | 1486138949.9791 | pgbench_tellers  |            49152
 2017-02-03 17:22:29.979104+01 | 1486138949.9791 | pgbench_history  |                0
 2017-02-03 17:22:29.979104+01 | 1486138949.9791 | pgbench_branches |             8192

 2017-02-03 17:22:31.067082+01 | 1486138951.06708 | pgbench_accounts |       1342955520
 2017-02-03 17:22:31.067082+01 | 1486138951.06708 | pgbench_tellers  |            49152
 2017-02-03 17:22:31.067082+01 | 1486138951.06708 | pgbench_history  |                0
 2017-02-03 17:22:31.067082+01 | 1486138951.06708 | pgbench_branches |             8192

 2017-02-03 17:22:32.169163+01 | 1486138952.16916 | pgbench_accounts |       1342955520
 2017-02-03 17:22:32.169163+01 | 1486138952.16916 | pgbench_tellers  |            49152
 2017-02-03 17:22:32.169163+01 | 1486138952.16916 | pgbench_history  |                0
 2017-02-03 17:22:32.169163+01 | 1486138952.16916 | pgbench_branches |             8192

 2017-02-03 17:22:33.26997+01 | 1486138953.26997 | pgbench_accounts |       1342955520
 2017-02-03 17:22:33.26997+01 | 1486138953.26997 | pgbench_tellers  |            49152
 2017-02-03 17:22:33.26997+01 | 1486138953.26997 | pgbench_history  |                0
 2017-02-03 17:22:33.26997+01 | 1486138953.26997 | pgbench_branches |             8192

 2017-02-03 17:22:34.380047+01 | 1486138954.38005 | pgbench_accounts |       1342955520
 2017-02-03 17:22:34.380047+01 | 1486138954.38005 | pgbench_tellers  |            49152
 2017-02-03 17:22:34.380047+01 | 1486138954.38005 | pgbench_history  |                0
 2017-02-03 17:22:34.380047+01 | 1486138954.38005 | pgbench_branches |             8192

 2017-02-03 17:22:35.502448+01 | 1486138955.50245 | pgbench_accounts |       1342955520
 2017-02-03 17:22:35.502448+01 | 1486138955.50245 | pgbench_tellers  |            49152
 2017-02-03 17:22:35.502448+01 | 1486138955.50245 | pgbench_history  |                0
 2017-02-03 17:22:35.502448+01 | 1486138955.50245 | pgbench_branches |             8192

 2017-02-03 17:22:36.63214+01 | 1486138956.63214 | pgbench_accounts |       1342955520
 2017-02-03 17:22:36.63214+01 | 1486138956.63214 | pgbench_tellers  |            49152
 2017-02-03 17:22:36.63214+01 | 1486138956.63214 | pgbench_history  |                0
 2017-02-03 17:22:36.63214+01 | 1486138956.63214 | pgbench_branches |             8192

 2017-02-03 17:22:37.78436+01 | 1486138957.78436 | pgbench_accounts |       1342955520
 2017-02-03 17:22:37.78436+01 | 1486138957.78436 | pgbench_tellers  |            49152
 2017-02-03 17:22:37.78436+01 | 1486138957.78436 | pgbench_history  |                0
 2017-02-03 17:22:37.78436+01 | 1486138957.78436 | pgbench_branches |             8192

 2017-02-03 17:22:38.91907+01 | 1486138958.91907 | pgbench_accounts |       1342955520
 2017-02-03 17:22:38.91907+01 | 1486138958.91907 | pgbench_tellers  |            49152
 2017-02-03 17:22:38.91907+01 | 1486138958.91907 | pgbench_history  |                0
 2017-02-03 17:22:38.91907+01 | 1486138958.91907 | pgbench_branches |             8192

 2017-02-03 17:22:40.01511+01 | 1486138960.01511 | pgbench_accounts |       1342955520
 2017-02-03 17:22:40.01511+01 | 1486138960.01511 | pgbench_tellers  |            49152
 2017-02-03 17:22:40.01511+01 | 1486138960.01511 | pgbench_history  |                0
 2017-02-03 17:22:40.01511+01 | 1486138960.01511 | pgbench_branches |             8192

 2017-02-03 17:22:41.144063+01 | 1486138961.14406 | pgbench_accounts |       1342955520
 2017-02-03 17:22:41.144063+01 | 1486138961.14406 | pgbench_tellers  |            49152
 2017-02-03 17:22:41.144063+01 | 1486138961.14406 | pgbench_history  |                0
 2017-02-03 17:22:41.144063+01 | 1486138961.14406 | pgbench_branches |             8192

 2017-02-03 17:22:42.258106+01 | 1486138962.25811 | pgbench_accounts |       1342955520
 2017-02-03 17:22:42.258106+01 | 1486138962.25811 | pgbench_tellers  |            49152
 2017-02-03 17:22:42.258106+01 | 1486138962.25811 | pgbench_history  |                0
 2017-02-03 17:22:42.258106+01 | 1486138962.25811 | pgbench_branches |             8192

 2017-02-03 17:22:43.372518+01 | 1486138963.37252 | pgbench_accounts |       1342955520
 2017-02-03 17:22:43.372518+01 | 1486138963.37252 | pgbench_tellers  |            49152
 2017-02-03 17:22:43.372518+01 | 1486138963.37252 | pgbench_history  |                0
 2017-02-03 17:22:43.372518+01 | 1486138963.37252 | pgbench_branches |             8192

 2017-02-03 17:22:44.474602+01 | 1486138964.4746 | pgbench_accounts |       1342955520
 2017-02-03 17:22:44.474602+01 | 1486138964.4746 | pgbench_tellers  |            49152
 2017-02-03 17:22:44.474602+01 | 1486138964.4746 | pgbench_history  |                0
 2017-02-03 17:22:44.474602+01 | 1486138964.4746 | pgbench_branches |             8192

 2017-02-03 17:22:45.586529+01 | 1486138965.58653 | pgbench_accounts |       1342955520
 2017-02-03 17:22:45.586529+01 | 1486138965.58653 | pgbench_tellers  |            49152
 2017-02-03 17:22:45.586529+01 | 1486138965.58653 | pgbench_history  |                0
 2017-02-03 17:22:45.586529+01 | 1486138965.58653 | pgbench_branches |             8192

 2017-02-03 17:22:46.748559+01 | 1486138966.74856 | pgbench_accounts |       1342955520
 2017-02-03 17:22:46.748559+01 | 1486138966.74856 | pgbench_tellers  |            49152
 2017-02-03 17:22:46.748559+01 | 1486138966.74856 | pgbench_history  |                0
 2017-02-03 17:22:46.748559+01 | 1486138966.74856 | pgbench_branches |             8192

