 2017-02-03 17:17:47.365979+01 | 1486138667.36598 | 0/4E3BC678               |            1312540280

 2017-02-03 17:17:48.450375+01 | 1486138668.45038 | 0/4E3BC678               |            1312540280

 2017-02-03 17:17:49.545548+01 | 1486138669.54555 | 0/4E3BC678               |            1312540280

 2017-02-03 17:17:50.660504+01 | 1486138670.6605 | 0/4E3BC6B0               |            1312540336

 2017-02-03 17:17:51.797921+01 | 1486138671.79792 | 0/4E3BC6B0               |            1312540336

 2017-02-03 17:17:52.906162+01 | 1486138672.90616 | 0/4E3BC6B0               |            1312540336

 2017-02-03 17:17:54.005299+01 | 1486138674.0053 | 0/4E3BC6B0               |            1312540336

 2017-02-03 17:17:55.138838+01 | 1486138675.13884 | 0/4E3BC6B0               |            1312540336

 2017-02-03 17:17:56.265336+01 | 1486138676.26534 | 0/4E3BC6B0               |            1312540336

 2017-02-03 17:17:57.395094+01 | 1486138677.39509 | 0/4E3BC6B0               |            1312540336

 2017-02-03 17:17:58.503714+01 | 1486138678.50371 | 0/4E3BC6B0               |            1312540336

 2017-02-03 17:17:59.622788+01 | 1486138679.62279 | 0/4E3BC6B0               |            1312540336

 2017-02-03 17:18:00.799878+01 | 1486138680.79988 | 0/4E3BC6B0               |            1312540336

 2017-02-03 17:18:01.916879+01 | 1486138681.91688 | 0/4E3BC6B0               |            1312540336

 2017-02-03 17:18:03.019156+01 | 1486138683.01916 | 0/4E3BC6B0               |            1312540336

 2017-02-03 17:18:04.117407+01 | 1486138684.11741 | 0/4E3BC6B0               |            1312540336

 2017-02-03 17:18:05.21735+01 | 1486138685.21735 | 0/4E3BC6B0               |            1312540336

 2017-02-03 17:18:06.30929+01 | 1486138686.30929 | 0/4E3BC6B0               |            1312540336

 2017-02-03 17:18:07.427114+01 | 1486138687.42711 | 0/4E3BC6B0               |            1312540336

 2017-02-03 17:18:08.536535+01 | 1486138688.53654 | 0/4E3BC6B0               |            1312540336

 2017-02-03 17:18:09.635448+01 | 1486138689.63545 | 0/4E3BC6B0               |            1312540336

 2017-02-03 17:18:10.75295+01 | 1486138690.75295 | 0/4E3BC6B0               |            1312540336

 2017-02-03 17:18:11.881433+01 | 1486138691.88143 | 0/4E3BC6B0               |            1312540336

 2017-02-03 17:18:13.028457+01 | 1486138693.02846 | 0/4E3BC6B0               |            1312540336

 2017-02-03 17:18:14.134359+01 | 1486138694.13436 | 0/4E3BC6B0               |            1312540336

 2017-02-03 17:18:15.225986+01 | 1486138695.22599 | 0/4E3BC6B0               |            1312540336

 2017-02-03 17:18:16.324445+01 | 1486138696.32445 | 0/4E3BC6B0               |            1312540336

 2017-02-03 17:18:17.41678+01 | 1486138697.41678 | 0/4E3BC6B0               |            1312540336

 2017-02-03 17:18:18.53593+01 | 1486138698.53593 | 0/4E3BC6B0               |            1312540336

 2017-02-03 17:18:19.62977+01 | 1486138699.62977 | 0/4E3BC6B0               |            1312540336

 2017-02-03 17:18:20.75176+01 | 1486138700.75176 | 0/4E3BC6B0               |            1312540336

 2017-02-03 17:18:21.898277+01 | 1486138701.89828 | 0/4E3BC6B0               |            1312540336

 2017-02-03 17:18:23.065679+01 | 1486138703.06568 | 0/4E3BC6B0               |            1312540336

 2017-02-03 17:18:24.205012+01 | 1486138704.20501 | 0/4E3BC6B0               |            1312540336

 2017-02-03 17:18:25.31155+01 | 1486138705.31155 | 0/4E3BC6B0               |            1312540336

 2017-02-03 17:18:26.405059+01 | 1486138706.40506 | 0/4E3BC6B0               |            1312540336

 2017-02-03 17:18:27.499919+01 | 1486138707.49992 | 0/4E3BC6B0               |            1312540336

 2017-02-03 17:18:28.604987+01 | 1486138708.60499 | 0/4E3BC6B0               |            1312540336

 2017-02-03 17:18:29.702189+01 | 1486138709.70219 | 0/4E3BC6B0               |            1312540336

 2017-02-03 17:18:30.807074+01 | 1486138710.80707 | 0/4E3BC6B0               |            1312540336

 2017-02-03 17:18:31.917918+01 | 1486138711.91792 | 0/4E3BC6B0               |            1312540336

 2017-02-03 17:18:33.038213+01 | 1486138713.03821 | 0/4E3BC6B0               |            1312540336

 2017-02-03 17:18:34.1592+01 | 1486138714.1592 | 0/4E3BC6B0               |            1312540336

 2017-02-03 17:18:35.268456+01 | 1486138715.26846 | 0/4E3BC6B0               |            1312540336

 2017-02-03 17:18:36.385912+01 | 1486138716.38591 | 0/4E3BC6B0               |            1312540336

 2017-02-03 17:18:37.486953+01 | 1486138717.48695 | 0/4E3BC6B0               |            1312540336

 2017-02-03 17:18:38.582882+01 | 1486138718.58288 | 0/4E3BC6B0               |            1312540336

 2017-02-03 17:18:39.690344+01 | 1486138719.69034 | 0/4E3BC6B0               |            1312540336

 2017-02-03 17:18:40.77995+01 | 1486138720.77995 | 0/4E3BC6B0               |            1312540336

 2017-02-03 17:18:41.884086+01 | 1486138721.88409 | 0/4E3BC6B0               |            1312540336

 2017-02-03 17:18:42.98793+01 | 1486138722.98793 | 0/4E3BC6B0               |            1312540336

 2017-02-03 17:18:44.131003+01 | 1486138724.131 | 0/4E3BC6B0               |            1312540336

 2017-02-03 17:18:45.276355+01 | 1486138725.27636 | 0/4E3BC6B0               |            1312540336

 2017-02-03 17:18:46.405405+01 | 1486138726.40541 | 0/4E3BC6B0               |            1312540336

 2017-02-03 17:18:47.553+01 | 1486138727.553 | 0/4E3BC6B0               |            1312540336

 2017-02-03 17:18:48.652605+01 | 1486138728.65261 | 0/4E3BC6B0               |            1312540336

 2017-02-03 17:18:49.752126+01 | 1486138729.75213 | 0/4E3BC6B0               |            1312540336

 2017-02-03 17:18:50.845078+01 | 1486138730.84508 | 0/4E3BC6B0               |            1312540336

 2017-02-03 17:18:51.955382+01 | 1486138731.95538 | 0/4E3BC6B0               |            1312540336

 2017-02-03 17:18:53.057418+01 | 1486138733.05742 | 0/4E3BC6B0               |            1312540336

 2017-02-03 17:18:54.143414+01 | 1486138734.14341 | 0/4E3BC6B0               |            1312540336

 2017-02-03 17:18:55.258433+01 | 1486138735.25843 | 0/4E3BC6B0               |            1312540336

 2017-02-03 17:18:56.383515+01 | 1486138736.38351 | 0/4E3BC6B0               |            1312540336

 2017-02-03 17:18:57.505365+01 | 1486138737.50536 | 0/4E3BC6B0               |            1312540336

 2017-02-03 17:18:58.66965+01 | 1486138738.66965 | 0/4E3BC6B0               |            1312540336

 2017-02-03 17:18:59.772761+01 | 1486138739.77276 | 0/4E3BC6B0               |            1312540336

 2017-02-03 17:19:00.873979+01 | 1486138740.87398 | 0/4E3BC6B0               |            1312540336

 2017-02-03 17:19:01.982489+01 | 1486138741.98249 | 0/4E3BC6B0               |            1312540336

 2017-02-03 17:19:03.083432+01 | 1486138743.08343 | 0/4E3BC6B0               |            1312540336

 2017-02-03 17:19:04.19757+01 | 1486138744.19757 | 0/4E3BC6B0               |            1312540336

 2017-02-03 17:19:05.331918+01 | 1486138745.33192 | 0/4E3BC6B0               |            1312540336

 2017-02-03 17:19:06.448096+01 | 1486138746.4481 | 0/4E3BC6B0               |            1312540336

 2017-02-03 17:19:07.591333+01 | 1486138747.59133 | 0/4E3BC6B0               |            1312540336

 2017-02-03 17:19:08.717527+01 | 1486138748.71753 | 0/4E3BC6B0               |            1312540336

 2017-02-03 17:19:09.825039+01 | 1486138749.82504 | 0/4E3BC6B0               |            1312540336

 2017-02-03 17:19:10.922863+01 | 1486138750.92286 | 0/4E3BC6B0               |            1312540336

 2017-02-03 17:19:12.018836+01 | 1486138752.01884 | 0/4E3BC6B0               |            1312540336

 2017-02-03 17:19:13.124905+01 | 1486138753.12491 | 0/4E3BC6B0               |            1312540336

 2017-02-03 17:19:14.227355+01 | 1486138754.22736 | 0/4E3BC6B0               |            1312540336

 2017-02-03 17:19:15.33565+01 | 1486138755.33565 | 0/4E3BC6B0               |            1312540336

 2017-02-03 17:19:16.436661+01 | 1486138756.43666 | 0/4E3BC6B0               |            1312540336

 2017-02-03 17:19:17.556332+01 | 1486138757.55633 | 0/4E3BC6B0               |            1312540336

 2017-02-03 17:19:18.679719+01 | 1486138758.67972 | 0/4E3BC6B0               |            1312540336

 2017-02-03 17:19:19.782948+01 | 1486138759.78295 | 0/4E3BC6B0               |            1312540336

 2017-02-03 17:19:20.902029+01 | 1486138760.90203 | 0/4E3BC6B0               |            1312540336

 2017-02-03 17:19:22.015703+01 | 1486138762.0157 | 0/4E3BC6B0               |            1312540336

 2017-02-03 17:19:23.119806+01 | 1486138763.11981 | 0/4E3BC6B0               |            1312540336

 2017-02-03 17:19:24.210316+01 | 1486138764.21032 | 0/4E3BC6B0               |            1312540336

 2017-02-03 17:19:25.302468+01 | 1486138765.30247 | 0/4E3BC6B0               |            1312540336

 2017-02-03 17:19:26.3933+01 | 1486138766.3933 | 0/4E3BC6B0               |            1312540336

 2017-02-03 17:19:27.503355+01 | 1486138767.50336 | 0/4E3BC6B0               |            1312540336

 2017-02-03 17:19:28.612353+01 | 1486138768.61235 | 0/4E3BC6B0               |            1312540336

 2017-02-03 17:19:29.728747+01 | 1486138769.72875 | 0/4E3BC6B0               |            1312540336

 2017-02-03 17:19:30.826134+01 | 1486138770.82613 | 0/4E3BC6B0               |            1312540336

 2017-02-03 17:19:31.95362+01 | 1486138771.95362 | 0/4E3BC6B0               |            1312540336

 2017-02-03 17:19:33.084351+01 | 1486138773.08435 | 0/4E3BC6B0               |            1312540336

 2017-02-03 17:19:34.186788+01 | 1486138774.18679 | 0/4E3BC6B0               |            1312540336

 2017-02-03 17:19:35.293743+01 | 1486138775.29374 | 0/4E3BC6B0               |            1312540336

 2017-02-03 17:19:36.391776+01 | 1486138776.39178 | 0/4E3BC6B0               |            1312540336

 2017-02-03 17:19:37.496313+01 | 1486138777.49631 | 0/4E3BC6B0               |            1312540336

 2017-02-03 17:19:38.628615+01 | 1486138778.62861 | 0/4E3BC6B0               |            1312540336

 2017-02-03 17:19:39.732138+01 | 1486138779.73214 | 0/4E3BC6B0               |            1312540336

 2017-02-03 17:19:40.855598+01 | 1486138780.8556 | 0/4E3BC6B0               |            1312540336

 2017-02-03 17:19:42.037453+01 | 1486138782.03745 | 0/4E3BC6B0               |            1312540336

 2017-02-03 17:19:43.135947+01 | 1486138783.13595 | 0/4E3BC6B0               |            1312540336

 2017-02-03 17:19:44.289835+01 | 1486138784.28983 | 0/4E3BC6B0               |            1312540336

 2017-02-03 17:19:45.387412+01 | 1486138785.38741 | 0/4E3BC6B0               |            1312540336

 2017-02-03 17:19:46.485555+01 | 1486138786.48555 | 0/4E3BC6B0               |            1312540336

 2017-02-03 17:19:47.580063+01 | 1486138787.58006 | 0/4E3BC6B0               |            1312540336

 2017-02-03 17:19:48.690936+01 | 1486138788.69094 | 0/4E3BC6B0               |            1312540336

 2017-02-03 17:19:49.803907+01 | 1486138789.80391 | 0/4E3BC6B0               |            1312540336

 2017-02-03 17:19:50.912947+01 | 1486138790.91295 | 0/4E3BC6B0               |            1312540336

 2017-02-03 17:19:52.028043+01 | 1486138792.02804 | 0/4E3BC6B0               |            1312540336

 2017-02-03 17:19:53.153715+01 | 1486138793.15371 | 0/4E3BC6B0               |            1312540336

 2017-02-03 17:19:54.25136+01 | 1486138794.25136 | 0/4E3BC6B0               |            1312540336

 2017-02-03 17:19:55.367475+01 | 1486138795.36748 | 0/4E3BC6B0               |            1312540336

 2017-02-03 17:19:56.482326+01 | 1486138796.48233 | 0/4E3BC6B0               |            1312540336

 2017-02-03 17:19:57.5939+01 | 1486138797.5939 | 0/4E3BC6B0               |            1312540336

 2017-02-03 17:19:58.719168+01 | 1486138798.71917 | 0/4E3BC6B0               |            1312540336

 2017-02-03 17:19:59.824558+01 | 1486138799.82456 | 0/4E3BC6B0               |            1312540336

 2017-02-03 17:20:00.910935+01 | 1486138800.91093 | 0/4E3BC6B0               |            1312540336

 2017-02-03 17:20:02.029224+01 | 1486138802.02922 | 0/4E3BC6B0               |            1312540336

 2017-02-03 17:20:03.14307+01 | 1486138803.14307 | 0/4E3BC6B0               |            1312540336

 2017-02-03 17:20:04.25065+01 | 1486138804.25065 | 0/4E3BC6B0               |            1312540336

 2017-02-03 17:20:05.377243+01 | 1486138805.37724 | 0/4E3BC6B0               |            1312540336

 2017-02-03 17:20:06.500934+01 | 1486138806.50093 | 0/4E3BC6B0               |            1312540336

 2017-02-03 17:20:07.599316+01 | 1486138807.59932 | 0/4E3BC6B0               |            1312540336

 2017-02-03 17:20:08.710936+01 | 1486138808.71094 | 0/4E3BC6B0               |            1312540336

 2017-02-03 17:20:09.805154+01 | 1486138809.80515 | 0/4E3BC6B0               |            1312540336

 2017-02-03 17:20:10.891794+01 | 1486138810.89179 | 0/4E3BC6B0               |            1312540336

 2017-02-03 17:20:11.997308+01 | 1486138811.99731 | 0/4E3BC6B0               |            1312540336

 2017-02-03 17:20:13.107394+01 | 1486138813.10739 | 0/4E3BC6B0               |            1312540336

 2017-02-03 17:20:14.220107+01 | 1486138814.22011 | 0/4E3BC6B0               |            1312540336

 2017-02-03 17:20:15.327246+01 | 1486138815.32725 | 0/4E3BC6B0               |            1312540336

 2017-02-03 17:20:16.479956+01 | 1486138816.47996 | 0/4E3BC6B0               |            1312540336

 2017-02-03 17:20:17.612134+01 | 1486138817.61213 | 0/4E3BC6B0               |            1312540336

 2017-02-03 17:20:18.723895+01 | 1486138818.7239 | 0/4E3BC6B0               |            1312540336

 2017-02-03 17:20:19.814645+01 | 1486138819.81465 | 0/4E3BC6B0               |            1312540336

 2017-02-03 17:20:20.918071+01 | 1486138820.91807 | 0/4E3BC6B0               |            1312540336

 2017-02-03 17:20:22.039157+01 | 1486138822.03916 | 0/4E3BC6B0               |            1312540336

 2017-02-03 17:20:23.164789+01 | 1486138823.16479 | 0/4E3BC6B0               |            1312540336

 2017-02-03 17:20:24.273182+01 | 1486138824.27318 | 0/4E3BC6B0               |            1312540336

 2017-02-03 17:20:25.366053+01 | 1486138825.36605 | 0/4E3BC6B0               |            1312540336

 2017-02-03 17:20:26.465187+01 | 1486138826.46519 | 0/4E3BC6B0               |            1312540336

 2017-02-03 17:20:27.598803+01 | 1486138827.5988 | 0/4E3BC6B0               |            1312540336

 2017-02-03 17:20:28.730577+01 | 1486138828.73058 | 0/4E3BC6B0               |            1312540336

 2017-02-03 17:20:29.861334+01 | 1486138829.86133 | 0/4E3BC6B0               |            1312540336

 2017-02-03 17:20:30.959414+01 | 1486138830.95941 | 0/4E3BC6B0               |            1312540336

 2017-02-03 17:20:32.05711+01 | 1486138832.05711 | 0/4E3BC6B0               |            1312540336

 2017-02-03 17:20:33.15784+01 | 1486138833.15784 | 0/4E3BC6B0               |            1312540336

 2017-02-03 17:20:34.246092+01 | 1486138834.24609 | 0/4E3BC6B0               |            1312540336

 2017-02-03 17:20:35.351684+01 | 1486138835.35168 | 0/4E3BC6B0               |            1312540336

 2017-02-03 17:20:36.435578+01 | 1486138836.43558 | 0/4E3BC6B0               |            1312540336

 2017-02-03 17:20:37.524534+01 | 1486138837.52453 | 0/4E3BC6B0               |            1312540336

 2017-02-03 17:20:38.629285+01 | 1486138838.62929 | 0/4E3BC6B0               |            1312540336

 2017-02-03 17:20:39.747236+01 | 1486138839.74724 | 0/4E3BC6B0               |            1312540336

 2017-02-03 17:20:40.883234+01 | 1486138840.88323 | 0/4E3BC6B0               |            1312540336

 2017-02-03 17:20:41.988649+01 | 1486138841.98865 | 0/4E3BC6B0               |            1312540336

 2017-02-03 17:20:43.096349+01 | 1486138843.09635 | 0/4E3BC6B0               |            1312540336

 2017-02-03 17:20:44.200171+01 | 1486138844.20017 | 0/4E3BC6B0               |            1312540336

 2017-02-03 17:20:45.299934+01 | 1486138845.29993 | 0/4E3BC6B0               |            1312540336

 2017-02-03 17:20:46.403514+01 | 1486138846.40351 | 0/4E3BC6B0               |            1312540336

 2017-02-03 17:20:47.507131+01 | 1486138847.50713 | 0/4E3BC6B0               |            1312540336

 2017-02-03 17:20:48.620636+01 | 1486138848.62064 | 0/4E3BC6B0               |            1312540336

 2017-02-03 17:20:49.716452+01 | 1486138849.71645 | 0/4E3BC6B0               |            1312540336

 2017-02-03 17:20:50.840262+01 | 1486138850.84026 | 0/4E3BC6B0               |            1312540336

 2017-02-03 17:20:51.940683+01 | 1486138851.94068 | 0/4E3BC6B0               |            1312540336

 2017-02-03 17:20:53.088529+01 | 1486138853.08853 | 0/4E3BC6B0               |            1312540336

 2017-02-03 17:20:54.187726+01 | 1486138854.18773 | 0/4E3BC6B0               |            1312540336

 2017-02-03 17:20:55.300361+01 | 1486138855.30036 | 0/4E3BC6B0               |            1312540336

 2017-02-03 17:20:56.402288+01 | 1486138856.40229 | 0/4E3BC6B0               |            1312540336

 2017-02-03 17:20:57.5024+01 | 1486138857.5024 | 0/4E3BC6B0               |            1312540336

 2017-02-03 17:20:58.607077+01 | 1486138858.60708 | 0/4E3BC6B0               |            1312540336

 2017-02-03 17:20:59.717287+01 | 1486138859.71729 | 0/4E3BC6B0               |            1312540336

 2017-02-03 17:21:00.826101+01 | 1486138860.8261 | 0/4E3BC6B0               |            1312540336

 2017-02-03 17:21:01.942984+01 | 1486138861.94298 | 0/4E3BC6B0               |            1312540336

 2017-02-03 17:21:03.087909+01 | 1486138863.08791 | 0/4E3BC6B0               |            1312540336

 2017-02-03 17:21:04.193167+01 | 1486138864.19317 | 0/4E3BC6B0               |            1312540336

 2017-02-03 17:21:05.292895+01 | 1486138865.2929 | 0/4E3BC6B0               |            1312540336

 2017-02-03 17:21:06.401543+01 | 1486138866.40154 | 0/4E3BC6B0               |            1312540336

 2017-02-03 17:21:07.503823+01 | 1486138867.50382 | 0/4E3BC6B0               |            1312540336

 2017-02-03 17:21:08.626272+01 | 1486138868.62627 | 0/4E3BC6B0               |            1312540336

 2017-02-03 17:21:09.729124+01 | 1486138869.72912 | 0/4E3BC6B0               |            1312540336

 2017-02-03 17:21:10.843683+01 | 1486138870.84368 | 0/4E3BC6B0               |            1312540336

 2017-02-03 17:21:11.963131+01 | 1486138871.96313 | 0/4E3BC6B0               |            1312540336

 2017-02-03 17:21:13.093742+01 | 1486138873.09374 | 0/4E3BC6B0               |            1312540336

 2017-02-03 17:21:14.189903+01 | 1486138874.1899 | 0/4E3BC6B0               |            1312540336

 2017-02-03 17:21:15.31734+01 | 1486138875.31734 | 0/4E3BC6B0               |            1312540336

 2017-02-03 17:21:16.431811+01 | 1486138876.43181 | 0/4E3BC6B0               |            1312540336

 2017-02-03 17:21:17.570771+01 | 1486138877.57077 | 0/4E3BC6B0               |            1312540336

 2017-02-03 17:21:18.678621+01 | 1486138878.67862 | 0/4E3BC6B0               |            1312540336

 2017-02-03 17:21:19.785485+01 | 1486138879.78549 | 0/4E3BC6B0               |            1312540336

 2017-02-03 17:21:20.906774+01 | 1486138880.90677 | 0/4E3BC6B0               |            1312540336

 2017-02-03 17:21:22.001645+01 | 1486138882.00165 | 0/4E3BC6B0               |            1312540336

 2017-02-03 17:21:23.108069+01 | 1486138883.10807 | 0/4E3BC6B0               |            1312540336

 2017-02-03 17:21:24.196706+01 | 1486138884.19671 | 0/4E3BC6B0               |            1312540336

 2017-02-03 17:21:25.316054+01 | 1486138885.31605 | 0/4E3BC6B0               |            1312540336

 2017-02-03 17:21:26.426671+01 | 1486138886.42667 | 0/4E3BC6B0               |            1312540336

 2017-02-03 17:21:27.58781+01 | 1486138887.58781 | 0/4E3BC6B0               |            1312540336

 2017-02-03 17:21:28.732836+01 | 1486138888.73284 | 0/4E3BC6B0               |            1312540336

 2017-02-03 17:21:29.843108+01 | 1486138889.84311 | 0/4E3BC6B0               |            1312540336

 2017-02-03 17:21:30.949594+01 | 1486138890.94959 | 0/4E3BC6B0               |            1312540336

 2017-02-03 17:21:32.041638+01 | 1486138892.04164 | 0/4E3BC6B0               |            1312540336

 2017-02-03 17:21:33.146578+01 | 1486138893.14658 | 0/4E3BC6B0               |            1312540336

 2017-02-03 17:21:34.245213+01 | 1486138894.24521 | 0/4E3BC6B0               |            1312540336

 2017-02-03 17:21:35.362047+01 | 1486138895.36205 | 0/4E3BC6B0               |            1312540336

 2017-02-03 17:21:36.48197+01 | 1486138896.48197 | 0/4E3BC6B0               |            1312540336

 2017-02-03 17:21:37.595576+01 | 1486138897.59558 | 0/4E3BC6B0               |            1312540336

 2017-02-03 17:21:38.700652+01 | 1486138898.70065 | 0/4E3BC6B0               |            1312540336

 2017-02-03 17:21:39.81134+01 | 1486138899.81134 | 0/4E3BC6B0               |            1312540336

 2017-02-03 17:21:40.915597+01 | 1486138900.9156 | 0/4E3BC6B0               |            1312540336

 2017-02-03 17:21:42.024388+01 | 1486138902.02439 | 0/4E3BC6B0               |            1312540336

 2017-02-03 17:21:43.159484+01 | 1486138903.15948 | 0/4E3BC6B0               |            1312540336

 2017-02-03 17:21:44.264866+01 | 1486138904.26487 | 0/4E3BC6B0               |            1312540336

 2017-02-03 17:21:45.364834+01 | 1486138905.36483 | 0/4E3BC6B0               |            1312540336

 2017-02-03 17:21:46.454399+01 | 1486138906.4544 | 0/4E3BC6B0               |            1312540336

 2017-02-03 17:21:47.561028+01 | 1486138907.56103 | 0/4E3BC6B0               |            1312540336

 2017-02-03 17:21:48.698164+01 | 1486138908.69816 | 0/4E3BC6B0               |            1312540336

 2017-02-03 17:21:49.814135+01 | 1486138909.81414 | 0/4E3BC6B0               |            1312540336

 2017-02-03 17:21:50.910238+01 | 1486138910.91024 | 0/4E3BC6B0               |            1312540336

 2017-02-03 17:21:52.07469+01 | 1486138912.07469 | 0/4E3BC6B0               |            1312540336

 2017-02-03 17:21:53.215994+01 | 1486138913.21599 | 0/4E3BC6B0               |            1312540336

 2017-02-03 17:21:54.330143+01 | 1486138914.33014 | 0/4E3BC6B0               |            1312540336

 2017-02-03 17:21:55.425892+01 | 1486138915.42589 | 0/4E3BC6B0               |            1312540336

 2017-02-03 17:21:56.529235+01 | 1486138916.52923 | 0/4E3BC6B0               |            1312540336

 2017-02-03 17:21:57.632062+01 | 1486138917.63206 | 0/4E3BC6B0               |            1312540336

 2017-02-03 17:21:58.738943+01 | 1486138918.73894 | 0/4E3BC6B0               |            1312540336

 2017-02-03 17:21:59.848875+01 | 1486138919.84888 | 0/4E3BC6B0               |            1312540336

 2017-02-03 17:22:00.946985+01 | 1486138920.94699 | 0/4E3BC6B0               |            1312540336

 2017-02-03 17:22:02.092201+01 | 1486138922.0922 | 0/4E3BC6B0               |            1312540336

 2017-02-03 17:22:03.203476+01 | 1486138923.20348 | 0/4E3BC6B0               |            1312540336

 2017-02-03 17:22:04.343049+01 | 1486138924.34305 | 0/4E3BC6B0               |            1312540336

 2017-02-03 17:22:05.465894+01 | 1486138925.46589 | 0/4E3BC6B0               |            1312540336

 2017-02-03 17:22:06.574629+01 | 1486138926.57463 | 0/4E3BC6B0               |            1312540336

 2017-02-03 17:22:07.701189+01 | 1486138927.70119 | 0/4E3BC6B0               |            1312540336

 2017-02-03 17:22:08.809432+01 | 1486138928.80943 | 0/4E3BC6B0               |            1312540336

 2017-02-03 17:22:09.913826+01 | 1486138929.91383 | 0/4E3BC6B0               |            1312540336

 2017-02-03 17:22:11.02692+01 | 1486138931.02692 | 0/4E3BC6B0               |            1312540336

 2017-02-03 17:22:12.143545+01 | 1486138932.14354 | 0/4E3BC6B0               |            1312540336

 2017-02-03 17:22:13.246586+01 | 1486138933.24659 | 0/4E3BC6B0               |            1312540336

 2017-02-03 17:22:14.335577+01 | 1486138934.33558 | 0/4E3BC6B0               |            1312540336

 2017-02-03 17:22:15.412307+01 | 1486138935.41231 | 0/4E3BC6B0               |            1312540336

 2017-02-03 17:22:16.542444+01 | 1486138936.54244 | 0/4E3BC6B0               |            1312540336

 2017-02-03 17:22:17.659434+01 | 1486138937.65943 | 0/4E3BC6B0               |            1312540336

 2017-02-03 17:22:18.771208+01 | 1486138938.77121 | 0/4E3BC6B0               |            1312540336

 2017-02-03 17:22:19.86699+01 | 1486138939.86699 | 0/4E3BC6B0               |            1312540336

 2017-02-03 17:22:20.984505+01 | 1486138940.9845 | 0/4E3BC6B0               |            1312540336

 2017-02-03 17:22:22.095217+01 | 1486138942.09522 | 0/4E3BC6B0               |            1312540336

 2017-02-03 17:22:23.197357+01 | 1486138943.19736 | 0/4E3BC6B0               |            1312540336

 2017-02-03 17:22:24.313052+01 | 1486138944.31305 | 0/4E3BC6B0               |            1312540336

 2017-02-03 17:22:25.431929+01 | 1486138945.43193 | 0/4E3BC6B0               |            1312540336

 2017-02-03 17:22:26.55163+01 | 1486138946.55163 | 0/4E3BC6B0               |            1312540336

 2017-02-03 17:22:27.683101+01 | 1486138947.6831 | 0/4E3BC6B0               |            1312540336

 2017-02-03 17:22:28.80705+01 | 1486138948.80705 | 0/4E3BC6B0               |            1312540336

 2017-02-03 17:22:29.922837+01 | 1486138949.92284 | 0/4E3BC6B0               |            1312540336

 2017-02-03 17:22:31.013076+01 | 1486138951.01308 | 0/4E3BC6B0               |            1312540336

 2017-02-03 17:22:32.107342+01 | 1486138952.10734 | 0/4E3BC6B0               |            1312540336

 2017-02-03 17:22:33.205559+01 | 1486138953.20556 | 0/4E3BC6B0               |            1312540336

 2017-02-03 17:22:34.316009+01 | 1486138954.31601 | 0/4E3BC6B0               |            1312540336

 2017-02-03 17:22:35.432033+01 | 1486138955.43203 | 0/4E3BC6B0               |            1312540336

 2017-02-03 17:22:36.566182+01 | 1486138956.56618 | 0/4E3BC6B0               |            1312540336

 2017-02-03 17:22:37.709087+01 | 1486138957.70909 | 0/4E3BC6B0               |            1312540336

 2017-02-03 17:22:38.847981+01 | 1486138958.84798 | 0/4E3BC6B0               |            1312540336

 2017-02-03 17:22:39.956485+01 | 1486138959.95649 | 0/4E3BC6B0               |            1312540336

 2017-02-03 17:22:41.067065+01 | 1486138961.06707 | 0/4E3BC6B0               |            1312540336

 2017-02-03 17:22:42.191836+01 | 1486138962.19184 | 0/4E3BC6B0               |            1312540336

 2017-02-03 17:22:43.312231+01 | 1486138963.31223 | 0/4E3BC6B0               |            1312540336

 2017-02-03 17:22:44.409719+01 | 1486138964.40972 | 0/4E3BC6B0               |            1312540336

 2017-02-03 17:22:45.517415+01 | 1486138965.51742 | 0/4E3BC6B0               |            1312540336

 2017-02-03 17:22:46.647584+01 | 1486138966.64758 | 0/4E3BC6B0               |            1312540336

