 2017-02-04 16:09:17.48613+01 | 1486220957.48613 | pgbench_accounts |      13682466816
 2017-02-04 16:09:17.48613+01 | 1486220957.48613 | pgbench_tellers  |         15523840
 2017-02-04 16:09:17.48613+01 | 1486220957.48613 | pgbench_history  |                0
 2017-02-04 16:09:17.48613+01 | 1486220957.48613 | pgbench_branches |         12599296

 2017-02-04 16:09:18.577283+01 | 1486220958.57728 | pgbench_accounts |      13682466816
 2017-02-04 16:09:18.577283+01 | 1486220958.57728 | pgbench_tellers  |         15523840
 2017-02-04 16:09:18.577283+01 | 1486220958.57728 | pgbench_history  |          3629056
 2017-02-04 16:09:18.577283+01 | 1486220958.57728 | pgbench_branches |         12599296

 2017-02-04 16:09:19.661705+01 | 1486220959.66171 | pgbench_accounts |      13682466816
 2017-02-04 16:09:19.661705+01 | 1486220959.66171 | pgbench_tellers  |         15523840
 2017-02-04 16:09:19.661705+01 | 1486220959.66171 | pgbench_history  |          3629056
 2017-02-04 16:09:19.661705+01 | 1486220959.66171 | pgbench_branches |         12599296

 2017-02-04 16:09:20.744486+01 | 1486220960.74449 | pgbench_accounts |      13682466816
 2017-02-04 16:09:20.744486+01 | 1486220960.74449 | pgbench_tellers  |         15523840
 2017-02-04 16:09:20.744486+01 | 1486220960.74449 | pgbench_history  |          6791168
 2017-02-04 16:09:20.744486+01 | 1486220960.74449 | pgbench_branches |         12599296

 2017-02-04 16:09:21.823751+01 | 1486220961.82375 | pgbench_accounts |      13682466816
 2017-02-04 16:09:21.823751+01 | 1486220961.82375 | pgbench_tellers  |         15523840
 2017-02-04 16:09:21.823751+01 | 1486220961.82375 | pgbench_history  |          7307264
 2017-02-04 16:09:21.823751+01 | 1486220961.82375 | pgbench_branches |         12599296

 2017-02-04 16:09:22.906599+01 | 1486220962.9066 | pgbench_accounts |      13682466816
 2017-02-04 16:09:22.906599+01 | 1486220962.9066 | pgbench_tellers  |         15523840
 2017-02-04 16:09:22.906599+01 | 1486220962.9066 | pgbench_history  |          9248768
 2017-02-04 16:09:22.906599+01 | 1486220962.9066 | pgbench_branches |         12599296

 2017-02-04 16:09:23.991901+01 | 1486220963.9919 | pgbench_accounts |      13682466816
 2017-02-04 16:09:23.991901+01 | 1486220963.9919 | pgbench_tellers  |         15523840
 2017-02-04 16:09:23.991901+01 | 1486220963.9919 | pgbench_history  |         11182080
 2017-02-04 16:09:23.991901+01 | 1486220963.9919 | pgbench_branches |         12599296

 2017-02-04 16:09:25.077492+01 | 1486220965.07749 | pgbench_accounts |      13682466816
 2017-02-04 16:09:25.077492+01 | 1486220965.07749 | pgbench_tellers  |         15523840
 2017-02-04 16:09:25.077492+01 | 1486220965.07749 | pgbench_history  |         13361152
 2017-02-04 16:09:25.077492+01 | 1486220965.07749 | pgbench_branches |         12599296

 2017-02-04 16:09:26.165664+01 | 1486220966.16566 | pgbench_accounts |      13682466816
 2017-02-04 16:09:26.165664+01 | 1486220966.16566 | pgbench_tellers  |         15523840
 2017-02-04 16:09:26.165664+01 | 1486220966.16566 | pgbench_history  |         16130048
 2017-02-04 16:09:26.165664+01 | 1486220966.16566 | pgbench_branches |         12599296

 2017-02-04 16:09:27.256686+01 | 1486220967.25669 | pgbench_accounts |      13682466816
 2017-02-04 16:09:27.256686+01 | 1486220967.25669 | pgbench_tellers  |         15523840
 2017-02-04 16:09:27.256686+01 | 1486220967.25669 | pgbench_history  |         18358272
 2017-02-04 16:09:27.256686+01 | 1486220967.25669 | pgbench_branches |         12599296

 2017-02-04 16:09:28.341714+01 | 1486220968.34171 | pgbench_accounts |      13682466816
 2017-02-04 16:09:28.341714+01 | 1486220968.34171 | pgbench_tellers  |         15523840
 2017-02-04 16:09:28.341714+01 | 1486220968.34171 | pgbench_history  |         22503424
 2017-02-04 16:09:28.341714+01 | 1486220968.34171 | pgbench_branches |         12599296

 2017-02-04 16:09:29.423221+01 | 1486220969.42322 | pgbench_accounts |      13682466816
 2017-02-04 16:09:29.423221+01 | 1486220969.42322 | pgbench_tellers  |         15523840
 2017-02-04 16:09:29.423221+01 | 1486220969.42322 | pgbench_history  |         23347200
 2017-02-04 16:09:29.423221+01 | 1486220969.42322 | pgbench_branches |         12599296

 2017-02-04 16:09:30.501652+01 | 1486220970.50165 | pgbench_accounts |      13682466816
 2017-02-04 16:09:30.501652+01 | 1486220970.50165 | pgbench_tellers  |         15523840
 2017-02-04 16:09:30.501652+01 | 1486220970.50165 | pgbench_history  |         24870912
 2017-02-04 16:09:30.501652+01 | 1486220970.50165 | pgbench_branches |         12599296

 2017-02-04 16:09:31.581078+01 | 1486220971.58108 | pgbench_accounts |      13682466816
 2017-02-04 16:09:31.581078+01 | 1486220971.58108 | pgbench_tellers  |         15523840
 2017-02-04 16:09:31.581078+01 | 1486220971.58108 | pgbench_history  |         28737536
 2017-02-04 16:09:31.581078+01 | 1486220971.58108 | pgbench_branches |         12599296

 2017-02-04 16:09:32.666486+01 | 1486220972.66649 | pgbench_accounts |      13682466816
 2017-02-04 16:09:32.666486+01 | 1486220972.66649 | pgbench_tellers  |         15523840
 2017-02-04 16:09:32.666486+01 | 1486220972.66649 | pgbench_history  |         29908992
 2017-02-04 16:09:32.666486+01 | 1486220972.66649 | pgbench_branches |         12599296

 2017-02-04 16:09:33.758009+01 | 1486220973.75801 | pgbench_accounts |      13682466816
 2017-02-04 16:09:33.758009+01 | 1486220973.75801 | pgbench_tellers  |         15523840
 2017-02-04 16:09:33.758009+01 | 1486220973.75801 | pgbench_history  |         33611776
 2017-02-04 16:09:33.758009+01 | 1486220973.75801 | pgbench_branches |         12599296

 2017-02-04 16:09:34.853727+01 | 1486220974.85373 | pgbench_accounts |      13682466816
 2017-02-04 16:09:34.853727+01 | 1486220974.85373 | pgbench_tellers  |         15523840
 2017-02-04 16:09:34.853727+01 | 1486220974.85373 | pgbench_history  |         34480128
 2017-02-04 16:09:34.853727+01 | 1486220974.85373 | pgbench_branches |         12599296

 2017-02-04 16:09:35.94473+01 | 1486220975.94473 | pgbench_accounts |      13682466816
 2017-02-04 16:09:35.94473+01 | 1486220975.94473 | pgbench_tellers  |         15523840
 2017-02-04 16:09:35.94473+01 | 1486220975.94473 | pgbench_history  |         37036032
 2017-02-04 16:09:35.94473+01 | 1486220975.94473 | pgbench_branches |         12599296

 2017-02-04 16:09:37.027925+01 | 1486220977.02793 | pgbench_accounts |      13682466816
 2017-02-04 16:09:37.027925+01 | 1486220977.02793 | pgbench_tellers  |         15523840
 2017-02-04 16:09:37.027925+01 | 1486220977.02793 | pgbench_history  |         40247296
 2017-02-04 16:09:37.027925+01 | 1486220977.02793 | pgbench_branches |         12599296

 2017-02-04 16:09:38.115137+01 | 1486220978.11514 | pgbench_accounts |      13682466816
 2017-02-04 16:09:38.115137+01 | 1486220978.11514 | pgbench_tellers  |         15523840
 2017-02-04 16:09:38.115137+01 | 1486220978.11514 | pgbench_history  |         41984000
 2017-02-04 16:09:38.115137+01 | 1486220978.11514 | pgbench_branches |         12599296

 2017-02-04 16:09:39.189364+01 | 1486220979.18936 | pgbench_accounts |      13682466816
 2017-02-04 16:09:39.189364+01 | 1486220979.18936 | pgbench_tellers  |         15523840
 2017-02-04 16:09:39.189364+01 | 1486220979.18936 | pgbench_history  |         45195264
 2017-02-04 16:09:39.189364+01 | 1486220979.18936 | pgbench_branches |         12599296

 2017-02-04 16:09:40.273657+01 | 1486220980.27366 | pgbench_accounts |      13682466816
 2017-02-04 16:09:40.273657+01 | 1486220980.27366 | pgbench_tellers  |         15523840
 2017-02-04 16:09:40.273657+01 | 1486220980.27366 | pgbench_history  |         46882816
 2017-02-04 16:09:40.273657+01 | 1486220980.27366 | pgbench_branches |         12599296

 2017-02-04 16:09:41.351495+01 | 1486220981.3515 | pgbench_accounts |      13682466816
 2017-02-04 16:09:41.351495+01 | 1486220981.3515 | pgbench_tellers  |         15523840
 2017-02-04 16:09:41.351495+01 | 1486220981.3515 | pgbench_history  |         49750016
 2017-02-04 16:09:41.351495+01 | 1486220981.3515 | pgbench_branches |         12599296

 2017-02-04 16:09:42.430265+01 | 1486220982.43026 | pgbench_accounts |      13682466816
 2017-02-04 16:09:42.430265+01 | 1486220982.43026 | pgbench_tellers  |         15523840
 2017-02-04 16:09:42.430265+01 | 1486220982.43026 | pgbench_history  |         51412992
 2017-02-04 16:09:42.430265+01 | 1486220982.43026 | pgbench_branches |         12599296

 2017-02-04 16:09:43.505825+01 | 1486220983.50583 | pgbench_accounts |      13682466816
 2017-02-04 16:09:43.505825+01 | 1486220983.50583 | pgbench_tellers  |         15523840
 2017-02-04 16:09:43.505825+01 | 1486220983.50583 | pgbench_history  |         54247424
 2017-02-04 16:09:43.505825+01 | 1486220983.50583 | pgbench_branches |         12599296

 2017-02-04 16:09:44.582639+01 | 1486220984.58264 | pgbench_accounts |      13682466816
 2017-02-04 16:09:44.582639+01 | 1486220984.58264 | pgbench_tellers  |         15523840
 2017-02-04 16:09:44.582639+01 | 1486220984.58264 | pgbench_history  |         56459264
 2017-02-04 16:09:44.582639+01 | 1486220984.58264 | pgbench_branches |         12599296

 2017-02-04 16:09:45.660169+01 | 1486220985.66017 | pgbench_accounts |      13682466816
 2017-02-04 16:09:45.660169+01 | 1486220985.66017 | pgbench_tellers  |         15523840
 2017-02-04 16:09:45.660169+01 | 1486220985.66017 | pgbench_history  |         60678144
 2017-02-04 16:09:45.660169+01 | 1486220985.66017 | pgbench_branches |         12599296

 2017-02-04 16:09:46.741472+01 | 1486220986.74147 | pgbench_accounts |      13682466816
 2017-02-04 16:09:46.741472+01 | 1486220986.74147 | pgbench_tellers  |         15523840
 2017-02-04 16:09:46.741472+01 | 1486220986.74147 | pgbench_history  |         60678144
 2017-02-04 16:09:46.741472+01 | 1486220986.74147 | pgbench_branches |         12599296

 2017-02-04 16:09:47.830819+01 | 1486220987.83082 | pgbench_accounts |      13682466816
 2017-02-04 16:09:47.830819+01 | 1486220987.83082 | pgbench_tellers  |         15523840
 2017-02-04 16:09:47.830819+01 | 1486220987.83082 | pgbench_history  |         62857216
 2017-02-04 16:09:47.830819+01 | 1486220987.83082 | pgbench_branches |         12599296

 2017-02-04 16:09:48.915727+01 | 1486220988.91573 | pgbench_accounts |      13682466816
 2017-02-04 16:09:48.915727+01 | 1486220988.91573 | pgbench_tellers  |         15523840
 2017-02-04 16:09:48.915727+01 | 1486220988.91573 | pgbench_history  |         64790528
 2017-02-04 16:09:48.915727+01 | 1486220988.91573 | pgbench_branches |         12599296

 2017-02-04 16:09:50.001149+01 | 1486220990.00115 | pgbench_accounts |      13682466816
 2017-02-04 16:09:50.001149+01 | 1486220990.00115 | pgbench_tellers  |         15523840
 2017-02-04 16:09:50.001149+01 | 1486220990.00115 | pgbench_history  |         68329472
 2017-02-04 16:09:50.001149+01 | 1486220990.00115 | pgbench_branches |         12599296

 2017-02-04 16:09:51.088517+01 | 1486220991.08852 | pgbench_accounts |      13682466816
 2017-02-04 16:09:51.088517+01 | 1486220991.08852 | pgbench_tellers  |         15523840
 2017-02-04 16:09:51.088517+01 | 1486220991.08852 | pgbench_history  |         69689344
 2017-02-04 16:09:51.088517+01 | 1486220991.08852 | pgbench_branches |         12599296

 2017-02-04 16:09:52.176952+01 | 1486220992.17695 | pgbench_accounts |      13682466816
 2017-02-04 16:09:52.176952+01 | 1486220992.17695 | pgbench_tellers  |         15523840
 2017-02-04 16:09:52.176952+01 | 1486220992.17695 | pgbench_history  |         72433664
 2017-02-04 16:09:52.176952+01 | 1486220992.17695 | pgbench_branches |         12599296

 2017-02-04 16:09:53.259095+01 | 1486220993.25909 | pgbench_accounts |      13682466816
 2017-02-04 16:09:53.259095+01 | 1486220993.25909 | pgbench_tellers  |         15523840
 2017-02-04 16:09:53.259095+01 | 1486220993.25909 | pgbench_history  |         75784192
 2017-02-04 16:09:53.259095+01 | 1486220993.25909 | pgbench_branches |         12599296

 2017-02-04 16:09:54.345617+01 | 1486220994.34562 | pgbench_accounts |      13682466816
 2017-02-04 16:09:54.345617+01 | 1486220994.34562 | pgbench_tellers  |         15523840
 2017-02-04 16:09:54.345617+01 | 1486220994.34562 | pgbench_history  |         77824000
 2017-02-04 16:09:54.345617+01 | 1486220994.34562 | pgbench_branches |         12599296

 2017-02-04 16:09:55.421597+01 | 1486220995.4216 | pgbench_accounts |      13682466816
 2017-02-04 16:09:55.421597+01 | 1486220995.4216 | pgbench_tellers  |         15523840
 2017-02-04 16:09:55.421597+01 | 1486220995.4216 | pgbench_history  |         81969152
 2017-02-04 16:09:55.421597+01 | 1486220995.4216 | pgbench_branches |         12599296

 2017-02-04 16:09:56.499705+01 | 1486220996.49971 | pgbench_accounts |      13682466816
 2017-02-04 16:09:56.499705+01 | 1486220996.49971 | pgbench_tellers  |         15523840
 2017-02-04 16:09:56.499705+01 | 1486220996.49971 | pgbench_history  |         83329024
 2017-02-04 16:09:56.499705+01 | 1486220996.49971 | pgbench_branches |         12599296

 2017-02-04 16:09:57.575427+01 | 1486220997.57543 | pgbench_accounts |      13682466816
 2017-02-04 16:09:57.575427+01 | 1486220997.57543 | pgbench_tellers  |         15523840
 2017-02-04 16:09:57.575427+01 | 1486220997.57543 | pgbench_history  |         85049344
 2017-02-04 16:09:57.575427+01 | 1486220997.57543 | pgbench_branches |         12599296

 2017-02-04 16:09:58.650677+01 | 1486220998.65068 | pgbench_accounts |      13682466816
 2017-02-04 16:09:58.650677+01 | 1486220998.65068 | pgbench_tellers  |         15523840
 2017-02-04 16:09:58.650677+01 | 1486220998.65068 | pgbench_history  |         87744512
 2017-02-04 16:09:58.650677+01 | 1486220998.65068 | pgbench_branches |         12599296

 2017-02-04 16:09:59.727357+01 | 1486220999.72736 | pgbench_accounts |      13682466816
 2017-02-04 16:09:59.727357+01 | 1486220999.72736 | pgbench_tellers  |         15523840
 2017-02-04 16:09:59.727357+01 | 1486220999.72736 | pgbench_history  |         90300416
 2017-02-04 16:09:59.727357+01 | 1486220999.72736 | pgbench_branches |         12599296

 2017-02-04 16:10:00.812971+01 | 1486221000.81297 | pgbench_accounts |      13682466816
 2017-02-04 16:10:00.812971+01 | 1486221000.81297 | pgbench_tellers  |         15523840
 2017-02-04 16:10:00.812971+01 | 1486221000.81297 | pgbench_history  |         94420992
 2017-02-04 16:10:00.812971+01 | 1486221000.81297 | pgbench_branches |         12599296

 2017-02-04 16:10:01.907379+01 | 1486221001.90738 | pgbench_accounts |      13682466816
 2017-02-04 16:10:01.907379+01 | 1486221001.90738 | pgbench_tellers  |         15523840
 2017-02-04 16:10:01.907379+01 | 1486221001.90738 | pgbench_history  |         94420992
 2017-02-04 16:10:01.907379+01 | 1486221001.90738 | pgbench_branches |         12599296

 2017-02-04 16:10:02.99047+01 | 1486221002.99047 | pgbench_accounts |      13682466816
 2017-02-04 16:10:02.99047+01 | 1486221002.99047 | pgbench_tellers  |         15523840
 2017-02-04 16:10:02.99047+01 | 1486221002.99047 | pgbench_history  |         97910784
 2017-02-04 16:10:02.99047+01 | 1486221002.99047 | pgbench_branches |         12599296

 2017-02-04 16:10:04.075642+01 | 1486221004.07564 | pgbench_accounts |      13682466816
 2017-02-04 16:10:04.075642+01 | 1486221004.07564 | pgbench_tellers  |         15523840
 2017-02-04 16:10:04.075642+01 | 1486221004.07564 | pgbench_history  |         99794944
 2017-02-04 16:10:04.075642+01 | 1486221004.07564 | pgbench_branches |         12599296

 2017-02-04 16:10:05.166942+01 | 1486221005.16694 | pgbench_accounts |      13682466816
 2017-02-04 16:10:05.166942+01 | 1486221005.16694 | pgbench_tellers  |         15523840
 2017-02-04 16:10:05.166942+01 | 1486221005.16694 | pgbench_history  |        103006208
 2017-02-04 16:10:05.166942+01 | 1486221005.16694 | pgbench_branches |         12599296

 2017-02-04 16:10:06.253242+01 | 1486221006.25324 | pgbench_accounts |      13682466816
 2017-02-04 16:10:06.253242+01 | 1486221006.25324 | pgbench_tellers  |         15523840
 2017-02-04 16:10:06.253242+01 | 1486221006.25324 | pgbench_history  |        105234432
 2017-02-04 16:10:06.253242+01 | 1486221006.25324 | pgbench_branches |         12599296

 2017-02-04 16:10:07.347132+01 | 1486221007.34713 | pgbench_accounts |      13682466816
 2017-02-04 16:10:07.347132+01 | 1486221007.34713 | pgbench_tellers  |         15523840
 2017-02-04 16:10:07.347132+01 | 1486221007.34713 | pgbench_history  |        108118016
 2017-02-04 16:10:07.347132+01 | 1486221007.34713 | pgbench_branches |         12599296

 2017-02-04 16:10:08.426606+01 | 1486221008.42661 | pgbench_accounts |      13682466816
 2017-02-04 16:10:08.426606+01 | 1486221008.42661 | pgbench_tellers  |         15523840
 2017-02-04 16:10:08.426606+01 | 1486221008.42661 | pgbench_history  |        110845952
 2017-02-04 16:10:08.426606+01 | 1486221008.42661 | pgbench_branches |         12599296

 2017-02-04 16:10:09.504509+01 | 1486221009.50451 | pgbench_accounts |      13682466816
 2017-02-04 16:10:09.504509+01 | 1486221009.50451 | pgbench_tellers  |         15523840
 2017-02-04 16:10:09.504509+01 | 1486221009.50451 | pgbench_history  |        113213440
 2017-02-04 16:10:09.504509+01 | 1486221009.50451 | pgbench_branches |         12599296

 2017-02-04 16:10:10.582002+01 | 1486221010.582 | pgbench_accounts |      13682466816
 2017-02-04 16:10:10.582002+01 | 1486221010.582 | pgbench_tellers  |         15523840
 2017-02-04 16:10:10.582002+01 | 1486221010.582 | pgbench_history  |        116891648
 2017-02-04 16:10:10.582002+01 | 1486221010.582 | pgbench_branches |         12599296

 2017-02-04 16:10:11.66108+01 | 1486221011.66108 | pgbench_accounts |      13682466816
 2017-02-04 16:10:11.66108+01 | 1486221011.66108 | pgbench_tellers  |         15523840
 2017-02-04 16:10:11.66108+01 | 1486221011.66108 | pgbench_history  |        118906880
 2017-02-04 16:10:11.66108+01 | 1486221011.66108 | pgbench_branches |         12599296

 2017-02-04 16:10:12.740319+01 | 1486221012.74032 | pgbench_accounts |      13682466816
 2017-02-04 16:10:12.740319+01 | 1486221012.74032 | pgbench_tellers  |         15523840
 2017-02-04 16:10:12.740319+01 | 1486221012.74032 | pgbench_history  |        121774080
 2017-02-04 16:10:12.740319+01 | 1486221012.74032 | pgbench_branches |         12599296

 2017-02-04 16:10:13.834297+01 | 1486221013.8343 | pgbench_accounts |      13682466816
 2017-02-04 16:10:13.834297+01 | 1486221013.8343 | pgbench_tellers  |         15523840
 2017-02-04 16:10:13.834297+01 | 1486221013.8343 | pgbench_history  |        123297792
 2017-02-04 16:10:13.834297+01 | 1486221013.8343 | pgbench_branches |         12599296

 2017-02-04 16:10:14.923488+01 | 1486221014.92349 | pgbench_accounts |      13682466816
 2017-02-04 16:10:14.923488+01 | 1486221014.92349 | pgbench_tellers  |         15523840
 2017-02-04 16:10:14.923488+01 | 1486221014.92349 | pgbench_history  |        126271488
 2017-02-04 16:10:14.923488+01 | 1486221014.92349 | pgbench_branches |         12599296

 2017-02-04 16:10:16.015344+01 | 1486221016.01534 | pgbench_accounts |      13682466816
 2017-02-04 16:10:16.015344+01 | 1486221016.01534 | pgbench_tellers  |         15523840
 2017-02-04 16:10:16.015344+01 | 1486221016.01534 | pgbench_history  |        128671744
 2017-02-04 16:10:16.015344+01 | 1486221016.01534 | pgbench_branches |         12599296

 2017-02-04 16:10:17.106225+01 | 1486221017.10623 | pgbench_accounts |      13682466816
 2017-02-04 16:10:17.106225+01 | 1486221017.10623 | pgbench_tellers  |         15523840
 2017-02-04 16:10:17.106225+01 | 1486221017.10623 | pgbench_history  |        131088384
 2017-02-04 16:10:17.106225+01 | 1486221017.10623 | pgbench_branches |         12599296

 2017-02-04 16:10:18.205371+01 | 1486221018.20537 | pgbench_accounts |      13682466816
 2017-02-04 16:10:18.205371+01 | 1486221018.20537 | pgbench_tellers  |         15523840
 2017-02-04 16:10:18.205371+01 | 1486221018.20537 | pgbench_history  |        133677056
 2017-02-04 16:10:18.205371+01 | 1486221018.20537 | pgbench_branches |         12599296

 2017-02-04 16:10:19.300815+01 | 1486221019.30082 | pgbench_accounts |      13682466816
 2017-02-04 16:10:19.300815+01 | 1486221019.30082 | pgbench_tellers  |         15523840
 2017-02-04 16:10:19.300815+01 | 1486221019.30082 | pgbench_history  |        136257536
 2017-02-04 16:10:19.300815+01 | 1486221019.30082 | pgbench_branches |         12599296

 2017-02-04 16:10:20.392569+01 | 1486221020.39257 | pgbench_accounts |      13682466816
 2017-02-04 16:10:20.392569+01 | 1486221020.39257 | pgbench_tellers  |         15523840
 2017-02-04 16:10:20.392569+01 | 1486221020.39257 | pgbench_history  |        141524992
 2017-02-04 16:10:20.392569+01 | 1486221020.39257 | pgbench_branches |         12599296

 2017-02-04 16:10:21.468054+01 | 1486221021.46805 | pgbench_accounts |      13682466816
 2017-02-04 16:10:21.468054+01 | 1486221021.46805 | pgbench_tellers  |         15523840
 2017-02-04 16:10:21.468054+01 | 1486221021.46805 | pgbench_history  |        141524992
 2017-02-04 16:10:21.468054+01 | 1486221021.46805 | pgbench_branches |         12599296

 2017-02-04 16:10:22.544335+01 | 1486221022.54433 | pgbench_accounts |      13682466816
 2017-02-04 16:10:22.544335+01 | 1486221022.54433 | pgbench_tellers  |         15523840
 2017-02-04 16:10:22.544335+01 | 1486221022.54433 | pgbench_history  |        144080896
 2017-02-04 16:10:22.544335+01 | 1486221022.54433 | pgbench_branches |         12599296

 2017-02-04 16:10:23.619616+01 | 1486221023.61962 | pgbench_accounts |      13682466816
 2017-02-04 16:10:23.619616+01 | 1486221023.61962 | pgbench_tellers  |         15523840
 2017-02-04 16:10:23.619616+01 | 1486221023.61962 | pgbench_history  |        147103744
 2017-02-04 16:10:23.619616+01 | 1486221023.61962 | pgbench_branches |         12599296

 2017-02-04 16:10:24.696893+01 | 1486221024.69689 | pgbench_accounts |      13682466816
 2017-02-04 16:10:24.696893+01 | 1486221024.69689 | pgbench_tellers  |         15523840
 2017-02-04 16:10:24.696893+01 | 1486221024.69689 | pgbench_history  |        150315008
 2017-02-04 16:10:24.696893+01 | 1486221024.69689 | pgbench_branches |         12599296

 2017-02-04 16:10:25.78351+01 | 1486221025.78351 | pgbench_accounts |      13682466816
 2017-02-04 16:10:25.78351+01 | 1486221025.78351 | pgbench_tellers  |         15523840
 2017-02-04 16:10:25.78351+01 | 1486221025.78351 | pgbench_history  |        152363008
 2017-02-04 16:10:25.78351+01 | 1486221025.78351 | pgbench_branches |         12599296

 2017-02-04 16:10:26.868986+01 | 1486221026.86899 | pgbench_accounts |      13682466816
 2017-02-04 16:10:26.868986+01 | 1486221026.86899 | pgbench_tellers  |         15523840
 2017-02-04 16:10:26.868986+01 | 1486221026.86899 | pgbench_history  |        155058176
 2017-02-04 16:10:26.868986+01 | 1486221026.86899 | pgbench_branches |         12599296

 2017-02-04 16:10:27.950369+01 | 1486221027.95037 | pgbench_accounts |      13682466816
 2017-02-04 16:10:27.950369+01 | 1486221027.95037 | pgbench_tellers  |         15523840
 2017-02-04 16:10:27.950369+01 | 1486221027.95037 | pgbench_history  |        157261824
 2017-02-04 16:10:27.950369+01 | 1486221027.95037 | pgbench_branches |         12599296

 2017-02-04 16:10:29.031535+01 | 1486221029.03153 | pgbench_accounts |      13682466816
 2017-02-04 16:10:29.031535+01 | 1486221029.03153 | pgbench_tellers  |         15523840
 2017-02-04 16:10:29.031535+01 | 1486221029.03153 | pgbench_history  |        160325632
 2017-02-04 16:10:29.031535+01 | 1486221029.03153 | pgbench_branches |         12599296

 2017-02-04 16:10:30.120623+01 | 1486221030.12062 | pgbench_accounts |      13682466816
 2017-02-04 16:10:30.120623+01 | 1486221030.12062 | pgbench_tellers  |         15523840
 2017-02-04 16:10:30.120623+01 | 1486221030.12062 | pgbench_history  |        163225600
 2017-02-04 16:10:30.120623+01 | 1486221030.12062 | pgbench_branches |         12599296

 2017-02-04 16:10:31.207059+01 | 1486221031.20706 | pgbench_accounts |      13682466816
 2017-02-04 16:10:31.207059+01 | 1486221031.20706 | pgbench_tellers  |         15523840
 2017-02-04 16:10:31.207059+01 | 1486221031.20706 | pgbench_history  |        165617664
 2017-02-04 16:10:31.207059+01 | 1486221031.20706 | pgbench_branches |         12599296

 2017-02-04 16:10:32.288828+01 | 1486221032.28883 | pgbench_accounts |      13682466816
 2017-02-04 16:10:32.288828+01 | 1486221032.28883 | pgbench_tellers  |         15523840
 2017-02-04 16:10:32.288828+01 | 1486221032.28883 | pgbench_history  |        167878656
 2017-02-04 16:10:32.288828+01 | 1486221032.28883 | pgbench_branches |         12599296

 2017-02-04 16:10:33.374105+01 | 1486221033.3741 | pgbench_accounts |      13682466816
 2017-02-04 16:10:33.374105+01 | 1486221033.3741 | pgbench_tellers  |         15523840
 2017-02-04 16:10:33.374105+01 | 1486221033.3741 | pgbench_history  |        170270720
 2017-02-04 16:10:33.374105+01 | 1486221033.3741 | pgbench_branches |         12599296

 2017-02-04 16:10:34.452303+01 | 1486221034.4523 | pgbench_accounts |      13682466816
 2017-02-04 16:10:34.452303+01 | 1486221034.4523 | pgbench_tellers  |         15523840
 2017-02-04 16:10:34.452303+01 | 1486221034.4523 | pgbench_history  |        172965888
 2017-02-04 16:10:34.452303+01 | 1486221034.4523 | pgbench_branches |         12599296

 2017-02-04 16:10:35.531016+01 | 1486221035.53102 | pgbench_accounts |      13682466816
 2017-02-04 16:10:35.531016+01 | 1486221035.53102 | pgbench_tellers  |         15523840
 2017-02-04 16:10:35.531016+01 | 1486221035.53102 | pgbench_history  |        175849472
 2017-02-04 16:10:35.531016+01 | 1486221035.53102 | pgbench_branches |         12599296

 2017-02-04 16:10:36.607598+01 | 1486221036.6076 | pgbench_accounts |      13682466816
 2017-02-04 16:10:36.607598+01 | 1486221036.6076 | pgbench_tellers  |         15523840
 2017-02-04 16:10:36.607598+01 | 1486221036.6076 | pgbench_history  |        177889280
 2017-02-04 16:10:36.607598+01 | 1486221036.6076 | pgbench_branches |         12599296

 2017-02-04 16:10:37.686282+01 | 1486221037.68628 | pgbench_accounts |      13682466816
 2017-02-04 16:10:37.686282+01 | 1486221037.68628 | pgbench_tellers  |         15523840
 2017-02-04 16:10:37.686282+01 | 1486221037.68628 | pgbench_history  |        182091776
 2017-02-04 16:10:37.686282+01 | 1486221037.68628 | pgbench_branches |         12599296

 2017-02-04 16:10:38.766556+01 | 1486221038.76656 | pgbench_accounts |      13682466816
 2017-02-04 16:10:38.766556+01 | 1486221038.76656 | pgbench_tellers  |         15523840
 2017-02-04 16:10:38.766556+01 | 1486221038.76656 | pgbench_history  |        184131584
 2017-02-04 16:10:38.766556+01 | 1486221038.76656 | pgbench_branches |         12599296

 2017-02-04 16:10:39.844412+01 | 1486221039.84441 | pgbench_accounts |      13682466816
 2017-02-04 16:10:39.844412+01 | 1486221039.84441 | pgbench_tellers  |         15523840
 2017-02-04 16:10:39.844412+01 | 1486221039.84441 | pgbench_history  |        189710336
 2017-02-04 16:10:39.844412+01 | 1486221039.84441 | pgbench_branches |         12599296

 2017-02-04 16:10:40.937375+01 | 1486221040.93738 | pgbench_accounts |      13682466816
 2017-02-04 16:10:40.937375+01 | 1486221040.93738 | pgbench_tellers  |         15523840
 2017-02-04 16:10:40.937375+01 | 1486221040.93738 | pgbench_history  |        189710336
 2017-02-04 16:10:40.937375+01 | 1486221040.93738 | pgbench_branches |         12599296

 2017-02-04 16:10:42.022047+01 | 1486221042.02205 | pgbench_accounts |      13682466816
 2017-02-04 16:10:42.022047+01 | 1486221042.02205 | pgbench_tellers  |         15523840
 2017-02-04 16:10:42.022047+01 | 1486221042.02205 | pgbench_history  |        190414848
 2017-02-04 16:10:42.022047+01 | 1486221042.02205 | pgbench_branches |         12599296

 2017-02-04 16:10:43.114301+01 | 1486221043.1143 | pgbench_accounts |      13682466816
 2017-02-04 16:10:43.114301+01 | 1486221043.1143 | pgbench_tellers  |         15523840
 2017-02-04 16:10:43.114301+01 | 1486221043.1143 | pgbench_history  |        193134592
 2017-02-04 16:10:43.114301+01 | 1486221043.1143 | pgbench_branches |         12599296

 2017-02-04 16:10:44.196201+01 | 1486221044.1962 | pgbench_accounts |      13682466816
 2017-02-04 16:10:44.196201+01 | 1486221044.1962 | pgbench_tellers  |         15523840
 2017-02-04 16:10:44.196201+01 | 1486221044.1962 | pgbench_history  |        196182016
 2017-02-04 16:10:44.196201+01 | 1486221044.1962 | pgbench_branches |         12599296

 2017-02-04 16:10:45.284835+01 | 1486221045.28484 | pgbench_accounts |      13682466816
 2017-02-04 16:10:45.284835+01 | 1486221045.28484 | pgbench_tellers  |         15523840
 2017-02-04 16:10:45.284835+01 | 1486221045.28484 | pgbench_history  |        199204864
 2017-02-04 16:10:45.284835+01 | 1486221045.28484 | pgbench_branches |         12599296

 2017-02-04 16:10:46.37475+01 | 1486221046.37475 | pgbench_accounts |      13682466816
 2017-02-04 16:10:46.37475+01 | 1486221046.37475 | pgbench_tellers  |         15523840
 2017-02-04 16:10:46.37475+01 | 1486221046.37475 | pgbench_history  |        201900032
 2017-02-04 16:10:46.37475+01 | 1486221046.37475 | pgbench_branches |         12599296

 2017-02-04 16:10:47.455398+01 | 1486221047.4554 | pgbench_accounts |      13682466816
 2017-02-04 16:10:47.455398+01 | 1486221047.4554 | pgbench_tellers  |         15523840
 2017-02-04 16:10:47.455398+01 | 1486221047.4554 | pgbench_history  |        203751424
 2017-02-04 16:10:47.455398+01 | 1486221047.4554 | pgbench_branches |         12599296

 2017-02-04 16:10:48.544507+01 | 1486221048.54451 | pgbench_accounts |      13682466816
 2017-02-04 16:10:48.544507+01 | 1486221048.54451 | pgbench_tellers  |         15523840
 2017-02-04 16:10:48.544507+01 | 1486221048.54451 | pgbench_history  |        207241216
 2017-02-04 16:10:48.544507+01 | 1486221048.54451 | pgbench_branches |         12599296

 2017-02-04 16:10:49.624569+01 | 1486221049.62457 | pgbench_accounts |      13682466816
 2017-02-04 16:10:49.624569+01 | 1486221049.62457 | pgbench_tellers  |         15523840
 2017-02-04 16:10:49.624569+01 | 1486221049.62457 | pgbench_history  |        208601088
 2017-02-04 16:10:49.624569+01 | 1486221049.62457 | pgbench_branches |         12599296

 2017-02-04 16:10:50.708231+01 | 1486221050.70823 | pgbench_accounts |      13682466816
 2017-02-04 16:10:50.708231+01 | 1486221050.70823 | pgbench_tellers  |         15523840
 2017-02-04 16:10:50.708231+01 | 1486221050.70823 | pgbench_history  |        212099072
 2017-02-04 16:10:50.708231+01 | 1486221050.70823 | pgbench_branches |         12599296

 2017-02-04 16:10:51.786346+01 | 1486221051.78635 | pgbench_accounts |      13682466816
 2017-02-04 16:10:51.786346+01 | 1486221051.78635 | pgbench_tellers  |         15523840
 2017-02-04 16:10:51.786346+01 | 1486221051.78635 | pgbench_history  |        214540288
 2017-02-04 16:10:51.786346+01 | 1486221051.78635 | pgbench_branches |         12599296

 2017-02-04 16:10:52.872824+01 | 1486221052.87282 | pgbench_accounts |      13682466816
 2017-02-04 16:10:52.872824+01 | 1486221052.87282 | pgbench_tellers  |         15523840
 2017-02-04 16:10:52.872824+01 | 1486221052.87282 | pgbench_history  |        216907776
 2017-02-04 16:10:52.872824+01 | 1486221052.87282 | pgbench_branches |         12599296

 2017-02-04 16:10:53.957454+01 | 1486221053.95745 | pgbench_accounts |      13682466816
 2017-02-04 16:10:53.957454+01 | 1486221053.95745 | pgbench_tellers  |         15523840
 2017-02-04 16:10:53.957454+01 | 1486221053.95745 | pgbench_history  |        219455488
 2017-02-04 16:10:53.957454+01 | 1486221053.95745 | pgbench_branches |         12599296

 2017-02-04 16:10:55.050181+01 | 1486221055.05018 | pgbench_accounts |      13682466816
 2017-02-04 16:10:55.050181+01 | 1486221055.05018 | pgbench_tellers  |         15523840
 2017-02-04 16:10:55.050181+01 | 1486221055.05018 | pgbench_history  |        223870976
 2017-02-04 16:10:55.050181+01 | 1486221055.05018 | pgbench_branches |         12599296

 2017-02-04 16:10:56.134551+01 | 1486221056.13455 | pgbench_accounts |      13682466816
 2017-02-04 16:10:56.134551+01 | 1486221056.13455 | pgbench_tellers  |         15523840
 2017-02-04 16:10:56.134551+01 | 1486221056.13455 | pgbench_history  |        224714752
 2017-02-04 16:10:56.134551+01 | 1486221056.13455 | pgbench_branches |         12599296

 2017-02-04 16:10:57.222274+01 | 1486221057.22227 | pgbench_accounts |      13682466816
 2017-02-04 16:10:57.222274+01 | 1486221057.22227 | pgbench_tellers  |         15523840
 2017-02-04 16:10:57.222274+01 | 1486221057.22227 | pgbench_history  |        227139584
 2017-02-04 16:10:57.222274+01 | 1486221057.22227 | pgbench_branches |         12599296

 2017-02-04 16:10:58.311527+01 | 1486221058.31153 | pgbench_accounts |      13682466816
 2017-02-04 16:10:58.311527+01 | 1486221058.31153 | pgbench_tellers  |         15523840
 2017-02-04 16:10:58.311527+01 | 1486221058.31153 | pgbench_history  |        229670912
 2017-02-04 16:10:58.311527+01 | 1486221058.31153 | pgbench_branches |         12599296

 2017-02-04 16:10:59.400225+01 | 1486221059.40022 | pgbench_accounts |      13682466816
 2017-02-04 16:10:59.400225+01 | 1486221059.40022 | pgbench_tellers  |         15523840
 2017-02-04 16:10:59.400225+01 | 1486221059.40022 | pgbench_history  |        233242624
 2017-02-04 16:10:59.400225+01 | 1486221059.40022 | pgbench_branches |         12599296

 2017-02-04 16:11:00.483474+01 | 1486221060.48347 | pgbench_accounts |      13682466816
 2017-02-04 16:11:00.483474+01 | 1486221060.48347 | pgbench_tellers  |         15523840
 2017-02-04 16:11:00.483474+01 | 1486221060.48347 | pgbench_history  |        235560960
 2017-02-04 16:11:00.483474+01 | 1486221060.48347 | pgbench_branches |         12599296

 2017-02-04 16:11:01.564669+01 | 1486221061.56467 | pgbench_accounts |      13682466816
 2017-02-04 16:11:01.564669+01 | 1486221061.56467 | pgbench_tellers  |         15523840
 2017-02-04 16:11:01.564669+01 | 1486221061.56467 | pgbench_history  |        237780992
 2017-02-04 16:11:01.564669+01 | 1486221061.56467 | pgbench_branches |         12599296

 2017-02-04 16:11:02.640228+01 | 1486221062.64023 | pgbench_accounts |      13682466816
 2017-02-04 16:11:02.640228+01 | 1486221062.64023 | pgbench_tellers  |         15523840
 2017-02-04 16:11:02.640228+01 | 1486221062.64023 | pgbench_history  |        240156672
 2017-02-04 16:11:02.640228+01 | 1486221062.64023 | pgbench_branches |         12599296

 2017-02-04 16:11:03.720153+01 | 1486221063.72015 | pgbench_accounts |      13682466816
 2017-02-04 16:11:03.720153+01 | 1486221063.72015 | pgbench_tellers  |         15523840
 2017-02-04 16:11:03.720153+01 | 1486221063.72015 | pgbench_history  |        243015680
 2017-02-04 16:11:03.720153+01 | 1486221063.72015 | pgbench_branches |         12599296

 2017-02-04 16:11:04.800792+01 | 1486221064.80079 | pgbench_accounts |      13682466816
 2017-02-04 16:11:04.800792+01 | 1486221064.80079 | pgbench_tellers  |         15523840
 2017-02-04 16:11:04.800792+01 | 1486221064.80079 | pgbench_history  |        245391360
 2017-02-04 16:11:04.800792+01 | 1486221064.80079 | pgbench_branches |         12599296

 2017-02-04 16:11:05.890055+01 | 1486221065.89005 | pgbench_accounts |      13682466816
 2017-02-04 16:11:05.890055+01 | 1486221065.89005 | pgbench_tellers  |         15523840
 2017-02-04 16:11:05.890055+01 | 1486221065.89005 | pgbench_history  |        247898112
 2017-02-04 16:11:05.890055+01 | 1486221065.89005 | pgbench_branches |         12599296

 2017-02-04 16:11:06.979455+01 | 1486221066.97945 | pgbench_accounts |      13682466816
 2017-02-04 16:11:06.979455+01 | 1486221066.97945 | pgbench_tellers  |         15523840
 2017-02-04 16:11:06.979455+01 | 1486221066.97945 | pgbench_history  |        250650624
 2017-02-04 16:11:06.979455+01 | 1486221066.97945 | pgbench_branches |         12599296

 2017-02-04 16:11:08.067313+01 | 1486221068.06731 | pgbench_accounts |      13682466816
 2017-02-04 16:11:08.067313+01 | 1486221068.06731 | pgbench_tellers  |         15523840
 2017-02-04 16:11:08.067313+01 | 1486221068.06731 | pgbench_history  |        253534208
 2017-02-04 16:11:08.067313+01 | 1486221068.06731 | pgbench_branches |         12599296

 2017-02-04 16:11:09.158947+01 | 1486221069.15895 | pgbench_accounts |      13682466816
 2017-02-04 16:11:09.158947+01 | 1486221069.15895 | pgbench_tellers  |         15523840
 2017-02-04 16:11:09.158947+01 | 1486221069.15895 | pgbench_history  |        256065536
 2017-02-04 16:11:09.158947+01 | 1486221069.15895 | pgbench_branches |         12599296

 2017-02-04 16:11:10.250695+01 | 1486221070.25069 | pgbench_accounts |      13682466816
 2017-02-04 16:11:10.250695+01 | 1486221070.25069 | pgbench_tellers  |         15523840
 2017-02-04 16:11:10.250695+01 | 1486221070.25069 | pgbench_history  |        258498560
 2017-02-04 16:11:10.250695+01 | 1486221070.25069 | pgbench_branches |         12599296

 2017-02-04 16:11:11.343563+01 | 1486221071.34356 | pgbench_accounts |      13682466816
 2017-02-04 16:11:11.343563+01 | 1486221071.34356 | pgbench_tellers  |         15523840
 2017-02-04 16:11:11.343563+01 | 1486221071.34356 | pgbench_history  |        260677632
 2017-02-04 16:11:11.343563+01 | 1486221071.34356 | pgbench_branches |         12599296

 2017-02-04 16:11:12.436309+01 | 1486221072.43631 | pgbench_accounts |      13682466816
 2017-02-04 16:11:12.436309+01 | 1486221072.43631 | pgbench_tellers  |         15523840
 2017-02-04 16:11:12.436309+01 | 1486221072.43631 | pgbench_history  |        264077312
 2017-02-04 16:11:12.436309+01 | 1486221072.43631 | pgbench_branches |         12599296

 2017-02-04 16:11:13.523386+01 | 1486221073.52339 | pgbench_accounts |      13682466816
 2017-02-04 16:11:13.523386+01 | 1486221073.52339 | pgbench_tellers  |         15523840
 2017-02-04 16:11:13.523386+01 | 1486221073.52339 | pgbench_history  |        265764864
 2017-02-04 16:11:13.523386+01 | 1486221073.52339 | pgbench_branches |         12599296

 2017-02-04 16:11:14.602018+01 | 1486221074.60202 | pgbench_accounts |      13682466816
 2017-02-04 16:11:14.602018+01 | 1486221074.60202 | pgbench_tellers  |         15523840
 2017-02-04 16:11:14.602018+01 | 1486221074.60202 | pgbench_history  |        268435456
 2017-02-04 16:11:14.602018+01 | 1486221074.60202 | pgbench_branches |         12599296

 2017-02-04 16:11:15.678656+01 | 1486221075.67866 | pgbench_accounts |      13682466816
 2017-02-04 16:11:15.678656+01 | 1486221075.67866 | pgbench_tellers  |         15523840
 2017-02-04 16:11:15.678656+01 | 1486221075.67866 | pgbench_history  |        271130624
 2017-02-04 16:11:15.678656+01 | 1486221075.67866 | pgbench_branches |         12599296

 2017-02-04 16:11:16.761099+01 | 1486221076.7611 | pgbench_accounts |      13682466816
 2017-02-04 16:11:16.761099+01 | 1486221076.7611 | pgbench_tellers  |         15523840
 2017-02-04 16:11:16.761099+01 | 1486221076.7611 | pgbench_history  |        274571264
 2017-02-04 16:11:16.761099+01 | 1486221076.7611 | pgbench_branches |         12599296

 2017-02-04 16:11:17.845055+01 | 1486221077.84506 | pgbench_accounts |      13682466816
 2017-02-04 16:11:17.845055+01 | 1486221077.84506 | pgbench_tellers  |         15523840
 2017-02-04 16:11:17.845055+01 | 1486221077.84506 | pgbench_history  |        276422656
 2017-02-04 16:11:17.845055+01 | 1486221077.84506 | pgbench_branches |         12599296

 2017-02-04 16:11:18.932536+01 | 1486221078.93254 | pgbench_accounts |      13682466816
 2017-02-04 16:11:18.932536+01 | 1486221078.93254 | pgbench_tellers  |         15523840
 2017-02-04 16:11:18.932536+01 | 1486221078.93254 | pgbench_history  |        280461312
 2017-02-04 16:11:18.932536+01 | 1486221078.93254 | pgbench_branches |         12599296

 2017-02-04 16:11:20.018073+01 | 1486221080.01807 | pgbench_accounts |      13682466816
 2017-02-04 16:11:20.018073+01 | 1486221080.01807 | pgbench_tellers  |         15523840
 2017-02-04 16:11:20.018073+01 | 1486221080.01807 | pgbench_history  |        281493504
 2017-02-04 16:11:20.018073+01 | 1486221080.01807 | pgbench_branches |         12599296

 2017-02-04 16:11:21.103889+01 | 1486221081.10389 | pgbench_accounts |      13682466816
 2017-02-04 16:11:21.103889+01 | 1486221081.10389 | pgbench_tellers  |         15523840
 2017-02-04 16:11:21.103889+01 | 1486221081.10389 | pgbench_history  |        284024832
 2017-02-04 16:11:21.103889+01 | 1486221081.10389 | pgbench_branches |         12599296

 2017-02-04 16:11:22.193645+01 | 1486221082.19365 | pgbench_accounts |      13682466816
 2017-02-04 16:11:22.193645+01 | 1486221082.19365 | pgbench_tellers  |         15523840
 2017-02-04 16:11:22.193645+01 | 1486221082.19365 | pgbench_history  |        287457280
 2017-02-04 16:11:22.193645+01 | 1486221082.19365 | pgbench_branches |         12599296

 2017-02-04 16:11:23.283273+01 | 1486221083.28327 | pgbench_accounts |      13682466816
 2017-02-04 16:11:23.283273+01 | 1486221083.28327 | pgbench_tellers  |         15523840
 2017-02-04 16:11:23.283273+01 | 1486221083.28327 | pgbench_history  |        289333248
 2017-02-04 16:11:23.283273+01 | 1486221083.28327 | pgbench_branches |         12599296

 2017-02-04 16:11:24.372471+01 | 1486221084.37247 | pgbench_accounts |      13682466816
 2017-02-04 16:11:24.372471+01 | 1486221084.37247 | pgbench_tellers  |         15523840
 2017-02-04 16:11:24.372471+01 | 1486221084.37247 | pgbench_history  |        292167680
 2017-02-04 16:11:24.372471+01 | 1486221084.37247 | pgbench_branches |         12599296

 2017-02-04 16:11:25.456645+01 | 1486221085.45665 | pgbench_accounts |      13682466816
 2017-02-04 16:11:25.456645+01 | 1486221085.45665 | pgbench_tellers  |         15523840
 2017-02-04 16:11:25.456645+01 | 1486221085.45665 | pgbench_history  |        294567936
 2017-02-04 16:11:25.456645+01 | 1486221085.45665 | pgbench_branches |         12599296

 2017-02-04 16:11:26.543738+01 | 1486221086.54374 | pgbench_accounts |      13682466816
 2017-02-04 16:11:26.543738+01 | 1486221086.54374 | pgbench_tellers  |         15523840
 2017-02-04 16:11:26.543738+01 | 1486221086.54374 | pgbench_history  |        297099264
 2017-02-04 16:11:26.543738+01 | 1486221086.54374 | pgbench_branches |         12599296

 2017-02-04 16:11:27.617393+01 | 1486221087.61739 | pgbench_accounts |      13682466816
 2017-02-04 16:11:27.617393+01 | 1486221087.61739 | pgbench_tellers  |         15523840
 2017-02-04 16:11:27.617393+01 | 1486221087.61739 | pgbench_history  |        300032000
 2017-02-04 16:11:27.617393+01 | 1486221087.61739 | pgbench_branches |         12599296

 2017-02-04 16:11:28.697521+01 | 1486221088.69752 | pgbench_accounts |      13682466816
 2017-02-04 16:11:28.697521+01 | 1486221088.69752 | pgbench_tellers  |         15523840
 2017-02-04 16:11:28.697521+01 | 1486221088.69752 | pgbench_history  |        302800896
 2017-02-04 16:11:28.697521+01 | 1486221088.69752 | pgbench_branches |         12599296

 2017-02-04 16:11:29.777249+01 | 1486221089.77725 | pgbench_accounts |      13682466816
 2017-02-04 16:11:29.777249+01 | 1486221089.77725 | pgbench_tellers  |         15523840
 2017-02-04 16:11:29.777249+01 | 1486221089.77725 | pgbench_history  |        304955392
 2017-02-04 16:11:29.777249+01 | 1486221089.77725 | pgbench_branches |         12599296

 2017-02-04 16:11:30.851967+01 | 1486221090.85197 | pgbench_accounts |      13682466816
 2017-02-04 16:11:30.851967+01 | 1486221090.85197 | pgbench_tellers  |         15523840
 2017-02-04 16:11:30.851967+01 | 1486221090.85197 | pgbench_history  |        307838976
 2017-02-04 16:11:30.851967+01 | 1486221090.85197 | pgbench_branches |         12599296

 2017-02-04 16:11:31.932175+01 | 1486221091.93217 | pgbench_accounts |      13682466816
 2017-02-04 16:11:31.932175+01 | 1486221091.93217 | pgbench_tellers  |         15523840
 2017-02-04 16:11:31.932175+01 | 1486221091.93217 | pgbench_history  |        311189504
 2017-02-04 16:11:31.932175+01 | 1486221091.93217 | pgbench_branches |         12599296

 2017-02-04 16:11:33.020347+01 | 1486221093.02035 | pgbench_accounts |      13682466816
 2017-02-04 16:11:33.020347+01 | 1486221093.02035 | pgbench_tellers  |         15523840
 2017-02-04 16:11:33.020347+01 | 1486221093.02035 | pgbench_history  |        312934400
 2017-02-04 16:11:33.020347+01 | 1486221093.02035 | pgbench_branches |         12599296

 2017-02-04 16:11:34.100991+01 | 1486221094.10099 | pgbench_accounts |      13682466816
 2017-02-04 16:11:34.100991+01 | 1486221094.10099 | pgbench_tellers  |         15523840
 2017-02-04 16:11:34.100991+01 | 1486221094.10099 | pgbench_history  |        315301888
 2017-02-04 16:11:34.100991+01 | 1486221094.10099 | pgbench_branches |         12599296

 2017-02-04 16:11:35.195694+01 | 1486221095.19569 | pgbench_accounts |      13682466816
 2017-02-04 16:11:35.195694+01 | 1486221095.19569 | pgbench_tellers  |         15523840
 2017-02-04 16:11:35.195694+01 | 1486221095.19569 | pgbench_history  |        318349312
 2017-02-04 16:11:35.195694+01 | 1486221095.19569 | pgbench_branches |         12599296

 2017-02-04 16:11:36.286439+01 | 1486221096.28644 | pgbench_accounts |      13682466816
 2017-02-04 16:11:36.286439+01 | 1486221096.28644 | pgbench_tellers  |         15523840
 2017-02-04 16:11:36.286439+01 | 1486221096.28644 | pgbench_history  |        320716800
 2017-02-04 16:11:36.286439+01 | 1486221096.28644 | pgbench_branches |         12599296

 2017-02-04 16:11:37.373155+01 | 1486221097.37316 | pgbench_accounts |      13682466816
 2017-02-04 16:11:37.373155+01 | 1486221097.37316 | pgbench_tellers  |         15523840
 2017-02-04 16:11:37.373155+01 | 1486221097.37316 | pgbench_history  |        324100096
 2017-02-04 16:11:37.373155+01 | 1486221097.37316 | pgbench_branches |         12599296

 2017-02-04 16:11:38.465469+01 | 1486221098.46547 | pgbench_accounts |      13682466816
 2017-02-04 16:11:38.465469+01 | 1486221098.46547 | pgbench_tellers  |         15523840
 2017-02-04 16:11:38.465469+01 | 1486221098.46547 | pgbench_history  |        326311936
 2017-02-04 16:11:38.465469+01 | 1486221098.46547 | pgbench_branches |         12599296

 2017-02-04 16:11:39.542066+01 | 1486221099.54207 | pgbench_accounts |      13682466816
 2017-02-04 16:11:39.542066+01 | 1486221099.54207 | pgbench_tellers  |         15523840
 2017-02-04 16:11:39.542066+01 | 1486221099.54207 | pgbench_history  |        328048640
 2017-02-04 16:11:39.542066+01 | 1486221099.54207 | pgbench_branches |         12599296

 2017-02-04 16:11:40.626175+01 | 1486221100.62617 | pgbench_accounts |      13682466816
 2017-02-04 16:11:40.626175+01 | 1486221100.62617 | pgbench_tellers  |         15523840
 2017-02-04 16:11:40.626175+01 | 1486221100.62617 | pgbench_history  |        330743808
 2017-02-04 16:11:40.626175+01 | 1486221100.62617 | pgbench_branches |         12599296

 2017-02-04 16:11:41.71029+01 | 1486221101.71029 | pgbench_accounts |      13682466816
 2017-02-04 16:11:41.71029+01 | 1486221101.71029 | pgbench_tellers  |         15523840
 2017-02-04 16:11:41.71029+01 | 1486221101.71029 | pgbench_history  |        332759040
 2017-02-04 16:11:41.71029+01 | 1486221101.71029 | pgbench_branches |         12599296

 2017-02-04 16:11:42.797873+01 | 1486221102.79787 | pgbench_accounts |      13682466816
 2017-02-04 16:11:42.797873+01 | 1486221102.79787 | pgbench_tellers  |         15523840
 2017-02-04 16:11:42.797873+01 | 1486221102.79787 | pgbench_history  |        338665472
 2017-02-04 16:11:42.797873+01 | 1486221102.79787 | pgbench_branches |         12599296

 2017-02-04 16:11:43.875259+01 | 1486221103.87526 | pgbench_accounts |      13682466816
 2017-02-04 16:11:43.875259+01 | 1486221103.87526 | pgbench_tellers  |         15523840
 2017-02-04 16:11:43.875259+01 | 1486221103.87526 | pgbench_history  |        338665472
 2017-02-04 16:11:43.875259+01 | 1486221103.87526 | pgbench_branches |         12599296

 2017-02-04 16:11:44.955882+01 | 1486221104.95588 | pgbench_accounts |      13682466816
 2017-02-04 16:11:44.955882+01 | 1486221104.95588 | pgbench_tellers  |         15523840
 2017-02-04 16:11:44.955882+01 | 1486221104.95588 | pgbench_history  |        340869120
 2017-02-04 16:11:44.955882+01 | 1486221104.95588 | pgbench_branches |         12599296

 2017-02-04 16:11:46.036436+01 | 1486221106.03644 | pgbench_accounts |      13682466816
 2017-02-04 16:11:46.036436+01 | 1486221106.03644 | pgbench_tellers  |         15523840
 2017-02-04 16:11:46.036436+01 | 1486221106.03644 | pgbench_history  |        343539712
 2017-02-04 16:11:46.036436+01 | 1486221106.03644 | pgbench_branches |         12599296

 2017-02-04 16:11:47.129122+01 | 1486221107.12912 | pgbench_accounts |      13682466816
 2017-02-04 16:11:47.129122+01 | 1486221107.12912 | pgbench_tellers  |         15523840
 2017-02-04 16:11:47.129122+01 | 1486221107.12912 | pgbench_history  |        346398720
 2017-02-04 16:11:47.129122+01 | 1486221107.12912 | pgbench_branches |         12599296

 2017-02-04 16:11:48.218444+01 | 1486221108.21844 | pgbench_accounts |      13682466816
 2017-02-04 16:11:48.218444+01 | 1486221108.21844 | pgbench_tellers  |         15523840
 2017-02-04 16:11:48.218444+01 | 1486221108.21844 | pgbench_history  |        350404608
 2017-02-04 16:11:48.218444+01 | 1486221108.21844 | pgbench_branches |         12599296

 2017-02-04 16:11:49.30891+01 | 1486221109.30891 | pgbench_accounts |      13682466816
 2017-02-04 16:11:49.30891+01 | 1486221109.30891 | pgbench_tellers  |         15523840
 2017-02-04 16:11:49.30891+01 | 1486221109.30891 | pgbench_history  |        351412224
 2017-02-04 16:11:49.30891+01 | 1486221109.30891 | pgbench_branches |         12599296

 2017-02-04 16:11:50.406791+01 | 1486221110.40679 | pgbench_accounts |      13682466816
 2017-02-04 16:11:50.406791+01 | 1486221110.40679 | pgbench_tellers  |         15523840
 2017-02-04 16:11:50.406791+01 | 1486221110.40679 | pgbench_history  |        353263616
 2017-02-04 16:11:50.406791+01 | 1486221110.40679 | pgbench_branches |         12599296

 2017-02-04 16:11:51.494106+01 | 1486221111.49411 | pgbench_accounts |      13682466816
 2017-02-04 16:11:51.494106+01 | 1486221111.49411 | pgbench_tellers  |         15523840
 2017-02-04 16:11:51.494106+01 | 1486221111.49411 | pgbench_history  |        356171776
 2017-02-04 16:11:51.494106+01 | 1486221111.49411 | pgbench_branches |         12599296

 2017-02-04 16:11:52.57607+01 | 1486221112.57607 | pgbench_accounts |      13682466816
 2017-02-04 16:11:52.57607+01 | 1486221112.57607 | pgbench_tellers  |         15523840
 2017-02-04 16:11:52.57607+01 | 1486221112.57607 | pgbench_history  |        358727680
 2017-02-04 16:11:52.57607+01 | 1486221112.57607 | pgbench_branches |         12599296

 2017-02-04 16:11:53.657523+01 | 1486221113.65752 | pgbench_accounts |      13682466816
 2017-02-04 16:11:53.657523+01 | 1486221113.65752 | pgbench_tellers  |         15523840
 2017-02-04 16:11:53.657523+01 | 1486221113.65752 | pgbench_history  |        360595456
 2017-02-04 16:11:53.657523+01 | 1486221113.65752 | pgbench_branches |         12599296

 2017-02-04 16:11:54.729944+01 | 1486221114.72994 | pgbench_accounts |      13682466816
 2017-02-04 16:11:54.729944+01 | 1486221114.72994 | pgbench_tellers  |         15523840
 2017-02-04 16:11:54.729944+01 | 1486221114.72994 | pgbench_history  |        364273664
 2017-02-04 16:11:54.729944+01 | 1486221114.72994 | pgbench_branches |         12599296

 2017-02-04 16:11:55.806172+01 | 1486221115.80617 | pgbench_accounts |      13682466816
 2017-02-04 16:11:55.806172+01 | 1486221115.80617 | pgbench_tellers  |         15523840
 2017-02-04 16:11:55.806172+01 | 1486221115.80617 | pgbench_history  |        366780416
 2017-02-04 16:11:55.806172+01 | 1486221115.80617 | pgbench_branches |         12599296

 2017-02-04 16:11:56.886203+01 | 1486221116.8862 | pgbench_accounts |      13682466816
 2017-02-04 16:11:56.886203+01 | 1486221116.8862 | pgbench_tellers  |         15523840
 2017-02-04 16:11:56.886203+01 | 1486221116.8862 | pgbench_history  |        368984064
 2017-02-04 16:11:56.886203+01 | 1486221116.8862 | pgbench_branches |         12599296

 2017-02-04 16:11:57.974088+01 | 1486221117.97409 | pgbench_accounts |      13682466816
 2017-02-04 16:11:57.974088+01 | 1486221117.97409 | pgbench_tellers  |         15523840
 2017-02-04 16:11:57.974088+01 | 1486221117.97409 | pgbench_history  |        371515392
 2017-02-04 16:11:57.974088+01 | 1486221117.97409 | pgbench_branches |         12599296

 2017-02-04 16:11:59.063107+01 | 1486221119.06311 | pgbench_accounts |      13682466816
 2017-02-04 16:11:59.063107+01 | 1486221119.06311 | pgbench_tellers  |         15523840
 2017-02-04 16:11:59.063107+01 | 1486221119.06311 | pgbench_history  |        373891072
 2017-02-04 16:11:59.063107+01 | 1486221119.06311 | pgbench_branches |         12599296

 2017-02-04 16:12:00.147569+01 | 1486221120.14757 | pgbench_accounts |      13682466816
 2017-02-04 16:12:00.147569+01 | 1486221120.14757 | pgbench_tellers  |         15523840
 2017-02-04 16:12:00.147569+01 | 1486221120.14757 | pgbench_history  |        376111104
 2017-02-04 16:12:00.147569+01 | 1486221120.14757 | pgbench_branches |         12599296

 2017-02-04 16:12:01.232743+01 | 1486221121.23274 | pgbench_accounts |      13682466816
 2017-02-04 16:12:01.232743+01 | 1486221121.23274 | pgbench_tellers  |         15523840
 2017-02-04 16:12:01.232743+01 | 1486221121.23274 | pgbench_history  |        380469248
 2017-02-04 16:12:01.232743+01 | 1486221121.23274 | pgbench_branches |         12599296

 2017-02-04 16:12:02.32078+01 | 1486221122.32078 | pgbench_accounts |      13682466816
 2017-02-04 16:12:02.32078+01 | 1486221122.32078 | pgbench_tellers  |         15523840
 2017-02-04 16:12:02.32078+01 | 1486221122.32078 | pgbench_history  |        381992960
 2017-02-04 16:12:02.32078+01 | 1486221122.32078 | pgbench_branches |         12599296

 2017-02-04 16:12:03.409433+01 | 1486221123.40943 | pgbench_accounts |      13682466816
 2017-02-04 16:12:03.409433+01 | 1486221123.40943 | pgbench_tellers  |         15523840
 2017-02-04 16:12:03.409433+01 | 1486221123.40943 | pgbench_history  |        384057344
 2017-02-04 16:12:03.409433+01 | 1486221123.40943 | pgbench_branches |         12599296

 2017-02-04 16:12:04.491172+01 | 1486221124.49117 | pgbench_accounts |      13682466816
 2017-02-04 16:12:04.491172+01 | 1486221124.49117 | pgbench_tellers  |         15523840
 2017-02-04 16:12:04.491172+01 | 1486221124.49117 | pgbench_history  |        386564096
 2017-02-04 16:12:04.491172+01 | 1486221124.49117 | pgbench_branches |         12599296

 2017-02-04 16:12:05.569616+01 | 1486221125.56962 | pgbench_accounts |      13682466816
 2017-02-04 16:12:05.569616+01 | 1486221125.56962 | pgbench_tellers  |         15523840
 2017-02-04 16:12:05.569616+01 | 1486221125.56962 | pgbench_history  |        389447680
 2017-02-04 16:12:05.569616+01 | 1486221125.56962 | pgbench_branches |         12599296

 2017-02-04 16:12:06.644751+01 | 1486221126.64475 | pgbench_accounts |      13682466816
 2017-02-04 16:12:06.644751+01 | 1486221126.64475 | pgbench_tellers  |         15523840
 2017-02-04 16:12:06.644751+01 | 1486221126.64475 | pgbench_history  |        391864320
 2017-02-04 16:12:06.644751+01 | 1486221126.64475 | pgbench_branches |         12599296

 2017-02-04 16:12:07.722974+01 | 1486221127.72297 | pgbench_accounts |      13682466816
 2017-02-04 16:12:07.722974+01 | 1486221127.72297 | pgbench_tellers  |         15523840
 2017-02-04 16:12:07.722974+01 | 1486221127.72297 | pgbench_history  |        394772480
 2017-02-04 16:12:07.722974+01 | 1486221127.72297 | pgbench_branches |         12599296

 2017-02-04 16:12:08.799166+01 | 1486221128.79917 | pgbench_accounts |      13682466816
 2017-02-04 16:12:08.799166+01 | 1486221128.79917 | pgbench_tellers  |         15523840
 2017-02-04 16:12:08.799166+01 | 1486221128.79917 | pgbench_history  |        398147584
 2017-02-04 16:12:08.799166+01 | 1486221128.79917 | pgbench_branches |         12599296

 2017-02-04 16:12:09.877254+01 | 1486221129.87725 | pgbench_accounts |      13682466816
 2017-02-04 16:12:09.877254+01 | 1486221129.87725 | pgbench_tellers  |         15523840
 2017-02-04 16:12:09.877254+01 | 1486221129.87725 | pgbench_history  |        399974400
 2017-02-04 16:12:09.877254+01 | 1486221129.87725 | pgbench_branches |         12599296

 2017-02-04 16:12:10.958168+01 | 1486221130.95817 | pgbench_accounts |      13682466816
 2017-02-04 16:12:10.958168+01 | 1486221130.95817 | pgbench_tellers  |         15523840
 2017-02-04 16:12:10.958168+01 | 1486221130.95817 | pgbench_history  |        403324928
 2017-02-04 16:12:10.958168+01 | 1486221130.95817 | pgbench_branches |         12599296

 2017-02-04 16:12:12.040819+01 | 1486221132.04082 | pgbench_accounts |      13682466816
 2017-02-04 16:12:12.040819+01 | 1486221132.04082 | pgbench_tellers  |         15523840
 2017-02-04 16:12:12.040819+01 | 1486221132.04082 | pgbench_history  |        406183936
 2017-02-04 16:12:12.040819+01 | 1486221132.04082 | pgbench_branches |         12599296

 2017-02-04 16:12:13.129831+01 | 1486221133.12983 | pgbench_accounts |      13682466816
 2017-02-04 16:12:13.129831+01 | 1486221133.12983 | pgbench_tellers  |         15523840
 2017-02-04 16:12:13.129831+01 | 1486221133.12983 | pgbench_history  |        407904256
 2017-02-04 16:12:13.129831+01 | 1486221133.12983 | pgbench_branches |         12599296

 2017-02-04 16:12:14.218656+01 | 1486221134.21866 | pgbench_accounts |      13682466816
 2017-02-04 16:12:14.218656+01 | 1486221134.21866 | pgbench_tellers  |         15523840
 2017-02-04 16:12:14.218656+01 | 1486221134.21866 | pgbench_history  |        410460160
 2017-02-04 16:12:14.218656+01 | 1486221134.21866 | pgbench_branches |         12599296

 2017-02-04 16:12:15.306913+01 | 1486221135.30691 | pgbench_accounts |      13682466816
 2017-02-04 16:12:15.306913+01 | 1486221135.30691 | pgbench_tellers  |         15523840
 2017-02-04 16:12:15.306913+01 | 1486221135.30691 | pgbench_history  |        414679040
 2017-02-04 16:12:15.306913+01 | 1486221135.30691 | pgbench_branches |         12599296

 2017-02-04 16:12:16.402876+01 | 1486221136.40288 | pgbench_accounts |      13682466816
 2017-02-04 16:12:16.402876+01 | 1486221136.40288 | pgbench_tellers  |         15523840
 2017-02-04 16:12:16.402876+01 | 1486221136.40288 | pgbench_history  |        415850496
 2017-02-04 16:12:16.402876+01 | 1486221136.40288 | pgbench_branches |         12599296

 2017-02-04 16:12:17.49911+01 | 1486221137.49911 | pgbench_accounts |      13682466816
 2017-02-04 16:12:17.49911+01 | 1486221137.49911 | pgbench_tellers  |         15523840
 2017-02-04 16:12:17.49911+01 | 1486221137.49911 | pgbench_history  |        418054144
 2017-02-04 16:12:17.49911+01 | 1486221137.49911 | pgbench_branches |         12599296

 2017-02-04 16:12:18.579817+01 | 1486221138.57982 | pgbench_accounts |      13682466816
 2017-02-04 16:12:18.579817+01 | 1486221138.57982 | pgbench_tellers  |         15523840
 2017-02-04 16:12:18.579817+01 | 1486221138.57982 | pgbench_history  |        421429248
 2017-02-04 16:12:18.579817+01 | 1486221138.57982 | pgbench_branches |         12599296

 2017-02-04 16:12:19.669891+01 | 1486221139.66989 | pgbench_accounts |      13682466816
 2017-02-04 16:12:19.669891+01 | 1486221139.66989 | pgbench_tellers  |         15523840
 2017-02-04 16:12:19.669891+01 | 1486221139.66989 | pgbench_history  |        424402944
 2017-02-04 16:12:19.669891+01 | 1486221139.66989 | pgbench_branches |         12599296

 2017-02-04 16:12:20.750993+01 | 1486221140.75099 | pgbench_accounts |      13682466816
 2017-02-04 16:12:20.750993+01 | 1486221140.75099 | pgbench_tellers  |         15523840
 2017-02-04 16:12:20.750993+01 | 1486221140.75099 | pgbench_history  |        426090496
 2017-02-04 16:12:20.750993+01 | 1486221140.75099 | pgbench_branches |         12599296

 2017-02-04 16:12:21.824375+01 | 1486221141.82437 | pgbench_accounts |      13682466816
 2017-02-04 16:12:21.824375+01 | 1486221141.82437 | pgbench_tellers  |         15523840
 2017-02-04 16:12:21.824375+01 | 1486221141.82437 | pgbench_history  |        429465600
 2017-02-04 16:12:21.824375+01 | 1486221141.82437 | pgbench_branches |         12599296

 2017-02-04 16:12:22.901369+01 | 1486221142.90137 | pgbench_accounts |      13682466816
 2017-02-04 16:12:22.901369+01 | 1486221142.90137 | pgbench_tellers  |         15523840
 2017-02-04 16:12:22.901369+01 | 1486221142.90137 | pgbench_history  |        431153152
 2017-02-04 16:12:22.901369+01 | 1486221142.90137 | pgbench_branches |         12599296

 2017-02-04 16:12:23.984542+01 | 1486221143.98454 | pgbench_accounts |      13682466816
 2017-02-04 16:12:23.984542+01 | 1486221143.98454 | pgbench_tellers  |         15523840
 2017-02-04 16:12:23.984542+01 | 1486221143.98454 | pgbench_history  |        433709056
 2017-02-04 16:12:23.984542+01 | 1486221143.98454 | pgbench_branches |         12599296

 2017-02-04 16:12:25.065908+01 | 1486221145.06591 | pgbench_accounts |      13682466816
 2017-02-04 16:12:25.065908+01 | 1486221145.06591 | pgbench_tellers  |         15523840
 2017-02-04 16:12:25.065908+01 | 1486221145.06591 | pgbench_history  |        437575680
 2017-02-04 16:12:25.065908+01 | 1486221145.06591 | pgbench_branches |         12599296

 2017-02-04 16:12:26.154983+01 | 1486221146.15498 | pgbench_accounts |      13682466816
 2017-02-04 16:12:26.154983+01 | 1486221146.15498 | pgbench_tellers  |         15523840
 2017-02-04 16:12:26.154983+01 | 1486221146.15498 | pgbench_history  |        438976512
 2017-02-04 16:12:26.154983+01 | 1486221146.15498 | pgbench_branches |         12599296

 2017-02-04 16:12:27.24446+01 | 1486221147.24446 | pgbench_accounts |      13682466816
 2017-02-04 16:12:27.24446+01 | 1486221147.24446 | pgbench_tellers  |         15523840
 2017-02-04 16:12:27.24446+01 | 1486221147.24446 | pgbench_history  |        441507840
 2017-02-04 16:12:27.24446+01 | 1486221147.24446 | pgbench_branches |         12599296

 2017-02-04 16:12:28.334757+01 | 1486221148.33476 | pgbench_accounts |      13682466816
 2017-02-04 16:12:28.334757+01 | 1486221148.33476 | pgbench_tellers  |         15523840
 2017-02-04 16:12:28.334757+01 | 1486221148.33476 | pgbench_history  |        444047360
 2017-02-04 16:12:28.334757+01 | 1486221148.33476 | pgbench_branches |         12599296

 2017-02-04 16:12:29.40926+01 | 1486221149.40926 | pgbench_accounts |      13682466816
 2017-02-04 16:12:29.40926+01 | 1486221149.40926 | pgbench_tellers  |         15523840
 2017-02-04 16:12:29.40926+01 | 1486221149.40926 | pgbench_history  |        447586304
 2017-02-04 16:12:29.40926+01 | 1486221149.40926 | pgbench_branches |         12599296

 2017-02-04 16:12:30.495926+01 | 1486221150.49593 | pgbench_accounts |      13682466816
 2017-02-04 16:12:30.495926+01 | 1486221150.49593 | pgbench_tellers  |         15523840
 2017-02-04 16:12:30.495926+01 | 1486221150.49593 | pgbench_history  |        449798144
 2017-02-04 16:12:30.495926+01 | 1486221150.49593 | pgbench_branches |         12599296

 2017-02-04 16:12:31.577241+01 | 1486221151.57724 | pgbench_accounts |      13682466816
 2017-02-04 16:12:31.577241+01 | 1486221151.57724 | pgbench_tellers  |         15523840
 2017-02-04 16:12:31.577241+01 | 1486221151.57724 | pgbench_history  |        451485696
 2017-02-04 16:12:31.577241+01 | 1486221151.57724 | pgbench_branches |         12599296

 2017-02-04 16:12:32.655284+01 | 1486221152.65528 | pgbench_accounts |      13682466816
 2017-02-04 16:12:32.655284+01 | 1486221152.65528 | pgbench_tellers  |         15523840
 2017-02-04 16:12:32.655284+01 | 1486221152.65528 | pgbench_history  |        455729152
 2017-02-04 16:12:32.655284+01 | 1486221152.65528 | pgbench_branches |         12599296

 2017-02-04 16:12:33.730583+01 | 1486221153.73058 | pgbench_accounts |      13682466816
 2017-02-04 16:12:33.730583+01 | 1486221153.73058 | pgbench_tellers  |         15523840
 2017-02-04 16:12:33.730583+01 | 1486221153.73058 | pgbench_history  |        456769536
 2017-02-04 16:12:33.730583+01 | 1486221153.73058 | pgbench_branches |         12599296

 2017-02-04 16:12:34.809451+01 | 1486221154.80945 | pgbench_accounts |      13682466816
 2017-02-04 16:12:34.809451+01 | 1486221154.80945 | pgbench_tellers  |         15523840
 2017-02-04 16:12:34.809451+01 | 1486221154.80945 | pgbench_history  |        459620352
 2017-02-04 16:12:34.809451+01 | 1486221154.80945 | pgbench_branches |         12599296

 2017-02-04 16:12:35.891462+01 | 1486221155.89146 | pgbench_accounts |      13682466816
 2017-02-04 16:12:35.891462+01 | 1486221155.89146 | pgbench_tellers  |         15523840
 2017-02-04 16:12:35.891462+01 | 1486221155.89146 | pgbench_history  |        462454784
 2017-02-04 16:12:35.891462+01 | 1486221155.89146 | pgbench_branches |         12599296

 2017-02-04 16:12:36.974678+01 | 1486221156.97468 | pgbench_accounts |      13682466816
 2017-02-04 16:12:36.974678+01 | 1486221156.97468 | pgbench_tellers  |         15523840
 2017-02-04 16:12:36.974678+01 | 1486221156.97468 | pgbench_history  |        464633856
 2017-02-04 16:12:36.974678+01 | 1486221156.97468 | pgbench_branches |         12599296

 2017-02-04 16:12:38.056057+01 | 1486221158.05606 | pgbench_accounts |      13682466816
 2017-02-04 16:12:38.056057+01 | 1486221158.05606 | pgbench_tellers  |         15523840
 2017-02-04 16:12:38.056057+01 | 1486221158.05606 | pgbench_history  |        467542016
 2017-02-04 16:12:38.056057+01 | 1486221158.05606 | pgbench_branches |         12599296

 2017-02-04 16:12:39.142986+01 | 1486221159.14299 | pgbench_accounts |      13682466816
 2017-02-04 16:12:39.142986+01 | 1486221159.14299 | pgbench_tellers  |         15523840
 2017-02-04 16:12:39.142986+01 | 1486221159.14299 | pgbench_history  |        469606400
 2017-02-04 16:12:39.142986+01 | 1486221159.14299 | pgbench_branches |         12599296

 2017-02-04 16:12:40.235484+01 | 1486221160.23548 | pgbench_accounts |      13682466816
 2017-02-04 16:12:40.235484+01 | 1486221160.23548 | pgbench_tellers  |         15523840
 2017-02-04 16:12:40.235484+01 | 1486221160.23548 | pgbench_history  |        471777280
 2017-02-04 16:12:40.235484+01 | 1486221160.23548 | pgbench_branches |         12599296

 2017-02-04 16:12:41.32346+01 | 1486221161.32346 | pgbench_accounts |      13682466816
 2017-02-04 16:12:41.32346+01 | 1486221161.32346 | pgbench_tellers  |         15523840
 2017-02-04 16:12:41.32346+01 | 1486221161.32346 | pgbench_history  |        473849856
 2017-02-04 16:12:41.32346+01 | 1486221161.32346 | pgbench_branches |         12599296

 2017-02-04 16:12:42.408904+01 | 1486221162.4089 | pgbench_accounts |      13682466816
 2017-02-04 16:12:42.408904+01 | 1486221162.4089 | pgbench_tellers  |         15523840
 2017-02-04 16:12:42.408904+01 | 1486221162.4089 | pgbench_history  |        478724096
 2017-02-04 16:12:42.408904+01 | 1486221162.4089 | pgbench_branches |         12599296

 2017-02-04 16:12:43.492746+01 | 1486221163.49275 | pgbench_accounts |      13682466816
 2017-02-04 16:12:43.492746+01 | 1486221163.49275 | pgbench_tellers  |         15523840
 2017-02-04 16:12:43.492746+01 | 1486221163.49275 | pgbench_history  |        478724096
 2017-02-04 16:12:43.492746+01 | 1486221163.49275 | pgbench_branches |         12599296

 2017-02-04 16:12:44.588172+01 | 1486221164.58817 | pgbench_accounts |      13682466816
 2017-02-04 16:12:44.588172+01 | 1486221164.58817 | pgbench_tellers  |         15523840
 2017-02-04 16:12:44.588172+01 | 1486221164.58817 | pgbench_history  |        479928320
 2017-02-04 16:12:44.588172+01 | 1486221164.58817 | pgbench_branches |         12599296

 2017-02-04 16:12:45.66427+01 | 1486221165.66427 | pgbench_accounts |      13682466816
 2017-02-04 16:12:45.66427+01 | 1486221165.66427 | pgbench_tellers  |         15523840
 2017-02-04 16:12:45.66427+01 | 1486221165.66427 | pgbench_history  |        481779712
 2017-02-04 16:12:45.66427+01 | 1486221165.66427 | pgbench_branches |         12599296

 2017-02-04 16:12:46.741665+01 | 1486221166.74166 | pgbench_accounts |      13682466816
 2017-02-04 16:12:46.741665+01 | 1486221166.74166 | pgbench_tellers  |         15523840
 2017-02-04 16:12:46.741665+01 | 1486221166.74166 | pgbench_history  |        485294080
 2017-02-04 16:12:46.741665+01 | 1486221166.74166 | pgbench_branches |         12599296

 2017-02-04 16:12:47.819057+01 | 1486221167.81906 | pgbench_accounts |      13682466816
 2017-02-04 16:12:47.819057+01 | 1486221167.81906 | pgbench_tellers  |         15523840
 2017-02-04 16:12:47.819057+01 | 1486221167.81906 | pgbench_history  |        486137856
 2017-02-04 16:12:47.819057+01 | 1486221167.81906 | pgbench_branches |         12599296

 2017-02-04 16:12:48.899297+01 | 1486221168.8993 | pgbench_accounts |      13682466816
 2017-02-04 16:12:48.899297+01 | 1486221168.8993 | pgbench_tellers  |         15523840
 2017-02-04 16:12:48.899297+01 | 1486221168.8993 | pgbench_history  |        487514112
 2017-02-04 16:12:48.899297+01 | 1486221168.8993 | pgbench_branches |         12599296

 2017-02-04 16:12:49.96976+01 | 1486221169.96976 | pgbench_accounts |      13682466816
 2017-02-04 16:12:49.96976+01 | 1486221169.96976 | pgbench_tellers  |         15523840
 2017-02-04 16:12:49.96976+01 | 1486221169.96976 | pgbench_history  |        489996288
 2017-02-04 16:12:49.96976+01 | 1486221169.96976 | pgbench_branches |         12599296

 2017-02-04 16:12:51.052878+01 | 1486221171.05288 | pgbench_accounts |      13682466816
 2017-02-04 16:12:51.052878+01 | 1486221171.05288 | pgbench_tellers  |         15523840
 2017-02-04 16:12:51.052878+01 | 1486221171.05288 | pgbench_history  |        492060672
 2017-02-04 16:12:51.052878+01 | 1486221171.05288 | pgbench_branches |         12599296

 2017-02-04 16:12:52.141281+01 | 1486221172.14128 | pgbench_accounts |      13682466816
 2017-02-04 16:12:52.141281+01 | 1486221172.14128 | pgbench_tellers  |         15523840
 2017-02-04 16:12:52.141281+01 | 1486221172.14128 | pgbench_history  |        494624768
 2017-02-04 16:12:52.141281+01 | 1486221172.14128 | pgbench_branches |         12599296

 2017-02-04 16:12:53.222477+01 | 1486221173.22248 | pgbench_accounts |      13682466816
 2017-02-04 16:12:53.222477+01 | 1486221173.22248 | pgbench_tellers  |         15523840
 2017-02-04 16:12:53.222477+01 | 1486221173.22248 | pgbench_history  |        496664576
 2017-02-04 16:12:53.222477+01 | 1486221173.22248 | pgbench_branches |         12599296

 2017-02-04 16:12:54.307546+01 | 1486221174.30755 | pgbench_accounts |      13682466816
 2017-02-04 16:12:54.307546+01 | 1486221174.30755 | pgbench_tellers  |         15523840
 2017-02-04 16:12:54.307546+01 | 1486221174.30755 | pgbench_history  |        499736576
 2017-02-04 16:12:54.307546+01 | 1486221174.30755 | pgbench_branches |         12599296

 2017-02-04 16:12:55.395964+01 | 1486221175.39596 | pgbench_accounts |      13682466816
 2017-02-04 16:12:55.395964+01 | 1486221175.39596 | pgbench_tellers  |         15523840
 2017-02-04 16:12:55.395964+01 | 1486221175.39596 | pgbench_history  |        502767616
 2017-02-04 16:12:55.395964+01 | 1486221175.39596 | pgbench_branches |         12599296

 2017-02-04 16:12:56.47975+01 | 1486221176.47975 | pgbench_accounts |      13682466816
 2017-02-04 16:12:56.47975+01 | 1486221176.47975 | pgbench_tellers  |         15523840
 2017-02-04 16:12:56.47975+01 | 1486221176.47975 | pgbench_history  |        504520704
 2017-02-04 16:12:56.47975+01 | 1486221176.47975 | pgbench_branches |         12599296

 2017-02-04 16:12:57.572167+01 | 1486221177.57217 | pgbench_accounts |      13682466816
 2017-02-04 16:12:57.572167+01 | 1486221177.57217 | pgbench_tellers  |         15523840
 2017-02-04 16:12:57.572167+01 | 1486221177.57217 | pgbench_history  |        507215872
 2017-02-04 16:12:57.572167+01 | 1486221177.57217 | pgbench_branches |         12599296

 2017-02-04 16:12:58.645921+01 | 1486221178.64592 | pgbench_accounts |      13682466816
 2017-02-04 16:12:58.645921+01 | 1486221178.64592 | pgbench_tellers  |         15523840
 2017-02-04 16:12:58.645921+01 | 1486221178.64592 | pgbench_history  |        510402560
 2017-02-04 16:12:58.645921+01 | 1486221178.64592 | pgbench_branches |         12599296

 2017-02-04 16:12:59.715049+01 | 1486221179.71505 | pgbench_accounts |      13682466816
 2017-02-04 16:12:59.715049+01 | 1486221179.71505 | pgbench_tellers  |         15523840
 2017-02-04 16:12:59.715049+01 | 1486221179.71505 | pgbench_history  |        512942080
 2017-02-04 16:12:59.715049+01 | 1486221179.71505 | pgbench_branches |         12599296

 2017-02-04 16:13:00.794748+01 | 1486221180.79475 | pgbench_accounts |      13682466816
 2017-02-04 16:13:00.794748+01 | 1486221180.79475 | pgbench_tellers  |         15523840
 2017-02-04 16:13:00.794748+01 | 1486221180.79475 | pgbench_history  |        515145728
 2017-02-04 16:13:00.794748+01 | 1486221180.79475 | pgbench_branches |         12599296

 2017-02-04 16:13:01.867462+01 | 1486221181.86746 | pgbench_accounts |      13682466816
 2017-02-04 16:13:01.867462+01 | 1486221181.86746 | pgbench_tellers  |         15523840
 2017-02-04 16:13:01.867462+01 | 1486221181.86746 | pgbench_history  |        517529600
 2017-02-04 16:13:01.867462+01 | 1486221181.86746 | pgbench_branches |         12599296

 2017-02-04 16:13:02.94473+01 | 1486221182.94473 | pgbench_accounts |      13682466816
 2017-02-04 16:13:02.94473+01 | 1486221182.94473 | pgbench_tellers  |         15523840
 2017-02-04 16:13:02.94473+01 | 1486221182.94473 | pgbench_history  |        520667136
 2017-02-04 16:13:02.94473+01 | 1486221182.94473 | pgbench_branches |         12599296

 2017-02-04 16:13:04.028101+01 | 1486221184.0281 | pgbench_accounts |      13682466816
 2017-02-04 16:13:04.028101+01 | 1486221184.0281 | pgbench_tellers  |         15523840
 2017-02-04 16:13:04.028101+01 | 1486221184.0281 | pgbench_history  |        523198464
 2017-02-04 16:13:04.028101+01 | 1486221184.0281 | pgbench_branches |         12599296

 2017-02-04 16:13:05.117396+01 | 1486221185.1174 | pgbench_accounts |      13682466816
 2017-02-04 16:13:05.117396+01 | 1486221185.1174 | pgbench_tellers  |         15523840
 2017-02-04 16:13:05.117396+01 | 1486221185.1174 | pgbench_history  |        525213696
 2017-02-04 16:13:05.117396+01 | 1486221185.1174 | pgbench_branches |         12599296

 2017-02-04 16:13:06.204643+01 | 1486221186.20464 | pgbench_accounts |      13682466816
 2017-02-04 16:13:06.204643+01 | 1486221186.20464 | pgbench_tellers  |         15523840
 2017-02-04 16:13:06.204643+01 | 1486221186.20464 | pgbench_history  |        527638528
 2017-02-04 16:13:06.204643+01 | 1486221186.20464 | pgbench_branches |         12599296

 2017-02-04 16:13:07.290419+01 | 1486221187.29042 | pgbench_accounts |      13682466816
 2017-02-04 16:13:07.290419+01 | 1486221187.29042 | pgbench_tellers  |         15523840
 2017-02-04 16:13:07.290419+01 | 1486221187.29042 | pgbench_history  |        531349504
 2017-02-04 16:13:07.290419+01 | 1486221187.29042 | pgbench_branches |         12599296

 2017-02-04 16:13:08.37275+01 | 1486221188.37275 | pgbench_accounts |      13682466816
 2017-02-04 16:13:08.37275+01 | 1486221188.37275 | pgbench_tellers  |         15523840
 2017-02-04 16:13:08.37275+01 | 1486221188.37275 | pgbench_history  |        532873216
 2017-02-04 16:13:08.37275+01 | 1486221188.37275 | pgbench_branches |         12599296

 2017-02-04 16:13:09.45651+01 | 1486221189.45651 | pgbench_accounts |      13682466816
 2017-02-04 16:13:09.45651+01 | 1486221189.45651 | pgbench_tellers  |         15523840
 2017-02-04 16:13:09.45651+01 | 1486221189.45651 | pgbench_history  |        536862720
 2017-02-04 16:13:09.45651+01 | 1486221189.45651 | pgbench_branches |         12599296

 2017-02-04 16:13:10.546865+01 | 1486221190.54686 | pgbench_accounts |      13682466816
 2017-02-04 16:13:10.546865+01 | 1486221190.54686 | pgbench_tellers  |         15523840
 2017-02-04 16:13:10.546865+01 | 1486221190.54686 | pgbench_history  |        538550272
 2017-02-04 16:13:10.546865+01 | 1486221190.54686 | pgbench_branches |         12599296

 2017-02-04 16:13:11.634951+01 | 1486221191.63495 | pgbench_accounts |      13682466816
 2017-02-04 16:13:11.634951+01 | 1486221191.63495 | pgbench_tellers  |         15523840
 2017-02-04 16:13:11.634951+01 | 1486221191.63495 | pgbench_history  |        541253632
 2017-02-04 16:13:11.634951+01 | 1486221191.63495 | pgbench_branches |         12599296

 2017-02-04 16:13:12.711662+01 | 1486221192.71166 | pgbench_accounts |      13682466816
 2017-02-04 16:13:12.711662+01 | 1486221192.71166 | pgbench_tellers  |         15523840
 2017-02-04 16:13:12.711662+01 | 1486221192.71166 | pgbench_history  |        543621120
 2017-02-04 16:13:12.711662+01 | 1486221192.71166 | pgbench_branches |         12599296

 2017-02-04 16:13:13.785827+01 | 1486221193.78583 | pgbench_accounts |      13682466816
 2017-02-04 16:13:13.785827+01 | 1486221193.78583 | pgbench_tellers  |         15523840
 2017-02-04 16:13:13.785827+01 | 1486221193.78583 | pgbench_history  |        546177024
 2017-02-04 16:13:13.785827+01 | 1486221193.78583 | pgbench_branches |         12599296

 2017-02-04 16:13:14.863484+01 | 1486221194.86348 | pgbench_accounts |      13682466816
 2017-02-04 16:13:14.863484+01 | 1486221194.86348 | pgbench_tellers  |         15523840
 2017-02-04 16:13:14.863484+01 | 1486221194.86348 | pgbench_history  |        548593664
 2017-02-04 16:13:14.863484+01 | 1486221194.86348 | pgbench_branches |         12599296

 2017-02-04 16:13:15.943026+01 | 1486221195.94303 | pgbench_accounts |      13682466816
 2017-02-04 16:13:15.943026+01 | 1486221195.94303 | pgbench_tellers  |         15523840
 2017-02-04 16:13:15.943026+01 | 1486221195.94303 | pgbench_history  |        552787968
 2017-02-04 16:13:15.943026+01 | 1486221195.94303 | pgbench_branches |         12599296

 2017-02-04 16:13:17.02112+01 | 1486221197.02112 | pgbench_accounts |      13682466816
 2017-02-04 16:13:17.02112+01 | 1486221197.02112 | pgbench_tellers  |         15523840
 2017-02-04 16:13:17.02112+01 | 1486221197.02112 | pgbench_history  |        554967040
 2017-02-04 16:13:17.02112+01 | 1486221197.02112 | pgbench_branches |         12599296

 2017-02-04 16:13:18.109295+01 | 1486221198.10929 | pgbench_accounts |      13682466816
 2017-02-04 16:13:18.109295+01 | 1486221198.10929 | pgbench_tellers  |         15523840
 2017-02-04 16:13:18.109295+01 | 1486221198.10929 | pgbench_history  |        556687360
 2017-02-04 16:13:18.109295+01 | 1486221198.10929 | pgbench_branches |         12599296

 2017-02-04 16:13:19.194311+01 | 1486221199.19431 | pgbench_accounts |      13682466816
 2017-02-04 16:13:19.194311+01 | 1486221199.19431 | pgbench_tellers  |         15523840
 2017-02-04 16:13:19.194311+01 | 1486221199.19431 | pgbench_history  |        560119808
 2017-02-04 16:13:19.194311+01 | 1486221199.19431 | pgbench_branches |         12599296

 2017-02-04 16:13:20.281219+01 | 1486221200.28122 | pgbench_accounts |      13682466816
 2017-02-04 16:13:20.281219+01 | 1486221200.28122 | pgbench_tellers  |         15523840
 2017-02-04 16:13:20.281219+01 | 1486221200.28122 | pgbench_history  |        562200576
 2017-02-04 16:13:20.281219+01 | 1486221200.28122 | pgbench_branches |         12599296

 2017-02-04 16:13:21.366322+01 | 1486221201.36632 | pgbench_accounts |      13682466816
 2017-02-04 16:13:21.366322+01 | 1486221201.36632 | pgbench_tellers  |         15523840
 2017-02-04 16:13:21.366322+01 | 1486221201.36632 | pgbench_history  |        564387840
 2017-02-04 16:13:21.366322+01 | 1486221201.36632 | pgbench_branches |         12599296

 2017-02-04 16:13:22.45708+01 | 1486221202.45708 | pgbench_accounts |      13682466816
 2017-02-04 16:13:22.45708+01 | 1486221202.45708 | pgbench_tellers  |         15523840
 2017-02-04 16:13:22.45708+01 | 1486221202.45708 | pgbench_history  |        567410688
 2017-02-04 16:13:22.45708+01 | 1486221202.45708 | pgbench_branches |         12599296

 2017-02-04 16:13:23.538808+01 | 1486221203.53881 | pgbench_accounts |      13682466816
 2017-02-04 16:13:23.538808+01 | 1486221203.53881 | pgbench_tellers  |         15523840
 2017-02-04 16:13:23.538808+01 | 1486221203.53881 | pgbench_history  |        569622528
 2017-02-04 16:13:23.538808+01 | 1486221203.53881 | pgbench_branches |         12599296

 2017-02-04 16:13:24.622277+01 | 1486221204.62228 | pgbench_accounts |      13682466816
 2017-02-04 16:13:24.622277+01 | 1486221204.62228 | pgbench_tellers  |         15523840
 2017-02-04 16:13:24.622277+01 | 1486221204.62228 | pgbench_history  |        572317696
 2017-02-04 16:13:24.622277+01 | 1486221204.62228 | pgbench_branches |         12599296

 2017-02-04 16:13:25.698533+01 | 1486221205.69853 | pgbench_accounts |      13682466816
 2017-02-04 16:13:25.698533+01 | 1486221205.69853 | pgbench_tellers  |         15523840
 2017-02-04 16:13:25.698533+01 | 1486221205.69853 | pgbench_history  |        575397888
 2017-02-04 16:13:25.698533+01 | 1486221205.69853 | pgbench_branches |         12599296

 2017-02-04 16:13:26.774596+01 | 1486221206.7746 | pgbench_accounts |      13682466816
 2017-02-04 16:13:26.774596+01 | 1486221206.7746 | pgbench_tellers  |         15523840
 2017-02-04 16:13:26.774596+01 | 1486221206.7746 | pgbench_history  |        576946176
 2017-02-04 16:13:26.774596+01 | 1486221206.7746 | pgbench_branches |         12599296

 2017-02-04 16:13:27.847903+01 | 1486221207.8479 | pgbench_accounts |      13682466816
 2017-02-04 16:13:27.847903+01 | 1486221207.8479 | pgbench_tellers  |         15523840
 2017-02-04 16:13:27.847903+01 | 1486221207.8479 | pgbench_history  |        580132864
 2017-02-04 16:13:27.847903+01 | 1486221207.8479 | pgbench_branches |         12599296

 2017-02-04 16:13:28.927226+01 | 1486221208.92723 | pgbench_accounts |      13682466816
 2017-02-04 16:13:28.927226+01 | 1486221208.92723 | pgbench_tellers  |         15523840
 2017-02-04 16:13:28.927226+01 | 1486221208.92723 | pgbench_history  |        582361088
 2017-02-04 16:13:28.927226+01 | 1486221208.92723 | pgbench_branches |         12599296

 2017-02-04 16:13:30.00525+01 | 1486221210.00525 | pgbench_accounts |      13682466816
 2017-02-04 16:13:30.00525+01 | 1486221210.00525 | pgbench_tellers  |         15523840
 2017-02-04 16:13:30.00525+01 | 1486221210.00525 | pgbench_history  |        585269248
 2017-02-04 16:13:30.00525+01 | 1486221210.00525 | pgbench_branches |         12599296

 2017-02-04 16:13:31.088491+01 | 1486221211.08849 | pgbench_accounts |      13682466816
 2017-02-04 16:13:31.088491+01 | 1486221211.08849 | pgbench_tellers  |         15523840
 2017-02-04 16:13:31.088491+01 | 1486221211.08849 | pgbench_history  |        586629120
 2017-02-04 16:13:31.088491+01 | 1486221211.08849 | pgbench_branches |         12599296

 2017-02-04 16:13:32.173128+01 | 1486221212.17313 | pgbench_accounts |      13682466816
 2017-02-04 16:13:32.173128+01 | 1486221212.17313 | pgbench_tellers  |         15523840
 2017-02-04 16:13:32.173128+01 | 1486221212.17313 | pgbench_history  |        588996608
 2017-02-04 16:13:32.173128+01 | 1486221212.17313 | pgbench_branches |         12599296

 2017-02-04 16:13:33.253312+01 | 1486221213.25331 | pgbench_accounts |      13682466816
 2017-02-04 16:13:33.253312+01 | 1486221213.25331 | pgbench_tellers  |         15523840
 2017-02-04 16:13:33.253312+01 | 1486221213.25331 | pgbench_history  |        591216640
 2017-02-04 16:13:33.253312+01 | 1486221213.25331 | pgbench_branches |         12599296

 2017-02-04 16:13:34.340555+01 | 1486221214.34055 | pgbench_accounts |      13682466816
 2017-02-04 16:13:34.340555+01 | 1486221214.34055 | pgbench_tellers  |         15523840
 2017-02-04 16:13:34.340555+01 | 1486221214.34055 | pgbench_history  |        594296832
 2017-02-04 16:13:34.340555+01 | 1486221214.34055 | pgbench_branches |         12599296

 2017-02-04 16:13:35.434587+01 | 1486221215.43459 | pgbench_accounts |      13682466816
 2017-02-04 16:13:35.434587+01 | 1486221215.43459 | pgbench_tellers  |         15523840
 2017-02-04 16:13:35.434587+01 | 1486221215.43459 | pgbench_history  |        597671936
 2017-02-04 16:13:35.434587+01 | 1486221215.43459 | pgbench_branches |         12599296

 2017-02-04 16:13:36.517875+01 | 1486221216.51787 | pgbench_accounts |      13682466816
 2017-02-04 16:13:36.517875+01 | 1486221216.51787 | pgbench_tellers  |         15523840
 2017-02-04 16:13:36.517875+01 | 1486221216.51787 | pgbench_history  |        599072768
 2017-02-04 16:13:36.517875+01 | 1486221216.51787 | pgbench_branches |         12599296

 2017-02-04 16:13:37.603708+01 | 1486221217.60371 | pgbench_accounts |      13682466816
 2017-02-04 16:13:37.603708+01 | 1486221217.60371 | pgbench_tellers  |         15523840
 2017-02-04 16:13:37.603708+01 | 1486221217.60371 | pgbench_history  |        601817088
 2017-02-04 16:13:37.603708+01 | 1486221217.60371 | pgbench_branches |         12599296

 2017-02-04 16:13:38.683748+01 | 1486221218.68375 | pgbench_accounts |      13682466816
 2017-02-04 16:13:38.683748+01 | 1486221218.68375 | pgbench_tellers  |         15523840
 2017-02-04 16:13:38.683748+01 | 1486221218.68375 | pgbench_history  |        604536832
 2017-02-04 16:13:38.683748+01 | 1486221218.68375 | pgbench_branches |         12599296

 2017-02-04 16:13:39.747724+01 | 1486221219.74772 | pgbench_accounts |      13682466816
 2017-02-04 16:13:39.747724+01 | 1486221219.74772 | pgbench_tellers  |         15523840
 2017-02-04 16:13:39.747724+01 | 1486221219.74772 | pgbench_history  |        607264768
 2017-02-04 16:13:39.747724+01 | 1486221219.74772 | pgbench_branches |         12599296

 2017-02-04 16:13:40.824245+01 | 1486221220.82424 | pgbench_accounts |      13682466816
 2017-02-04 16:13:40.824245+01 | 1486221220.82424 | pgbench_tellers  |         15523840
 2017-02-04 16:13:40.824245+01 | 1486221220.82424 | pgbench_history  |        610123776
 2017-02-04 16:13:40.824245+01 | 1486221220.82424 | pgbench_branches |         12599296

 2017-02-04 16:13:41.902436+01 | 1486221221.90244 | pgbench_accounts |      13682466816
 2017-02-04 16:13:41.902436+01 | 1486221221.90244 | pgbench_tellers  |         15523840
 2017-02-04 16:13:41.902436+01 | 1486221221.90244 | pgbench_history  |        612540416
 2017-02-04 16:13:41.902436+01 | 1486221221.90244 | pgbench_branches |         12599296

 2017-02-04 16:13:42.982237+01 | 1486221222.98224 | pgbench_accounts |      13682466816
 2017-02-04 16:13:42.982237+01 | 1486221222.98224 | pgbench_tellers  |         15523840
 2017-02-04 16:13:42.982237+01 | 1486221222.98224 | pgbench_history  |        614907904
 2017-02-04 16:13:42.982237+01 | 1486221222.98224 | pgbench_branches |         12599296

 2017-02-04 16:13:44.063391+01 | 1486221224.06339 | pgbench_accounts |      13682466816
 2017-02-04 16:13:44.063391+01 | 1486221224.06339 | pgbench_tellers  |         15523840
 2017-02-04 16:13:44.063391+01 | 1486221224.06339 | pgbench_history  |        619601920
 2017-02-04 16:13:44.063391+01 | 1486221224.06339 | pgbench_branches |         12599296

 2017-02-04 16:13:45.138028+01 | 1486221225.13803 | pgbench_accounts |      13682466816
 2017-02-04 16:13:45.138028+01 | 1486221225.13803 | pgbench_tellers  |         15523840
 2017-02-04 16:13:45.138028+01 | 1486221225.13803 | pgbench_history  |        619601920
 2017-02-04 16:13:45.138028+01 | 1486221225.13803 | pgbench_branches |         12599296

 2017-02-04 16:13:46.215962+01 | 1486221226.21596 | pgbench_accounts |      13682466816
 2017-02-04 16:13:46.215962+01 | 1486221226.21596 | pgbench_tellers  |         15523840
 2017-02-04 16:13:46.215962+01 | 1486221226.21596 | pgbench_history  |        621518848
 2017-02-04 16:13:46.215962+01 | 1486221226.21596 | pgbench_branches |         12599296

 2017-02-04 16:13:47.309307+01 | 1486221227.30931 | pgbench_accounts |      13682466816
 2017-02-04 16:13:47.309307+01 | 1486221227.30931 | pgbench_tellers  |         15523840
 2017-02-04 16:13:47.309307+01 | 1486221227.30931 | pgbench_history  |        624353280
 2017-02-04 16:13:47.309307+01 | 1486221227.30931 | pgbench_branches |         12599296

 2017-02-04 16:13:48.392986+01 | 1486221228.39299 | pgbench_accounts |      13682466816
 2017-02-04 16:13:48.392986+01 | 1486221228.39299 | pgbench_tellers  |         15523840
 2017-02-04 16:13:48.392986+01 | 1486221228.39299 | pgbench_history  |        626581504
 2017-02-04 16:13:48.392986+01 | 1486221228.39299 | pgbench_branches |         12599296

 2017-02-04 16:13:49.480804+01 | 1486221229.4808 | pgbench_accounts |      13682466816
 2017-02-04 16:13:49.480804+01 | 1486221229.4808 | pgbench_tellers  |         15523840
 2017-02-04 16:13:49.480804+01 | 1486221229.4808 | pgbench_history  |        629653504
 2017-02-04 16:13:49.480804+01 | 1486221229.4808 | pgbench_branches |         12599296

 2017-02-04 16:13:50.574864+01 | 1486221230.57486 | pgbench_accounts |      13682466816
 2017-02-04 16:13:50.574864+01 | 1486221230.57486 | pgbench_tellers  |         15523840
 2017-02-04 16:13:50.574864+01 | 1486221230.57486 | pgbench_history  |        632209408
 2017-02-04 16:13:50.574864+01 | 1486221230.57486 | pgbench_branches |         12599296

 2017-02-04 16:13:51.658514+01 | 1486221231.65851 | pgbench_accounts |      13682466816
 2017-02-04 16:13:51.658514+01 | 1486221231.65851 | pgbench_tellers  |         15523840
 2017-02-04 16:13:51.658514+01 | 1486221231.65851 | pgbench_history  |        634585088
 2017-02-04 16:13:51.658514+01 | 1486221231.65851 | pgbench_branches |         12599296

 2017-02-04 16:13:52.734101+01 | 1486221232.7341 | pgbench_accounts |      13682466816
 2017-02-04 16:13:52.734101+01 | 1486221232.7341 | pgbench_tellers  |         15523840
 2017-02-04 16:13:52.734101+01 | 1486221232.7341 | pgbench_history  |        637304832
 2017-02-04 16:13:52.734101+01 | 1486221232.7341 | pgbench_branches |         12599296

 2017-02-04 16:13:53.812137+01 | 1486221233.81214 | pgbench_accounts |      13682466816
 2017-02-04 16:13:53.812137+01 | 1486221233.81214 | pgbench_tellers  |         15523840
 2017-02-04 16:13:53.812137+01 | 1486221233.81214 | pgbench_history  |        639721472
 2017-02-04 16:13:53.812137+01 | 1486221233.81214 | pgbench_branches |         12599296

 2017-02-04 16:13:54.894839+01 | 1486221234.89484 | pgbench_accounts |      13682466816
 2017-02-04 16:13:54.894839+01 | 1486221234.89484 | pgbench_tellers  |         15523840
 2017-02-04 16:13:54.894839+01 | 1486221234.89484 | pgbench_history  |        642981888
 2017-02-04 16:13:54.894839+01 | 1486221234.89484 | pgbench_branches |         12599296

 2017-02-04 16:13:55.973143+01 | 1486221235.97314 | pgbench_accounts |      13682466816
 2017-02-04 16:13:55.973143+01 | 1486221235.97314 | pgbench_tellers  |         15523840
 2017-02-04 16:13:55.973143+01 | 1486221235.97314 | pgbench_history  |        645185536
 2017-02-04 16:13:55.973143+01 | 1486221235.97314 | pgbench_branches |         12599296

 2017-02-04 16:13:57.050739+01 | 1486221237.05074 | pgbench_accounts |      13682466816
 2017-02-04 16:13:57.050739+01 | 1486221237.05074 | pgbench_tellers  |         15523840
 2017-02-04 16:13:57.050739+01 | 1486221237.05074 | pgbench_history  |        647553024
 2017-02-04 16:13:57.050739+01 | 1486221237.05074 | pgbench_branches |         12599296

 2017-02-04 16:13:58.131338+01 | 1486221238.13134 | pgbench_accounts |      13682466816
 2017-02-04 16:13:58.131338+01 | 1486221238.13134 | pgbench_tellers  |         15523840
 2017-02-04 16:13:58.131338+01 | 1486221238.13134 | pgbench_history  |        650059776
 2017-02-04 16:13:58.131338+01 | 1486221238.13134 | pgbench_branches |         12599296

 2017-02-04 16:13:59.221664+01 | 1486221239.22166 | pgbench_accounts |      13682466816
 2017-02-04 16:13:59.221664+01 | 1486221239.22166 | pgbench_tellers  |         15523840
 2017-02-04 16:13:59.221664+01 | 1486221239.22166 | pgbench_history  |        653295616
 2017-02-04 16:13:59.221664+01 | 1486221239.22166 | pgbench_branches |         12599296

 2017-02-04 16:14:00.304396+01 | 1486221240.3044 | pgbench_accounts |      13682466816
 2017-02-04 16:14:00.304396+01 | 1486221240.3044 | pgbench_tellers  |         15523840
 2017-02-04 16:14:00.304396+01 | 1486221240.3044 | pgbench_history  |        655310848
 2017-02-04 16:14:00.304396+01 | 1486221240.3044 | pgbench_branches |         12599296

 2017-02-04 16:14:01.395295+01 | 1486221241.39529 | pgbench_accounts |      13682466816
 2017-02-04 16:14:01.395295+01 | 1486221241.39529 | pgbench_tellers  |         15523840
 2017-02-04 16:14:01.395295+01 | 1486221241.39529 | pgbench_history  |        658333696
 2017-02-04 16:14:01.395295+01 | 1486221241.39529 | pgbench_branches |         12599296

 2017-02-04 16:14:02.485702+01 | 1486221242.4857 | pgbench_accounts |      13682466816
 2017-02-04 16:14:02.485702+01 | 1486221242.4857 | pgbench_tellers  |         15523840
 2017-02-04 16:14:02.485702+01 | 1486221242.4857 | pgbench_history  |        661078016
 2017-02-04 16:14:02.485702+01 | 1486221242.4857 | pgbench_branches |         12599296

 2017-02-04 16:14:03.577335+01 | 1486221243.57733 | pgbench_accounts |      13682466816
 2017-02-04 16:14:03.577335+01 | 1486221243.57733 | pgbench_tellers  |         15523840
 2017-02-04 16:14:03.577335+01 | 1486221243.57733 | pgbench_history  |        664756224
 2017-02-04 16:14:03.577335+01 | 1486221243.57733 | pgbench_branches |         12599296

 2017-02-04 16:14:04.664012+01 | 1486221244.66401 | pgbench_accounts |      13682466816
 2017-02-04 16:14:04.664012+01 | 1486221244.66401 | pgbench_tellers  |         15523840
 2017-02-04 16:14:04.664012+01 | 1486221244.66401 | pgbench_history  |        667303936
 2017-02-04 16:14:04.664012+01 | 1486221244.66401 | pgbench_branches |         12599296

 2017-02-04 16:14:05.741281+01 | 1486221245.74128 | pgbench_accounts |      13682466816
 2017-02-04 16:14:05.741281+01 | 1486221245.74128 | pgbench_tellers  |         15523840
 2017-02-04 16:14:05.741281+01 | 1486221245.74128 | pgbench_history  |        668549120
 2017-02-04 16:14:05.741281+01 | 1486221245.74128 | pgbench_branches |         12599296

 2017-02-04 16:14:06.817155+01 | 1486221246.81715 | pgbench_accounts |      13682466816
 2017-02-04 16:14:06.817155+01 | 1486221246.81715 | pgbench_tellers  |         15523840
 2017-02-04 16:14:06.817155+01 | 1486221246.81715 | pgbench_history  |        670924800
 2017-02-04 16:14:06.817155+01 | 1486221246.81715 | pgbench_branches |         12599296

 2017-02-04 16:14:07.894014+01 | 1486221247.89401 | pgbench_accounts |      13682466816
 2017-02-04 16:14:07.894014+01 | 1486221247.89401 | pgbench_tellers  |         15523840
 2017-02-04 16:14:07.894014+01 | 1486221247.89401 | pgbench_history  |        673669120
 2017-02-04 16:14:07.894014+01 | 1486221247.89401 | pgbench_branches |         12599296

 2017-02-04 16:14:08.974157+01 | 1486221248.97416 | pgbench_accounts |      13682466816
 2017-02-04 16:14:08.974157+01 | 1486221248.97416 | pgbench_tellers  |         15523840
 2017-02-04 16:14:08.974157+01 | 1486221248.97416 | pgbench_history  |        676069376
 2017-02-04 16:14:08.974157+01 | 1486221248.97416 | pgbench_branches |         12599296

 2017-02-04 16:14:10.051411+01 | 1486221250.05141 | pgbench_accounts |      13682466816
 2017-02-04 16:14:10.051411+01 | 1486221250.05141 | pgbench_tellers  |         15523840
 2017-02-04 16:14:10.051411+01 | 1486221250.05141 | pgbench_history  |        679256064
 2017-02-04 16:14:10.051411+01 | 1486221250.05141 | pgbench_branches |         12599296

 2017-02-04 16:14:11.132875+01 | 1486221251.13287 | pgbench_accounts |      13682466816
 2017-02-04 16:14:11.132875+01 | 1486221251.13287 | pgbench_tellers  |         15523840
 2017-02-04 16:14:11.132875+01 | 1486221251.13287 | pgbench_history  |        681320448
 2017-02-04 16:14:11.132875+01 | 1486221251.13287 | pgbench_branches |         12599296

 2017-02-04 16:14:12.213586+01 | 1486221252.21359 | pgbench_accounts |      13682466816
 2017-02-04 16:14:12.213586+01 | 1486221252.21359 | pgbench_tellers  |         15523840
 2017-02-04 16:14:12.213586+01 | 1486221252.21359 | pgbench_history  |        683556864
 2017-02-04 16:14:12.213586+01 | 1486221252.21359 | pgbench_branches |         12599296

 2017-02-04 16:14:13.298623+01 | 1486221253.29862 | pgbench_accounts |      13682466816
 2017-02-04 16:14:13.298623+01 | 1486221253.29862 | pgbench_tellers  |         15523840
 2017-02-04 16:14:13.298623+01 | 1486221253.29862 | pgbench_history  |        686710784
 2017-02-04 16:14:13.298623+01 | 1486221253.29862 | pgbench_branches |         12599296

 2017-02-04 16:14:14.386119+01 | 1486221254.38612 | pgbench_accounts |      13682466816
 2017-02-04 16:14:14.386119+01 | 1486221254.38612 | pgbench_tellers  |         15523840
 2017-02-04 16:14:14.386119+01 | 1486221254.38612 | pgbench_history  |        689102848
 2017-02-04 16:14:14.386119+01 | 1486221254.38612 | pgbench_branches |         12599296

 2017-02-04 16:14:15.471279+01 | 1486221255.47128 | pgbench_accounts |      13682466816
 2017-02-04 16:14:15.471279+01 | 1486221255.47128 | pgbench_tellers  |         15523840
 2017-02-04 16:14:15.471279+01 | 1486221255.47128 | pgbench_history  |        691445760
 2017-02-04 16:14:15.471279+01 | 1486221255.47128 | pgbench_branches |         12599296

 2017-02-04 16:14:16.558818+01 | 1486221256.55882 | pgbench_accounts |      13682466816
 2017-02-04 16:14:16.558818+01 | 1486221256.55882 | pgbench_tellers  |         15523840
 2017-02-04 16:14:16.558818+01 | 1486221256.55882 | pgbench_history  |        696246272
 2017-02-04 16:14:16.558818+01 | 1486221256.55882 | pgbench_branches |         12599296

