 2017-02-05 03:23:14.516881+01 | 1486261394.51688 |                 0 |              21 |                112024 |                 3399 |            6512562 |       2961297 |            29569 |       125227831 |                     0 |     472991849 | 2017-02-05 01:37:12.521687+01

 2017-02-05 03:23:15.601302+01 | 1486261395.6013 |                 0 |              21 |                112024 |                 3399 |            6512562 |       2961297 |            29569 |       125227831 |                     0 |     473041577 | 2017-02-05 01:37:12.521687+01

 2017-02-05 03:23:16.682538+01 | 1486261396.68254 |                 0 |              21 |                112024 |                 3399 |            6512562 |       2961297 |            29569 |       125227831 |                     0 |     473091914 | 2017-02-05 01:37:12.521687+01

 2017-02-05 03:23:17.769335+01 | 1486261397.76934 |                 0 |              21 |                112024 |                 3399 |            6512562 |       2961297 |            29569 |       125227831 |                     0 |     473152168 | 2017-02-05 01:37:12.521687+01

 2017-02-05 03:23:18.843943+01 | 1486261398.84394 |                 0 |              21 |                112024 |                 3399 |            6512562 |       2961297 |            29569 |       125227831 |                     0 |     473203287 | 2017-02-05 01:37:12.521687+01

 2017-02-05 03:23:19.912778+01 | 1486261399.91278 |                 0 |              21 |                112024 |                 3399 |            6512562 |       2961406 |            29569 |       125227831 |                     0 |     473254946 | 2017-02-05 01:37:12.521687+01

 2017-02-05 03:23:20.990316+01 | 1486261400.99032 |                 0 |              21 |                112024 |                 3399 |            6512562 |       2961999 |            29574 |       125227831 |                     0 |     473320148 | 2017-02-05 01:37:12.521687+01

 2017-02-05 03:23:22.066345+01 | 1486261402.06634 |                 0 |              21 |                112024 |                 3399 |            6512562 |       2962499 |            29579 |       125227831 |                     0 |     473372483 | 2017-02-05 01:37:12.521687+01

 2017-02-05 03:23:23.150346+01 | 1486261403.15035 |                 0 |              21 |                112024 |                 3399 |            6512562 |       2962999 |            29584 |       125227831 |                     0 |     473425736 | 2017-02-05 01:37:12.521687+01

 2017-02-05 03:23:24.227865+01 | 1486261404.22786 |                 0 |              21 |                112024 |                 3399 |            6512562 |       2963599 |            29590 |       125227831 |                     0 |     473488135 | 2017-02-05 01:37:12.521687+01

 2017-02-05 03:23:25.300088+01 | 1486261405.30009 |                 0 |              21 |                112024 |                 3399 |            6512562 |       2964099 |            29595 |       125227831 |                     0 |     473533907 | 2017-02-05 01:37:12.521687+01

 2017-02-05 03:23:26.380646+01 | 1486261406.38065 |                 0 |              21 |                112024 |                 3399 |            6512562 |       2964599 |            29600 |       125227831 |                     0 |     473579287 | 2017-02-05 01:37:12.521687+01

 2017-02-05 03:23:27.455109+01 | 1486261407.45511 |                 0 |              21 |                112024 |                 3399 |            6512562 |       2965199 |            29606 |       125227831 |                     0 |     473631791 | 2017-02-05 01:37:12.521687+01

 2017-02-05 03:23:28.539031+01 | 1486261408.53903 |                 0 |              21 |                112024 |                 3399 |            6512562 |       2965699 |            29611 |       125227831 |                     0 |     473678185 | 2017-02-05 01:37:12.521687+01

 2017-02-05 03:23:29.615478+01 | 1486261409.61548 |                 0 |              21 |                112024 |                 3399 |            6512562 |       2966199 |            29616 |       125227831 |                     0 |     473729273 | 2017-02-05 01:37:12.521687+01

 2017-02-05 03:23:30.697466+01 | 1486261410.69747 |                 0 |              21 |                112024 |                 3399 |            6512562 |       2966799 |            29622 |       125227831 |                     0 |     473782494 | 2017-02-05 01:37:12.521687+01

 2017-02-05 03:23:31.77622+01 | 1486261411.77622 |                 0 |              21 |                112024 |                 3399 |            6512562 |       2967299 |            29627 |       125227831 |                     0 |     473831287 | 2017-02-05 01:37:12.521687+01

 2017-02-05 03:23:32.857443+01 | 1486261412.85744 |                 0 |              21 |                112024 |                 3399 |            6512562 |       2967799 |            29632 |       125227831 |                     0 |     473878232 | 2017-02-05 01:37:12.521687+01

 2017-02-05 03:23:33.94143+01 | 1486261413.94143 |                 0 |              21 |                112024 |                 3399 |            6512562 |       2968399 |            29638 |       125227831 |                     0 |     473935610 | 2017-02-05 01:37:12.521687+01

 2017-02-05 03:23:35.022119+01 | 1486261415.02212 |                 0 |              21 |                112024 |                 3399 |            6512562 |       2968899 |            29643 |       125227831 |                     0 |     473982091 | 2017-02-05 01:37:12.521687+01

 2017-02-05 03:23:36.098283+01 | 1486261416.09828 |                 0 |              21 |                112024 |                 3399 |            6512562 |       2969399 |            29648 |       125227831 |                     0 |     474024238 | 2017-02-05 01:37:12.521687+01

 2017-02-05 03:23:37.167811+01 | 1486261417.16781 |                 0 |              21 |                112024 |                 3399 |            6512562 |       2969999 |            29654 |       125227831 |                     0 |     474071655 | 2017-02-05 01:37:12.521687+01

 2017-02-05 03:23:38.256561+01 | 1486261418.25656 |                 0 |              21 |                112024 |                 3399 |            6512562 |       2970499 |            29659 |       125227831 |                     0 |     474110322 | 2017-02-05 01:37:12.521687+01

 2017-02-05 03:23:39.350058+01 | 1486261419.35006 |                 0 |              21 |                112024 |                 3399 |            6512562 |       2971099 |            29665 |       125227831 |                     0 |     474149470 | 2017-02-05 01:37:12.521687+01

 2017-02-05 03:23:40.424042+01 | 1486261420.42404 |                 0 |              21 |                112024 |                 3399 |            6512562 |       2971599 |            29670 |       125227831 |                     0 |     474190905 | 2017-02-05 01:37:12.521687+01

 2017-02-05 03:23:41.510936+01 | 1486261421.51094 |                 0 |              21 |                112024 |                 3399 |            6512562 |       2972099 |            29675 |       125227831 |                     0 |     474237225 | 2017-02-05 01:37:12.521687+01

 2017-02-05 03:23:42.598695+01 | 1486261422.5987 |                 0 |              21 |                112024 |                 3399 |            6512562 |       2972699 |            29681 |       125227831 |                     0 |     474286071 | 2017-02-05 01:37:12.521687+01

 2017-02-05 03:23:43.685234+01 | 1486261423.68523 |                 0 |              21 |                112024 |                 3399 |            6512562 |       2973199 |            29686 |       125227831 |                     0 |     474329502 | 2017-02-05 01:37:12.521687+01

 2017-02-05 03:23:44.765801+01 | 1486261424.7658 |                 0 |              21 |                112024 |                 3399 |            6512562 |       2973699 |            29691 |       125227831 |                     0 |     474375464 | 2017-02-05 01:37:12.521687+01

 2017-02-05 03:23:45.84966+01 | 1486261425.84966 |                 0 |              21 |                112024 |                 3399 |            6512562 |       2974299 |            29697 |       125227831 |                     0 |     474426812 | 2017-02-05 01:37:12.521687+01

 2017-02-05 03:23:46.947925+01 | 1486261426.94793 |                 0 |              21 |                112024 |                 3399 |            6512562 |       2974799 |            29702 |       125227831 |                     0 |     474470470 | 2017-02-05 01:37:12.521687+01

 2017-02-05 03:23:48.023588+01 | 1486261428.02359 |                 0 |              21 |                112024 |                 3399 |            6512562 |       2975399 |            29708 |       125227831 |                     0 |     474521711 | 2017-02-05 01:37:12.521687+01

 2017-02-05 03:23:49.109755+01 | 1486261429.10976 |                 0 |              21 |                112024 |                 3399 |            6512562 |       2975899 |            29713 |       125227831 |                     0 |     474566120 | 2017-02-05 01:37:12.521687+01

 2017-02-05 03:23:50.198457+01 | 1486261430.19846 |                 0 |              21 |                112024 |                 3399 |            6512562 |       2976399 |            29718 |       125227831 |                     0 |     474610702 | 2017-02-05 01:37:12.521687+01

 2017-02-05 03:23:51.27708+01 | 1486261431.27708 |                 0 |              21 |                112024 |                 3399 |            6512562 |       2976999 |            29724 |       125227831 |                     0 |     474661118 | 2017-02-05 01:37:12.521687+01

 2017-02-05 03:23:52.36637+01 | 1486261432.36637 |                 0 |              21 |                112024 |                 3399 |            6512562 |       2977499 |            29729 |       125227831 |                     0 |     474707331 | 2017-02-05 01:37:12.521687+01

 2017-02-05 03:23:53.45242+01 | 1486261433.45242 |                 0 |              21 |                112024 |                 3399 |            6512562 |       2977999 |            29734 |       125227831 |                     0 |     474752122 | 2017-02-05 01:37:12.521687+01

 2017-02-05 03:23:54.531443+01 | 1486261434.53144 |                 0 |              21 |                112024 |                 3399 |            6512562 |       2978599 |            29740 |       125227831 |                     0 |     474805705 | 2017-02-05 01:37:12.521687+01

 2017-02-05 03:23:55.613599+01 | 1486261435.6136 |                 0 |              21 |                112024 |                 3399 |            6512562 |       2979099 |            29745 |       125227831 |                     0 |     474848804 | 2017-02-05 01:37:12.521687+01

 2017-02-05 03:23:56.696989+01 | 1486261436.69699 |                 0 |              21 |                112024 |                 3399 |            6512562 |       2979599 |            29750 |       125227831 |                     0 |     474893725 | 2017-02-05 01:37:12.521687+01

 2017-02-05 03:23:57.771465+01 | 1486261437.77147 |                 0 |              21 |                112024 |                 3399 |            6512562 |       2980199 |            29756 |       125227831 |                     0 |     474943365 | 2017-02-05 01:37:12.521687+01

 2017-02-05 03:23:58.849572+01 | 1486261438.84957 |                 0 |              21 |                112024 |                 3399 |            6512562 |       2980699 |            29761 |       125227831 |                     0 |     474988641 | 2017-02-05 01:37:12.521687+01

 2017-02-05 03:23:59.935285+01 | 1486261439.93529 |                 0 |              21 |                112024 |                 3399 |            6512562 |       2981199 |            29766 |       125227831 |                     0 |     475032588 | 2017-02-05 01:37:12.521687+01

 2017-02-05 03:24:01.01292+01 | 1486261441.01292 |                 0 |              21 |                112024 |                 3399 |            6512562 |       2981799 |            29772 |       125227831 |                     0 |     475085556 | 2017-02-05 01:37:12.521687+01

 2017-02-05 03:24:02.087745+01 | 1486261442.08774 |                 0 |              21 |                112024 |                 3399 |            6512562 |       2982299 |            29777 |       125227831 |                     0 |     475129768 | 2017-02-05 01:37:12.521687+01

 2017-02-05 03:24:03.171068+01 | 1486261443.17107 |                 0 |              21 |                112024 |                 3399 |            6512562 |       2982799 |            29782 |       125227831 |                     0 |     475173149 | 2017-02-05 01:37:12.521687+01

 2017-02-05 03:24:04.253477+01 | 1486261444.25348 |                 0 |              21 |                112024 |                 3399 |            6512562 |       2983399 |            29788 |       125227831 |                     0 |     475221140 | 2017-02-05 01:37:12.521687+01

 2017-02-05 03:24:05.34452+01 | 1486261445.34452 |                 0 |              21 |                112024 |                 3399 |            6512562 |       2983899 |            29793 |       125227831 |                     0 |     475266259 | 2017-02-05 01:37:12.521687+01

 2017-02-05 03:24:06.420139+01 | 1486261446.42014 |                 0 |              21 |                112024 |                 3399 |            6512562 |       2984499 |            29799 |       125227831 |                     0 |     475319354 | 2017-02-05 01:37:12.521687+01

 2017-02-05 03:24:07.499265+01 | 1486261447.49926 |                 0 |              21 |                112024 |                 3399 |            6512562 |       2984999 |            29804 |       125227831 |                     0 |     475363460 | 2017-02-05 01:37:12.521687+01

 2017-02-05 03:24:08.578802+01 | 1486261448.5788 |                 0 |              21 |                112024 |                 3399 |            6512562 |       2985499 |            29809 |       125728117 |                     0 |     475408765 | 2017-02-05 01:37:12.521687+01

 2017-02-05 03:24:09.660988+01 | 1486261449.66099 |                 0 |              21 |                112024 |                 3399 |            6512562 |       2986099 |            29815 |       125728117 |                     0 |     475458331 | 2017-02-05 01:37:12.521687+01

 2017-02-05 03:24:10.739559+01 | 1486261450.73956 |                 0 |              21 |                112024 |                 3399 |            6512562 |       2986599 |            29820 |       125728117 |                     0 |     475504464 | 2017-02-05 01:37:12.521687+01

 2017-02-05 03:24:11.830524+01 | 1486261451.83052 |                 0 |              21 |                112024 |                 3399 |            6512562 |       2987099 |            29825 |       125728117 |                     0 |     475548328 | 2017-02-05 01:37:12.521687+01

 2017-02-05 03:24:12.910434+01 | 1486261452.91043 |                 0 |              21 |                112024 |                 3399 |            6512562 |       2987699 |            29831 |       125728117 |                     0 |     475603394 | 2017-02-05 01:37:12.521687+01

 2017-02-05 03:24:13.990525+01 | 1486261453.99053 |                 0 |              21 |                112024 |                 3399 |            6512562 |       2988199 |            29836 |       125728117 |                     0 |     475648757 | 2017-02-05 01:37:12.521687+01

 2017-02-05 03:24:15.071371+01 | 1486261455.07137 |                 0 |              21 |                112024 |                 3399 |            6512562 |       2988699 |            29841 |       125728117 |                     0 |     475691733 | 2017-02-05 01:37:12.521687+01

 2017-02-05 03:24:16.14804+01 | 1486261456.14804 |                 0 |              21 |                112024 |                 3399 |            6512562 |       2989299 |            29847 |       125728117 |                     0 |     475742518 | 2017-02-05 01:37:12.521687+01

 2017-02-05 03:24:17.237097+01 | 1486261457.2371 |                 0 |              21 |                112024 |                 3399 |            6512562 |       2989799 |            29852 |       125728117 |                     0 |     475786298 | 2017-02-05 01:37:12.521687+01

 2017-02-05 03:24:18.324099+01 | 1486261458.3241 |                 0 |              21 |                112024 |                 3399 |            6512562 |       2990399 |            29858 |       125728117 |                     0 |     475843722 | 2017-02-05 01:37:12.521687+01

 2017-02-05 03:24:19.39998+01 | 1486261459.39998 |                 0 |              21 |                112024 |                 3399 |            6512562 |       2990899 |            29863 |       125728117 |                     0 |     475888153 | 2017-02-05 01:37:12.521687+01

 2017-02-05 03:24:20.478284+01 | 1486261460.47828 |                 0 |              21 |                112024 |                 3399 |            6512562 |       2991399 |            29868 |       125728117 |                     0 |     475930125 | 2017-02-05 01:37:12.521687+01

 2017-02-05 03:24:21.557889+01 | 1486261461.55789 |                 0 |              21 |                112024 |                 3399 |            6512562 |       2991999 |            29874 |       125728117 |                     0 |     475984008 | 2017-02-05 01:37:12.521687+01

 2017-02-05 03:24:22.641775+01 | 1486261462.64177 |                 0 |              21 |                112024 |                 3399 |            6512562 |       2992499 |            29879 |       125728117 |                     0 |     476029112 | 2017-02-05 01:37:12.521687+01

 2017-02-05 03:24:23.719194+01 | 1486261463.71919 |                 0 |              21 |                112024 |                 3399 |            6512562 |       2992999 |            29884 |       125728117 |                     0 |     476076806 | 2017-02-05 01:37:12.521687+01

 2017-02-05 03:24:24.80383+01 | 1486261464.80383 |                 0 |              21 |                112024 |                 3399 |            6512562 |       2993599 |            29890 |       125728117 |                     0 |     476131264 | 2017-02-05 01:37:12.521687+01

 2017-02-05 03:24:25.88875+01 | 1486261465.88875 |                 0 |              21 |                112024 |                 3399 |            6512562 |       2994099 |            29895 |       125728117 |                     0 |     476176233 | 2017-02-05 01:37:12.521687+01

 2017-02-05 03:24:26.959243+01 | 1486261466.95924 |                 0 |              21 |                112024 |                 3399 |            6512562 |       2994599 |            29900 |       125728117 |                     0 |     476222300 | 2017-02-05 01:37:12.521687+01

 2017-02-05 03:24:28.036855+01 | 1486261468.03685 |                 0 |              21 |                112024 |                 3399 |            6512562 |       2995199 |            29906 |       125728117 |                     0 |     476278182 | 2017-02-05 01:37:12.521687+01

 2017-02-05 03:24:29.110549+01 | 1486261469.11055 |                 0 |              21 |                112024 |                 3399 |            6512562 |       2995699 |            29911 |       125728117 |                     0 |     476324615 | 2017-02-05 01:37:12.521687+01

 2017-02-05 03:24:30.195295+01 | 1486261470.1953 |                 0 |              21 |                112024 |                 3399 |            6512562 |       2996199 |            29916 |       125728117 |                     0 |     476365134 | 2017-02-05 01:37:12.521687+01

 2017-02-05 03:24:31.272849+01 | 1486261471.27285 |                 0 |              21 |                112024 |                 3399 |            6512562 |       2996799 |            29922 |       125728117 |                     0 |     476420714 | 2017-02-05 01:37:12.521687+01

 2017-02-05 03:24:32.350601+01 | 1486261472.3506 |                 0 |              21 |                112024 |                 3399 |            6512562 |       2997299 |            29927 |       125728117 |                     0 |     476468231 | 2017-02-05 01:37:12.521687+01

 2017-02-05 03:24:33.428388+01 | 1486261473.42839 |                 0 |              21 |                112024 |                 3399 |            6512562 |       2997799 |            29932 |       125728117 |                     0 |     476512097 | 2017-02-05 01:37:12.521687+01

 2017-02-05 03:24:34.5009+01 | 1486261474.5009 |                 0 |              21 |                112024 |                 3399 |            6512562 |       2998399 |            29938 |       125728117 |                     0 |     476563629 | 2017-02-05 01:37:12.521687+01

 2017-02-05 03:24:35.583718+01 | 1486261475.58372 |                 0 |              21 |                112024 |                 3399 |            6512562 |       2998899 |            29943 |       125728117 |                     0 |     476608556 | 2017-02-05 01:37:12.521687+01

 2017-02-05 03:24:36.658973+01 | 1486261476.65897 |                 0 |              21 |                112024 |                 3399 |            6512562 |       2999399 |            29948 |       125728117 |                     0 |     476652409 | 2017-02-05 01:37:12.521687+01

 2017-02-05 03:24:37.742214+01 | 1486261477.74221 |                 0 |              21 |                112024 |                 3399 |            6512562 |       2999999 |            29954 |       125728117 |                     0 |     476705681 | 2017-02-05 01:37:12.521687+01

 2017-02-05 03:24:38.822069+01 | 1486261478.82207 |                 0 |              21 |                112024 |                 3399 |            6512562 |       3000499 |            29959 |       125728117 |                     0 |     476751645 | 2017-02-05 01:37:12.521687+01

 2017-02-05 03:24:39.901412+01 | 1486261479.90141 |                 0 |              21 |                112024 |                 3399 |            6512562 |       3000999 |            29964 |       125728117 |                     0 |     476797296 | 2017-02-05 01:37:12.521687+01

 2017-02-05 03:24:40.984383+01 | 1486261480.98438 |                 0 |              21 |                112024 |                 3399 |            6512562 |       3001599 |            29970 |       125728117 |                     0 |     476848468 | 2017-02-05 01:37:12.521687+01

 2017-02-05 03:24:42.067904+01 | 1486261482.0679 |                 0 |              21 |                112024 |                 3399 |            6512562 |       3002099 |            29975 |       125728117 |                     0 |     476892383 | 2017-02-05 01:37:12.521687+01

 2017-02-05 03:24:43.149425+01 | 1486261483.14943 |                 0 |              21 |                112024 |                 3399 |            6512562 |       3002599 |            29980 |       125728117 |                     0 |     476937354 | 2017-02-05 01:37:12.521687+01

 2017-02-05 03:24:44.228227+01 | 1486261484.22823 |                 0 |              21 |                112024 |                 3399 |            6512562 |       3003199 |            29986 |       125728117 |                     0 |     476993183 | 2017-02-05 01:37:12.521687+01

 2017-02-05 03:24:45.30168+01 | 1486261485.30168 |                 0 |              21 |                112024 |                 3399 |            6512562 |       3003699 |            29991 |       125728117 |                     0 |     477037129 | 2017-02-05 01:37:12.521687+01

 2017-02-05 03:24:46.377917+01 | 1486261486.37792 |                 0 |              21 |                112024 |                 3399 |            6512562 |       3004199 |            29996 |       125728117 |                     0 |     477081782 | 2017-02-05 01:37:12.521687+01

 2017-02-05 03:24:47.469574+01 | 1486261487.46957 |                 0 |              21 |                112024 |                 3399 |            6512562 |       3004799 |            30002 |       125728117 |                     0 |     477133580 | 2017-02-05 01:37:12.521687+01

 2017-02-05 03:24:48.551279+01 | 1486261488.55128 |                 0 |              21 |                112024 |                 3399 |            6512562 |       3005299 |            30007 |       125728117 |                     0 |     477179175 | 2017-02-05 01:37:12.521687+01

 2017-02-05 03:24:49.630424+01 | 1486261489.63042 |                 0 |              21 |                112024 |                 3399 |            6512562 |       3005899 |            30013 |       126232306 |                     0 |     477234714 | 2017-02-05 01:37:12.521687+01

 2017-02-05 03:24:50.707209+01 | 1486261490.70721 |                 0 |              21 |                112024 |                 3399 |            6512562 |       3006399 |            30018 |       126232306 |                     0 |     477280093 | 2017-02-05 01:37:12.521687+01

 2017-02-05 03:24:51.786781+01 | 1486261491.78678 |                 0 |              21 |                112024 |                 3399 |            6512562 |       3006899 |            30023 |       126232306 |                     0 |     477319283 | 2017-02-05 01:37:12.521687+01

 2017-02-05 03:24:52.868785+01 | 1486261492.86878 |                 0 |              21 |                112024 |                 3399 |            6512562 |       3007499 |            30029 |       126232306 |                     0 |     477362217 | 2017-02-05 01:37:12.521687+01

 2017-02-05 03:24:53.952482+01 | 1486261493.95248 |                 0 |              21 |                112024 |                 3399 |            6512562 |       3007999 |            30034 |       126232306 |                     0 |     477393259 | 2017-02-05 01:37:12.521687+01

 2017-02-05 03:24:55.036577+01 | 1486261495.03658 |                 0 |              21 |                112024 |                 3399 |            6512562 |       3008499 |            30039 |       126232306 |                     0 |     477434207 | 2017-02-05 01:37:12.521687+01

 2017-02-05 03:24:56.126267+01 | 1486261496.12627 |                 0 |              21 |                112024 |                 3399 |            6512562 |       3009099 |            30045 |       126232306 |                     0 |     477475505 | 2017-02-05 01:37:12.521687+01

 2017-02-05 03:24:57.218608+01 | 1486261497.21861 |                 0 |              21 |                112024 |                 3399 |            6512562 |       3009599 |            30050 |       126232306 |                     0 |     477512068 | 2017-02-05 01:37:12.521687+01

 2017-02-05 03:24:58.308918+01 | 1486261498.30892 |                 0 |              21 |                112024 |                 3399 |            6512562 |       3010199 |            30056 |       126232306 |                     0 |     477556303 | 2017-02-05 01:37:12.521687+01

 2017-02-05 03:24:59.380202+01 | 1486261499.3802 |                 0 |              21 |                112024 |                 3399 |            6512562 |       3010699 |            30061 |       126232306 |                     0 |     477598636 | 2017-02-05 01:37:12.521687+01

 2017-02-05 03:25:00.457487+01 | 1486261500.45749 |                 0 |              21 |                112024 |                 3399 |            6512562 |       3011199 |            30066 |       126232306 |                     0 |     477642348 | 2017-02-05 01:37:12.521687+01

 2017-02-05 03:25:01.539212+01 | 1486261501.53921 |                 0 |              21 |                112024 |                 3399 |            6512562 |       3011799 |            30072 |       126232306 |                     0 |     477693744 | 2017-02-05 01:37:12.521687+01

 2017-02-05 03:25:02.621796+01 | 1486261502.6218 |                 0 |              21 |                112024 |                 3399 |            6512562 |       3012299 |            30077 |       126232306 |                     0 |     477739262 | 2017-02-05 01:37:12.521687+01

 2017-02-05 03:25:03.697098+01 | 1486261503.6971 |                 0 |              21 |                112024 |                 3399 |            6512562 |       3012799 |            30082 |       126232306 |                     0 |     477783581 | 2017-02-05 01:37:12.521687+01

 2017-02-05 03:25:04.77733+01 | 1486261504.77733 |                 0 |              21 |                112024 |                 3399 |            6512562 |       3013399 |            30088 |       126232306 |                     0 |     477838115 | 2017-02-05 01:37:12.521687+01

 2017-02-05 03:25:05.862203+01 | 1486261505.8622 |                 0 |              21 |                112024 |                 3399 |            6512562 |       3013899 |            30093 |       126232306 |                     0 |     477882532 | 2017-02-05 01:37:12.521687+01

 2017-02-05 03:25:06.945718+01 | 1486261506.94572 |                 0 |              21 |                112024 |                 3399 |            6512562 |       3014399 |            30098 |       126232306 |                     0 |     477927687 | 2017-02-05 01:37:12.521687+01

 2017-02-05 03:25:08.026998+01 | 1486261508.027 |                 0 |              21 |                112024 |                 3399 |            6512562 |       3014999 |            30104 |       126232306 |                     0 |     477976427 | 2017-02-05 01:37:12.521687+01

 2017-02-05 03:25:09.109456+01 | 1486261509.10946 |                 0 |              21 |                112024 |                 3399 |            6512562 |       3015499 |            30109 |       126232306 |                     0 |     478020937 | 2017-02-05 01:37:12.521687+01

 2017-02-05 03:25:10.197174+01 | 1486261510.19717 |                 0 |              21 |                112024 |                 3399 |            6512562 |       3015999 |            30114 |       126232306 |                     0 |     478066097 | 2017-02-05 01:37:12.521687+01

 2017-02-05 03:25:11.282471+01 | 1486261511.28247 |                 0 |              21 |                112024 |                 3399 |            6512562 |       3016599 |            30120 |       126232306 |                     0 |     478119658 | 2017-02-05 01:37:12.521687+01

 2017-02-05 03:25:12.360887+01 | 1486261512.36089 |                 0 |              21 |                112024 |                 3399 |            6512562 |       3017099 |            30125 |       126232306 |                     0 |     478161821 | 2017-02-05 01:37:12.521687+01

 2017-02-05 03:25:13.453274+01 | 1486261513.45327 |                 0 |              21 |                112024 |                 3399 |            6512562 |       3017599 |            30130 |       126232306 |                     0 |     478208151 | 2017-02-05 01:37:12.521687+01

 2017-02-05 03:25:14.545453+01 | 1486261514.54545 |                 0 |              21 |                112024 |                 3399 |            6512562 |       3018199 |            30136 |       126232306 |                     0 |     478263237 | 2017-02-05 01:37:12.521687+01

 2017-02-05 03:25:15.630005+01 | 1486261515.63 |                 0 |              21 |                112024 |                 3399 |            6512562 |       3018699 |            30141 |       126232306 |                     0 |     478308683 | 2017-02-05 01:37:12.521687+01

 2017-02-05 03:25:16.713133+01 | 1486261516.71313 |                 0 |              21 |                112024 |                 3399 |            6512562 |       3019299 |            30147 |       126232306 |                     0 |     478361250 | 2017-02-05 01:37:12.521687+01

 2017-02-05 03:25:17.788698+01 | 1486261517.7887 |                 0 |              21 |                112024 |                 3399 |            6512562 |       3019799 |            30152 |       126232306 |                     0 |     478405108 | 2017-02-05 01:37:12.521687+01

 2017-02-05 03:25:18.866002+01 | 1486261518.866 |                 0 |              21 |                112024 |                 3399 |            6512562 |       3020299 |            30157 |       126232306 |                     0 |     478452247 | 2017-02-05 01:37:12.521687+01

 2017-02-05 03:25:19.954305+01 | 1486261519.9543 |                 0 |              21 |                112024 |                 3399 |            6512562 |       3020899 |            30163 |       126232306 |                     0 |     478507488 | 2017-02-05 01:37:12.521687+01

 2017-02-05 03:25:21.044379+01 | 1486261521.04438 |                 0 |              21 |                112024 |                 3399 |            6512562 |       3021399 |            30168 |       126232306 |                     0 |     478555110 | 2017-02-05 01:37:12.521687+01

 2017-02-05 03:25:22.135658+01 | 1486261522.13566 |                 0 |              21 |                112024 |                 3399 |            6512562 |       3021899 |            30173 |       126232306 |                     0 |     478601669 | 2017-02-05 01:37:12.521687+01

 2017-02-05 03:25:23.218305+01 | 1486261523.21831 |                 0 |              21 |                112024 |                 3399 |            6512562 |       3022499 |            30179 |       126232306 |                     0 |     478654030 | 2017-02-05 01:37:12.521687+01

 2017-02-05 03:25:24.294981+01 | 1486261524.29498 |                 0 |              21 |                112024 |                 3399 |            6512562 |       3022999 |            30184 |       126232306 |                     0 |     478700262 | 2017-02-05 01:37:12.521687+01

 2017-02-05 03:25:25.382667+01 | 1486261525.38267 |                 0 |              21 |                112024 |                 3399 |            6512562 |       3023599 |            30190 |       126232306 |                     0 |     478755751 | 2017-02-05 01:37:12.521687+01

 2017-02-05 03:25:26.46035+01 | 1486261526.46035 |                 0 |              21 |                112024 |                 3399 |            6512562 |       3024099 |            30195 |       126232306 |                     0 |     478798497 | 2017-02-05 01:37:12.521687+01

 2017-02-05 03:25:27.537478+01 | 1486261527.53748 |                 0 |              21 |                112024 |                 3399 |            6512562 |       3024599 |            30200 |       126232306 |                     0 |     478843341 | 2017-02-05 01:37:12.521687+01

 2017-02-05 03:25:28.611341+01 | 1486261528.61134 |                 0 |              21 |                112024 |                 3399 |            6512562 |       3025199 |            30206 |       126232306 |                     0 |     478899595 | 2017-02-05 01:37:12.521687+01

 2017-02-05 03:25:29.689596+01 | 1486261529.6896 |                 0 |              21 |                112024 |                 3399 |            6512562 |       3025699 |            30211 |       126232306 |                     0 |     478946279 | 2017-02-05 01:37:12.521687+01

 2017-02-05 03:25:30.775191+01 | 1486261530.77519 |                 0 |              21 |                112024 |                 3399 |            6512562 |       3026199 |            30216 |       126735995 |                     0 |     478992493 | 2017-02-05 01:37:12.521687+01

 2017-02-05 03:25:31.847006+01 | 1486261531.84701 |                 0 |              21 |                112024 |                 3399 |            6512562 |       3026799 |            30222 |       126735995 |                     0 |     479037285 | 2017-02-05 01:37:12.521687+01

 2017-02-05 03:25:32.938194+01 | 1486261532.93819 |                 0 |              21 |                112024 |                 3399 |            6512562 |       3027299 |            30227 |       126735995 |                     0 |     479075936 | 2017-02-05 01:37:12.521687+01

 2017-02-05 03:25:34.018041+01 | 1486261534.01804 |                 0 |              21 |                112024 |                 3399 |            6512562 |       3027799 |            30232 |       126735995 |                     0 |     479114643 | 2017-02-05 01:37:12.521687+01

 2017-02-05 03:25:35.103501+01 | 1486261535.1035 |                 0 |              21 |                112024 |                 3399 |            6512562 |       3028399 |            30238 |       126735995 |                     0 |     479157527 | 2017-02-05 01:37:12.521687+01

 2017-02-05 03:25:36.17895+01 | 1486261536.17895 |                 0 |              21 |                112024 |                 3399 |            6512562 |       3028899 |            30243 |       126735995 |                     0 |     479195135 | 2017-02-05 01:37:12.521687+01

 2017-02-05 03:25:37.259413+01 | 1486261537.25941 |                 0 |              21 |                112024 |                 3399 |            6512562 |       3029399 |            30248 |       126735995 |                     0 |     479232995 | 2017-02-05 01:37:12.521687+01

 2017-02-05 03:25:38.338535+01 | 1486261538.33854 |                 0 |              21 |                112024 |                 3399 |            6512562 |       3029999 |            30254 |       126735995 |                     0 |     479281592 | 2017-02-05 01:37:12.521687+01

 2017-02-05 03:25:39.419027+01 | 1486261539.41903 |                 0 |              21 |                112024 |                 3399 |            6512562 |       3030499 |            30259 |       126735995 |                     0 |     479326274 | 2017-02-05 01:37:12.521687+01

 2017-02-05 03:25:40.494391+01 | 1486261540.49439 |                 0 |              21 |                112024 |                 3399 |            6512562 |       3030999 |            30264 |       126735995 |                     0 |     479370930 | 2017-02-05 01:37:12.521687+01

 2017-02-05 03:25:41.5694+01 | 1486261541.5694 |                 0 |              21 |                112024 |                 3399 |            6512562 |       3031599 |            30270 |       126735995 |                     0 |     479424480 | 2017-02-05 01:37:12.521687+01

 2017-02-05 03:25:42.647159+01 | 1486261542.64716 |                 0 |              21 |                112024 |                 3399 |            6512562 |       3032099 |            30275 |       126735995 |                     0 |     479468694 | 2017-02-05 01:37:12.521687+01

 2017-02-05 03:25:43.727378+01 | 1486261543.72738 |                 0 |              21 |                112024 |                 3399 |            6512562 |       3032599 |            30280 |       126735995 |                     0 |     479515924 | 2017-02-05 01:37:12.521687+01

 2017-02-05 03:25:44.815985+01 | 1486261544.81598 |                 0 |              21 |                112024 |                 3399 |            6512562 |       3033199 |            30286 |       126735995 |                     0 |     479569731 | 2017-02-05 01:37:12.521687+01

 2017-02-05 03:25:45.890127+01 | 1486261545.89013 |                 0 |              21 |                112024 |                 3399 |            6512562 |       3033499 |            30289 |       126735995 |                     0 |     479595645 | 2017-02-05 01:37:12.521687+01

 2017-02-05 03:25:46.976653+01 | 1486261546.97665 |                 0 |              21 |                112024 |                 3399 |            6512562 |       3034199 |            30296 |       126735995 |                     0 |     479656473 | 2017-02-05 01:37:12.521687+01

 2017-02-05 03:25:48.060315+01 | 1486261548.06031 |                 0 |              21 |                112024 |                 3399 |            6512562 |       3034799 |            30302 |       126735995 |                     0 |     479711112 | 2017-02-05 01:37:12.521687+01

 2017-02-05 03:25:49.148081+01 | 1486261549.14808 |                 0 |              21 |                112024 |                 3399 |            6512562 |       3035299 |            30307 |       126735995 |                     0 |     479757816 | 2017-02-05 01:37:12.521687+01

 2017-02-05 03:25:50.233442+01 | 1486261550.23344 |                 0 |              21 |                112024 |                 3399 |            6512562 |       3035899 |            30313 |       126735995 |                     0 |     479809439 | 2017-02-05 01:37:12.521687+01

 2017-02-05 03:25:51.318246+01 | 1486261551.31825 |                 0 |              21 |                112024 |                 3399 |            6512562 |       3036399 |            30318 |       126735995 |                     0 |     479854415 | 2017-02-05 01:37:12.521687+01

 2017-02-05 03:25:52.400675+01 | 1486261552.40068 |                 0 |              21 |                112024 |                 3399 |            6512562 |       3036899 |            30323 |       126735995 |                     0 |     479899312 | 2017-02-05 01:37:12.521687+01

 2017-02-05 03:25:53.487801+01 | 1486261553.4878 |                 0 |              21 |                112024 |                 3399 |            6512562 |       3037499 |            30329 |       126735995 |                     0 |     479952505 | 2017-02-05 01:37:12.521687+01

 2017-02-05 03:25:54.567585+01 | 1486261554.56758 |                 0 |              21 |                112024 |                 3399 |            6512562 |       3037999 |            30334 |       126735995 |                     0 |     479996679 | 2017-02-05 01:37:12.521687+01

 2017-02-05 03:25:55.653497+01 | 1486261555.6535 |                 0 |              21 |                112024 |                 3399 |            6512562 |       3038499 |            30339 |       126735995 |                     0 |     480038685 | 2017-02-05 01:37:12.521687+01

 2017-02-05 03:25:56.737916+01 | 1486261556.73792 |                 0 |              21 |                112024 |                 3399 |            6512562 |       3039099 |            30345 |       126735995 |                     0 |     480094450 | 2017-02-05 01:37:12.521687+01

 2017-02-05 03:25:57.820546+01 | 1486261557.82055 |                 0 |              21 |                112024 |                 3399 |            6512562 |       3039599 |            30350 |       126735995 |                     0 |     480141748 | 2017-02-05 01:37:12.521687+01

 2017-02-05 03:25:58.909831+01 | 1486261558.90983 |                 0 |              21 |                112024 |                 3399 |            6512562 |       3040199 |            30356 |       126735995 |                     0 |     480196022 | 2017-02-05 01:37:12.521687+01

 2017-02-05 03:25:59.991884+01 | 1486261559.99188 |                 0 |              21 |                112024 |                 3399 |            6512562 |       3040699 |            30361 |       126735995 |                     0 |     480238936 | 2017-02-05 01:37:12.521687+01

 2017-02-05 03:26:01.06615+01 | 1486261561.06615 |                 0 |              21 |                112024 |                 3399 |            6512562 |       3041199 |            30366 |       126735995 |                     0 |     480283440 | 2017-02-05 01:37:12.521687+01

 2017-02-05 03:26:02.141026+01 | 1486261562.14103 |                 0 |              21 |                112024 |                 3399 |            6512562 |       3041799 |            30372 |       126735995 |                     0 |     480338301 | 2017-02-05 01:37:12.521687+01

 2017-02-05 03:26:03.213165+01 | 1486261563.21317 |                 0 |              21 |                112024 |                 3399 |            6512562 |       3042299 |            30377 |       126735995 |                     0 |     480384596 | 2017-02-05 01:37:12.521687+01

 2017-02-05 03:26:04.284788+01 | 1486261564.28479 |                 0 |              21 |                112024 |                 3399 |            6512562 |       3042799 |            30382 |       126735995 |                     0 |     480431734 | 2017-02-05 01:37:12.521687+01

 2017-02-05 03:26:05.361617+01 | 1486261565.36162 |                 0 |              21 |                112024 |                 3399 |            6512562 |       3043299 |            30387 |       126735995 |                     0 |     480473908 | 2017-02-05 01:37:12.521687+01

 2017-02-05 03:26:06.444525+01 | 1486261566.44453 |                 0 |              21 |                112024 |                 3399 |            6512562 |       3043899 |            30393 |       126735995 |                     0 |     480530951 | 2017-02-05 01:37:12.521687+01

 2017-02-05 03:26:07.532349+01 | 1486261567.53235 |                 0 |              21 |                112024 |                 3399 |            6512562 |       3044399 |            30398 |       126735995 |                     0 |     480576738 | 2017-02-05 01:37:12.521687+01

 2017-02-05 03:26:08.617536+01 | 1486261568.61754 |                 0 |              21 |                112024 |                 3399 |            6512562 |       3044999 |            30404 |       126735995 |                     0 |     480631538 | 2017-02-05 01:37:12.521687+01

 2017-02-05 03:26:09.707392+01 | 1486261569.70739 |                 0 |              21 |                112024 |                 3399 |            6512562 |       3045499 |            30409 |       126735995 |                     0 |     480675071 | 2017-02-05 01:37:12.521687+01

 2017-02-05 03:26:10.786714+01 | 1486261570.78671 |                 0 |              21 |                112024 |                 3399 |            6512562 |       3045999 |            30414 |       126735995 |                     0 |     480719296 | 2017-02-05 01:37:12.521687+01

 2017-02-05 03:26:11.867037+01 | 1486261571.86704 |                 0 |              21 |                112024 |                 3399 |            6512562 |       3046599 |            30420 |       127239784 |                     0 |     480776017 | 2017-02-05 01:37:12.521687+01

 2017-02-05 03:26:12.949269+01 | 1486261572.94927 |                 0 |              21 |                112024 |                 3399 |            6512562 |       3047099 |            30425 |       127239784 |                     0 |     480823935 | 2017-02-05 01:37:12.521687+01

 2017-02-05 03:26:14.029555+01 | 1486261574.02956 |                 0 |              21 |                112024 |                 3399 |            6512562 |       3047599 |            30430 |       127239784 |                     0 |     480868098 | 2017-02-05 01:37:12.521687+01

 2017-02-05 03:26:15.106996+01 | 1486261575.107 |                 0 |              21 |                112024 |                 3399 |            6512562 |       3048199 |            30436 |       127239784 |                     0 |     480920750 | 2017-02-05 01:37:12.521687+01

 2017-02-05 03:26:16.202879+01 | 1486261576.20288 |                 0 |              21 |                112024 |                 3399 |            6512562 |       3048699 |            30441 |       127239784 |                     0 |     480965209 | 2017-02-05 01:37:12.521687+01

 2017-02-05 03:26:17.280576+01 | 1486261577.28058 |                 0 |              21 |                112024 |                 3399 |            6512562 |       3049299 |            30447 |       127239784 |                     0 |     481020713 | 2017-02-05 01:37:12.521687+01

 2017-02-05 03:26:18.36351+01 | 1486261578.36351 |                 0 |              21 |                112024 |                 3399 |            6512562 |       3049799 |            30452 |       127239784 |                     0 |     481067467 | 2017-02-05 01:37:12.521687+01

 2017-02-05 03:26:19.434632+01 | 1486261579.43463 |                 0 |              21 |                112024 |                 3399 |            6512562 |       3050299 |            30457 |       127239784 |                     0 |     481113830 | 2017-02-05 01:37:12.521687+01

 2017-02-05 03:26:20.511725+01 | 1486261580.51172 |                 0 |              21 |                112024 |                 3399 |            6512562 |       3050899 |            30463 |       127239784 |                     0 |     481165411 | 2017-02-05 01:37:12.521687+01

 2017-02-05 03:26:21.591184+01 | 1486261581.59118 |                 0 |              21 |                112024 |                 3399 |            6512562 |       3051399 |            30468 |       127239784 |                     0 |     481211075 | 2017-02-05 01:37:12.521687+01

 2017-02-05 03:26:22.66957+01 | 1486261582.66957 |                 0 |              21 |                112024 |                 3399 |            6512562 |       3051899 |            30473 |       127239784 |                     0 |     481257486 | 2017-02-05 01:37:12.521687+01

 2017-02-05 03:26:23.752692+01 | 1486261583.75269 |                 0 |              21 |                112024 |                 3399 |            6512562 |       3052499 |            30479 |       127239784 |                     0 |     481313813 | 2017-02-05 01:37:12.521687+01

 2017-02-05 03:26:24.835902+01 | 1486261584.8359 |                 0 |              21 |                112024 |                 3399 |            6512562 |       3052999 |            30484 |       127239784 |                     0 |     481357652 | 2017-02-05 01:37:12.521687+01

 2017-02-05 03:26:25.918067+01 | 1486261585.91807 |                 0 |              21 |                112024 |                 3399 |            6512562 |       3053499 |            30489 |       127239784 |                     0 |     481403059 | 2017-02-05 01:37:12.521687+01

 2017-02-05 03:26:26.991805+01 | 1486261586.99181 |                 0 |              21 |                112024 |                 3399 |            6512562 |       3054099 |            30495 |       127239784 |                     0 |     481456963 | 2017-02-05 01:37:12.521687+01

 2017-02-05 03:26:28.076701+01 | 1486261588.0767 |                 0 |              21 |                112024 |                 3399 |            6512562 |       3054599 |            30500 |       127239784 |                     0 |     481503645 | 2017-02-05 01:37:12.521687+01

 2017-02-05 03:26:29.156681+01 | 1486261589.15668 |                 0 |              21 |                112024 |                 3399 |            6512562 |       3055099 |            30505 |       127239784 |                     0 |     481549132 | 2017-02-05 01:37:12.521687+01

 2017-02-05 03:26:30.245094+01 | 1486261590.24509 |                 0 |              21 |                112024 |                 3399 |            6512562 |       3055699 |            30511 |       127239784 |                     0 |     481599877 | 2017-02-05 01:37:12.521687+01

 2017-02-05 03:26:31.328952+01 | 1486261591.32895 |                 0 |              21 |                112024 |                 3399 |            6512562 |       3056199 |            30516 |       127239784 |                     0 |     481646229 | 2017-02-05 01:37:12.521687+01

 2017-02-05 03:26:32.400913+01 | 1486261592.40091 |                 0 |              21 |                112024 |                 3399 |            6512562 |       3056699 |            30521 |       127239784 |                     0 |     481690619 | 2017-02-05 01:37:12.521687+01

 2017-02-05 03:26:33.481865+01 | 1486261593.48186 |                 0 |              21 |                112024 |                 3399 |            6512562 |       3057299 |            30527 |       127239784 |                     0 |     481748239 | 2017-02-05 01:37:12.521687+01

 2017-02-05 03:26:34.568928+01 | 1486261594.56893 |                 0 |              21 |                112024 |                 3399 |            6512562 |       3057799 |            30532 |       127239784 |                     0 |     481792935 | 2017-02-05 01:37:12.521687+01

 2017-02-05 03:26:35.649973+01 | 1486261595.64997 |                 0 |              21 |                112024 |                 3399 |            6512562 |       3058299 |            30537 |       127239784 |                     0 |     481835518 | 2017-02-05 01:37:12.521687+01

 2017-02-05 03:26:36.721386+01 | 1486261596.72139 |                 0 |              21 |                112024 |                 3399 |            6512562 |       3058899 |            30543 |       127239784 |                     0 |     481892479 | 2017-02-05 01:37:12.521687+01

 2017-02-05 03:26:37.797372+01 | 1486261597.79737 |                 0 |              21 |                112024 |                 3399 |            6512562 |       3059399 |            30548 |       127239784 |                     0 |     481938066 | 2017-02-05 01:37:12.521687+01

 2017-02-05 03:26:38.872133+01 | 1486261598.87213 |                 0 |              21 |                112024 |                 3399 |            6512562 |       3059899 |            30553 |       127239784 |                     0 |     481985641 | 2017-02-05 01:37:12.521687+01

 2017-02-05 03:26:39.951689+01 | 1486261599.95169 |                 0 |              21 |                112024 |                 3399 |            6512562 |       3060499 |            30559 |       127239784 |                     0 |     482037546 | 2017-02-05 01:37:12.521687+01

 2017-02-05 03:26:41.031519+01 | 1486261601.03152 |                 0 |              21 |                112024 |                 3399 |            6512562 |       3060999 |            30564 |       127239784 |                     0 |     482081893 | 2017-02-05 01:37:12.521687+01

 2017-02-05 03:26:42.109462+01 | 1486261602.10946 |                 0 |              21 |                112024 |                 3399 |            6512562 |       3061499 |            30569 |       127239784 |                     0 |     482125573 | 2017-02-05 01:37:12.521687+01

 2017-02-05 03:26:43.184026+01 | 1486261603.18403 |                 0 |              21 |                112024 |                 3399 |            6512562 |       3062099 |            30575 |       127239784 |                     0 |     482183106 | 2017-02-05 01:37:12.521687+01

 2017-02-05 03:26:44.270416+01 | 1486261604.27042 |                 0 |              21 |                112024 |                 3399 |            6512562 |       3062599 |            30580 |       127239784 |                     0 |     482231544 | 2017-02-05 01:37:12.521687+01

 2017-02-05 03:26:45.363191+01 | 1486261605.36319 |                 0 |              21 |                112024 |                 3399 |            6512562 |       3063199 |            30586 |       127239784 |                     0 |     482283509 | 2017-02-05 01:37:12.521687+01

 2017-02-05 03:26:46.437999+01 | 1486261606.438 |                 0 |              21 |                112024 |                 3399 |            6512562 |       3063699 |            30591 |       127239784 |                     0 |     482329135 | 2017-02-05 01:37:12.521687+01

 2017-02-05 03:26:47.51658+01 | 1486261607.51658 |                 0 |              21 |                112024 |                 3399 |            6512562 |       3064199 |            30596 |       127239784 |                     0 |     482376368 | 2017-02-05 01:37:12.521687+01

 2017-02-05 03:26:48.593463+01 | 1486261608.59346 |                 0 |              21 |                112024 |                 3399 |            6512562 |       3064799 |            30602 |       127239784 |                     0 |     482432783 | 2017-02-05 01:37:12.521687+01

 2017-02-05 03:26:49.676644+01 | 1486261609.67664 |                 0 |              21 |                112024 |                 3399 |            6512562 |       3065299 |            30607 |       127239784 |                     0 |     482473903 | 2017-02-05 01:37:12.521687+01

 2017-02-05 03:26:50.754744+01 | 1486261610.75474 |                 0 |              21 |                112024 |                 3399 |            6512562 |       3065799 |            30612 |       127239784 |                     0 |     482520897 | 2017-02-05 01:37:12.521687+01

 2017-02-05 03:26:51.829985+01 | 1486261611.82998 |                 0 |              21 |                112024 |                 3399 |            6512562 |       3066399 |            30618 |       127744272 |                     0 |     482576984 | 2017-02-05 01:37:12.521687+01

 2017-02-05 03:26:52.90894+01 | 1486261612.90894 |                 0 |              21 |                112024 |                 3399 |            6512562 |       3066899 |            30623 |       127744272 |                     0 |     482623399 | 2017-02-05 01:37:12.521687+01

 2017-02-05 03:26:53.985291+01 | 1486261613.98529 |                 0 |              21 |                112024 |                 3399 |            6512562 |       3067399 |            30628 |       127744272 |                     0 |     482665308 | 2017-02-05 01:37:12.521687+01

 2017-02-05 03:26:55.07614+01 | 1486261615.07614 |                 0 |              21 |                112024 |                 3399 |            6512562 |       3067999 |            30634 |       127744272 |                     0 |     482712003 | 2017-02-05 01:37:12.521687+01

 2017-02-05 03:26:56.145763+01 | 1486261616.14576 |                 0 |              21 |                112024 |                 3399 |            6512562 |       3068499 |            30639 |       127744272 |                     0 |     482748126 | 2017-02-05 01:37:12.521687+01

 2017-02-05 03:26:57.232424+01 | 1486261617.23242 |                 0 |              21 |                112024 |                 3399 |            6512562 |       3068999 |            30644 |       127744272 |                     0 |     482786056 | 2017-02-05 01:37:12.521687+01

 2017-02-05 03:26:58.32245+01 | 1486261618.32245 |                 0 |              21 |                112024 |                 3399 |            6512562 |       3069599 |            30650 |       127744272 |                     0 |     482830550 | 2017-02-05 01:37:12.521687+01

 2017-02-05 03:26:59.402731+01 | 1486261619.40273 |                 0 |              21 |                112024 |                 3399 |            6512562 |       3070099 |            30655 |       127744272 |                     0 |     482869475 | 2017-02-05 01:37:12.521687+01

 2017-02-05 03:27:00.481382+01 | 1486261620.48138 |                 0 |              21 |                112024 |                 3399 |            6512562 |       3070599 |            30660 |       127744272 |                     0 |     482907006 | 2017-02-05 01:37:12.521687+01

 2017-02-05 03:27:01.564873+01 | 1486261621.56487 |                 0 |              21 |                112024 |                 3399 |            6512562 |       3071199 |            30666 |       127744272 |                     0 |     482957604 | 2017-02-05 01:37:12.521687+01

 2017-02-05 03:27:02.640763+01 | 1486261622.64076 |                 0 |              21 |                112024 |                 3399 |            6512562 |       3071699 |            30671 |       127744272 |                     0 |     483001848 | 2017-02-05 01:37:12.521687+01

 2017-02-05 03:27:03.71402+01 | 1486261623.71402 |                 0 |              21 |                112024 |                 3399 |            6512562 |       3072199 |            30676 |       127744272 |                     0 |     483048754 | 2017-02-05 01:37:12.521687+01

 2017-02-05 03:27:04.783848+01 | 1486261624.78385 |                 0 |              21 |                112024 |                 3399 |            6512562 |       3072799 |            30682 |       127744272 |                     0 |     483101931 | 2017-02-05 01:37:12.521687+01

 2017-02-05 03:27:05.861855+01 | 1486261625.86186 |                 0 |              21 |                112024 |                 3399 |            6512562 |       3073299 |            30687 |       127744272 |                     0 |     483148047 | 2017-02-05 01:37:12.521687+01

 2017-02-05 03:27:06.943679+01 | 1486261626.94368 |                 0 |              21 |                112024 |                 3399 |            6512562 |       3073799 |            30692 |       127744272 |                     0 |     483195435 | 2017-02-05 01:37:12.521687+01

 2017-02-05 03:27:08.033648+01 | 1486261628.03365 |                 0 |              21 |                112024 |                 3399 |            6512562 |       3074399 |            30698 |       127744272 |                     0 |     483251438 | 2017-02-05 01:37:12.521687+01

 2017-02-05 03:27:09.109559+01 | 1486261629.10956 |                 0 |              21 |                112024 |                 3399 |            6512562 |       3074899 |            30703 |       127744272 |                     0 |     483294707 | 2017-02-05 01:37:12.521687+01

 2017-02-05 03:27:10.190453+01 | 1486261630.19045 |                 0 |              21 |                112024 |                 3399 |            6512562 |       3075399 |            30708 |       127744272 |                     0 |     483341947 | 2017-02-05 01:37:12.521687+01

 2017-02-05 03:27:11.269519+01 | 1486261631.26952 |                 0 |              21 |                112024 |                 3399 |            6512562 |       3075999 |            30714 |       127744272 |                     0 |     483394952 | 2017-02-05 01:37:12.521687+01

 2017-02-05 03:27:12.339831+01 | 1486261632.33983 |                 0 |              21 |                112024 |                 3399 |            6512562 |       3076499 |            30719 |       127744272 |                     0 |     483443371 | 2017-02-05 01:37:12.521687+01

 2017-02-05 03:27:13.41199+01 | 1486261633.41199 |                 0 |              21 |                112024 |                 3399 |            6512562 |       3076999 |            30724 |       127744272 |                     0 |     483489079 | 2017-02-05 01:37:12.521687+01

 2017-02-05 03:27:14.484067+01 | 1486261634.48407 |                 0 |              21 |                112024 |                 3399 |            6512562 |       3077599 |            30730 |       127744272 |                     0 |     483542349 | 2017-02-05 01:37:12.521687+01

 2017-02-05 03:27:15.563619+01 | 1486261635.56362 |                 0 |              21 |                112024 |                 3399 |            6512562 |       3078099 |            30735 |       127744272 |                     0 |     483589172 | 2017-02-05 01:37:12.521687+01

 2017-02-05 03:27:16.651019+01 | 1486261636.65102 |                 0 |              21 |                112024 |                 3399 |            6512562 |       3078599 |            30740 |       127744272 |                     0 |     483635452 | 2017-02-05 01:37:12.521687+01

 2017-02-05 03:27:17.734466+01 | 1486261637.73447 |                 0 |              21 |                112024 |                 3399 |            6512562 |       3079199 |            30746 |       127744272 |                     0 |     483691955 | 2017-02-05 01:37:12.521687+01

 2017-02-05 03:27:18.806565+01 | 1486261638.80657 |                 0 |              21 |                112024 |                 3399 |            6512562 |       3079699 |            30751 |       127744272 |                     0 |     483735440 | 2017-02-05 01:37:12.521687+01

 2017-02-05 03:27:19.890184+01 | 1486261639.89018 |                 0 |              21 |                112024 |                 3399 |            6512562 |       3080299 |            30757 |       127744272 |                     0 |     483792100 | 2017-02-05 01:37:12.521687+01

 2017-02-05 03:27:20.963564+01 | 1486261640.96356 |                 0 |              21 |                112024 |                 3399 |            6512562 |       3080799 |            30762 |       127744272 |                     0 |     483838311 | 2017-02-05 01:37:12.521687+01

 2017-02-05 03:27:22.049899+01 | 1486261642.0499 |                 0 |              21 |                112024 |                 3399 |            6512562 |       3081299 |            30767 |       127744272 |                     0 |     483884972 | 2017-02-05 01:37:12.521687+01

 2017-02-05 03:27:23.130476+01 | 1486261643.13048 |                 0 |              21 |                112024 |                 3399 |            6512562 |       3081899 |            30773 |       127744272 |                     0 |     483937917 | 2017-02-05 01:37:12.521687+01

 2017-02-05 03:27:24.217257+01 | 1486261644.21726 |                 0 |              21 |                112024 |                 3399 |            6512562 |       3082399 |            30778 |       127744272 |                     0 |     483983178 | 2017-02-05 01:37:12.521687+01

 2017-02-05 03:27:25.296207+01 | 1486261645.29621 |                 0 |              21 |                112024 |                 3399 |            6512562 |       3082899 |            30783 |       127744272 |                     0 |     484029809 | 2017-02-05 01:37:12.521687+01

 2017-02-05 03:27:26.37163+01 | 1486261646.37163 |                 0 |              21 |                112024 |                 3399 |            6512562 |       3083499 |            30789 |       127744272 |                     0 |     484086325 | 2017-02-05 01:37:12.521687+01

 2017-02-05 03:27:27.448369+01 | 1486261647.44837 |                 0 |              21 |                112024 |                 3399 |            6512562 |       3083999 |            30794 |       127744272 |                     0 |     484131601 | 2017-02-05 01:37:12.521687+01

 2017-02-05 03:27:28.53601+01 | 1486261648.53601 |                 0 |              21 |                112024 |                 3399 |            6512562 |       3084499 |            30799 |       127744272 |                     0 |     484173669 | 2017-02-05 01:37:12.521687+01

 2017-02-05 03:27:29.603588+01 | 1486261649.60359 |                 0 |              21 |                112024 |                 3399 |            6512562 |       3085099 |            30805 |       127744272 |                     0 |     484231156 | 2017-02-05 01:37:12.521687+01

 2017-02-05 03:27:30.677126+01 | 1486261650.67713 |                 0 |              21 |                112024 |                 3399 |            6512562 |       3085599 |            30810 |       127744272 |                     0 |     484277012 | 2017-02-05 01:37:12.521687+01

 2017-02-05 03:27:31.762092+01 | 1486261651.76209 |                 0 |              21 |                112024 |                 3399 |            6512562 |       3086099 |            30815 |       127744272 |                     0 |     484325719 | 2017-02-05 01:37:12.521687+01

 2017-02-05 03:27:32.842204+01 | 1486261652.8422 |                 0 |              21 |                112024 |                 3399 |            6512562 |       3086699 |            30821 |       127744272 |                     0 |     484369613 | 2017-02-05 01:37:12.521687+01

 2017-02-05 03:27:33.929507+01 | 1486261653.92951 |                 0 |              21 |                112024 |                 3399 |            6512562 |       3087199 |            30826 |       128248161 |                     0 |     484408628 | 2017-02-05 01:37:12.521687+01

 2017-02-05 03:27:35.020667+01 | 1486261655.02067 |                 0 |              21 |                112024 |                 3399 |            6512562 |       3087699 |            30831 |       128248161 |                     0 |     484447522 | 2017-02-05 01:37:12.521687+01

 2017-02-05 03:27:36.111927+01 | 1486261656.11193 |                 0 |              21 |                112024 |                 3399 |            6512562 |       3088299 |            30837 |       128248161 |                     0 |     484491631 | 2017-02-05 01:37:12.521687+01

 2017-02-05 03:27:37.180413+01 | 1486261657.18041 |                 0 |              21 |                112024 |                 3399 |            6512562 |       3088799 |            30842 |       128248161 |                     0 |     484526511 | 2017-02-05 01:37:12.521687+01

 2017-02-05 03:27:38.258422+01 | 1486261658.25842 |                 0 |              21 |                112024 |                 3399 |            6512562 |       3089399 |            30848 |       128248161 |                     0 |     484574160 | 2017-02-05 01:37:12.521687+01

 2017-02-05 03:27:39.342438+01 | 1486261659.34244 |                 0 |              21 |                112024 |                 3399 |            6512562 |       3089899 |            30853 |       128248161 |                     0 |     484613522 | 2017-02-05 01:37:12.521687+01

 2017-02-05 03:27:40.419414+01 | 1486261660.41941 |                 0 |              21 |                112024 |                 3399 |            6512562 |       3090399 |            30858 |       128248161 |                     0 |     484655830 | 2017-02-05 01:37:12.521687+01

 2017-02-05 03:27:41.503905+01 | 1486261661.50391 |                 0 |              21 |                112024 |                 3399 |            6512562 |       3090999 |            30864 |       128248161 |                     0 |     484707271 | 2017-02-05 01:37:12.521687+01

 2017-02-05 03:27:42.582887+01 | 1486261662.58289 |                 0 |              21 |                112024 |                 3399 |            6512562 |       3091499 |            30869 |       128248161 |                     0 |     484752028 | 2017-02-05 01:37:12.521687+01

 2017-02-05 03:27:43.663436+01 | 1486261663.66344 |                 0 |              21 |                112024 |                 3399 |            6512562 |       3091999 |            30874 |       128248161 |                     0 |     484799329 | 2017-02-05 01:37:12.521687+01

 2017-02-05 03:27:44.744281+01 | 1486261664.74428 |                 0 |              21 |                112024 |                 3399 |            6512562 |       3092599 |            30880 |       128248161 |                     0 |     484854013 | 2017-02-05 01:37:12.521687+01

 2017-02-05 03:27:45.8103+01 | 1486261665.8103 |                 0 |              21 |                112024 |                 3399 |            6512562 |       3092899 |            30883 |       128248161 |                     0 |     484880636 | 2017-02-05 01:37:12.521687+01

 2017-02-05 03:27:46.900187+01 | 1486261666.90019 |                 0 |              21 |                112024 |                 3399 |            6512562 |       3093599 |            30890 |       128248161 |                     0 |     484944884 | 2017-02-05 01:37:12.521687+01

 2017-02-05 03:27:47.982018+01 | 1486261667.98202 |                 0 |              21 |                112024 |                 3399 |            6512562 |       3094199 |            30896 |       128248161 |                     0 |     484998814 | 2017-02-05 01:37:12.521687+01

 2017-02-05 03:27:49.058533+01 | 1486261669.05853 |                 0 |              21 |                112024 |                 3399 |            6512562 |       3094699 |            30901 |       128248161 |                     0 |     485045191 | 2017-02-05 01:37:12.521687+01

 2017-02-05 03:27:50.136404+01 | 1486261670.1364 |                 0 |              21 |                112024 |                 3399 |            6512562 |       3095199 |            30906 |       128248161 |                     0 |     485089402 | 2017-02-05 01:37:12.521687+01

 2017-02-05 03:27:51.228033+01 | 1486261671.22803 |                 0 |              21 |                112024 |                 3399 |            6512562 |       3095799 |            30912 |       128248161 |                     0 |     485141676 | 2017-02-05 01:37:12.521687+01

 2017-02-05 03:27:52.304752+01 | 1486261672.30475 |                 0 |              21 |                112024 |                 3399 |            6512562 |       3096299 |            30917 |       128248161 |                     0 |     485186923 | 2017-02-05 01:37:12.521687+01

 2017-02-05 03:27:53.388077+01 | 1486261673.38808 |                 0 |              21 |                112024 |                 3399 |            6512562 |       3096799 |            30922 |       128248161 |                     0 |     485232185 | 2017-02-05 01:37:12.521687+01

 2017-02-05 03:27:54.476644+01 | 1486261674.47664 |                 0 |              21 |                112024 |                 3399 |            6512562 |       3097399 |            30928 |       128248161 |                     0 |     485286884 | 2017-02-05 01:37:12.521687+01

 2017-02-05 03:27:55.551703+01 | 1486261675.5517 |                 0 |              21 |                112024 |                 3399 |            6512562 |       3097899 |            30933 |       128248161 |                     0 |     485331448 | 2017-02-05 01:37:12.521687+01

 2017-02-05 03:27:56.626749+01 | 1486261676.62675 |                 0 |              21 |                112024 |                 3399 |            6512562 |       3098399 |            30938 |       128248161 |                     0 |     485377474 | 2017-02-05 01:37:12.521687+01

 2017-02-05 03:27:57.714833+01 | 1486261677.71483 |                 0 |              21 |                112024 |                 3399 |            6512562 |       3098999 |            30944 |       128248161 |                     0 |     485429547 | 2017-02-05 01:37:12.521687+01

 2017-02-05 03:27:58.790583+01 | 1486261678.79058 |                 0 |              21 |                112024 |                 3399 |            6512562 |       3099499 |            30949 |       128248161 |                     0 |     485474950 | 2017-02-05 01:37:12.521687+01

 2017-02-05 03:27:59.869526+01 | 1486261679.86953 |                 0 |              21 |                112024 |                 3399 |            6512562 |       3100099 |            30955 |       128248161 |                     0 |     485531749 | 2017-02-05 01:37:12.521687+01

 2017-02-05 03:28:00.945721+01 | 1486261680.94572 |                 0 |              21 |                112024 |                 3399 |            6512562 |       3100599 |            30960 |       128248161 |                     0 |     485577630 | 2017-02-05 01:37:12.521687+01

 2017-02-05 03:28:02.02656+01 | 1486261682.02656 |                 0 |              21 |                112024 |                 3399 |            6512562 |       3101099 |            30965 |       128248161 |                     0 |     485619185 | 2017-02-05 01:37:12.521687+01

 2017-02-05 03:28:03.108144+01 | 1486261683.10814 |                 0 |              21 |                112024 |                 3399 |            6512562 |       3101699 |            30971 |       128248161 |                     0 |     485674654 | 2017-02-05 01:37:12.521687+01

 2017-02-05 03:28:04.185475+01 | 1486261684.18548 |                 0 |              21 |                112024 |                 3399 |            6512562 |       3102199 |            30976 |       128248161 |                     0 |     485718605 | 2017-02-05 01:37:12.521687+01

 2017-02-05 03:28:05.264995+01 | 1486261685.265 |                 0 |              21 |                112024 |                 3399 |            6512562 |       3102699 |            30981 |       128248161 |                     0 |     485764172 | 2017-02-05 01:37:12.521687+01

 2017-02-05 03:28:06.34211+01 | 1486261686.34211 |                 0 |              21 |                112024 |                 3399 |            6512562 |       3103299 |            30987 |       128248161 |                     0 |     485817843 | 2017-02-05 01:37:12.521687+01

 2017-02-05 03:28:07.423572+01 | 1486261687.42357 |                 0 |              21 |                112024 |                 3399 |            6512562 |       3103799 |            30992 |       128248161 |                     0 |     485858909 | 2017-02-05 01:37:12.521687+01

 2017-02-05 03:28:08.498408+01 | 1486261688.49841 |                 0 |              21 |                112024 |                 3399 |            6512562 |       3104299 |            30997 |       128248161 |                     0 |     485904974 | 2017-02-05 01:37:12.521687+01

 2017-02-05 03:28:09.581849+01 | 1486261689.58185 |                 0 |              21 |                112024 |                 3399 |            6512562 |       3104899 |            31003 |       128248161 |                     0 |     485959655 | 2017-02-05 01:37:12.521687+01

 2017-02-05 03:28:10.658907+01 | 1486261690.65891 |                 0 |              21 |                112024 |                 3399 |            6512562 |       3105399 |            31008 |       128248161 |                     0 |     486005433 | 2017-02-05 01:37:12.521687+01

 2017-02-05 03:28:11.739911+01 | 1486261691.73991 |                 0 |              21 |                112024 |                 3399 |            6512562 |       3105899 |            31013 |       128248161 |                     0 |     486050685 | 2017-02-05 01:37:12.521687+01

 2017-02-05 03:28:12.811056+01 | 1486261692.81106 |                 0 |              21 |                112024 |                 3399 |            6512562 |       3106499 |            31019 |       128248161 |                     0 |     486102017 | 2017-02-05 01:37:12.521687+01

 2017-02-05 03:28:13.896802+01 | 1486261693.8968 |                 0 |              21 |                112024 |                 3399 |            6512562 |       3106999 |            31024 |       128248161 |                     0 |     486147116 | 2017-02-05 01:37:12.521687+01

