 2017-02-06 16:08:43.450881+01 | 1486393723.45088 | pgbench_accounts |       1391173632
 2017-02-06 16:08:43.450881+01 | 1486393723.45088 | pgbench_tellers  |          2162688
 2017-02-06 16:08:43.450881+01 | 1486393723.45088 | pgbench_history  |           188416
 2017-02-06 16:08:43.450881+01 | 1486393723.45088 | pgbench_branches |           393216

 2017-02-06 16:08:44.539072+01 | 1486393724.53907 | pgbench_accounts |       1391173632
 2017-02-06 16:08:44.539072+01 | 1486393724.53907 | pgbench_tellers  |          2162688
 2017-02-06 16:08:44.539072+01 | 1486393724.53907 | pgbench_history  |          1114112
 2017-02-06 16:08:44.539072+01 | 1486393724.53907 | pgbench_branches |           393216

 2017-02-06 16:08:45.624093+01 | 1486393725.62409 | pgbench_accounts |       1391173632
 2017-02-06 16:08:45.624093+01 | 1486393725.62409 | pgbench_tellers  |          2162688
 2017-02-06 16:08:45.624093+01 | 1486393725.62409 | pgbench_history  |          1982464
 2017-02-06 16:08:45.624093+01 | 1486393725.62409 | pgbench_branches |           393216

 2017-02-06 16:08:46.698167+01 | 1486393726.69817 | pgbench_accounts |       1391173632
 2017-02-06 16:08:46.698167+01 | 1486393726.69817 | pgbench_tellers  |          2162688
 2017-02-06 16:08:46.698167+01 | 1486393726.69817 | pgbench_history  |          3219456
 2017-02-06 16:08:46.698167+01 | 1486393726.69817 | pgbench_branches |           393216

 2017-02-06 16:08:47.775649+01 | 1486393727.77565 | pgbench_accounts |       1391173632
 2017-02-06 16:08:47.775649+01 | 1486393727.77565 | pgbench_tellers  |          2162688
 2017-02-06 16:08:47.775649+01 | 1486393727.77565 | pgbench_history  |          4136960
 2017-02-06 16:08:47.775649+01 | 1486393727.77565 | pgbench_branches |           778240

 2017-02-06 16:08:48.85496+01 | 1486393728.85496 | pgbench_accounts |       1391173632
 2017-02-06 16:08:48.85496+01 | 1486393728.85496 | pgbench_tellers  |          2162688
 2017-02-06 16:08:48.85496+01 | 1486393728.85496 | pgbench_history  |          5201920
 2017-02-06 16:08:48.85496+01 | 1486393728.85496 | pgbench_branches |          1630208

 2017-02-06 16:08:49.931623+01 | 1486393729.93162 | pgbench_accounts |       1391173632
 2017-02-06 16:08:49.931623+01 | 1486393729.93162 | pgbench_tellers  |          2842624
 2017-02-06 16:08:49.931623+01 | 1486393729.93162 | pgbench_history  |          6463488
 2017-02-06 16:08:49.931623+01 | 1486393729.93162 | pgbench_branches |          2375680

 2017-02-06 16:08:51.007458+01 | 1486393731.00746 | pgbench_accounts |       1391173632
 2017-02-06 16:08:51.007458+01 | 1486393731.00746 | pgbench_tellers  |          3063808
 2017-02-06 16:08:51.007458+01 | 1486393731.00746 | pgbench_history  |          7217152
 2017-02-06 16:08:51.007458+01 | 1486393731.00746 | pgbench_branches |          2375680

 2017-02-06 16:08:52.080333+01 | 1486393732.08033 | pgbench_accounts |       1391173632
 2017-02-06 16:08:52.080333+01 | 1486393732.08033 | pgbench_tellers  |          3063808
 2017-02-06 16:08:52.080333+01 | 1486393732.08033 | pgbench_history  |          8839168
 2017-02-06 16:08:52.080333+01 | 1486393732.08033 | pgbench_branches |          2473984

 2017-02-06 16:08:53.151184+01 | 1486393733.15118 | pgbench_accounts |       1391173632
 2017-02-06 16:08:53.151184+01 | 1486393733.15118 | pgbench_tellers  |          3063808
 2017-02-06 16:08:53.151184+01 | 1486393733.15118 | pgbench_history  |         10231808
 2017-02-06 16:08:53.151184+01 | 1486393733.15118 | pgbench_branches |          2473984

 2017-02-06 16:08:54.226298+01 | 1486393734.2263 | pgbench_accounts |       1391173632
 2017-02-06 16:08:54.226298+01 | 1486393734.2263 | pgbench_tellers  |          3063808
 2017-02-06 16:08:54.226298+01 | 1486393734.2263 | pgbench_history  |         10772480
 2017-02-06 16:08:54.226298+01 | 1486393734.2263 | pgbench_branches |          2473984

 2017-02-06 16:08:55.29561+01 | 1486393735.29561 | pgbench_accounts |       1391173632
 2017-02-06 16:08:55.29561+01 | 1486393735.29561 | pgbench_tellers  |          3063808
 2017-02-06 16:08:55.29561+01 | 1486393735.29561 | pgbench_history  |         11943936
 2017-02-06 16:08:55.29561+01 | 1486393735.29561 | pgbench_branches |          2473984

 2017-02-06 16:08:56.367183+01 | 1486393736.36718 | pgbench_accounts |       1391173632
 2017-02-06 16:08:56.367183+01 | 1486393736.36718 | pgbench_tellers  |          3063808
 2017-02-06 16:08:56.367183+01 | 1486393736.36718 | pgbench_history  |         13139968
 2017-02-06 16:08:56.367183+01 | 1486393736.36718 | pgbench_branches |          2473984

 2017-02-06 16:08:57.444275+01 | 1486393737.44427 | pgbench_accounts |       1391173632
 2017-02-06 16:08:57.444275+01 | 1486393737.44427 | pgbench_tellers  |          3063808
 2017-02-06 16:08:57.444275+01 | 1486393737.44427 | pgbench_history  |         14532608
 2017-02-06 16:08:57.444275+01 | 1486393737.44427 | pgbench_branches |          2482176

 2017-02-06 16:08:58.517749+01 | 1486393738.51775 | pgbench_accounts |       1391173632
 2017-02-06 16:08:58.517749+01 | 1486393738.51775 | pgbench_tellers  |          3063808
 2017-02-06 16:08:58.517749+01 | 1486393738.51775 | pgbench_history  |         15245312
 2017-02-06 16:08:58.517749+01 | 1486393738.51775 | pgbench_branches |          2482176

 2017-02-06 16:08:59.589997+01 | 1486393739.59 | pgbench_accounts |       1391173632
 2017-02-06 16:08:59.589997+01 | 1486393739.59 | pgbench_tellers  |          3063808
 2017-02-06 16:08:59.589997+01 | 1486393739.59 | pgbench_history  |         16605184
 2017-02-06 16:08:59.589997+01 | 1486393739.59 | pgbench_branches |          2482176

 2017-02-06 16:09:00.665517+01 | 1486393740.66552 | pgbench_accounts |       1391173632
 2017-02-06 16:09:00.665517+01 | 1486393740.66552 | pgbench_tellers  |          3063808
 2017-02-06 16:09:00.665517+01 | 1486393740.66552 | pgbench_history  |         17326080
 2017-02-06 16:09:00.665517+01 | 1486393740.66552 | pgbench_branches |          2482176

 2017-02-06 16:09:01.740566+01 | 1486393741.74057 | pgbench_accounts |       1391173632
 2017-02-06 16:09:01.740566+01 | 1486393741.74057 | pgbench_tellers  |          3063808
 2017-02-06 16:09:01.740566+01 | 1486393741.74057 | pgbench_history  |         19554304
 2017-02-06 16:09:01.740566+01 | 1486393741.74057 | pgbench_branches |          2482176

 2017-02-06 16:09:02.82052+01 | 1486393742.82052 | pgbench_accounts |       1391173632
 2017-02-06 16:09:02.82052+01 | 1486393742.82052 | pgbench_tellers  |          3063808
 2017-02-06 16:09:02.82052+01 | 1486393742.82052 | pgbench_history  |         19554304
 2017-02-06 16:09:02.82052+01 | 1486393742.82052 | pgbench_branches |          2482176

 2017-02-06 16:09:03.895649+01 | 1486393743.89565 | pgbench_accounts |       1391173632
 2017-02-06 16:09:03.895649+01 | 1486393743.89565 | pgbench_tellers  |          3063808
 2017-02-06 16:09:03.895649+01 | 1486393743.89565 | pgbench_history  |         20791296
 2017-02-06 16:09:03.895649+01 | 1486393743.89565 | pgbench_branches |          2482176

 2017-02-06 16:09:04.967474+01 | 1486393744.96747 | pgbench_accounts |       1391173632
 2017-02-06 16:09:04.967474+01 | 1486393744.96747 | pgbench_tellers  |          3063808
 2017-02-06 16:09:04.967474+01 | 1486393744.96747 | pgbench_history  |         21921792
 2017-02-06 16:09:04.967474+01 | 1486393744.96747 | pgbench_branches |          2482176

 2017-02-06 16:09:06.042949+01 | 1486393746.04295 | pgbench_accounts |       1391173632
 2017-02-06 16:09:06.042949+01 | 1486393746.04295 | pgbench_tellers  |          3063808
 2017-02-06 16:09:06.042949+01 | 1486393746.04295 | pgbench_history  |         23003136
 2017-02-06 16:09:06.042949+01 | 1486393746.04295 | pgbench_branches |          2482176

 2017-02-06 16:09:07.120269+01 | 1486393747.12027 | pgbench_accounts |       1391173632
 2017-02-06 16:09:07.120269+01 | 1486393747.12027 | pgbench_tellers  |          3063808
 2017-02-06 16:09:07.120269+01 | 1486393747.12027 | pgbench_history  |         24231936
 2017-02-06 16:09:07.120269+01 | 1486393747.12027 | pgbench_branches |          2482176

 2017-02-06 16:09:08.204387+01 | 1486393748.20439 | pgbench_accounts |       1391173632
 2017-02-06 16:09:08.204387+01 | 1486393748.20439 | pgbench_tellers  |          3063808
 2017-02-06 16:09:08.204387+01 | 1486393748.20439 | pgbench_history  |         25141248
 2017-02-06 16:09:08.204387+01 | 1486393748.20439 | pgbench_branches |          2482176

 2017-02-06 16:09:09.283158+01 | 1486393749.28316 | pgbench_accounts |       1391173632
 2017-02-06 16:09:09.283158+01 | 1486393749.28316 | pgbench_tellers  |          3063808
 2017-02-06 16:09:09.283158+01 | 1486393749.28316 | pgbench_history  |         26378240
 2017-02-06 16:09:09.283158+01 | 1486393749.28316 | pgbench_branches |          2482176

 2017-02-06 16:09:10.356152+01 | 1486393750.35615 | pgbench_accounts |       1391173632
 2017-02-06 16:09:10.356152+01 | 1486393750.35615 | pgbench_tellers  |          3063808
 2017-02-06 16:09:10.356152+01 | 1486393750.35615 | pgbench_history  |         27230208
 2017-02-06 16:09:10.356152+01 | 1486393750.35615 | pgbench_branches |          2482176

 2017-02-06 16:09:11.430685+01 | 1486393751.43069 | pgbench_accounts |       1391173632
 2017-02-06 16:09:11.430685+01 | 1486393751.43069 | pgbench_tellers  |          3063808
 2017-02-06 16:09:11.430685+01 | 1486393751.43069 | pgbench_history  |         28483584
 2017-02-06 16:09:11.430685+01 | 1486393751.43069 | pgbench_branches |          2482176

 2017-02-06 16:09:12.502502+01 | 1486393752.5025 | pgbench_accounts |       1391173632
 2017-02-06 16:09:12.502502+01 | 1486393752.5025 | pgbench_tellers  |          3063808
 2017-02-06 16:09:12.502502+01 | 1486393752.5025 | pgbench_history  |         29573120
 2017-02-06 16:09:12.502502+01 | 1486393752.5025 | pgbench_branches |          2482176

 2017-02-06 16:09:13.577639+01 | 1486393753.57764 | pgbench_accounts |       1391173632
 2017-02-06 16:09:13.577639+01 | 1486393753.57764 | pgbench_tellers  |          3063808
 2017-02-06 16:09:13.577639+01 | 1486393753.57764 | pgbench_history  |         30965760
 2017-02-06 16:09:13.577639+01 | 1486393753.57764 | pgbench_branches |          2482176

 2017-02-06 16:09:14.651953+01 | 1486393754.65195 | pgbench_accounts |       1391173632
 2017-02-06 16:09:14.651953+01 | 1486393754.65195 | pgbench_tellers  |          3063808
 2017-02-06 16:09:14.651953+01 | 1486393754.65195 | pgbench_history  |         31703040
 2017-02-06 16:09:14.651953+01 | 1486393754.65195 | pgbench_branches |          2482176

 2017-02-06 16:09:15.731162+01 | 1486393755.73116 | pgbench_accounts |       1391173632
 2017-02-06 16:09:15.731162+01 | 1486393755.73116 | pgbench_tellers  |          3063808
 2017-02-06 16:09:15.731162+01 | 1486393755.73116 | pgbench_history  |         32858112
 2017-02-06 16:09:15.731162+01 | 1486393755.73116 | pgbench_branches |          2482176

 2017-02-06 16:09:16.807903+01 | 1486393756.8079 | pgbench_accounts |       1391173632
 2017-02-06 16:09:16.807903+01 | 1486393756.8079 | pgbench_tellers  |          3063808
 2017-02-06 16:09:16.807903+01 | 1486393756.8079 | pgbench_history  |         34103296
 2017-02-06 16:09:16.807903+01 | 1486393756.8079 | pgbench_branches |          2482176

 2017-02-06 16:09:17.888806+01 | 1486393757.88881 | pgbench_accounts |       1391173632
 2017-02-06 16:09:17.888806+01 | 1486393757.88881 | pgbench_tellers  |          3063808
 2017-02-06 16:09:17.888806+01 | 1486393757.88881 | pgbench_history  |         34979840
 2017-02-06 16:09:17.888806+01 | 1486393757.88881 | pgbench_branches |          2482176

 2017-02-06 16:09:18.966266+01 | 1486393758.96627 | pgbench_accounts |       1391173632
 2017-02-06 16:09:18.966266+01 | 1486393758.96627 | pgbench_tellers  |          3063808
 2017-02-06 16:09:18.966266+01 | 1486393758.96627 | pgbench_history  |         36290560
 2017-02-06 16:09:18.966266+01 | 1486393758.96627 | pgbench_branches |          2482176

 2017-02-06 16:09:20.042869+01 | 1486393760.04287 | pgbench_accounts |       1391173632
 2017-02-06 16:09:20.042869+01 | 1486393760.04287 | pgbench_tellers  |          3063808
 2017-02-06 16:09:20.042869+01 | 1486393760.04287 | pgbench_history  |         37519360
 2017-02-06 16:09:20.042869+01 | 1486393760.04287 | pgbench_branches |          2482176

 2017-02-06 16:09:21.115673+01 | 1486393761.11567 | pgbench_accounts |       1391173632
 2017-02-06 16:09:21.115673+01 | 1486393761.11567 | pgbench_tellers  |          3063808
 2017-02-06 16:09:21.115673+01 | 1486393761.11567 | pgbench_history  |         38469632
 2017-02-06 16:09:21.115673+01 | 1486393761.11567 | pgbench_branches |          2482176

 2017-02-06 16:09:22.188196+01 | 1486393762.1882 | pgbench_accounts |       1391173632
 2017-02-06 16:09:22.188196+01 | 1486393762.1882 | pgbench_tellers  |          3063808
 2017-02-06 16:09:22.188196+01 | 1486393762.1882 | pgbench_history  |         40214528
 2017-02-06 16:09:22.188196+01 | 1486393762.1882 | pgbench_branches |          2482176

 2017-02-06 16:09:23.266936+01 | 1486393763.26694 | pgbench_accounts |       1391173632
 2017-02-06 16:09:23.266936+01 | 1486393763.26694 | pgbench_tellers  |          3063808
 2017-02-06 16:09:23.266936+01 | 1486393763.26694 | pgbench_history  |         40968192
 2017-02-06 16:09:23.266936+01 | 1486393763.26694 | pgbench_branches |          2482176

 2017-02-06 16:09:24.345201+01 | 1486393764.3452 | pgbench_accounts |       1391173632
 2017-02-06 16:09:24.345201+01 | 1486393764.3452 | pgbench_tellers  |          3063808
 2017-02-06 16:09:24.345201+01 | 1486393764.3452 | pgbench_history  |         42565632
 2017-02-06 16:09:24.345201+01 | 1486393764.3452 | pgbench_branches |          2482176

 2017-02-06 16:09:25.408199+01 | 1486393765.4082 | pgbench_accounts |       1391173632
 2017-02-06 16:09:25.408199+01 | 1486393765.4082 | pgbench_tellers  |          3063808
 2017-02-06 16:09:25.408199+01 | 1486393765.4082 | pgbench_history  |         43450368
 2017-02-06 16:09:25.408199+01 | 1486393765.4082 | pgbench_branches |          2482176

 2017-02-06 16:09:26.484099+01 | 1486393766.4841 | pgbench_accounts |       1391173632
 2017-02-06 16:09:26.484099+01 | 1486393766.4841 | pgbench_tellers  |          3063808
 2017-02-06 16:09:26.484099+01 | 1486393766.4841 | pgbench_history  |         44482560
 2017-02-06 16:09:26.484099+01 | 1486393766.4841 | pgbench_branches |          2482176

 2017-02-06 16:09:27.553333+01 | 1486393767.55333 | pgbench_accounts |       1391173632
 2017-02-06 16:09:27.553333+01 | 1486393767.55333 | pgbench_tellers  |          3063808
 2017-02-06 16:09:27.553333+01 | 1486393767.55333 | pgbench_history  |         45727744
 2017-02-06 16:09:27.553333+01 | 1486393767.55333 | pgbench_branches |          2482176

 2017-02-06 16:09:28.625701+01 | 1486393768.6257 | pgbench_accounts |       1391173632
 2017-02-06 16:09:28.625701+01 | 1486393768.6257 | pgbench_tellers  |          3063808
 2017-02-06 16:09:28.625701+01 | 1486393768.6257 | pgbench_history  |         46800896
 2017-02-06 16:09:28.625701+01 | 1486393768.6257 | pgbench_branches |          2482176

 2017-02-06 16:09:29.702837+01 | 1486393769.70284 | pgbench_accounts |       1391173632
 2017-02-06 16:09:29.702837+01 | 1486393769.70284 | pgbench_tellers  |          3063808
 2017-02-06 16:09:29.702837+01 | 1486393769.70284 | pgbench_history  |         48029696
 2017-02-06 16:09:29.702837+01 | 1486393769.70284 | pgbench_branches |          2482176

 2017-02-06 16:09:30.781923+01 | 1486393770.78192 | pgbench_accounts |       1391173632
 2017-02-06 16:09:30.781923+01 | 1486393770.78192 | pgbench_tellers  |          3063808
 2017-02-06 16:09:30.781923+01 | 1486393770.78192 | pgbench_history  |         49258496
 2017-02-06 16:09:30.781923+01 | 1486393770.78192 | pgbench_branches |          2482176

 2017-02-06 16:09:31.85707+01 | 1486393771.85707 | pgbench_accounts |       1391173632
 2017-02-06 16:09:31.85707+01 | 1486393771.85707 | pgbench_tellers  |          3063808
 2017-02-06 16:09:31.85707+01 | 1486393771.85707 | pgbench_history  |         50520064
 2017-02-06 16:09:31.85707+01 | 1486393771.85707 | pgbench_branches |          2482176

 2017-02-06 16:09:32.933807+01 | 1486393772.93381 | pgbench_accounts |       1391173632
 2017-02-06 16:09:32.933807+01 | 1486393772.93381 | pgbench_tellers  |          3063808
 2017-02-06 16:09:32.933807+01 | 1486393772.93381 | pgbench_history  |         51740672
 2017-02-06 16:09:32.933807+01 | 1486393772.93381 | pgbench_branches |          2482176

 2017-02-06 16:09:34.007265+01 | 1486393774.00727 | pgbench_accounts |       1391173632
 2017-02-06 16:09:34.007265+01 | 1486393774.00727 | pgbench_tellers  |          3063808
 2017-02-06 16:09:34.007265+01 | 1486393774.00727 | pgbench_history  |         53133312
 2017-02-06 16:09:34.007265+01 | 1486393774.00727 | pgbench_branches |          2482176

 2017-02-06 16:09:35.079739+01 | 1486393775.07974 | pgbench_accounts |       1391173632
 2017-02-06 16:09:35.079739+01 | 1486393775.07974 | pgbench_tellers  |          3063808
 2017-02-06 16:09:35.079739+01 | 1486393775.07974 | pgbench_history  |         54018048
 2017-02-06 16:09:35.079739+01 | 1486393775.07974 | pgbench_branches |          2482176

 2017-02-06 16:09:36.156565+01 | 1486393776.15656 | pgbench_accounts |       1391173632
 2017-02-06 16:09:36.156565+01 | 1486393776.15656 | pgbench_tellers  |          3063808
 2017-02-06 16:09:36.156565+01 | 1486393776.15656 | pgbench_history  |         55230464
 2017-02-06 16:09:36.156565+01 | 1486393776.15656 | pgbench_branches |          2482176

 2017-02-06 16:09:37.232795+01 | 1486393777.2328 | pgbench_accounts |       1391173632
 2017-02-06 16:09:37.232795+01 | 1486393777.2328 | pgbench_tellers  |          3063808
 2017-02-06 16:09:37.232795+01 | 1486393777.2328 | pgbench_history  |         56262656
 2017-02-06 16:09:37.232795+01 | 1486393777.2328 | pgbench_branches |          2482176

 2017-02-06 16:09:38.307317+01 | 1486393778.30732 | pgbench_accounts |       1391173632
 2017-02-06 16:09:38.307317+01 | 1486393778.30732 | pgbench_tellers  |          3063808
 2017-02-06 16:09:38.307317+01 | 1486393778.30732 | pgbench_history  |         57688064
 2017-02-06 16:09:38.307317+01 | 1486393778.30732 | pgbench_branches |          2482176

 2017-02-06 16:09:39.395896+01 | 1486393779.3959 | pgbench_accounts |       1391173632
 2017-02-06 16:09:39.395896+01 | 1486393779.3959 | pgbench_tellers  |          3063808
 2017-02-06 16:09:39.395896+01 | 1486393779.3959 | pgbench_history  |         58925056
 2017-02-06 16:09:39.395896+01 | 1486393779.3959 | pgbench_branches |          2482176

 2017-02-06 16:09:40.470246+01 | 1486393780.47025 | pgbench_accounts |       1391173632
 2017-02-06 16:09:40.470246+01 | 1486393780.47025 | pgbench_tellers  |          3063808
 2017-02-06 16:09:40.470246+01 | 1486393780.47025 | pgbench_history  |         59998208
 2017-02-06 16:09:40.470246+01 | 1486393780.47025 | pgbench_branches |          2482176

 2017-02-06 16:09:41.54511+01 | 1486393781.54511 | pgbench_accounts |       1391173632
 2017-02-06 16:09:41.54511+01 | 1486393781.54511 | pgbench_tellers  |          3063808
 2017-02-06 16:09:41.54511+01 | 1486393781.54511 | pgbench_history  |         61054976
 2017-02-06 16:09:41.54511+01 | 1486393781.54511 | pgbench_branches |          2482176

 2017-02-06 16:09:42.620325+01 | 1486393782.62033 | pgbench_accounts |       1391173632
 2017-02-06 16:09:42.620325+01 | 1486393782.62033 | pgbench_tellers  |          3063808
 2017-02-06 16:09:42.620325+01 | 1486393782.62033 | pgbench_history  |         62283776
 2017-02-06 16:09:42.620325+01 | 1486393782.62033 | pgbench_branches |          2482176

 2017-02-06 16:09:43.693855+01 | 1486393783.69386 | pgbench_accounts |       1391173632
 2017-02-06 16:09:43.693855+01 | 1486393783.69386 | pgbench_tellers  |          3063808
 2017-02-06 16:09:43.693855+01 | 1486393783.69386 | pgbench_history  |         64020480
 2017-02-06 16:09:43.693855+01 | 1486393783.69386 | pgbench_branches |          2482176

 2017-02-06 16:09:44.768227+01 | 1486393784.76823 | pgbench_accounts |       1391173632
 2017-02-06 16:09:44.768227+01 | 1486393784.76823 | pgbench_tellers  |          3063808
 2017-02-06 16:09:44.768227+01 | 1486393784.76823 | pgbench_history  |         64536576
 2017-02-06 16:09:44.768227+01 | 1486393784.76823 | pgbench_branches |          2482176

 2017-02-06 16:09:45.842545+01 | 1486393785.84255 | pgbench_accounts |       1391173632
 2017-02-06 16:09:45.842545+01 | 1486393785.84255 | pgbench_tellers  |          3063808
 2017-02-06 16:09:45.842545+01 | 1486393785.84255 | pgbench_history  |         65765376
 2017-02-06 16:09:45.842545+01 | 1486393785.84255 | pgbench_branches |          2482176

 2017-02-06 16:09:46.915914+01 | 1486393786.91591 | pgbench_accounts |       1391173632
 2017-02-06 16:09:46.915914+01 | 1486393786.91591 | pgbench_tellers  |          3063808
 2017-02-06 16:09:46.915914+01 | 1486393786.91591 | pgbench_history  |         67043328
 2017-02-06 16:09:46.915914+01 | 1486393786.91591 | pgbench_branches |          2482176

 2017-02-06 16:09:47.987543+01 | 1486393787.98754 | pgbench_accounts |       1391173632
 2017-02-06 16:09:47.987543+01 | 1486393787.98754 | pgbench_tellers  |          3063808
 2017-02-06 16:09:47.987543+01 | 1486393787.98754 | pgbench_history  |         68501504
 2017-02-06 16:09:47.987543+01 | 1486393787.98754 | pgbench_branches |          2482176

 2017-02-06 16:09:49.065253+01 | 1486393789.06525 | pgbench_accounts |       1391173632
 2017-02-06 16:09:49.065253+01 | 1486393789.06525 | pgbench_tellers  |          3063808
 2017-02-06 16:09:49.065253+01 | 1486393789.06525 | pgbench_history  |         69582848
 2017-02-06 16:09:49.065253+01 | 1486393789.06525 | pgbench_branches |          2482176

 2017-02-06 16:09:50.152096+01 | 1486393790.1521 | pgbench_accounts |       1391173632
 2017-02-06 16:09:50.152096+01 | 1486393790.1521 | pgbench_tellers  |          3063808
 2017-02-06 16:09:50.152096+01 | 1486393790.1521 | pgbench_history  |         70787072
 2017-02-06 16:09:50.152096+01 | 1486393790.1521 | pgbench_branches |          2482176

 2017-02-06 16:09:51.230897+01 | 1486393791.2309 | pgbench_accounts |       1391173632
 2017-02-06 16:09:51.230897+01 | 1486393791.2309 | pgbench_tellers  |          3063808
 2017-02-06 16:09:51.230897+01 | 1486393791.2309 | pgbench_history  |         71835648
 2017-02-06 16:09:51.230897+01 | 1486393791.2309 | pgbench_branches |          2482176

 2017-02-06 16:09:52.305291+01 | 1486393792.30529 | pgbench_accounts |       1391173632
 2017-02-06 16:09:52.305291+01 | 1486393792.30529 | pgbench_tellers  |          3063808
 2017-02-06 16:09:52.305291+01 | 1486393792.30529 | pgbench_history  |         73121792
 2017-02-06 16:09:52.305291+01 | 1486393792.30529 | pgbench_branches |          2482176

 2017-02-06 16:09:53.385155+01 | 1486393793.38515 | pgbench_accounts |       1391173632
 2017-02-06 16:09:53.385155+01 | 1486393793.38515 | pgbench_tellers  |          3063808
 2017-02-06 16:09:53.385155+01 | 1486393793.38515 | pgbench_history  |         74244096
 2017-02-06 16:09:53.385155+01 | 1486393793.38515 | pgbench_branches |          2482176

 2017-02-06 16:09:54.461255+01 | 1486393794.46126 | pgbench_accounts |       1391173632
 2017-02-06 16:09:54.461255+01 | 1486393794.46126 | pgbench_tellers  |          3063808
 2017-02-06 16:09:54.461255+01 | 1486393794.46126 | pgbench_history  |         75350016
 2017-02-06 16:09:54.461255+01 | 1486393794.46126 | pgbench_branches |          2482176

 2017-02-06 16:09:55.533966+01 | 1486393795.53397 | pgbench_accounts |       1391173632
 2017-02-06 16:09:55.533966+01 | 1486393795.53397 | pgbench_tellers  |          3063808
 2017-02-06 16:09:55.533966+01 | 1486393795.53397 | pgbench_history  |         76587008
 2017-02-06 16:09:55.533966+01 | 1486393795.53397 | pgbench_branches |          2482176

 2017-02-06 16:09:56.61077+01 | 1486393796.61077 | pgbench_accounts |       1391173632
 2017-02-06 16:09:56.61077+01 | 1486393796.61077 | pgbench_tellers  |          3063808
 2017-02-06 16:09:56.61077+01 | 1486393796.61077 | pgbench_history  |         77889536
 2017-02-06 16:09:56.61077+01 | 1486393796.61077 | pgbench_branches |          2482176

 2017-02-06 16:09:57.681478+01 | 1486393797.68148 | pgbench_accounts |       1391173632
 2017-02-06 16:09:57.681478+01 | 1486393797.68148 | pgbench_tellers  |          3063808
 2017-02-06 16:09:57.681478+01 | 1486393797.68148 | pgbench_history  |         79249408
 2017-02-06 16:09:57.681478+01 | 1486393797.68148 | pgbench_branches |          2482176

 2017-02-06 16:09:58.756028+01 | 1486393798.75603 | pgbench_accounts |       1391173632
 2017-02-06 16:09:58.756028+01 | 1486393798.75603 | pgbench_tellers  |          3063808
 2017-02-06 16:09:58.756028+01 | 1486393798.75603 | pgbench_history  |         80142336
 2017-02-06 16:09:58.756028+01 | 1486393798.75603 | pgbench_branches |          2482176

 2017-02-06 16:09:59.83413+01 | 1486393799.83413 | pgbench_accounts |       1391173632
 2017-02-06 16:09:59.83413+01 | 1486393799.83413 | pgbench_tellers  |          3063808
 2017-02-06 16:09:59.83413+01 | 1486393799.83413 | pgbench_history  |         82182144
 2017-02-06 16:09:59.83413+01 | 1486393799.83413 | pgbench_branches |          2482176

 2017-02-06 16:10:00.905857+01 | 1486393800.90586 | pgbench_accounts |       1391173632
 2017-02-06 16:10:00.905857+01 | 1486393800.90586 | pgbench_tellers  |          3063808
 2017-02-06 16:10:00.905857+01 | 1486393800.90586 | pgbench_history  |         82722816
 2017-02-06 16:10:00.905857+01 | 1486393800.90586 | pgbench_branches |          2482176

 2017-02-06 16:10:01.98173+01 | 1486393801.98173 | pgbench_accounts |       1391173632
 2017-02-06 16:10:01.98173+01 | 1486393801.98173 | pgbench_tellers  |          3063808
 2017-02-06 16:10:01.98173+01 | 1486393801.98173 | pgbench_history  |         83992576
 2017-02-06 16:10:01.98173+01 | 1486393801.98173 | pgbench_branches |          2482176

 2017-02-06 16:10:03.060534+01 | 1486393803.06053 | pgbench_accounts |       1391173632
 2017-02-06 16:10:03.060534+01 | 1486393803.06053 | pgbench_tellers  |          3063808
 2017-02-06 16:10:03.060534+01 | 1486393803.06053 | pgbench_history  |         85385216
 2017-02-06 16:10:03.060534+01 | 1486393803.06053 | pgbench_branches |          2482176

 2017-02-06 16:10:04.13604+01 | 1486393804.13604 | pgbench_accounts |       1391173632
 2017-02-06 16:10:04.13604+01 | 1486393804.13604 | pgbench_tellers  |          3063808
 2017-02-06 16:10:04.13604+01 | 1486393804.13604 | pgbench_history  |         86794240
 2017-02-06 16:10:04.13604+01 | 1486393804.13604 | pgbench_branches |          2482176

 2017-02-06 16:10:05.211586+01 | 1486393805.21159 | pgbench_accounts |       1391173632
 2017-02-06 16:10:05.211586+01 | 1486393805.21159 | pgbench_tellers  |          3063808
 2017-02-06 16:10:05.211586+01 | 1486393805.21159 | pgbench_history  |         87531520
 2017-02-06 16:10:05.211586+01 | 1486393805.21159 | pgbench_branches |          2482176

 2017-02-06 16:10:06.294629+01 | 1486393806.29463 | pgbench_accounts |       1391173632
 2017-02-06 16:10:06.294629+01 | 1486393806.29463 | pgbench_tellers  |          3063808
 2017-02-06 16:10:06.294629+01 | 1486393806.29463 | pgbench_history  |         89096192
 2017-02-06 16:10:06.294629+01 | 1486393806.29463 | pgbench_branches |          2482176

 2017-02-06 16:10:07.373657+01 | 1486393807.37366 | pgbench_accounts |       1391173632
 2017-02-06 16:10:07.373657+01 | 1486393807.37366 | pgbench_tellers  |          3063808
 2017-02-06 16:10:07.373657+01 | 1486393807.37366 | pgbench_history  |         90038272
 2017-02-06 16:10:07.373657+01 | 1486393807.37366 | pgbench_branches |          2482176

 2017-02-06 16:10:08.446517+01 | 1486393808.44652 | pgbench_accounts |       1391173632
 2017-02-06 16:10:08.446517+01 | 1486393808.44652 | pgbench_tellers  |          3063808
 2017-02-06 16:10:08.446517+01 | 1486393808.44652 | pgbench_history  |         91299840
 2017-02-06 16:10:08.446517+01 | 1486393808.44652 | pgbench_branches |          2482176

 2017-02-06 16:10:09.526652+01 | 1486393809.52665 | pgbench_accounts |       1391173632
 2017-02-06 16:10:09.526652+01 | 1486393809.52665 | pgbench_tellers  |          3063808
 2017-02-06 16:10:09.526652+01 | 1486393809.52665 | pgbench_history  |         92880896
 2017-02-06 16:10:09.526652+01 | 1486393809.52665 | pgbench_branches |          2482176

 2017-02-06 16:10:10.594799+01 | 1486393810.5948 | pgbench_accounts |       1391173632
 2017-02-06 16:10:10.594799+01 | 1486393810.5948 | pgbench_tellers  |          3063808
 2017-02-06 16:10:10.594799+01 | 1486393810.5948 | pgbench_history  |         94093312
 2017-02-06 16:10:10.594799+01 | 1486393810.5948 | pgbench_branches |          2482176

 2017-02-06 16:10:11.677974+01 | 1486393811.67797 | pgbench_accounts |       1391173632
 2017-02-06 16:10:11.677974+01 | 1486393811.67797 | pgbench_tellers  |          3063808
 2017-02-06 16:10:11.677974+01 | 1486393811.67797 | pgbench_history  |         94609408
 2017-02-06 16:10:11.677974+01 | 1486393811.67797 | pgbench_branches |          2482176

 2017-02-06 16:10:12.755344+01 | 1486393812.75534 | pgbench_accounts |       1391173632
 2017-02-06 16:10:12.755344+01 | 1486393812.75534 | pgbench_tellers  |          3063808
 2017-02-06 16:10:12.755344+01 | 1486393812.75534 | pgbench_history  |         97009664
 2017-02-06 16:10:12.755344+01 | 1486393812.75534 | pgbench_branches |          2482176

 2017-02-06 16:10:13.831591+01 | 1486393813.83159 | pgbench_accounts |       1391173632
 2017-02-06 16:10:13.831591+01 | 1486393813.83159 | pgbench_tellers  |          3063808
 2017-02-06 16:10:13.831591+01 | 1486393813.83159 | pgbench_history  |         97361920
 2017-02-06 16:10:13.831591+01 | 1486393813.83159 | pgbench_branches |          2482176

 2017-02-06 16:10:14.912661+01 | 1486393814.91266 | pgbench_accounts |       1391173632
 2017-02-06 16:10:14.912661+01 | 1486393814.91266 | pgbench_tellers  |          3063808
 2017-02-06 16:10:14.912661+01 | 1486393814.91266 | pgbench_history  |         98451456
 2017-02-06 16:10:14.912661+01 | 1486393814.91266 | pgbench_branches |          2482176

 2017-02-06 16:10:15.984949+01 | 1486393815.98495 | pgbench_accounts |       1391173632
 2017-02-06 16:10:15.984949+01 | 1486393815.98495 | pgbench_tellers  |          3063808
 2017-02-06 16:10:15.984949+01 | 1486393815.98495 | pgbench_history  |        100089856
 2017-02-06 16:10:15.984949+01 | 1486393815.98495 | pgbench_branches |          2482176

 2017-02-06 16:10:17.057247+01 | 1486393817.05725 | pgbench_accounts |       1391173632
 2017-02-06 16:10:17.057247+01 | 1486393817.05725 | pgbench_tellers  |          3063808
 2017-02-06 16:10:17.057247+01 | 1486393817.05725 | pgbench_history  |        101138432
 2017-02-06 16:10:17.057247+01 | 1486393817.05725 | pgbench_branches |          2482176

 2017-02-06 16:10:18.132801+01 | 1486393818.1328 | pgbench_accounts |       1391173632
 2017-02-06 16:10:18.132801+01 | 1486393818.1328 | pgbench_tellers  |          3063808
 2017-02-06 16:10:18.132801+01 | 1486393818.1328 | pgbench_history  |        101892096
 2017-02-06 16:10:18.132801+01 | 1486393818.1328 | pgbench_branches |          2482176

 2017-02-06 16:10:19.212712+01 | 1486393819.21271 | pgbench_accounts |       1391173632
 2017-02-06 16:10:19.212712+01 | 1486393819.21271 | pgbench_tellers  |          3063808
 2017-02-06 16:10:19.212712+01 | 1486393819.21271 | pgbench_history  |        103440384
 2017-02-06 16:10:19.212712+01 | 1486393819.21271 | pgbench_branches |          2482176

 2017-02-06 16:10:20.284625+01 | 1486393820.28463 | pgbench_accounts |       1391173632
 2017-02-06 16:10:20.284625+01 | 1486393820.28463 | pgbench_tellers  |          3063808
 2017-02-06 16:10:20.284625+01 | 1486393820.28463 | pgbench_history  |        104718336
 2017-02-06 16:10:20.284625+01 | 1486393820.28463 | pgbench_branches |          2482176

 2017-02-06 16:10:21.366571+01 | 1486393821.36657 | pgbench_accounts |       1391173632
 2017-02-06 16:10:21.366571+01 | 1486393821.36657 | pgbench_tellers  |          3063808
 2017-02-06 16:10:21.366571+01 | 1486393821.36657 | pgbench_history  |        105586688
 2017-02-06 16:10:21.366571+01 | 1486393821.36657 | pgbench_branches |          2482176

 2017-02-06 16:10:22.443925+01 | 1486393822.44392 | pgbench_accounts |       1391173632
 2017-02-06 16:10:22.443925+01 | 1486393822.44392 | pgbench_tellers  |          3063808
 2017-02-06 16:10:22.443925+01 | 1486393822.44392 | pgbench_history  |        106864640
 2017-02-06 16:10:22.443925+01 | 1486393822.44392 | pgbench_branches |          2482176

 2017-02-06 16:10:23.517578+01 | 1486393823.51758 | pgbench_accounts |       1391173632
 2017-02-06 16:10:23.517578+01 | 1486393823.51758 | pgbench_tellers  |          3063808
 2017-02-06 16:10:23.517578+01 | 1486393823.51758 | pgbench_history  |        107986944
 2017-02-06 16:10:23.517578+01 | 1486393823.51758 | pgbench_branches |          2482176

 2017-02-06 16:10:24.590913+01 | 1486393824.59091 | pgbench_accounts |       1391173632
 2017-02-06 16:10:24.590913+01 | 1486393824.59091 | pgbench_tellers  |          3063808
 2017-02-06 16:10:24.590913+01 | 1486393824.59091 | pgbench_history  |        109232128
 2017-02-06 16:10:24.590913+01 | 1486393824.59091 | pgbench_branches |          2482176

 2017-02-06 16:10:25.669729+01 | 1486393825.66973 | pgbench_accounts |       1391173632
 2017-02-06 16:10:25.669729+01 | 1486393825.66973 | pgbench_tellers  |          3063808
 2017-02-06 16:10:25.669729+01 | 1486393825.66973 | pgbench_history  |        110641152
 2017-02-06 16:10:25.669729+01 | 1486393825.66973 | pgbench_branches |          2482176

 2017-02-06 16:10:26.744091+01 | 1486393826.74409 | pgbench_accounts |       1391173632
 2017-02-06 16:10:26.744091+01 | 1486393826.74409 | pgbench_tellers  |          3063808
 2017-02-06 16:10:26.744091+01 | 1486393826.74409 | pgbench_history  |        111869952
 2017-02-06 16:10:26.744091+01 | 1486393826.74409 | pgbench_branches |          2482176

 2017-02-06 16:10:27.816735+01 | 1486393827.81674 | pgbench_accounts |       1391173632
 2017-02-06 16:10:27.816735+01 | 1486393827.81674 | pgbench_tellers  |          3063808
 2017-02-06 16:10:27.816735+01 | 1486393827.81674 | pgbench_history  |        112926720
 2017-02-06 16:10:27.816735+01 | 1486393827.81674 | pgbench_branches |          2482176

 2017-02-06 16:10:28.890081+01 | 1486393828.89008 | pgbench_accounts |       1391173632
 2017-02-06 16:10:28.890081+01 | 1486393828.89008 | pgbench_tellers  |          3063808
 2017-02-06 16:10:28.890081+01 | 1486393828.89008 | pgbench_history  |        114065408
 2017-02-06 16:10:28.890081+01 | 1486393828.89008 | pgbench_branches |          2482176

 2017-02-06 16:10:29.965911+01 | 1486393829.96591 | pgbench_accounts |       1391173632
 2017-02-06 16:10:29.965911+01 | 1486393829.96591 | pgbench_tellers  |          3063808
 2017-02-06 16:10:29.965911+01 | 1486393829.96591 | pgbench_history  |        115318784
 2017-02-06 16:10:29.965911+01 | 1486393829.96591 | pgbench_branches |          2482176

 2017-02-06 16:10:31.04459+01 | 1486393831.04459 | pgbench_accounts |       1391173632
 2017-02-06 16:10:31.04459+01 | 1486393831.04459 | pgbench_tellers  |          3063808
 2017-02-06 16:10:31.04459+01 | 1486393831.04459 | pgbench_history  |        116932608
 2017-02-06 16:10:31.04459+01 | 1486393831.04459 | pgbench_branches |          2482176

 2017-02-06 16:10:32.119195+01 | 1486393832.11919 | pgbench_accounts |       1391173632
 2017-02-06 16:10:32.119195+01 | 1486393832.11919 | pgbench_tellers  |          3063808
 2017-02-06 16:10:32.119195+01 | 1486393832.11919 | pgbench_history  |        117800960
 2017-02-06 16:10:32.119195+01 | 1486393832.11919 | pgbench_branches |          2482176

 2017-02-06 16:10:33.196759+01 | 1486393833.19676 | pgbench_accounts |       1391173632
 2017-02-06 16:10:33.196759+01 | 1486393833.19676 | pgbench_tellers  |          3063808
 2017-02-06 16:10:33.196759+01 | 1486393833.19676 | pgbench_history  |        119218176
 2017-02-06 16:10:33.196759+01 | 1486393833.19676 | pgbench_branches |          2482176

 2017-02-06 16:10:34.269418+01 | 1486393834.26942 | pgbench_accounts |       1391173632
 2017-02-06 16:10:34.269418+01 | 1486393834.26942 | pgbench_tellers  |          3063808
 2017-02-06 16:10:34.269418+01 | 1486393834.26942 | pgbench_history  |        120283136
 2017-02-06 16:10:34.269418+01 | 1486393834.26942 | pgbench_branches |          2482176

 2017-02-06 16:10:35.35052+01 | 1486393835.35052 | pgbench_accounts |       1391173632
 2017-02-06 16:10:35.35052+01 | 1486393835.35052 | pgbench_tellers  |          3063808
 2017-02-06 16:10:35.35052+01 | 1486393835.35052 | pgbench_history  |        121487360
 2017-02-06 16:10:35.35052+01 | 1486393835.35052 | pgbench_branches |          2482176

 2017-02-06 16:10:36.421399+01 | 1486393836.4214 | pgbench_accounts |       1391173632
 2017-02-06 16:10:36.421399+01 | 1486393836.4214 | pgbench_tellers  |          3063808
 2017-02-06 16:10:36.421399+01 | 1486393836.4214 | pgbench_history  |        123330560
 2017-02-06 16:10:36.421399+01 | 1486393836.4214 | pgbench_branches |          2482176

 2017-02-06 16:10:37.483523+01 | 1486393837.48352 | pgbench_accounts |       1391173632
 2017-02-06 16:10:37.483523+01 | 1486393837.48352 | pgbench_tellers  |          3063808
 2017-02-06 16:10:37.483523+01 | 1486393837.48352 | pgbench_history  |        124174336
 2017-02-06 16:10:37.483523+01 | 1486393837.48352 | pgbench_branches |          2482176

 2017-02-06 16:10:38.560032+01 | 1486393838.56003 | pgbench_accounts |       1391173632
 2017-02-06 16:10:38.560032+01 | 1486393838.56003 | pgbench_tellers  |          3063808
 2017-02-06 16:10:38.560032+01 | 1486393838.56003 | pgbench_history  |        125206528
 2017-02-06 16:10:38.560032+01 | 1486393838.56003 | pgbench_branches |          2482176

 2017-02-06 16:10:39.633682+01 | 1486393839.63368 | pgbench_accounts |       1391173632
 2017-02-06 16:10:39.633682+01 | 1486393839.63368 | pgbench_tellers  |          3063808
 2017-02-06 16:10:39.633682+01 | 1486393839.63368 | pgbench_history  |        126533632
 2017-02-06 16:10:39.633682+01 | 1486393839.63368 | pgbench_branches |          2482176

 2017-02-06 16:10:40.711332+01 | 1486393840.71133 | pgbench_accounts |       1391173632
 2017-02-06 16:10:40.711332+01 | 1486393840.71133 | pgbench_tellers  |          3063808
 2017-02-06 16:10:40.711332+01 | 1486393840.71133 | pgbench_history  |        127606784
 2017-02-06 16:10:40.711332+01 | 1486393840.71133 | pgbench_branches |          2482176

 2017-02-06 16:10:41.781997+01 | 1486393841.782 | pgbench_accounts |       1391173632
 2017-02-06 16:10:41.781997+01 | 1486393841.782 | pgbench_tellers  |          3063808
 2017-02-06 16:10:41.781997+01 | 1486393841.782 | pgbench_history  |        128753664
 2017-02-06 16:10:41.781997+01 | 1486393841.782 | pgbench_branches |          2482176

 2017-02-06 16:10:42.85874+01 | 1486393842.85874 | pgbench_accounts |       1391173632
 2017-02-06 16:10:42.85874+01 | 1486393842.85874 | pgbench_tellers  |          3063808
 2017-02-06 16:10:42.85874+01 | 1486393842.85874 | pgbench_history  |        130105344
 2017-02-06 16:10:42.85874+01 | 1486393842.85874 | pgbench_branches |          2482176

 2017-02-06 16:10:43.929488+01 | 1486393843.92949 | pgbench_accounts |       1391173632
 2017-02-06 16:10:43.929488+01 | 1486393843.92949 | pgbench_tellers  |          3063808
 2017-02-06 16:10:43.929488+01 | 1486393843.92949 | pgbench_history  |        131465216
 2017-02-06 16:10:43.929488+01 | 1486393843.92949 | pgbench_branches |          2482176

 2017-02-06 16:10:45.001834+01 | 1486393845.00183 | pgbench_accounts |       1391173632
 2017-02-06 16:10:45.001834+01 | 1486393845.00183 | pgbench_tellers  |          3063808
 2017-02-06 16:10:45.001834+01 | 1486393845.00183 | pgbench_history  |        132415488
 2017-02-06 16:10:45.001834+01 | 1486393845.00183 | pgbench_branches |          2482176

 2017-02-06 16:10:46.07406+01 | 1486393846.07406 | pgbench_accounts |       1391173632
 2017-02-06 16:10:46.07406+01 | 1486393846.07406 | pgbench_tellers  |          3063808
 2017-02-06 16:10:46.07406+01 | 1486393846.07406 | pgbench_history  |        134160384
 2017-02-06 16:10:46.07406+01 | 1486393846.07406 | pgbench_branches |          2482176

 2017-02-06 16:10:47.144689+01 | 1486393847.14469 | pgbench_accounts |       1391173632
 2017-02-06 16:10:47.144689+01 | 1486393847.14469 | pgbench_tellers  |          3063808
 2017-02-06 16:10:47.144689+01 | 1486393847.14469 | pgbench_history  |        135020544
 2017-02-06 16:10:47.144689+01 | 1486393847.14469 | pgbench_branches |          2482176

 2017-02-06 16:10:48.217108+01 | 1486393848.21711 | pgbench_accounts |       1391173632
 2017-02-06 16:10:48.217108+01 | 1486393848.21711 | pgbench_tellers  |          3063808
 2017-02-06 16:10:48.217108+01 | 1486393848.21711 | pgbench_history  |        135954432
 2017-02-06 16:10:48.217108+01 | 1486393848.21711 | pgbench_branches |          2482176

 2017-02-06 16:10:49.296919+01 | 1486393849.29692 | pgbench_accounts |       1391173632
 2017-02-06 16:10:49.296919+01 | 1486393849.29692 | pgbench_tellers  |          3063808
 2017-02-06 16:10:49.296919+01 | 1486393849.29692 | pgbench_history  |        137322496
 2017-02-06 16:10:49.296919+01 | 1486393849.29692 | pgbench_branches |          2482176

 2017-02-06 16:10:50.365578+01 | 1486393850.36558 | pgbench_accounts |       1391173632
 2017-02-06 16:10:50.365578+01 | 1486393850.36558 | pgbench_tellers  |          3063808
 2017-02-06 16:10:50.365578+01 | 1486393850.36558 | pgbench_history  |        138518528
 2017-02-06 16:10:50.365578+01 | 1486393850.36558 | pgbench_branches |          2482176

 2017-02-06 16:10:51.438346+01 | 1486393851.43835 | pgbench_accounts |       1391173632
 2017-02-06 16:10:51.438346+01 | 1486393851.43835 | pgbench_tellers  |          3063808
 2017-02-06 16:10:51.438346+01 | 1486393851.43835 | pgbench_history  |        139567104
 2017-02-06 16:10:51.438346+01 | 1486393851.43835 | pgbench_branches |          2482176

 2017-02-06 16:10:52.513211+01 | 1486393852.51321 | pgbench_accounts |       1391173632
 2017-02-06 16:10:52.513211+01 | 1486393852.51321 | pgbench_tellers  |          3063808
 2017-02-06 16:10:52.513211+01 | 1486393852.51321 | pgbench_history  |        140804096
 2017-02-06 16:10:52.513211+01 | 1486393852.51321 | pgbench_branches |          2482176

 2017-02-06 16:10:53.5877+01 | 1486393853.5877 | pgbench_accounts |       1391173632
 2017-02-06 16:10:53.5877+01 | 1486393853.5877 | pgbench_tellers  |          3063808
 2017-02-06 16:10:53.5877+01 | 1486393853.5877 | pgbench_history  |        142245888
 2017-02-06 16:10:53.5877+01 | 1486393853.5877 | pgbench_branches |          2482176

 2017-02-06 16:10:54.661313+01 | 1486393854.66131 | pgbench_accounts |       1391173632
 2017-02-06 16:10:54.661313+01 | 1486393854.66131 | pgbench_tellers  |          3063808
 2017-02-06 16:10:54.661313+01 | 1486393854.66131 | pgbench_history  |        143179776
 2017-02-06 16:10:54.661313+01 | 1486393854.66131 | pgbench_branches |          2482176

 2017-02-06 16:10:55.737833+01 | 1486393855.73783 | pgbench_accounts |       1391173632
 2017-02-06 16:10:55.737833+01 | 1486393855.73783 | pgbench_tellers  |          3063808
 2017-02-06 16:10:55.737833+01 | 1486393855.73783 | pgbench_history  |        144785408
 2017-02-06 16:10:55.737833+01 | 1486393855.73783 | pgbench_branches |          2482176

 2017-02-06 16:10:56.814418+01 | 1486393856.81442 | pgbench_accounts |       1391173632
 2017-02-06 16:10:56.814418+01 | 1486393856.81442 | pgbench_tellers  |          3063808
 2017-02-06 16:10:56.814418+01 | 1486393856.81442 | pgbench_history  |        145489920
 2017-02-06 16:10:56.814418+01 | 1486393856.81442 | pgbench_branches |          2482176

 2017-02-06 16:10:57.895174+01 | 1486393857.89517 | pgbench_accounts |       1391173632
 2017-02-06 16:10:57.895174+01 | 1486393857.89517 | pgbench_tellers  |          3063808
 2017-02-06 16:10:57.895174+01 | 1486393857.89517 | pgbench_history  |        146538496
 2017-02-06 16:10:57.895174+01 | 1486393857.89517 | pgbench_branches |          2482176

 2017-02-06 16:10:58.969738+01 | 1486393858.96974 | pgbench_accounts |       1391173632
 2017-02-06 16:10:58.969738+01 | 1486393858.96974 | pgbench_tellers  |          3063808
 2017-02-06 16:10:58.969738+01 | 1486393858.96974 | pgbench_history  |        147972096
 2017-02-06 16:10:58.969738+01 | 1486393858.96974 | pgbench_branches |          2482176

 2017-02-06 16:11:00.04576+01 | 1486393860.04576 | pgbench_accounts |       1391173632
 2017-02-06 16:11:00.04576+01 | 1486393860.04576 | pgbench_tellers  |          3063808
 2017-02-06 16:11:00.04576+01 | 1486393860.04576 | pgbench_history  |        149020672
 2017-02-06 16:11:00.04576+01 | 1486393860.04576 | pgbench_branches |          2482176

 2017-02-06 16:11:01.120291+01 | 1486393861.12029 | pgbench_accounts |       1391173632
 2017-02-06 16:11:01.120291+01 | 1486393861.12029 | pgbench_tellers  |          3063808
 2017-02-06 16:11:01.120291+01 | 1486393861.12029 | pgbench_history  |        150159360
 2017-02-06 16:11:01.120291+01 | 1486393861.12029 | pgbench_branches |          2482176

 2017-02-06 16:11:02.19551+01 | 1486393862.19551 | pgbench_accounts |       1391173632
 2017-02-06 16:11:02.19551+01 | 1486393862.19551 | pgbench_tellers  |          3063808
 2017-02-06 16:11:02.19551+01 | 1486393862.19551 | pgbench_history  |        151224320
 2017-02-06 16:11:02.19551+01 | 1486393862.19551 | pgbench_branches |          2482176

 2017-02-06 16:11:03.274505+01 | 1486393863.2745 | pgbench_accounts |       1391173632
 2017-02-06 16:11:03.274505+01 | 1486393863.2745 | pgbench_tellers  |          3063808
 2017-02-06 16:11:03.274505+01 | 1486393863.2745 | pgbench_history  |        152264704
 2017-02-06 16:11:03.274505+01 | 1486393863.2745 | pgbench_branches |          2482176

 2017-02-06 16:11:04.343216+01 | 1486393864.34322 | pgbench_accounts |       1391173632
 2017-02-06 16:11:04.343216+01 | 1486393864.34322 | pgbench_tellers  |          3063808
 2017-02-06 16:11:04.343216+01 | 1486393864.34322 | pgbench_history  |        153460736
 2017-02-06 16:11:04.343216+01 | 1486393864.34322 | pgbench_branches |          2482176

 2017-02-06 16:11:05.418573+01 | 1486393865.41857 | pgbench_accounts |       1391173632
 2017-02-06 16:11:05.418573+01 | 1486393865.41857 | pgbench_tellers  |          3063808
 2017-02-06 16:11:05.418573+01 | 1486393865.41857 | pgbench_history  |        155402240
 2017-02-06 16:11:05.418573+01 | 1486393865.41857 | pgbench_branches |          2482176

 2017-02-06 16:11:06.488197+01 | 1486393866.4882 | pgbench_accounts |       1391173632
 2017-02-06 16:11:06.488197+01 | 1486393866.4882 | pgbench_tellers  |          3063808
 2017-02-06 16:11:06.488197+01 | 1486393866.4882 | pgbench_history  |        156409856
 2017-02-06 16:11:06.488197+01 | 1486393866.4882 | pgbench_branches |          2482176

 2017-02-06 16:11:07.562115+01 | 1486393867.56211 | pgbench_accounts |       1391173632
 2017-02-06 16:11:07.562115+01 | 1486393867.56211 | pgbench_tellers  |          3063808
 2017-02-06 16:11:07.562115+01 | 1486393867.56211 | pgbench_history  |        157286400
 2017-02-06 16:11:07.562115+01 | 1486393867.56211 | pgbench_branches |          2482176

 2017-02-06 16:11:08.63875+01 | 1486393868.63875 | pgbench_accounts |       1391173632
 2017-02-06 16:11:08.63875+01 | 1486393868.63875 | pgbench_tellers  |          3063808
 2017-02-06 16:11:08.63875+01 | 1486393868.63875 | pgbench_history  |        158515200
 2017-02-06 16:11:08.63875+01 | 1486393868.63875 | pgbench_branches |          2482176

 2017-02-06 16:11:09.712769+01 | 1486393869.71277 | pgbench_accounts |       1391173632
 2017-02-06 16:11:09.712769+01 | 1486393869.71277 | pgbench_tellers  |          3063808
 2017-02-06 16:11:09.712769+01 | 1486393869.71277 | pgbench_history  |        159416320
 2017-02-06 16:11:09.712769+01 | 1486393869.71277 | pgbench_branches |          2482176

 2017-02-06 16:11:10.787332+01 | 1486393870.78733 | pgbench_accounts |       1391173632
 2017-02-06 16:11:10.787332+01 | 1486393870.78733 | pgbench_tellers  |          3063808
 2017-02-06 16:11:10.787332+01 | 1486393870.78733 | pgbench_history  |        160841728
 2017-02-06 16:11:10.787332+01 | 1486393870.78733 | pgbench_branches |          2482176

 2017-02-06 16:11:11.858689+01 | 1486393871.85869 | pgbench_accounts |       1391173632
 2017-02-06 16:11:11.858689+01 | 1486393871.85869 | pgbench_tellers  |          3063808
 2017-02-06 16:11:11.858689+01 | 1486393871.85869 | pgbench_history  |        161792000
 2017-02-06 16:11:11.858689+01 | 1486393871.85869 | pgbench_branches |          2482176

 2017-02-06 16:11:12.936732+01 | 1486393872.93673 | pgbench_accounts |       1391173632
 2017-02-06 16:11:12.936732+01 | 1486393872.93673 | pgbench_tellers  |          3063808
 2017-02-06 16:11:12.936732+01 | 1486393872.93673 | pgbench_history  |        163061760
 2017-02-06 16:11:12.936732+01 | 1486393872.93673 | pgbench_branches |          2482176

 2017-02-06 16:11:14.007855+01 | 1486393874.00785 | pgbench_accounts |       1391173632
 2017-02-06 16:11:14.007855+01 | 1486393874.00785 | pgbench_tellers  |          3063808
 2017-02-06 16:11:14.007855+01 | 1486393874.00785 | pgbench_history  |        164257792
 2017-02-06 16:11:14.007855+01 | 1486393874.00785 | pgbench_branches |          2482176

 2017-02-06 16:11:15.085461+01 | 1486393875.08546 | pgbench_accounts |       1391173632
 2017-02-06 16:11:15.085461+01 | 1486393875.08546 | pgbench_tellers  |          3063808
 2017-02-06 16:11:15.085461+01 | 1486393875.08546 | pgbench_history  |        165666816
 2017-02-06 16:11:15.085461+01 | 1486393875.08546 | pgbench_branches |          2482176

 2017-02-06 16:11:16.159246+01 | 1486393876.15925 | pgbench_accounts |       1391173632
 2017-02-06 16:11:16.159246+01 | 1486393876.15925 | pgbench_tellers  |          3063808
 2017-02-06 16:11:16.159246+01 | 1486393876.15925 | pgbench_history  |        167288832
 2017-02-06 16:11:16.159246+01 | 1486393876.15925 | pgbench_branches |          2482176

 2017-02-06 16:11:17.238702+01 | 1486393877.2387 | pgbench_accounts |       1391173632
 2017-02-06 16:11:17.238702+01 | 1486393877.2387 | pgbench_tellers  |          3063808
 2017-02-06 16:11:17.238702+01 | 1486393877.2387 | pgbench_history  |        167911424
 2017-02-06 16:11:17.238702+01 | 1486393877.2387 | pgbench_branches |          2482176

 2017-02-06 16:11:18.316272+01 | 1486393878.31627 | pgbench_accounts |       1391173632
 2017-02-06 16:11:18.316272+01 | 1486393878.31627 | pgbench_tellers  |          3063808
 2017-02-06 16:11:18.316272+01 | 1486393878.31627 | pgbench_history  |        169312256
 2017-02-06 16:11:18.316272+01 | 1486393878.31627 | pgbench_branches |          2482176

 2017-02-06 16:11:19.390941+01 | 1486393879.39094 | pgbench_accounts |       1391173632
 2017-02-06 16:11:19.390941+01 | 1486393879.39094 | pgbench_tellers  |          3063808
 2017-02-06 16:11:19.390941+01 | 1486393879.39094 | pgbench_history  |        170541056
 2017-02-06 16:11:19.390941+01 | 1486393879.39094 | pgbench_branches |          2482176

 2017-02-06 16:11:20.469276+01 | 1486393880.46928 | pgbench_accounts |       1391173632
 2017-02-06 16:11:20.469276+01 | 1486393880.46928 | pgbench_tellers  |          3063808
 2017-02-06 16:11:20.469276+01 | 1486393880.46928 | pgbench_history  |        171900928
 2017-02-06 16:11:20.469276+01 | 1486393880.46928 | pgbench_branches |          2482176

 2017-02-06 16:11:21.539959+01 | 1486393881.53996 | pgbench_accounts |       1391173632
 2017-02-06 16:11:21.539959+01 | 1486393881.53996 | pgbench_tellers  |          3063808
 2017-02-06 16:11:21.539959+01 | 1486393881.53996 | pgbench_history  |        172548096
 2017-02-06 16:11:21.539959+01 | 1486393881.53996 | pgbench_branches |          2482176

 2017-02-06 16:11:22.620443+01 | 1486393882.62044 | pgbench_accounts |       1391173632
 2017-02-06 16:11:22.620443+01 | 1486393882.62044 | pgbench_tellers  |          3063808
 2017-02-06 16:11:22.620443+01 | 1486393882.62044 | pgbench_history  |        173735936
 2017-02-06 16:11:22.620443+01 | 1486393882.62044 | pgbench_branches |          2482176

 2017-02-06 16:11:23.698081+01 | 1486393883.69808 | pgbench_accounts |       1391173632
 2017-02-06 16:11:23.698081+01 | 1486393883.69808 | pgbench_tellers  |          3063808
 2017-02-06 16:11:23.698081+01 | 1486393883.69808 | pgbench_history  |        175276032
 2017-02-06 16:11:23.698081+01 | 1486393883.69808 | pgbench_branches |          2482176

 2017-02-06 16:11:24.768253+01 | 1486393884.76825 | pgbench_accounts |       1391173632
 2017-02-06 16:11:24.768253+01 | 1486393884.76825 | pgbench_tellers  |          3063808
 2017-02-06 16:11:24.768253+01 | 1486393884.76825 | pgbench_history  |        176340992
 2017-02-06 16:11:24.768253+01 | 1486393884.76825 | pgbench_branches |          2482176

 2017-02-06 16:11:25.838417+01 | 1486393885.83842 | pgbench_accounts |       1391173632
 2017-02-06 16:11:25.838417+01 | 1486393885.83842 | pgbench_tellers  |          3063808
 2017-02-06 16:11:25.838417+01 | 1486393885.83842 | pgbench_history  |        177332224
 2017-02-06 16:11:25.838417+01 | 1486393885.83842 | pgbench_branches |          2482176

 2017-02-06 16:11:26.909296+01 | 1486393886.9093 | pgbench_accounts |       1391173632
 2017-02-06 16:11:26.909296+01 | 1486393886.9093 | pgbench_tellers  |          3063808
 2017-02-06 16:11:26.909296+01 | 1486393886.9093 | pgbench_history  |        178577408
 2017-02-06 16:11:26.909296+01 | 1486393886.9093 | pgbench_branches |          2482176

 2017-02-06 16:11:27.986725+01 | 1486393887.98673 | pgbench_accounts |       1391173632
 2017-02-06 16:11:27.986725+01 | 1486393887.98673 | pgbench_tellers  |          3063808
 2017-02-06 16:11:27.986725+01 | 1486393887.98673 | pgbench_history  |        179527680
 2017-02-06 16:11:27.986725+01 | 1486393887.98673 | pgbench_branches |          2482176

 2017-02-06 16:11:29.063097+01 | 1486393889.0631 | pgbench_accounts |       1391173632
 2017-02-06 16:11:29.063097+01 | 1486393889.0631 | pgbench_tellers  |          3063808
 2017-02-06 16:11:29.063097+01 | 1486393889.0631 | pgbench_history  |        181051392
 2017-02-06 16:11:29.063097+01 | 1486393889.0631 | pgbench_branches |          2482176

 2017-02-06 16:11:30.139791+01 | 1486393890.13979 | pgbench_accounts |       1391173632
 2017-02-06 16:11:30.139791+01 | 1486393890.13979 | pgbench_tellers  |          3063808
 2017-02-06 16:11:30.139791+01 | 1486393890.13979 | pgbench_history  |        182149120
 2017-02-06 16:11:30.139791+01 | 1486393890.13979 | pgbench_branches |          2482176

 2017-02-06 16:11:31.217947+01 | 1486393891.21795 | pgbench_accounts |       1391173632
 2017-02-06 16:11:31.217947+01 | 1486393891.21795 | pgbench_tellers  |          3063808
 2017-02-06 16:11:31.217947+01 | 1486393891.21795 | pgbench_history  |        183590912
 2017-02-06 16:11:31.217947+01 | 1486393891.21795 | pgbench_branches |          2482176

 2017-02-06 16:11:32.294861+01 | 1486393892.29486 | pgbench_accounts |       1391173632
 2017-02-06 16:11:32.294861+01 | 1486393892.29486 | pgbench_tellers  |          3063808
 2017-02-06 16:11:32.294861+01 | 1486393892.29486 | pgbench_history  |        184647680
 2017-02-06 16:11:32.294861+01 | 1486393892.29486 | pgbench_branches |          2482176

 2017-02-06 16:11:33.367738+01 | 1486393893.36774 | pgbench_accounts |       1391173632
 2017-02-06 16:11:33.367738+01 | 1486393893.36774 | pgbench_tellers  |          3063808
 2017-02-06 16:11:33.367738+01 | 1486393893.36774 | pgbench_history  |        185868288
 2017-02-06 16:11:33.367738+01 | 1486393893.36774 | pgbench_branches |          2482176

 2017-02-06 16:11:34.447263+01 | 1486393894.44726 | pgbench_accounts |       1391173632
 2017-02-06 16:11:34.447263+01 | 1486393894.44726 | pgbench_tellers  |          3063808
 2017-02-06 16:11:34.447263+01 | 1486393894.44726 | pgbench_history  |        186785792
 2017-02-06 16:11:34.447263+01 | 1486393894.44726 | pgbench_branches |          2482176

 2017-02-06 16:11:35.528678+01 | 1486393895.52868 | pgbench_accounts |       1391173632
 2017-02-06 16:11:35.528678+01 | 1486393895.52868 | pgbench_tellers  |          3063808
 2017-02-06 16:11:35.528678+01 | 1486393895.52868 | pgbench_history  |        188203008
 2017-02-06 16:11:35.528678+01 | 1486393895.52868 | pgbench_branches |          2482176

 2017-02-06 16:11:36.604436+01 | 1486393896.60444 | pgbench_accounts |       1391173632
 2017-02-06 16:11:36.604436+01 | 1486393896.60444 | pgbench_tellers  |          3063808
 2017-02-06 16:11:36.604436+01 | 1486393896.60444 | pgbench_history  |        189112320
 2017-02-06 16:11:36.604436+01 | 1486393896.60444 | pgbench_branches |          2482176

 2017-02-06 16:11:37.683385+01 | 1486393897.68338 | pgbench_accounts |       1391173632
 2017-02-06 16:11:37.683385+01 | 1486393897.68338 | pgbench_tellers  |          3063808
 2017-02-06 16:11:37.683385+01 | 1486393897.68338 | pgbench_history  |        191471616
 2017-02-06 16:11:37.683385+01 | 1486393897.68338 | pgbench_branches |          2482176

 2017-02-06 16:11:38.760593+01 | 1486393898.76059 | pgbench_accounts |       1391173632
 2017-02-06 16:11:38.760593+01 | 1486393898.76059 | pgbench_tellers  |          3063808
 2017-02-06 16:11:38.760593+01 | 1486393898.76059 | pgbench_history  |        191471616
 2017-02-06 16:11:38.760593+01 | 1486393898.76059 | pgbench_branches |          2482176

 2017-02-06 16:11:39.833445+01 | 1486393899.83345 | pgbench_accounts |       1391173632
 2017-02-06 16:11:39.833445+01 | 1486393899.83345 | pgbench_tellers  |          3063808
 2017-02-06 16:11:39.833445+01 | 1486393899.83345 | pgbench_history  |        193191936
 2017-02-06 16:11:39.833445+01 | 1486393899.83345 | pgbench_branches |          2482176

 2017-02-06 16:11:40.909651+01 | 1486393900.90965 | pgbench_accounts |       1391173632
 2017-02-06 16:11:40.909651+01 | 1486393900.90965 | pgbench_tellers  |          3063808
 2017-02-06 16:11:40.909651+01 | 1486393900.90965 | pgbench_history  |        193576960
 2017-02-06 16:11:40.909651+01 | 1486393900.90965 | pgbench_branches |          2482176

 2017-02-06 16:11:41.984469+01 | 1486393901.98447 | pgbench_accounts |       1391173632
 2017-02-06 16:11:41.984469+01 | 1486393901.98447 | pgbench_tellers  |          3063808
 2017-02-06 16:11:41.984469+01 | 1486393901.98447 | pgbench_history  |        194805760
 2017-02-06 16:11:41.984469+01 | 1486393901.98447 | pgbench_branches |          2482176

 2017-02-06 16:11:43.052973+01 | 1486393903.05297 | pgbench_accounts |       1391173632
 2017-02-06 16:11:43.052973+01 | 1486393903.05297 | pgbench_tellers  |          3063808
 2017-02-06 16:11:43.052973+01 | 1486393903.05297 | pgbench_history  |        195870720
 2017-02-06 16:11:43.052973+01 | 1486393903.05297 | pgbench_branches |          2482176

 2017-02-06 16:11:44.128165+01 | 1486393904.12817 | pgbench_accounts |       1391173632
 2017-02-06 16:11:44.128165+01 | 1486393904.12817 | pgbench_tellers  |          3063808
 2017-02-06 16:11:44.128165+01 | 1486393904.12817 | pgbench_history  |        197091328
 2017-02-06 16:11:44.128165+01 | 1486393904.12817 | pgbench_branches |          2482176

 2017-02-06 16:11:45.200586+01 | 1486393905.20059 | pgbench_accounts |       1391173632
 2017-02-06 16:11:45.200586+01 | 1486393905.20059 | pgbench_tellers  |          3063808
 2017-02-06 16:11:45.200586+01 | 1486393905.20059 | pgbench_history  |        198647808
 2017-02-06 16:11:45.200586+01 | 1486393905.20059 | pgbench_branches |          2482176

 2017-02-06 16:11:46.278996+01 | 1486393906.279 | pgbench_accounts |       1391173632
 2017-02-06 16:11:46.278996+01 | 1486393906.279 | pgbench_tellers  |          3063808
 2017-02-06 16:11:46.278996+01 | 1486393906.279 | pgbench_history  |        199376896
 2017-02-06 16:11:46.278996+01 | 1486393906.279 | pgbench_branches |          2482176

 2017-02-06 16:11:47.353575+01 | 1486393907.35357 | pgbench_accounts |       1391173632
 2017-02-06 16:11:47.353575+01 | 1486393907.35357 | pgbench_tellers  |          3063808
 2017-02-06 16:11:47.353575+01 | 1486393907.35357 | pgbench_history  |        200261632
 2017-02-06 16:11:47.353575+01 | 1486393907.35357 | pgbench_branches |          2482176

 2017-02-06 16:11:48.429824+01 | 1486393908.42982 | pgbench_accounts |       1391173632
 2017-02-06 16:11:48.429824+01 | 1486393908.42982 | pgbench_tellers  |          3063808
 2017-02-06 16:11:48.429824+01 | 1486393908.42982 | pgbench_history  |        201482240
 2017-02-06 16:11:48.429824+01 | 1486393908.42982 | pgbench_branches |          2482176

 2017-02-06 16:11:49.506244+01 | 1486393909.50624 | pgbench_accounts |       1391173632
 2017-02-06 16:11:49.506244+01 | 1486393909.50624 | pgbench_tellers  |          3063808
 2017-02-06 16:11:49.506244+01 | 1486393909.50624 | pgbench_history  |        202399744
 2017-02-06 16:11:49.506244+01 | 1486393909.50624 | pgbench_branches |          2482176

 2017-02-06 16:11:50.583674+01 | 1486393910.58367 | pgbench_accounts |       1391173632
 2017-02-06 16:11:50.583674+01 | 1486393910.58367 | pgbench_tellers  |          3063808
 2017-02-06 16:11:50.583674+01 | 1486393910.58367 | pgbench_history  |        203661312
 2017-02-06 16:11:50.583674+01 | 1486393910.58367 | pgbench_branches |          2482176

 2017-02-06 16:11:51.659563+01 | 1486393911.65956 | pgbench_accounts |       1391173632
 2017-02-06 16:11:51.659563+01 | 1486393911.65956 | pgbench_tellers  |          3063808
 2017-02-06 16:11:51.659563+01 | 1486393911.65956 | pgbench_history  |        205512704
 2017-02-06 16:11:51.659563+01 | 1486393911.65956 | pgbench_branches |          2482176

 2017-02-06 16:11:52.730206+01 | 1486393912.73021 | pgbench_accounts |       1391173632
 2017-02-06 16:11:52.730206+01 | 1486393912.73021 | pgbench_tellers  |          3063808
 2017-02-06 16:11:52.730206+01 | 1486393912.73021 | pgbench_history  |        205897728
 2017-02-06 16:11:52.730206+01 | 1486393912.73021 | pgbench_branches |          2482176

 2017-02-06 16:11:53.801151+01 | 1486393913.80115 | pgbench_accounts |       1391173632
 2017-02-06 16:11:53.801151+01 | 1486393913.80115 | pgbench_tellers  |          3063808
 2017-02-06 16:11:53.801151+01 | 1486393913.80115 | pgbench_history  |        207183872
 2017-02-06 16:11:53.801151+01 | 1486393913.80115 | pgbench_branches |          2482176

 2017-02-06 16:11:54.875151+01 | 1486393914.87515 | pgbench_accounts |       1391173632
 2017-02-06 16:11:54.875151+01 | 1486393914.87515 | pgbench_tellers  |          3063808
 2017-02-06 16:11:54.875151+01 | 1486393914.87515 | pgbench_history  |        208289792
 2017-02-06 16:11:54.875151+01 | 1486393914.87515 | pgbench_branches |          2482176

 2017-02-06 16:11:55.950962+01 | 1486393915.95096 | pgbench_accounts |       1391173632
 2017-02-06 16:11:55.950962+01 | 1486393915.95096 | pgbench_tellers  |          3063808
 2017-02-06 16:11:55.950962+01 | 1486393915.95096 | pgbench_history  |        209510400
 2017-02-06 16:11:55.950962+01 | 1486393915.95096 | pgbench_branches |          2482176

 2017-02-06 16:11:57.016054+01 | 1486393917.01605 | pgbench_accounts |       1391173632
 2017-02-06 16:11:57.016054+01 | 1486393917.01605 | pgbench_tellers  |          3063808
 2017-02-06 16:11:57.016054+01 | 1486393917.01605 | pgbench_history  |        210575360
 2017-02-06 16:11:57.016054+01 | 1486393917.01605 | pgbench_branches |          2482176

 2017-02-06 16:11:58.090902+01 | 1486393918.0909 | pgbench_accounts |       1391173632
 2017-02-06 16:11:58.090902+01 | 1486393918.0909 | pgbench_tellers  |          3063808
 2017-02-06 16:11:58.090902+01 | 1486393918.0909 | pgbench_history  |        212033536
 2017-02-06 16:11:58.090902+01 | 1486393918.0909 | pgbench_branches |          2482176

 2017-02-06 16:11:59.167268+01 | 1486393919.16727 | pgbench_accounts |       1391173632
 2017-02-06 16:11:59.167268+01 | 1486393919.16727 | pgbench_tellers  |          3063808
 2017-02-06 16:11:59.167268+01 | 1486393919.16727 | pgbench_history  |        213114880
 2017-02-06 16:11:59.167268+01 | 1486393919.16727 | pgbench_branches |          2482176

 2017-02-06 16:12:00.24425+01 | 1486393920.24425 | pgbench_accounts |       1391173632
 2017-02-06 16:12:00.24425+01 | 1486393920.24425 | pgbench_tellers  |          3063808
 2017-02-06 16:12:00.24425+01 | 1486393920.24425 | pgbench_history  |        214499328
 2017-02-06 16:12:00.24425+01 | 1486393920.24425 | pgbench_branches |          2482176

 2017-02-06 16:12:01.323191+01 | 1486393921.32319 | pgbench_accounts |       1391173632
 2017-02-06 16:12:01.323191+01 | 1486393921.32319 | pgbench_tellers  |          3063808
 2017-02-06 16:12:01.323191+01 | 1486393921.32319 | pgbench_history  |        215179264
 2017-02-06 16:12:01.323191+01 | 1486393921.32319 | pgbench_branches |          2482176

 2017-02-06 16:12:02.40046+01 | 1486393922.40046 | pgbench_accounts |       1391173632
 2017-02-06 16:12:02.40046+01 | 1486393922.40046 | pgbench_tellers  |          3063808
 2017-02-06 16:12:02.40046+01 | 1486393922.40046 | pgbench_history  |        216580096
 2017-02-06 16:12:02.40046+01 | 1486393922.40046 | pgbench_branches |          2482176

 2017-02-06 16:12:03.471804+01 | 1486393923.4718 | pgbench_accounts |       1391173632
 2017-02-06 16:12:03.471804+01 | 1486393923.4718 | pgbench_tellers  |          3063808
 2017-02-06 16:12:03.471804+01 | 1486393923.4718 | pgbench_history  |        217661440
 2017-02-06 16:12:03.471804+01 | 1486393923.4718 | pgbench_branches |          2482176

 2017-02-06 16:12:04.55011+01 | 1486393924.55011 | pgbench_accounts |       1391173632
 2017-02-06 16:12:04.55011+01 | 1486393924.55011 | pgbench_tellers  |          3063808
 2017-02-06 16:12:04.55011+01 | 1486393924.55011 | pgbench_history  |        219398144
 2017-02-06 16:12:04.55011+01 | 1486393924.55011 | pgbench_branches |          2482176

 2017-02-06 16:12:05.62192+01 | 1486393925.62192 | pgbench_accounts |       1391173632
 2017-02-06 16:12:05.62192+01 | 1486393925.62192 | pgbench_tellers  |          3063808
 2017-02-06 16:12:05.62192+01 | 1486393925.62192 | pgbench_history  |        220274688
 2017-02-06 16:12:05.62192+01 | 1486393925.62192 | pgbench_branches |          2482176

 2017-02-06 16:12:06.695224+01 | 1486393926.69522 | pgbench_accounts |       1391173632
 2017-02-06 16:12:06.695224+01 | 1486393926.69522 | pgbench_tellers  |          3063808
 2017-02-06 16:12:06.695224+01 | 1486393926.69522 | pgbench_history  |        221552640
 2017-02-06 16:12:06.695224+01 | 1486393926.69522 | pgbench_branches |          2482176

 2017-02-06 16:12:07.764812+01 | 1486393927.76481 | pgbench_accounts |       1391173632
 2017-02-06 16:12:07.764812+01 | 1486393927.76481 | pgbench_tellers  |          3063808
 2017-02-06 16:12:07.764812+01 | 1486393927.76481 | pgbench_history  |        222617600
 2017-02-06 16:12:07.764812+01 | 1486393927.76481 | pgbench_branches |          2482176

 2017-02-06 16:12:08.837778+01 | 1486393928.83778 | pgbench_accounts |       1391173632
 2017-02-06 16:12:08.837778+01 | 1486393928.83778 | pgbench_tellers  |          3063808
 2017-02-06 16:12:08.837778+01 | 1486393928.83778 | pgbench_history  |        224051200
 2017-02-06 16:12:08.837778+01 | 1486393928.83778 | pgbench_branches |          2482176

 2017-02-06 16:12:09.912665+01 | 1486393929.91266 | pgbench_accounts |       1391173632
 2017-02-06 16:12:09.912665+01 | 1486393929.91266 | pgbench_tellers  |          3063808
 2017-02-06 16:12:09.912665+01 | 1486393929.91266 | pgbench_history  |        224755712
 2017-02-06 16:12:09.912665+01 | 1486393929.91266 | pgbench_branches |          2482176

 2017-02-06 16:12:10.98121+01 | 1486393930.98121 | pgbench_accounts |       1391173632
 2017-02-06 16:12:10.98121+01 | 1486393930.98121 | pgbench_tellers  |          3063808
 2017-02-06 16:12:10.98121+01 | 1486393930.98121 | pgbench_history  |        226156544
 2017-02-06 16:12:10.98121+01 | 1486393930.98121 | pgbench_branches |          2482176

 2017-02-06 16:12:12.056918+01 | 1486393932.05692 | pgbench_accounts |       1391173632
 2017-02-06 16:12:12.056918+01 | 1486393932.05692 | pgbench_tellers  |          3063808
 2017-02-06 16:12:12.056918+01 | 1486393932.05692 | pgbench_history  |        227106816
 2017-02-06 16:12:12.056918+01 | 1486393932.05692 | pgbench_branches |          2482176

 2017-02-06 16:12:13.127951+01 | 1486393933.12795 | pgbench_accounts |       1391173632
 2017-02-06 16:12:13.127951+01 | 1486393933.12795 | pgbench_tellers  |          3063808
 2017-02-06 16:12:13.127951+01 | 1486393933.12795 | pgbench_history  |        228581376
 2017-02-06 16:12:13.127951+01 | 1486393933.12795 | pgbench_branches |          2482176

 2017-02-06 16:12:14.204057+01 | 1486393934.20406 | pgbench_accounts |       1391173632
 2017-02-06 16:12:14.204057+01 | 1486393934.20406 | pgbench_tellers  |          3063808
 2017-02-06 16:12:14.204057+01 | 1486393934.20406 | pgbench_history  |        229490688
 2017-02-06 16:12:14.204057+01 | 1486393934.20406 | pgbench_branches |          2482176

 2017-02-06 16:12:15.276478+01 | 1486393935.27648 | pgbench_accounts |       1391173632
 2017-02-06 16:12:15.276478+01 | 1486393935.27648 | pgbench_tellers  |          3063808
 2017-02-06 16:12:15.276478+01 | 1486393935.27648 | pgbench_history  |        230883328
 2017-02-06 16:12:15.276478+01 | 1486393935.27648 | pgbench_branches |          2482176

 2017-02-06 16:12:16.353052+01 | 1486393936.35305 | pgbench_accounts |       1391173632
 2017-02-06 16:12:16.353052+01 | 1486393936.35305 | pgbench_tellers  |          3063808
 2017-02-06 16:12:16.353052+01 | 1486393936.35305 | pgbench_history  |        231972864
 2017-02-06 16:12:16.353052+01 | 1486393936.35305 | pgbench_branches |          2482176

 2017-02-06 16:12:17.427698+01 | 1486393937.4277 | pgbench_accounts |       1391173632
 2017-02-06 16:12:17.427698+01 | 1486393937.4277 | pgbench_tellers  |          3063808
 2017-02-06 16:12:17.427698+01 | 1486393937.4277 | pgbench_history  |        233226240
 2017-02-06 16:12:17.427698+01 | 1486393937.4277 | pgbench_branches |          2482176

 2017-02-06 16:12:18.500071+01 | 1486393938.50007 | pgbench_accounts |       1391173632
 2017-02-06 16:12:18.500071+01 | 1486393938.50007 | pgbench_tellers  |          3063808
 2017-02-06 16:12:18.500071+01 | 1486393938.50007 | pgbench_history  |        234356736
 2017-02-06 16:12:18.500071+01 | 1486393938.50007 | pgbench_branches |          2482176

 2017-02-06 16:12:19.573196+01 | 1486393939.5732 | pgbench_accounts |       1391173632
 2017-02-06 16:12:19.573196+01 | 1486393939.5732 | pgbench_tellers  |          3063808
 2017-02-06 16:12:19.573196+01 | 1486393939.5732 | pgbench_history  |        235823104
 2017-02-06 16:12:19.573196+01 | 1486393939.5732 | pgbench_branches |          2482176

 2017-02-06 16:12:20.647202+01 | 1486393940.6472 | pgbench_accounts |       1391173632
 2017-02-06 16:12:20.647202+01 | 1486393940.6472 | pgbench_tellers  |          3063808
 2017-02-06 16:12:20.647202+01 | 1486393940.6472 | pgbench_history  |        236904448
 2017-02-06 16:12:20.647202+01 | 1486393940.6472 | pgbench_branches |          2482176

 2017-02-06 16:12:21.717799+01 | 1486393941.7178 | pgbench_accounts |       1391173632
 2017-02-06 16:12:21.717799+01 | 1486393941.7178 | pgbench_tellers  |          3063808
 2017-02-06 16:12:21.717799+01 | 1486393941.7178 | pgbench_history  |        237993984
 2017-02-06 16:12:21.717799+01 | 1486393941.7178 | pgbench_branches |          2482176

 2017-02-06 16:12:22.796095+01 | 1486393942.79609 | pgbench_accounts |       1391173632
 2017-02-06 16:12:22.796095+01 | 1486393942.79609 | pgbench_tellers  |          3063808
 2017-02-06 16:12:22.796095+01 | 1486393942.79609 | pgbench_history  |        239058944
 2017-02-06 16:12:22.796095+01 | 1486393942.79609 | pgbench_branches |          2482176

 2017-02-06 16:12:23.876466+01 | 1486393943.87647 | pgbench_accounts |       1391173632
 2017-02-06 16:12:23.876466+01 | 1486393943.87647 | pgbench_tellers  |          3063808
 2017-02-06 16:12:23.876466+01 | 1486393943.87647 | pgbench_history  |        240312320
 2017-02-06 16:12:23.876466+01 | 1486393943.87647 | pgbench_branches |          2482176

 2017-02-06 16:12:24.954564+01 | 1486393944.95456 | pgbench_accounts |       1391173632
 2017-02-06 16:12:24.954564+01 | 1486393944.95456 | pgbench_tellers  |          3063808
 2017-02-06 16:12:24.954564+01 | 1486393944.95456 | pgbench_history  |        241369088
 2017-02-06 16:12:24.954564+01 | 1486393944.95456 | pgbench_branches |          2482176

 2017-02-06 16:12:26.030114+01 | 1486393946.03011 | pgbench_accounts |       1391173632
 2017-02-06 16:12:26.030114+01 | 1486393946.03011 | pgbench_tellers  |          3063808
 2017-02-06 16:12:26.030114+01 | 1486393946.03011 | pgbench_history  |        242802688
 2017-02-06 16:12:26.030114+01 | 1486393946.03011 | pgbench_branches |          2482176

 2017-02-06 16:12:27.102554+01 | 1486393947.10255 | pgbench_accounts |       1391173632
 2017-02-06 16:12:27.102554+01 | 1486393947.10255 | pgbench_tellers  |          3063808
 2017-02-06 16:12:27.102554+01 | 1486393947.10255 | pgbench_history  |        244056064
 2017-02-06 16:12:27.102554+01 | 1486393947.10255 | pgbench_branches |          2482176

 2017-02-06 16:12:28.172491+01 | 1486393948.17249 | pgbench_accounts |       1391173632
 2017-02-06 16:12:28.172491+01 | 1486393948.17249 | pgbench_tellers  |          3063808
 2017-02-06 16:12:28.172491+01 | 1486393948.17249 | pgbench_history  |        244957184
 2017-02-06 16:12:28.172491+01 | 1486393948.17249 | pgbench_branches |          2482176

 2017-02-06 16:12:29.245584+01 | 1486393949.24558 | pgbench_accounts |       1391173632
 2017-02-06 16:12:29.245584+01 | 1486393949.24558 | pgbench_tellers  |          3063808
 2017-02-06 16:12:29.245584+01 | 1486393949.24558 | pgbench_history  |        246349824
 2017-02-06 16:12:29.245584+01 | 1486393949.24558 | pgbench_branches |          2482176

 2017-02-06 16:12:30.320122+01 | 1486393950.32012 | pgbench_accounts |       1391173632
 2017-02-06 16:12:30.320122+01 | 1486393950.32012 | pgbench_tellers  |          3063808
 2017-02-06 16:12:30.320122+01 | 1486393950.32012 | pgbench_history  |        247570432
 2017-02-06 16:12:30.320122+01 | 1486393950.32012 | pgbench_branches |          2482176

 2017-02-06 16:12:31.396135+01 | 1486393951.39614 | pgbench_accounts |       1391173632
 2017-02-06 16:12:31.396135+01 | 1486393951.39614 | pgbench_tellers  |          3063808
 2017-02-06 16:12:31.396135+01 | 1486393951.39614 | pgbench_history  |        248832000
 2017-02-06 16:12:31.396135+01 | 1486393951.39614 | pgbench_branches |          2482176

 2017-02-06 16:12:32.475082+01 | 1486393952.47508 | pgbench_accounts |       1391173632
 2017-02-06 16:12:32.475082+01 | 1486393952.47508 | pgbench_tellers  |          3063808
 2017-02-06 16:12:32.475082+01 | 1486393952.47508 | pgbench_history  |        250077184
 2017-02-06 16:12:32.475082+01 | 1486393952.47508 | pgbench_branches |          2482176

 2017-02-06 16:12:33.550078+01 | 1486393953.55008 | pgbench_accounts |       1391173632
 2017-02-06 16:12:33.550078+01 | 1486393953.55008 | pgbench_tellers  |          3063808
 2017-02-06 16:12:33.550078+01 | 1486393953.55008 | pgbench_history  |        251420672
 2017-02-06 16:12:33.550078+01 | 1486393953.55008 | pgbench_branches |          2482176

 2017-02-06 16:12:34.636362+01 | 1486393954.63636 | pgbench_accounts |       1391173632
 2017-02-06 16:12:34.636362+01 | 1486393954.63636 | pgbench_tellers  |          3063808
 2017-02-06 16:12:34.636362+01 | 1486393954.63636 | pgbench_history  |        252706816
 2017-02-06 16:12:34.636362+01 | 1486393954.63636 | pgbench_branches |          2482176

 2017-02-06 16:12:35.715791+01 | 1486393955.71579 | pgbench_accounts |       1391173632
 2017-02-06 16:12:35.715791+01 | 1486393955.71579 | pgbench_tellers  |          3063808
 2017-02-06 16:12:35.715791+01 | 1486393955.71579 | pgbench_history  |        254574592
 2017-02-06 16:12:35.715791+01 | 1486393955.71579 | pgbench_branches |          2482176

 2017-02-06 16:12:36.797193+01 | 1486393956.79719 | pgbench_accounts |       1391173632
 2017-02-06 16:12:36.797193+01 | 1486393956.79719 | pgbench_tellers  |          3063808
 2017-02-06 16:12:36.797193+01 | 1486393956.79719 | pgbench_history  |        255254528
 2017-02-06 16:12:36.797193+01 | 1486393956.79719 | pgbench_branches |          2482176

 2017-02-06 16:12:37.872706+01 | 1486393957.87271 | pgbench_accounts |       1391173632
 2017-02-06 16:12:37.872706+01 | 1486393957.87271 | pgbench_tellers  |          3063808
 2017-02-06 16:12:37.872706+01 | 1486393957.87271 | pgbench_history  |        256663552
 2017-02-06 16:12:37.872706+01 | 1486393957.87271 | pgbench_branches |          2482176

 2017-02-06 16:12:38.949462+01 | 1486393958.94946 | pgbench_accounts |       1391173632
 2017-02-06 16:12:38.949462+01 | 1486393958.94946 | pgbench_tellers  |          3063808
 2017-02-06 16:12:38.949462+01 | 1486393958.94946 | pgbench_history  |        257507328
 2017-02-06 16:12:38.949462+01 | 1486393958.94946 | pgbench_branches |          2482176

 2017-02-06 16:12:40.021764+01 | 1486393960.02176 | pgbench_accounts |       1391173632
 2017-02-06 16:12:40.021764+01 | 1486393960.02176 | pgbench_tellers  |          3063808
 2017-02-06 16:12:40.021764+01 | 1486393960.02176 | pgbench_history  |        258564096
 2017-02-06 16:12:40.021764+01 | 1486393960.02176 | pgbench_branches |          2482176

 2017-02-06 16:12:41.094002+01 | 1486393961.094 | pgbench_accounts |       1391173632
 2017-02-06 16:12:41.094002+01 | 1486393961.094 | pgbench_tellers  |          3063808
 2017-02-06 16:12:41.094002+01 | 1486393961.094 | pgbench_history  |        259981312
 2017-02-06 16:12:41.094002+01 | 1486393961.094 | pgbench_branches |          2482176

 2017-02-06 16:12:42.171136+01 | 1486393962.17114 | pgbench_accounts |       1391173632
 2017-02-06 16:12:42.171136+01 | 1486393962.17114 | pgbench_tellers  |          3063808
 2017-02-06 16:12:42.171136+01 | 1486393962.17114 | pgbench_history  |        260825088
 2017-02-06 16:12:42.171136+01 | 1486393962.17114 | pgbench_branches |          2482176

 2017-02-06 16:12:43.244964+01 | 1486393963.24496 | pgbench_accounts |       1391173632
 2017-02-06 16:12:43.244964+01 | 1486393963.24496 | pgbench_tellers  |          3063808
 2017-02-06 16:12:43.244964+01 | 1486393963.24496 | pgbench_history  |        262209536
 2017-02-06 16:12:43.244964+01 | 1486393963.24496 | pgbench_branches |          2482176

 2017-02-06 16:12:44.318799+01 | 1486393964.3188 | pgbench_accounts |       1391173632
 2017-02-06 16:12:44.318799+01 | 1486393964.3188 | pgbench_tellers  |          3063808
 2017-02-06 16:12:44.318799+01 | 1486393964.3188 | pgbench_history  |        263315456
 2017-02-06 16:12:44.318799+01 | 1486393964.3188 | pgbench_branches |          2482176

 2017-02-06 16:12:45.391231+01 | 1486393965.39123 | pgbench_accounts |       1391173632
 2017-02-06 16:12:45.391231+01 | 1486393965.39123 | pgbench_tellers  |          3063808
 2017-02-06 16:12:45.391231+01 | 1486393965.39123 | pgbench_history  |        264740864
 2017-02-06 16:12:45.391231+01 | 1486393965.39123 | pgbench_branches |          2482176

 2017-02-06 16:12:46.464727+01 | 1486393966.46473 | pgbench_accounts |       1391173632
 2017-02-06 16:12:46.464727+01 | 1486393966.46473 | pgbench_tellers  |          3063808
 2017-02-06 16:12:46.464727+01 | 1486393966.46473 | pgbench_history  |        266125312
 2017-02-06 16:12:46.464727+01 | 1486393966.46473 | pgbench_branches |          2482176

 2017-02-06 16:12:47.538811+01 | 1486393967.53881 | pgbench_accounts |       1391173632
 2017-02-06 16:12:47.538811+01 | 1486393967.53881 | pgbench_tellers  |          3063808
 2017-02-06 16:12:47.538811+01 | 1486393967.53881 | pgbench_history  |        267329536
 2017-02-06 16:12:47.538811+01 | 1486393967.53881 | pgbench_branches |          2482176

 2017-02-06 16:12:48.610921+01 | 1486393968.61092 | pgbench_accounts |       1391173632
 2017-02-06 16:12:48.610921+01 | 1486393968.61092 | pgbench_tellers  |          3063808
 2017-02-06 16:12:48.610921+01 | 1486393968.61092 | pgbench_history  |        268075008
 2017-02-06 16:12:48.610921+01 | 1486393968.61092 | pgbench_branches |          2482176

 2017-02-06 16:12:49.688388+01 | 1486393969.68839 | pgbench_accounts |       1391173632
 2017-02-06 16:12:49.688388+01 | 1486393969.68839 | pgbench_tellers  |          3063808
 2017-02-06 16:12:49.688388+01 | 1486393969.68839 | pgbench_history  |        269459456
 2017-02-06 16:12:49.688388+01 | 1486393969.68839 | pgbench_branches |          2482176

 2017-02-06 16:12:50.764081+01 | 1486393970.76408 | pgbench_accounts |       1391173632
 2017-02-06 16:12:50.764081+01 | 1486393970.76408 | pgbench_tellers  |          3063808
 2017-02-06 16:12:50.764081+01 | 1486393970.76408 | pgbench_history  |        270540800
 2017-02-06 16:12:50.764081+01 | 1486393970.76408 | pgbench_branches |          2482176

 2017-02-06 16:12:51.836667+01 | 1486393971.83667 | pgbench_accounts |       1391173632
 2017-02-06 16:12:51.836667+01 | 1486393971.83667 | pgbench_tellers  |          3063808
 2017-02-06 16:12:51.836667+01 | 1486393971.83667 | pgbench_history  |        271687680
 2017-02-06 16:12:51.836667+01 | 1486393971.83667 | pgbench_branches |          2482176

 2017-02-06 16:12:52.911436+01 | 1486393972.91144 | pgbench_accounts |       1391173632
 2017-02-06 16:12:52.911436+01 | 1486393972.91144 | pgbench_tellers  |          3063808
 2017-02-06 16:12:52.911436+01 | 1486393972.91144 | pgbench_history  |        272941056
 2017-02-06 16:12:52.911436+01 | 1486393972.91144 | pgbench_branches |          2482176

 2017-02-06 16:12:53.982936+01 | 1486393973.98294 | pgbench_accounts |       1391173632
 2017-02-06 16:12:53.982936+01 | 1486393973.98294 | pgbench_tellers  |          3063808
 2017-02-06 16:12:53.982936+01 | 1486393973.98294 | pgbench_history  |        274522112
 2017-02-06 16:12:53.982936+01 | 1486393973.98294 | pgbench_branches |          2482176

 2017-02-06 16:12:55.05801+01 | 1486393975.05801 | pgbench_accounts |       1391173632
 2017-02-06 16:12:55.05801+01 | 1486393975.05801 | pgbench_tellers  |          3063808
 2017-02-06 16:12:55.05801+01 | 1486393975.05801 | pgbench_history  |        275374080
 2017-02-06 16:12:55.05801+01 | 1486393975.05801 | pgbench_branches |          2482176

 2017-02-06 16:12:56.131024+01 | 1486393976.13102 | pgbench_accounts |       1391173632
 2017-02-06 16:12:56.131024+01 | 1486393976.13102 | pgbench_tellers  |          3063808
 2017-02-06 16:12:56.131024+01 | 1486393976.13102 | pgbench_history  |        276463616
 2017-02-06 16:12:56.131024+01 | 1486393976.13102 | pgbench_branches |          2482176

 2017-02-06 16:12:57.209728+01 | 1486393977.20973 | pgbench_accounts |       1391173632
 2017-02-06 16:12:57.209728+01 | 1486393977.20973 | pgbench_tellers  |          3063808
 2017-02-06 16:12:57.209728+01 | 1486393977.20973 | pgbench_history  |        277766144
 2017-02-06 16:12:57.209728+01 | 1486393977.20973 | pgbench_branches |          2482176

 2017-02-06 16:12:58.282134+01 | 1486393978.28213 | pgbench_accounts |       1391173632
 2017-02-06 16:12:58.282134+01 | 1486393978.28213 | pgbench_tellers  |          3063808
 2017-02-06 16:12:58.282134+01 | 1486393978.28213 | pgbench_history  |        279044096
 2017-02-06 16:12:58.282134+01 | 1486393978.28213 | pgbench_branches |          2482176

 2017-02-06 16:12:59.355317+01 | 1486393979.35532 | pgbench_accounts |       1391173632
 2017-02-06 16:12:59.355317+01 | 1486393979.35532 | pgbench_tellers  |          3063808
 2017-02-06 16:12:59.355317+01 | 1486393979.35532 | pgbench_history  |        280174592
 2017-02-06 16:12:59.355317+01 | 1486393979.35532 | pgbench_branches |          2482176

 2017-02-06 16:13:00.432621+01 | 1486393980.43262 | pgbench_accounts |       1391173632
 2017-02-06 16:13:00.432621+01 | 1486393980.43262 | pgbench_tellers  |          3063808
 2017-02-06 16:13:00.432621+01 | 1486393980.43262 | pgbench_history  |        281288704
 2017-02-06 16:13:00.432621+01 | 1486393980.43262 | pgbench_branches |          2482176

 2017-02-06 16:13:01.507267+01 | 1486393981.50727 | pgbench_accounts |       1391173632
 2017-02-06 16:13:01.507267+01 | 1486393981.50727 | pgbench_tellers  |          3063808
 2017-02-06 16:13:01.507267+01 | 1486393981.50727 | pgbench_history  |        282624000
 2017-02-06 16:13:01.507267+01 | 1486393981.50727 | pgbench_branches |          2482176

 2017-02-06 16:13:02.582208+01 | 1486393982.58221 | pgbench_accounts |       1391173632
 2017-02-06 16:13:02.582208+01 | 1486393982.58221 | pgbench_tellers  |          3063808
 2017-02-06 16:13:02.582208+01 | 1486393982.58221 | pgbench_history  |        283901952
 2017-02-06 16:13:02.582208+01 | 1486393982.58221 | pgbench_branches |          2482176

 2017-02-06 16:13:03.657949+01 | 1486393983.65795 | pgbench_accounts |       1391173632
 2017-02-06 16:13:03.657949+01 | 1486393983.65795 | pgbench_tellers  |          3063808
 2017-02-06 16:13:03.657949+01 | 1486393983.65795 | pgbench_history  |        284778496
 2017-02-06 16:13:03.657949+01 | 1486393983.65795 | pgbench_branches |          2482176

 2017-02-06 16:13:04.734048+01 | 1486393984.73405 | pgbench_accounts |       1391173632
 2017-02-06 16:13:04.734048+01 | 1486393984.73405 | pgbench_tellers  |          3063808
 2017-02-06 16:13:04.734048+01 | 1486393984.73405 | pgbench_history  |        285999104
 2017-02-06 16:13:04.734048+01 | 1486393984.73405 | pgbench_branches |          2482176

 2017-02-06 16:13:05.809801+01 | 1486393985.8098 | pgbench_accounts |       1391173632
 2017-02-06 16:13:05.809801+01 | 1486393985.8098 | pgbench_tellers  |          3063808
 2017-02-06 16:13:05.809801+01 | 1486393985.8098 | pgbench_history  |        287596544
 2017-02-06 16:13:05.809801+01 | 1486393985.8098 | pgbench_branches |          2482176

 2017-02-06 16:13:06.886572+01 | 1486393986.88657 | pgbench_accounts |       1391173632
 2017-02-06 16:13:06.886572+01 | 1486393986.88657 | pgbench_tellers  |          3063808
 2017-02-06 16:13:06.886572+01 | 1486393986.88657 | pgbench_history  |        288858112
 2017-02-06 16:13:06.886572+01 | 1486393986.88657 | pgbench_branches |          2482176

 2017-02-06 16:13:07.960829+01 | 1486393987.96083 | pgbench_accounts |       1391173632
 2017-02-06 16:13:07.960829+01 | 1486393987.96083 | pgbench_tellers  |          3063808
 2017-02-06 16:13:07.960829+01 | 1486393987.96083 | pgbench_history  |        289701888
 2017-02-06 16:13:07.960829+01 | 1486393987.96083 | pgbench_branches |          2482176

 2017-02-06 16:13:09.032997+01 | 1486393989.033 | pgbench_accounts |       1391173632
 2017-02-06 16:13:09.032997+01 | 1486393989.033 | pgbench_tellers  |          3063808
 2017-02-06 16:13:09.032997+01 | 1486393989.033 | pgbench_history  |        291299328
 2017-02-06 16:13:09.032997+01 | 1486393989.033 | pgbench_branches |          2482176

 2017-02-06 16:13:10.109149+01 | 1486393990.10915 | pgbench_accounts |       1391173632
 2017-02-06 16:13:10.109149+01 | 1486393990.10915 | pgbench_tellers  |          3063808
 2017-02-06 16:13:10.109149+01 | 1486393990.10915 | pgbench_history  |        292216832
 2017-02-06 16:13:10.109149+01 | 1486393990.10915 | pgbench_branches |          2482176

 2017-02-06 16:13:11.18894+01 | 1486393991.18894 | pgbench_accounts |       1391173632
 2017-02-06 16:13:11.18894+01 | 1486393991.18894 | pgbench_tellers  |          3063808
 2017-02-06 16:13:11.18894+01 | 1486393991.18894 | pgbench_history  |        293298176
 2017-02-06 16:13:11.18894+01 | 1486393991.18894 | pgbench_branches |          2482176

 2017-02-06 16:13:12.266849+01 | 1486393992.26685 | pgbench_accounts |       1391173632
 2017-02-06 16:13:12.266849+01 | 1486393992.26685 | pgbench_tellers  |          3063808
 2017-02-06 16:13:12.266849+01 | 1486393992.26685 | pgbench_history  |        294731776
 2017-02-06 16:13:12.266849+01 | 1486393992.26685 | pgbench_branches |          2482176

 2017-02-06 16:13:13.352103+01 | 1486393993.3521 | pgbench_accounts |       1391173632
 2017-02-06 16:13:13.352103+01 | 1486393993.3521 | pgbench_tellers  |          3063808
 2017-02-06 16:13:13.352103+01 | 1486393993.3521 | pgbench_history  |        295673856
 2017-02-06 16:13:13.352103+01 | 1486393993.3521 | pgbench_branches |          2482176

 2017-02-06 16:13:14.428589+01 | 1486393994.42859 | pgbench_accounts |       1391173632
 2017-02-06 16:13:14.428589+01 | 1486393994.42859 | pgbench_tellers  |          3063808
 2017-02-06 16:13:14.428589+01 | 1486393994.42859 | pgbench_history  |        297721856
 2017-02-06 16:13:14.428589+01 | 1486393994.42859 | pgbench_branches |          2482176

 2017-02-06 16:13:15.505993+01 | 1486393995.50599 | pgbench_accounts |       1391173632
 2017-02-06 16:13:15.505993+01 | 1486393995.50599 | pgbench_tellers  |          3063808
 2017-02-06 16:13:15.505993+01 | 1486393995.50599 | pgbench_history  |        298074112
 2017-02-06 16:13:15.505993+01 | 1486393995.50599 | pgbench_branches |          2482176

 2017-02-06 16:13:16.582211+01 | 1486393996.58221 | pgbench_accounts |       1391173632
 2017-02-06 16:13:16.582211+01 | 1486393996.58221 | pgbench_tellers  |          3063808
 2017-02-06 16:13:16.582211+01 | 1486393996.58221 | pgbench_history  |        299376640
 2017-02-06 16:13:16.582211+01 | 1486393996.58221 | pgbench_branches |          2482176

 2017-02-06 16:13:17.657726+01 | 1486393997.65773 | pgbench_accounts |       1391173632
 2017-02-06 16:13:17.657726+01 | 1486393997.65773 | pgbench_tellers  |          3063808
 2017-02-06 16:13:17.657726+01 | 1486393997.65773 | pgbench_history  |        300670976
 2017-02-06 16:13:17.657726+01 | 1486393997.65773 | pgbench_branches |          2482176

 2017-02-06 16:13:18.731305+01 | 1486393998.7313 | pgbench_accounts |       1391173632
 2017-02-06 16:13:18.731305+01 | 1486393998.7313 | pgbench_tellers  |          3063808
 2017-02-06 16:13:18.731305+01 | 1486393998.7313 | pgbench_history  |        301907968
 2017-02-06 16:13:18.731305+01 | 1486393998.7313 | pgbench_branches |          2482176

 2017-02-06 16:13:19.804478+01 | 1486393999.80448 | pgbench_accounts |       1391173632
 2017-02-06 16:13:19.804478+01 | 1486393999.80448 | pgbench_tellers  |          3063808
 2017-02-06 16:13:19.804478+01 | 1486393999.80448 | pgbench_history  |        302940160
 2017-02-06 16:13:19.804478+01 | 1486393999.80448 | pgbench_branches |          2482176

 2017-02-06 16:13:20.875556+01 | 1486394000.87556 | pgbench_accounts |       1391173632
 2017-02-06 16:13:20.875556+01 | 1486394000.87556 | pgbench_tellers  |          3063808
 2017-02-06 16:13:20.875556+01 | 1486394000.87556 | pgbench_history  |        304693248
 2017-02-06 16:13:20.875556+01 | 1486394000.87556 | pgbench_branches |          2482176

 2017-02-06 16:13:21.949006+01 | 1486394001.94901 | pgbench_accounts |       1391173632
 2017-02-06 16:13:21.949006+01 | 1486394001.94901 | pgbench_tellers  |          3063808
 2017-02-06 16:13:21.949006+01 | 1486394001.94901 | pgbench_history  |        305209344
 2017-02-06 16:13:21.949006+01 | 1486394001.94901 | pgbench_branches |          2482176

 2017-02-06 16:13:23.025352+01 | 1486394003.02535 | pgbench_accounts |       1391173632
 2017-02-06 16:13:23.025352+01 | 1486394003.02535 | pgbench_tellers  |          3063808
 2017-02-06 16:13:23.025352+01 | 1486394003.02535 | pgbench_history  |        306667520
 2017-02-06 16:13:23.025352+01 | 1486394003.02535 | pgbench_branches |          2482176

 2017-02-06 16:13:24.096382+01 | 1486394004.09638 | pgbench_accounts |       1391173632
 2017-02-06 16:13:24.096382+01 | 1486394004.09638 | pgbench_tellers  |          3063808
 2017-02-06 16:13:24.096382+01 | 1486394004.09638 | pgbench_history  |        307576832
 2017-02-06 16:13:24.096382+01 | 1486394004.09638 | pgbench_branches |          2482176

 2017-02-06 16:13:25.164244+01 | 1486394005.16424 | pgbench_accounts |       1391173632
 2017-02-06 16:13:25.164244+01 | 1486394005.16424 | pgbench_tellers  |          3063808
 2017-02-06 16:13:25.164244+01 | 1486394005.16424 | pgbench_history  |        309002240
 2017-02-06 16:13:25.164244+01 | 1486394005.16424 | pgbench_branches |          2482176

 2017-02-06 16:13:26.246472+01 | 1486394006.24647 | pgbench_accounts |       1391173632
 2017-02-06 16:13:26.246472+01 | 1486394006.24647 | pgbench_tellers  |          3063808
 2017-02-06 16:13:26.246472+01 | 1486394006.24647 | pgbench_history  |        310337536
 2017-02-06 16:13:26.246472+01 | 1486394006.24647 | pgbench_branches |          2482176

 2017-02-06 16:13:27.318446+01 | 1486394007.31845 | pgbench_accounts |       1391173632
 2017-02-06 16:13:27.318446+01 | 1486394007.31845 | pgbench_tellers  |          3063808
 2017-02-06 16:13:27.318446+01 | 1486394007.31845 | pgbench_history  |        311271424
 2017-02-06 16:13:27.318446+01 | 1486394007.31845 | pgbench_branches |          2482176

 2017-02-06 16:13:28.392142+01 | 1486394008.39214 | pgbench_accounts |       1391173632
 2017-02-06 16:13:28.392142+01 | 1486394008.39214 | pgbench_tellers  |          3063808
 2017-02-06 16:13:28.392142+01 | 1486394008.39214 | pgbench_history  |        312360960
 2017-02-06 16:13:28.392142+01 | 1486394008.39214 | pgbench_branches |          2482176

 2017-02-06 16:13:29.465797+01 | 1486394009.4658 | pgbench_accounts |       1391173632
 2017-02-06 16:13:29.465797+01 | 1486394009.4658 | pgbench_tellers  |          3063808
 2017-02-06 16:13:29.465797+01 | 1486394009.4658 | pgbench_history  |        313466880
 2017-02-06 16:13:29.465797+01 | 1486394009.4658 | pgbench_branches |          2482176

 2017-02-06 16:13:30.536236+01 | 1486394010.53624 | pgbench_accounts |       1391173632
 2017-02-06 16:13:30.536236+01 | 1486394010.53624 | pgbench_tellers  |          3063808
 2017-02-06 16:13:30.536236+01 | 1486394010.53624 | pgbench_history  |        315129856
 2017-02-06 16:13:30.536236+01 | 1486394010.53624 | pgbench_branches |          2482176

 2017-02-06 16:13:31.611715+01 | 1486394011.61172 | pgbench_accounts |       1391173632
 2017-02-06 16:13:31.611715+01 | 1486394011.61172 | pgbench_tellers  |          3063808
 2017-02-06 16:13:31.611715+01 | 1486394011.61172 | pgbench_history  |        315858944
 2017-02-06 16:13:31.611715+01 | 1486394011.61172 | pgbench_branches |          2482176

 2017-02-06 16:13:32.690119+01 | 1486394012.69012 | pgbench_accounts |       1391173632
 2017-02-06 16:13:32.690119+01 | 1486394012.69012 | pgbench_tellers  |          3063808
 2017-02-06 16:13:32.690119+01 | 1486394012.69012 | pgbench_history  |        316989440
 2017-02-06 16:13:32.690119+01 | 1486394012.69012 | pgbench_branches |          2482176

 2017-02-06 16:13:33.76411+01 | 1486394013.76411 | pgbench_accounts |       1391173632
 2017-02-06 16:13:33.76411+01 | 1486394013.76411 | pgbench_tellers  |          3063808
 2017-02-06 16:13:33.76411+01 | 1486394013.76411 | pgbench_history  |        318160896
 2017-02-06 16:13:33.76411+01 | 1486394013.76411 | pgbench_branches |          2482176

 2017-02-06 16:13:34.841479+01 | 1486394014.84148 | pgbench_accounts |       1391173632
 2017-02-06 16:13:34.841479+01 | 1486394014.84148 | pgbench_tellers  |          3063808
 2017-02-06 16:13:34.841479+01 | 1486394014.84148 | pgbench_history  |        320077824
 2017-02-06 16:13:34.841479+01 | 1486394014.84148 | pgbench_branches |          2482176

 2017-02-06 16:13:35.913924+01 | 1486394015.91392 | pgbench_accounts |       1391173632
 2017-02-06 16:13:35.913924+01 | 1486394015.91392 | pgbench_tellers  |          3063808
 2017-02-06 16:13:35.913924+01 | 1486394015.91392 | pgbench_history  |        320593920
 2017-02-06 16:13:35.913924+01 | 1486394015.91392 | pgbench_branches |          2482176

 2017-02-06 16:13:36.986144+01 | 1486394016.98614 | pgbench_accounts |       1391173632
 2017-02-06 16:13:36.986144+01 | 1486394016.98614 | pgbench_tellers  |          3063808
 2017-02-06 16:13:36.986144+01 | 1486394016.98614 | pgbench_history  |        321863680
 2017-02-06 16:13:36.986144+01 | 1486394016.98614 | pgbench_branches |          2482176

 2017-02-06 16:13:38.049648+01 | 1486394018.04965 | pgbench_accounts |       1391173632
 2017-02-06 16:13:38.049648+01 | 1486394018.04965 | pgbench_tellers  |          3063808
 2017-02-06 16:13:38.049648+01 | 1486394018.04965 | pgbench_history  |        323739648
 2017-02-06 16:13:38.049648+01 | 1486394018.04965 | pgbench_branches |          2482176

 2017-02-06 16:13:39.120959+01 | 1486394019.12096 | pgbench_accounts |       1391173632
 2017-02-06 16:13:39.120959+01 | 1486394019.12096 | pgbench_tellers  |          3063808
 2017-02-06 16:13:39.120959+01 | 1486394019.12096 | pgbench_history  |        324788224
 2017-02-06 16:13:39.120959+01 | 1486394019.12096 | pgbench_branches |          2482176

 2017-02-06 16:13:40.198682+01 | 1486394020.19868 | pgbench_accounts |       1391173632
 2017-02-06 16:13:40.198682+01 | 1486394020.19868 | pgbench_tellers  |          3063808
 2017-02-06 16:13:40.198682+01 | 1486394020.19868 | pgbench_history  |        325312512
 2017-02-06 16:13:40.198682+01 | 1486394020.19868 | pgbench_branches |          2482176

 2017-02-06 16:13:41.26834+01 | 1486394021.26834 | pgbench_accounts |       1391173632
 2017-02-06 16:13:41.26834+01 | 1486394021.26834 | pgbench_tellers  |          3063808
 2017-02-06 16:13:41.26834+01 | 1486394021.26834 | pgbench_history  |        326705152
 2017-02-06 16:13:41.26834+01 | 1486394021.26834 | pgbench_branches |          2482176

 2017-02-06 16:13:42.344229+01 | 1486394022.34423 | pgbench_accounts |       1391173632
 2017-02-06 16:13:42.344229+01 | 1486394022.34423 | pgbench_tellers  |          3063808
 2017-02-06 16:13:42.344229+01 | 1486394022.34423 | pgbench_history  |        327827456
 2017-02-06 16:13:42.344229+01 | 1486394022.34423 | pgbench_branches |          2482176

 2017-02-06 16:13:43.427424+01 | 1486394023.42742 | pgbench_accounts |       1391173632
 2017-02-06 16:13:43.427424+01 | 1486394023.42742 | pgbench_tellers  |          3063808
 2017-02-06 16:13:43.427424+01 | 1486394023.42742 | pgbench_history  |        328941568
 2017-02-06 16:13:43.427424+01 | 1486394023.42742 | pgbench_branches |          2482176

