 2017-02-03 23:39:15.659585+01 | 1486161555.65958 | 1D/C27C57E0              |          127816980448

 2017-02-03 23:39:16.75211+01 | 1486161556.75211 | 1D/CEBD3280              |          128022557312

 2017-02-03 23:39:17.836586+01 | 1486161557.83659 | 1D/DB5010A8              |          128233509032

 2017-02-03 23:39:18.926716+01 | 1486161558.92672 | 1D/E597AB60              |          128405973856

 2017-02-03 23:39:20.017406+01 | 1486161560.01741 | 1D/EEF7B5C0              |          128563262912

 2017-02-03 23:39:21.094729+01 | 1486161561.09473 | 1D/F8915820              |          128724326432

 2017-02-03 23:39:22.181795+01 | 1486161562.18179 | 1E/2B94678               |          128894715512

 2017-02-03 23:39:23.271243+01 | 1486161563.27124 | 1E/A88A4D8               |          129025746136

 2017-02-03 23:39:24.358614+01 | 1486161564.35861 | 1E/10638778              |          129123977080

 2017-02-03 23:39:25.447095+01 | 1486161565.44709 | 1E/14E29690              |          129199412880

 2017-02-03 23:39:26.529325+01 | 1486161566.52933 | 1E/189E4EA8              |          129262046888

 2017-02-03 23:39:27.610691+01 | 1486161567.61069 | 1E/1BC02F18              |          129314598680

 2017-02-03 23:39:28.692096+01 | 1486161568.6921 | 1E/1E72AC78              |          129359850616

 2017-02-03 23:39:29.777033+01 | 1486161569.77703 | 1E/20E464B0              |          129400857776

 2017-02-03 23:39:30.859308+01 | 1486161570.85931 | 1E/22DFBCA8              |          129434107048

 2017-02-03 23:39:31.950064+01 | 1486161571.95006 | 1E/24B2BB08              |          129464711944

 2017-02-03 23:39:33.032178+01 | 1486161573.03218 | 1E/265CB8A8              |          129492629672

 2017-02-03 23:39:34.113792+01 | 1486161574.11379 | 1E/27E82870              |          129518545008

 2017-02-03 23:39:35.194184+01 | 1486161575.19418 | 1E/295E69A0              |          129543072160

 2017-02-03 23:39:36.274298+01 | 1486161576.2743 | 1E/2A9F0100              |          129564082432

 2017-02-03 23:39:37.360312+01 | 1486161577.36031 | 1E/2BEBF248              |          129585902152

 2017-02-03 23:39:38.442491+01 | 1486161578.44249 | 1E/2D307B38              |          129607170872

 2017-02-03 23:39:39.530084+01 | 1486161579.53008 | 1E/2E63D7D0              |          129627314128

 2017-02-03 23:39:40.616947+01 | 1486161580.61695 | 1E/2F8C16C0              |          129646728896

 2017-02-03 23:39:41.693+01 | 1486161581.693 | 1E/30B64178              |          129666269560

 2017-02-03 23:39:42.768181+01 | 1486161582.76818 | 1E/31DB1998              |          129685461400

 2017-02-03 23:39:43.855188+01 | 1486161583.85519 | 1E/330DFB80              |          129705573248

 2017-02-03 23:39:44.951972+01 | 1486161584.95197 | 1E/34349958              |          129724881240

 2017-02-03 23:39:46.045776+01 | 1486161586.04578 | 1E/3555FED0              |          129743847120

 2017-02-03 23:39:47.128997+01 | 1486161587.129 | 1E/365E4208              |          129761165832

 2017-02-03 23:39:48.210805+01 | 1486161588.2108 | 1E/3772B3F8              |          129779282936

 2017-02-03 23:39:49.296839+01 | 1486161589.29684 | 1E/388DDFB0              |          129797840816

 2017-02-03 23:39:50.379059+01 | 1486161590.37906 | 1E/39A384C8              |          129816036552

 2017-02-03 23:39:51.465432+01 | 1486161591.46543 | 1E/3AC01670              |          129834686064

 2017-02-03 23:39:52.547914+01 | 1486161592.54791 | 1E/3BDBD840              |          129853282368

 2017-02-03 23:39:53.629773+01 | 1486161593.62977 | 1E/3CFEC3A8              |          129872348072

 2017-02-03 23:39:54.713946+01 | 1486161594.71395 | 1E/3E0F3B48              |          129890204488

 2017-02-03 23:39:55.802323+01 | 1486161595.80232 | 1E/3F395E78              |          129909743224

 2017-02-03 23:39:56.873316+01 | 1486161596.87332 | 1E/405772E8              |          129928491752

 2017-02-03 23:39:57.957578+01 | 1486161597.95758 | 1E/41797698              |          129947498136

 2017-02-03 23:39:59.037359+01 | 1486161599.03736 | 1E/42992BF0              |          129966353392

 2017-02-03 23:40:00.119136+01 | 1486161600.11914 | 1E/43B9B328              |          129985262376

 2017-02-03 23:40:01.200861+01 | 1486161601.20086 | 1E/44DDAA40              |          130004396608

 2017-02-03 23:40:02.271952+01 | 1486161602.27195 | 1E/460DD930              |          130024331568

 2017-02-03 23:40:03.357531+01 | 1486161603.35753 | 1E/47359338              |          130043712312

 2017-02-03 23:40:04.437803+01 | 1486161604.4378 | 1E/48532E58              |          130062429784

 2017-02-03 23:40:05.513961+01 | 1486161605.51396 | 1E/49749DC0              |          130081398208

 2017-02-03 23:40:06.594078+01 | 1486161606.59408 | 1E/4A917DD8              |          130100067800

 2017-02-03 23:40:07.669703+01 | 1486161607.6697 | 1E/4BAD09B8              |          130118650296

 2017-02-03 23:40:08.746365+01 | 1486161608.74637 | 1E/4CC68920              |          130137098528

 2017-02-03 23:40:09.827453+01 | 1486161609.82745 | 1E/4DE22B20              |          130155686688

 2017-02-03 23:40:10.920066+01 | 1486161610.92007 | 1E/4EFAE700              |          130174084864

 2017-02-03 23:40:12.009723+01 | 1486161612.00972 | 1E/502CF3A0              |          130194142112

 2017-02-03 23:40:13.08976+01 | 1486161613.08976 | 1E/51519A70              |          130213321328

 2017-02-03 23:40:14.17061+01 | 1486161614.17061 | 1E/527AB740              |          130232792896

 2017-02-03 23:40:15.251567+01 | 1486161615.25157 | 1E/53A78788              |          130252507016

 2017-02-03 23:40:16.326693+01 | 1486161616.32669 | 1E/54CF32F0              |          130271884016

 2017-02-03 23:40:17.4162+01 | 1486161617.4162 | 1E/55DB3A48              |          130289449544

 2017-02-03 23:40:18.502501+01 | 1486161618.5025 | 1E/56E78F50              |          130307034960

 2017-02-03 23:40:19.58378+01 | 1486161619.58378 | 1E/57F69B88              |          130324798344

 2017-02-03 23:40:20.667296+01 | 1486161620.6673 | 1E/590CB438              |          130343023672

 2017-02-03 23:40:21.745205+01 | 1486161621.7452 | 1E/5A21B0A0              |          130361176224

 2017-02-03 23:40:22.825736+01 | 1486161622.82574 | 1E/5B306AF8              |          130378918648

 2017-02-03 23:40:23.914882+01 | 1486161623.91488 | 1E/5C3FE720              |          130396710688

 2017-02-03 23:40:24.999516+01 | 1486161624.99952 | 1E/5D544D78              |          130414824824

 2017-02-03 23:40:26.083999+01 | 1486161626.084 | 1E/5E67F5A0              |          130432890272

 2017-02-03 23:40:27.162799+01 | 1486161627.1628 | 1E/5F72A8A8              |          130450368680

 2017-02-03 23:40:28.249095+01 | 1486161628.24909 | 1E/6086CEC8              |          130468466376

 2017-02-03 23:40:29.334232+01 | 1486161629.33423 | 1E/61941508              |          130486113544

 2017-02-03 23:40:30.417457+01 | 1486161630.41746 | 1E/62A30E98              |          130503872152

 2017-02-03 23:40:31.497968+01 | 1486161631.49797 | 1E/63AF5588              |          130521453960

 2017-02-03 23:40:32.584343+01 | 1486161632.58434 | 1E/64BAD018              |          130538983448

 2017-02-03 23:40:33.673656+01 | 1486161633.67366 | 1E/65DE1150              |          130558071120

 2017-02-03 23:40:34.757171+01 | 1486161634.75717 | 1E/66FE67E0              |          130576967648

 2017-02-03 23:40:35.842641+01 | 1486161635.84264 | 1E/681D9C80              |          130595789952

 2017-02-03 23:40:36.931674+01 | 1486161636.93167 | 1E/69419148              |          130614923592

 2017-02-03 23:40:38.012303+01 | 1486161638.0123 | 1E/6A61B7F8              |          130633807864

 2017-02-03 23:40:39.107531+01 | 1486161639.10753 | 1E/6B7AB4D0              |          130652222672

 2017-02-03 23:40:40.192485+01 | 1486161640.19249 | 1E/6C95A820              |          130670766112

 2017-02-03 23:40:41.280887+01 | 1486161641.28089 | 1E/6DBBDF30              |          130690047792

 2017-02-03 23:40:42.35792+01 | 1486161642.35792 | 1E/6EDA6FF8              |          130708828152

 2017-02-03 23:40:43.438967+01 | 1486161643.43897 | 1E/6FF80B88              |          130727545736

 2017-02-03 23:40:44.524398+01 | 1486161644.5244 | 1E/711348D0              |          130746108112

 2017-02-03 23:40:45.611964+01 | 1486161645.61196 | 1E/722A4748              |          130764392264

 2017-02-03 23:40:46.691449+01 | 1486161646.69145 | 1E/7346FE00              |          130783051264

 2017-02-03 23:40:47.767123+01 | 1486161647.76712 | 1E/74640D80              |          130801732992

 2017-02-03 23:40:48.852786+01 | 1486161648.85279 | 1E/7570F4B0              |          130819355824

 2017-02-03 23:40:49.938668+01 | 1486161649.93867 | 1E/767F9F40              |          130837094208

 2017-02-03 23:40:51.027905+01 | 1486161651.0279 | 1E/7790B448              |          130854990920

 2017-02-03 23:40:52.119479+01 | 1486161652.11948 | 1E/78B2C1F0              |          130873999856

 2017-02-03 23:40:53.209553+01 | 1486161653.20955 | 1E/79B76558              |          130891081048

 2017-02-03 23:40:54.294014+01 | 1486161654.29401 | 1E/7AC738C8              |          130908895432

 2017-02-03 23:40:55.374945+01 | 1486161655.37494 | 1E/7BD30AB0              |          130926447280

 2017-02-03 23:40:56.450737+01 | 1486161656.45074 | 1E/7CD9B3A0              |          130943660960

 2017-02-03 23:40:57.535111+01 | 1486161657.53511 | 1E/7DEABB60              |          130961554272

 2017-02-03 23:40:58.616612+01 | 1486161658.61661 | 1E/7F041980              |          130979993984

 2017-02-03 23:40:59.69248+01 | 1486161659.69248 | 1E/801A1758              |          130998212440

 2017-02-03 23:41:00.766941+01 | 1486161660.76694 | 1E/81366B20              |          131016846112

 2017-02-03 23:41:01.844468+01 | 1486161661.84447 | 1E/825B05A0              |          131036022176

 2017-02-03 23:41:02.932686+01 | 1486161662.93269 | 1E/838467A8              |          131055511464

 2017-02-03 23:41:04.020234+01 | 1486161664.02023 | 1E/849C9D70              |          131073875312

 2017-02-03 23:41:05.107826+01 | 1486161665.10783 | 1E/85B916C8              |          131092518600

 2017-02-03 23:41:06.192246+01 | 1486161666.19225 | 1E/86DEE178              |          131111772536

 2017-02-03 23:41:07.271817+01 | 1486161667.27182 | 1E/88156208              |          131132121608

 2017-02-03 23:41:08.359946+01 | 1486161668.35995 | 1E/89318E68              |          131150745192

 2017-02-03 23:41:09.44418+01 | 1486161669.44418 | 1E/8A44A8A0              |          131168774304

 2017-02-03 23:41:10.538646+01 | 1486161670.53865 | 1E/8B670208              |          131187802632

 2017-02-03 23:41:11.618173+01 | 1486161671.61817 | 1E/8C8DB6D0              |          131207116496

 2017-02-03 23:41:12.694142+01 | 1486161672.69414 | 1E/8DAD2CA0              |          131225955488

 2017-02-03 23:41:13.777972+01 | 1486161673.77797 | 1E/8EC35F78              |          131244187512

 2017-02-03 23:41:14.855859+01 | 1486161674.85586 | 1E/8FDFF6A8              |          131262838440

 2017-02-03 23:41:15.936621+01 | 1486161675.93662 | 1E/90FB9A98              |          131281427096

 2017-02-03 23:41:17.024298+01 | 1486161677.0243 | 1E/92210A80              |          131300657792

 2017-02-03 23:41:18.111101+01 | 1486161678.1111 | 1E/9347B538              |          131319969080

 2017-02-03 23:41:19.194435+01 | 1486161679.19443 | 1E/945EC0A0              |          131338256544

 2017-02-03 23:41:20.277796+01 | 1486161680.2778 | 1E/958BE0C8              |          131357991112

 2017-02-03 23:41:21.361243+01 | 1486161681.36124 | 1E/96A413F0              |          131376354288

 2017-02-03 23:41:22.44626+01 | 1486161682.44626 | 1E/97C075A8              |          131394991528

 2017-02-03 23:41:23.53755+01 | 1486161683.53755 | 1E/98D22370              |          131412927344

 2017-02-03 23:41:24.614511+01 | 1486161684.61451 | 1E/99DB6938              |          131430312248

 2017-02-03 23:41:25.700335+01 | 1486161685.70034 | 1E/9AF80C80              |          131448966272

 2017-02-03 23:41:26.780439+01 | 1486161686.78044 | 1E/9C08C460              |          131466839136

 2017-02-03 23:41:27.862564+01 | 1486161687.86256 | 1E/9D226120              |          131485294880

 2017-02-03 23:41:28.955353+01 | 1486161688.95535 | 1E/9E3AB230              |          131503665712

 2017-02-03 23:41:30.039445+01 | 1486161690.03944 | 1E/9F5449C8              |          131522120136

 2017-02-03 23:41:31.13134+01 | 1486161691.13134 | 1E/A075AF18              |          131541085976

 2017-02-03 23:41:32.212238+01 | 1486161692.21224 | 1E/A1866DC0              |          131558960576

 2017-02-03 23:41:33.295554+01 | 1486161693.29555 | 1E/A2AADDD8              |          131578125784

 2017-02-03 23:41:34.380214+01 | 1486161694.38021 | 1E/A3C54938              |          131596634424

 2017-02-03 23:41:35.468074+01 | 1486161695.46807 | 1E/A4D93550              |          131614717264

 2017-02-03 23:41:36.554289+01 | 1486161696.55429 | 1E/A5F46A90              |          131633277584

 2017-02-03 23:41:37.639019+01 | 1486161697.63902 | 1E/A7094E28              |          131651423784

 2017-02-03 23:41:38.727193+01 | 1486161698.72719 | 1E/A81DC740              |          131669542720

 2017-02-03 23:41:39.80809+01 | 1486161699.80809 | 1E/A9347F40              |          131687808832

 2017-02-03 23:41:40.88721+01 | 1486161700.88721 | 1E/AA46A8C8              |          131705776328

 2017-02-03 23:41:41.97247+01 | 1486161701.97247 | 1E/AB68B070              |          131724783728

 2017-02-03 23:41:43.061781+01 | 1486161703.06178 | 1E/AC7B8358              |          131742794584

 2017-02-03 23:41:44.15304+01 | 1486161704.15304 | 1E/AD95DBC8              |          131761298376

 2017-02-03 23:41:45.234915+01 | 1486161705.23492 | 1E/AEB123E0              |          131779863520

 2017-02-03 23:41:46.319431+01 | 1486161706.31943 | 1E/AFC0D0D8              |          131797668056

 2017-02-03 23:41:47.402822+01 | 1486161707.40282 | 1E/B0DA22B8              |          131816104632

 2017-02-03 23:41:48.493027+01 | 1486161708.49303 | 1E/B1EC0370              |          131834053488

 2017-02-03 23:41:49.576558+01 | 1486161709.57656 | 1E/B2E85FB0              |          131850592176

 2017-02-03 23:41:50.666252+01 | 1486161710.66625 | 1E/B3FCC080              |          131868704896

 2017-02-03 23:41:51.744628+01 | 1486161711.74463 | 1E/B5141F10              |          131887013648

 2017-02-03 23:41:52.823568+01 | 1486161712.82357 | 1E/B6264100              |          131904979200

 2017-02-03 23:41:53.904641+01 | 1486161713.90464 | 1E/B73A2510              |          131923059984

 2017-02-03 23:41:54.999719+01 | 1486161714.99972 | 1E/B84CF508              |          131941070088

 2017-02-03 23:41:56.069622+01 | 1486161716.06962 | 1E/B962F3E0              |          131959288800

 2017-02-03 23:41:57.157596+01 | 1486161717.1576 | 1E/BA819A30              |          131978074672

 2017-02-03 23:41:58.241691+01 | 1486161718.24169 | 1E/BB9D03D8              |          131996648408

 2017-02-03 23:41:59.325344+01 | 1486161719.32534 | 1E/BCB04F40              |          132014690112

 2017-02-03 23:42:00.406776+01 | 1486161720.40678 | 1E/BDBFDB00              |          132032486144

 2017-02-03 23:42:01.487051+01 | 1486161721.48705 | 1E/BEDA9420              |          132051014688

 2017-02-03 23:42:02.561458+01 | 1486161722.56146 | 1E/BFF6E118              |          132069646616

 2017-02-03 23:42:03.642226+01 | 1486161723.64223 | 1E/C10D56E8              |          132087895784

 2017-02-03 23:42:04.724884+01 | 1486161724.72488 | 1E/C2288058              |          132106453080

 2017-02-03 23:42:05.799993+01 | 1486161725.79999 | 1E/C33CC228              |          132124557864

 2017-02-03 23:42:06.878508+01 | 1486161726.87851 | 1E/C4670EB8              |          132144107192

 2017-02-03 23:42:07.959917+01 | 1486161727.95992 | 1E/C5922E70              |          132163710576

 2017-02-03 23:42:09.039963+01 | 1486161729.03996 | 1E/C6B3B450              |          132182684752

 2017-02-03 23:42:10.121839+01 | 1486161730.12184 | 1E/C7D334F0              |          132201526512

 2017-02-03 23:42:11.210615+01 | 1486161731.21061 | 1E/C8F86928              |          132220741928

 2017-02-03 23:42:12.301053+01 | 1486161732.30105 | 1E/CA17C1F0              |          132239573488

 2017-02-03 23:42:13.389671+01 | 1486161733.38967 | 1E/CB367E30              |          132258364976

 2017-02-03 23:42:14.472181+01 | 1486161734.47218 | 1E/CC55CCC0              |          132277193920

 2017-02-03 23:42:15.563381+01 | 1486161735.56338 | 1E/CD656BB8              |          132294994872

 2017-02-03 23:42:16.648065+01 | 1486161736.64807 | 1E/CE7C0E98              |          132313255576

 2017-02-03 23:42:17.731643+01 | 1486161737.73164 | 1E/CF95B360              |          132331713376

 2017-02-03 23:42:18.813067+01 | 1486161738.81307 | 1E/D0C0A360              |          132351304544

 2017-02-03 23:42:19.894573+01 | 1486161739.89457 | 1E/D1F1BA18              |          132371298840

 2017-02-03 23:42:20.979153+01 | 1486161740.97915 | 1E/D304F040              |          132389335104

 2017-02-03 23:42:22.067192+01 | 1486161742.06719 | 1E/D4176AD8              |          132407323352

 2017-02-03 23:42:23.153168+01 | 1486161743.15317 | 1E/D5341CA8              |          132425981096

 2017-02-03 23:42:24.238005+01 | 1486161744.238 | 1E/D64C8658              |          132444358232

 2017-02-03 23:42:25.320329+01 | 1486161745.32033 | 1E/D75923F0              |          132461962224

 2017-02-03 23:42:26.40332+01 | 1486161746.40332 | 1E/D86B2AF0              |          132479920880

 2017-02-03 23:42:27.484024+01 | 1486161747.48402 | 1E/D97FB7D0              |          132498044880

 2017-02-03 23:42:28.571226+01 | 1486161748.57123 | 1E/DA9A9EC8              |          132516585160

 2017-02-03 23:42:29.650082+01 | 1486161749.65008 | 1E/DBBABF80              |          132535467904

 2017-02-03 23:42:30.737112+01 | 1486161750.73711 | 1E/DCDA8130              |          132554326320

 2017-02-03 23:42:31.813864+01 | 1486161751.81386 | 1E/DDF153C8              |          132572599240

 2017-02-03 23:42:32.899587+01 | 1486161752.89959 | 1E/DF0677E0              |          132590761952

 2017-02-03 23:42:33.975562+01 | 1486161753.97556 | 1E/E01EB080              |          132609126528

 2017-02-03 23:42:35.057616+01 | 1486161755.05762 | 1E/E137F938              |          132627560760

 2017-02-03 23:42:36.135798+01 | 1486161756.1358 | 1E/E2559A70              |          132646279792

 2017-02-03 23:42:37.225951+01 | 1486161757.22595 | 1E/E36D7DF0              |          132664622576

 2017-02-03 23:42:38.307394+01 | 1486161758.30739 | 1E/E48C3098              |          132683411608

 2017-02-03 23:42:39.389486+01 | 1486161759.38949 | 1E/E5A55080              |          132701835392

 2017-02-03 23:42:40.468859+01 | 1486161760.46886 | 1E/E6B807C0              |          132719839168

 2017-02-03 23:42:41.552486+01 | 1486161761.55249 | 1E/E7D04BD0              |          132738206672

 2017-02-03 23:42:42.632518+01 | 1486161762.63252 | 1E/E8E3D090              |          132756263056

 2017-02-03 23:42:43.731471+01 | 1486161763.73147 | 1E/E9F84FE8              |          132774383592

 2017-02-03 23:42:44.812411+01 | 1486161764.81241 | 1E/EB0745E0              |          132792141280

 2017-02-03 23:42:45.891245+01 | 1486161765.89124 | 1E/EC198748              |          132810114888

 2017-02-03 23:42:46.9666+01 | 1486161766.9666 | 1E/ED299B28              |          132827945768

 2017-02-03 23:42:48.052184+01 | 1486161768.05218 | 1E/EE30ED88              |          132845202824

 2017-02-03 23:42:49.143787+01 | 1486161769.14379 | 1E/EF477260              |          132863455840

 2017-02-03 23:42:50.232694+01 | 1486161770.23269 | 1E/F05FB030              |          132881821744

 2017-02-03 23:42:51.316586+01 | 1486161771.31659 | 1E/F160FAE8              |          132898683624

 2017-02-03 23:42:52.396198+01 | 1486161772.3962 | 1E/F2734278              |          132916658808

 2017-02-03 23:42:53.482429+01 | 1486161773.48243 | 1E/F387C9F0              |          132934781424

 2017-02-03 23:42:54.569531+01 | 1486161774.56953 | 1E/F49CCCF8              |          132952935672

 2017-02-03 23:42:55.656546+01 | 1486161775.65655 | 1E/F5B30FC0              |          132971171776

 2017-02-03 23:42:56.747076+01 | 1486161776.74708 | 1E/F6C84138              |          132989337912

 2017-02-03 23:42:57.82747+01 | 1486161777.82747 | 1E/F7E11A38              |          133007743544

 2017-02-03 23:42:58.903669+01 | 1486161778.90367 | 1E/F8F846B8              |          133026039480

 2017-02-03 23:42:59.983555+01 | 1486161779.98356 | 1E/FA07BE30              |          133043830320

 2017-02-03 23:43:01.061664+01 | 1486161781.06166 | 1E/FB0B89D8              |          133060856280

 2017-02-03 23:43:02.152697+01 | 1486161782.1527 | 1E/FC207AE0              |          133079005920

 2017-02-03 23:43:03.236013+01 | 1486161783.23601 | 1E/FD3277E0              |          133096962016

 2017-02-03 23:43:04.318875+01 | 1486161784.31888 | 1E/FE49DE38              |          133115272760

 2017-02-03 23:43:05.401373+01 | 1486161785.40137 | 1E/FF5C6B50              |          133133265744

 2017-02-03 23:43:06.487617+01 | 1486161786.48762 | 1F/718FD0                |          133151428560

 2017-02-03 23:43:07.561021+01 | 1486161787.56102 | 1F/19EC400               |          133171168256

 2017-02-03 23:43:08.64364+01 | 1486161788.64364 | 1F/2C6A590               |          133190559120

 2017-02-03 23:43:09.724699+01 | 1486161789.7247 | 1F/3E706F8               |          133209458424

 2017-02-03 23:43:10.805043+01 | 1486161790.80504 | 1F/501D4F0               |          133227992304

 2017-02-03 23:43:11.889217+01 | 1486161791.88922 | 1F/60BF370               |          133245432688

 2017-02-03 23:43:12.963921+01 | 1486161792.96392 | 1F/7162508               |          133262877960

 2017-02-03 23:43:14.044219+01 | 1486161794.04422 | 1F/825A558               |          133280671064

 2017-02-03 23:43:15.131129+01 | 1486161795.13113 | 1F/942A4D8               |          133299348696

 2017-02-03 23:43:16.217902+01 | 1486161796.2179 | 1F/A5D7D78               |          133317885304

 2017-02-03 23:43:17.303792+01 | 1486161797.30379 | 1F/B6F5A78               |          133335833208

 2017-02-03 23:43:18.392819+01 | 1486161798.39282 | 1F/C98A748               |          133355317064

 2017-02-03 23:43:19.483041+01 | 1486161799.48304 | 1F/DC3D5E0               |          133374924256

 2017-02-03 23:43:20.573971+01 | 1486161800.57397 | 1F/EDF2C80               |          133393493120

 2017-02-03 23:43:21.655955+01 | 1486161801.65596 | 1F/FDC5F18               |          133410086680

 2017-02-03 23:43:22.742603+01 | 1486161802.7426 | 1F/10FC9A50              |          133428976208

 2017-02-03 23:43:23.818439+01 | 1486161803.81844 | 1F/121628D8              |          133447428312

 2017-02-03 23:43:24.902876+01 | 1486161804.90288 | 1F/133016A0              |          133465904800

 2017-02-03 23:43:25.982786+01 | 1486161805.98279 | 1F/1448B400              |          133484295168

 2017-02-03 23:43:27.069679+01 | 1486161807.06968 | 1F/1563BC60              |          133502844000

 2017-02-03 23:43:28.156215+01 | 1486161808.15621 | 1F/167B40E8              |          133521162472

 2017-02-03 23:43:29.244503+01 | 1486161809.2445 | 1F/17969388              |          133539730312

 2017-02-03 23:43:30.330075+01 | 1486161810.33008 | 1F/18AB7150              |          133557875024

 2017-02-03 23:43:31.41392+01 | 1486161811.41392 | 1F/19BEBF30              |          133575917360

 2017-02-03 23:43:32.49436+01 | 1486161812.49436 | 1F/1ADE3640              |          133594756672

 2017-02-03 23:43:33.576937+01 | 1486161813.57694 | 1F/1BECCC78              |          133612489848

 2017-02-03 23:43:34.666402+01 | 1486161814.6664 | 1F/1D0B0A70              |          133631249008

 2017-02-03 23:43:35.754127+01 | 1486161815.75413 | 1F/1E1F97D0              |          133649373136

 2017-02-03 23:43:36.836944+01 | 1486161816.83694 | 1F/1F3B02F0              |          133667947248

 2017-02-03 23:43:37.915185+01 | 1486161817.91518 | 1F/20577BE8              |          133686590440

 2017-02-03 23:43:38.992965+01 | 1486161818.99296 | 1F/216B0D60              |          133704650080

 2017-02-03 23:43:40.074275+01 | 1486161820.07428 | 1F/228C5288              |          133723607688

 2017-02-03 23:43:41.158804+01 | 1486161821.1588 | 1F/23A94F30              |          133742284592

 2017-02-03 23:43:42.247612+01 | 1486161822.24761 | 1F/24C434E0              |          133760824544

 2017-02-03 23:43:43.32952+01 | 1486161823.32952 | 1F/25E92C40              |          133780024384

 2017-02-03 23:43:44.419309+01 | 1486161824.41931 | 1F/26FFFB60              |          133798296416

 2017-02-03 23:43:45.504301+01 | 1486161825.5043 | 1F/2822D7E0              |          133817358304

 2017-02-03 23:43:46.58992+01 | 1486161826.58992 | 1F/293DAB80              |          133835893632

 2017-02-03 23:43:47.677212+01 | 1486161827.67721 | 1F/2A596808              |          133854488584

 2017-02-03 23:43:48.755611+01 | 1486161828.75561 | 1F/2B71EB18              |          133872872216

 2017-02-03 23:43:49.839607+01 | 1486161829.83961 | 1F/2C8F5438              |          133891576888

 2017-02-03 23:43:50.916447+01 | 1486161830.91645 | 1F/2DB0CC50              |          133910547536

 2017-02-03 23:43:51.997664+01 | 1486161831.99766 | 1F/2EBEBF18              |          133928238872

 2017-02-03 23:43:53.081489+01 | 1486161833.08149 | 1F/2FCDDF78              |          133946007416

 2017-02-03 23:43:54.172336+01 | 1486161834.17234 | 1F/30E41138              |          133964239160

 2017-02-03 23:43:55.262384+01 | 1486161835.26238 | 1F/31E63128              |          133981155624

 2017-02-03 23:43:56.342913+01 | 1486161836.34291 | 1F/32F3B5F0              |          133998818800

 2017-02-03 23:43:57.427202+01 | 1486161837.4272 | 1F/33F523B0              |          134015689648

 2017-02-03 23:43:58.512667+01 | 1486161838.51267 | 1F/34F97790              |          134032750480

 2017-02-03 23:43:59.594629+01 | 1486161839.59463 | 1F/3603ECD0              |          134050213072

 2017-02-03 23:44:00.679511+01 | 1486161840.67951 | 1F/370CB3D0              |          134067565520

 2017-02-03 23:44:01.763115+01 | 1486161841.76311 | 1F/382A5F68              |          134086287208

 2017-02-03 23:44:02.839924+01 | 1486161842.83992 | 1F/393C1810              |          134104225808

 2017-02-03 23:44:03.921289+01 | 1486161843.92129 | 1F/3A53F668              |          134122567272

 2017-02-03 23:44:04.996714+01 | 1486161844.99671 | 1F/3B724488              |          134141330568

 2017-02-03 23:44:06.075648+01 | 1486161846.07565 | 1F/3C855908              |          134159358216

 2017-02-03 23:44:07.15917+01 | 1486161847.15917 | 1F/3DABBBA0              |          134178651040

 2017-02-03 23:44:08.254292+01 | 1486161848.25429 | 1F/3ED0F838              |          134197868600

 2017-02-03 23:44:09.345707+01 | 1486161849.34571 | 1F/4003B800              |          134217971712

 2017-02-03 23:44:10.431651+01 | 1486161850.43165 | 1F/41275818              |          134237083672

 2017-02-03 23:44:11.510856+01 | 1486161851.51086 | 1F/424975A8              |          134256096680

 2017-02-03 23:44:12.597013+01 | 1486161852.59701 | 1F/4369E8A8              |          134275000488

 2017-02-03 23:44:13.678767+01 | 1486161853.67877 | 1F/44839208              |          134293459464

 2017-02-03 23:44:14.76185+01 | 1486161854.76185 | 1F/45A79118              |          134312596824

