 2017-02-05 03:02:41.749952+01 | 1486260161.74995 | pgbench_branches_pkey |            40960
 2017-02-05 03:02:41.749952+01 | 1486260161.74995 | pgbench_tellers_pkey  |           245760
 2017-02-05 03:02:41.749952+01 | 1486260161.74995 | pgbench_accounts_pkey |       2246197248

 2017-02-05 03:02:42.833159+01 | 1486260162.83316 | pgbench_branches_pkey |            40960
 2017-02-05 03:02:42.833159+01 | 1486260162.83316 | pgbench_tellers_pkey  |           245760
 2017-02-05 03:02:42.833159+01 | 1486260162.83316 | pgbench_accounts_pkey |       2246197248

 2017-02-05 03:02:43.915753+01 | 1486260163.91575 | pgbench_branches_pkey |            40960
 2017-02-05 03:02:43.915753+01 | 1486260163.91575 | pgbench_tellers_pkey  |           245760
 2017-02-05 03:02:43.915753+01 | 1486260163.91575 | pgbench_accounts_pkey |       2246197248

 2017-02-05 03:02:44.987755+01 | 1486260164.98776 | pgbench_branches_pkey |            40960
 2017-02-05 03:02:44.987755+01 | 1486260164.98776 | pgbench_tellers_pkey  |           245760
 2017-02-05 03:02:44.987755+01 | 1486260164.98776 | pgbench_accounts_pkey |       2246197248

 2017-02-05 03:02:46.07246+01 | 1486260166.07246 | pgbench_branches_pkey |            40960
 2017-02-05 03:02:46.07246+01 | 1486260166.07246 | pgbench_tellers_pkey  |           245760
 2017-02-05 03:02:46.07246+01 | 1486260166.07246 | pgbench_accounts_pkey |       2246197248

 2017-02-05 03:02:47.151483+01 | 1486260167.15148 | pgbench_branches_pkey |            40960
 2017-02-05 03:02:47.151483+01 | 1486260167.15148 | pgbench_tellers_pkey  |           245760
 2017-02-05 03:02:47.151483+01 | 1486260167.15148 | pgbench_accounts_pkey |       2246197248

 2017-02-05 03:02:48.240947+01 | 1486260168.24095 | pgbench_branches_pkey |            40960
 2017-02-05 03:02:48.240947+01 | 1486260168.24095 | pgbench_tellers_pkey  |           245760
 2017-02-05 03:02:48.240947+01 | 1486260168.24095 | pgbench_accounts_pkey |       2246197248

 2017-02-05 03:02:49.306796+01 | 1486260169.3068 | pgbench_branches_pkey |            40960
 2017-02-05 03:02:49.306796+01 | 1486260169.3068 | pgbench_tellers_pkey  |           245760
 2017-02-05 03:02:49.306796+01 | 1486260169.3068 | pgbench_accounts_pkey |       2246197248

 2017-02-05 03:02:50.386679+01 | 1486260170.38668 | pgbench_branches_pkey |            40960
 2017-02-05 03:02:50.386679+01 | 1486260170.38668 | pgbench_tellers_pkey  |           245760
 2017-02-05 03:02:50.386679+01 | 1486260170.38668 | pgbench_accounts_pkey |       2246197248

 2017-02-05 03:02:51.469315+01 | 1486260171.46932 | pgbench_branches_pkey |            40960
 2017-02-05 03:02:51.469315+01 | 1486260171.46932 | pgbench_tellers_pkey  |           245760
 2017-02-05 03:02:51.469315+01 | 1486260171.46932 | pgbench_accounts_pkey |       2246197248

 2017-02-05 03:02:52.551463+01 | 1486260172.55146 | pgbench_branches_pkey |            40960
 2017-02-05 03:02:52.551463+01 | 1486260172.55146 | pgbench_tellers_pkey  |           245760
 2017-02-05 03:02:52.551463+01 | 1486260172.55146 | pgbench_accounts_pkey |       2246197248

 2017-02-05 03:02:53.642556+01 | 1486260173.64256 | pgbench_branches_pkey |            40960
 2017-02-05 03:02:53.642556+01 | 1486260173.64256 | pgbench_tellers_pkey  |           245760
 2017-02-05 03:02:53.642556+01 | 1486260173.64256 | pgbench_accounts_pkey |       2246197248

 2017-02-05 03:02:54.720189+01 | 1486260174.72019 | pgbench_branches_pkey |            40960
 2017-02-05 03:02:54.720189+01 | 1486260174.72019 | pgbench_tellers_pkey  |           245760
 2017-02-05 03:02:54.720189+01 | 1486260174.72019 | pgbench_accounts_pkey |       2246197248

 2017-02-05 03:02:55.801613+01 | 1486260175.80161 | pgbench_branches_pkey |            40960
 2017-02-05 03:02:55.801613+01 | 1486260175.80161 | pgbench_tellers_pkey  |           245760
 2017-02-05 03:02:55.801613+01 | 1486260175.80161 | pgbench_accounts_pkey |       2246197248

 2017-02-05 03:02:56.881598+01 | 1486260176.8816 | pgbench_branches_pkey |            40960
 2017-02-05 03:02:56.881598+01 | 1486260176.8816 | pgbench_tellers_pkey  |           245760
 2017-02-05 03:02:56.881598+01 | 1486260176.8816 | pgbench_accounts_pkey |       2246197248

 2017-02-05 03:02:57.961664+01 | 1486260177.96166 | pgbench_branches_pkey |            40960
 2017-02-05 03:02:57.961664+01 | 1486260177.96166 | pgbench_tellers_pkey  |           245760
 2017-02-05 03:02:57.961664+01 | 1486260177.96166 | pgbench_accounts_pkey |       2246197248

 2017-02-05 03:02:59.039793+01 | 1486260179.03979 | pgbench_branches_pkey |            40960
 2017-02-05 03:02:59.039793+01 | 1486260179.03979 | pgbench_tellers_pkey  |           245760
 2017-02-05 03:02:59.039793+01 | 1486260179.03979 | pgbench_accounts_pkey |       2246197248

 2017-02-05 03:03:00.114812+01 | 1486260180.11481 | pgbench_branches_pkey |            40960
 2017-02-05 03:03:00.114812+01 | 1486260180.11481 | pgbench_tellers_pkey  |           245760
 2017-02-05 03:03:00.114812+01 | 1486260180.11481 | pgbench_accounts_pkey |       2246197248

 2017-02-05 03:03:01.191489+01 | 1486260181.19149 | pgbench_branches_pkey |            40960
 2017-02-05 03:03:01.191489+01 | 1486260181.19149 | pgbench_tellers_pkey  |           245760
 2017-02-05 03:03:01.191489+01 | 1486260181.19149 | pgbench_accounts_pkey |       2246197248

 2017-02-05 03:03:02.272238+01 | 1486260182.27224 | pgbench_branches_pkey |            40960
 2017-02-05 03:03:02.272238+01 | 1486260182.27224 | pgbench_tellers_pkey  |           245760
 2017-02-05 03:03:02.272238+01 | 1486260182.27224 | pgbench_accounts_pkey |       2246197248

 2017-02-05 03:03:03.355791+01 | 1486260183.35579 | pgbench_branches_pkey |            40960
 2017-02-05 03:03:03.355791+01 | 1486260183.35579 | pgbench_tellers_pkey  |           245760
 2017-02-05 03:03:03.355791+01 | 1486260183.35579 | pgbench_accounts_pkey |       2246197248

 2017-02-05 03:03:04.43909+01 | 1486260184.43909 | pgbench_branches_pkey |            40960
 2017-02-05 03:03:04.43909+01 | 1486260184.43909 | pgbench_tellers_pkey  |           245760
 2017-02-05 03:03:04.43909+01 | 1486260184.43909 | pgbench_accounts_pkey |       2246197248

 2017-02-05 03:03:05.522284+01 | 1486260185.52228 | pgbench_branches_pkey |            40960
 2017-02-05 03:03:05.522284+01 | 1486260185.52228 | pgbench_tellers_pkey  |           245760
 2017-02-05 03:03:05.522284+01 | 1486260185.52228 | pgbench_accounts_pkey |       2246197248

 2017-02-05 03:03:06.601034+01 | 1486260186.60103 | pgbench_branches_pkey |            40960
 2017-02-05 03:03:06.601034+01 | 1486260186.60103 | pgbench_tellers_pkey  |           245760
 2017-02-05 03:03:06.601034+01 | 1486260186.60103 | pgbench_accounts_pkey |       2246197248

 2017-02-05 03:03:07.684561+01 | 1486260187.68456 | pgbench_branches_pkey |            40960
 2017-02-05 03:03:07.684561+01 | 1486260187.68456 | pgbench_tellers_pkey  |           245760
 2017-02-05 03:03:07.684561+01 | 1486260187.68456 | pgbench_accounts_pkey |       2246197248

 2017-02-05 03:03:08.765829+01 | 1486260188.76583 | pgbench_branches_pkey |            40960
 2017-02-05 03:03:08.765829+01 | 1486260188.76583 | pgbench_tellers_pkey  |           245760
 2017-02-05 03:03:08.765829+01 | 1486260188.76583 | pgbench_accounts_pkey |       2246197248

 2017-02-05 03:03:09.836414+01 | 1486260189.83641 | pgbench_branches_pkey |            40960
 2017-02-05 03:03:09.836414+01 | 1486260189.83641 | pgbench_tellers_pkey  |           245760
 2017-02-05 03:03:09.836414+01 | 1486260189.83641 | pgbench_accounts_pkey |       2246197248

 2017-02-05 03:03:10.917429+01 | 1486260190.91743 | pgbench_branches_pkey |            40960
 2017-02-05 03:03:10.917429+01 | 1486260190.91743 | pgbench_tellers_pkey  |           245760
 2017-02-05 03:03:10.917429+01 | 1486260190.91743 | pgbench_accounts_pkey |       2246197248

 2017-02-05 03:03:12.004028+01 | 1486260192.00403 | pgbench_branches_pkey |            40960
 2017-02-05 03:03:12.004028+01 | 1486260192.00403 | pgbench_tellers_pkey  |           245760
 2017-02-05 03:03:12.004028+01 | 1486260192.00403 | pgbench_accounts_pkey |       2246197248

 2017-02-05 03:03:13.082229+01 | 1486260193.08223 | pgbench_branches_pkey |            40960
 2017-02-05 03:03:13.082229+01 | 1486260193.08223 | pgbench_tellers_pkey  |           245760
 2017-02-05 03:03:13.082229+01 | 1486260193.08223 | pgbench_accounts_pkey |       2246197248

 2017-02-05 03:03:14.171656+01 | 1486260194.17166 | pgbench_branches_pkey |            40960
 2017-02-05 03:03:14.171656+01 | 1486260194.17166 | pgbench_tellers_pkey  |           245760
 2017-02-05 03:03:14.171656+01 | 1486260194.17166 | pgbench_accounts_pkey |       2246197248

 2017-02-05 03:03:15.253993+01 | 1486260195.25399 | pgbench_branches_pkey |            40960
 2017-02-05 03:03:15.253993+01 | 1486260195.25399 | pgbench_tellers_pkey  |           245760
 2017-02-05 03:03:15.253993+01 | 1486260195.25399 | pgbench_accounts_pkey |       2246197248

 2017-02-05 03:03:16.33309+01 | 1486260196.33309 | pgbench_branches_pkey |            40960
 2017-02-05 03:03:16.33309+01 | 1486260196.33309 | pgbench_tellers_pkey  |           245760
 2017-02-05 03:03:16.33309+01 | 1486260196.33309 | pgbench_accounts_pkey |       2246197248

 2017-02-05 03:03:17.416941+01 | 1486260197.41694 | pgbench_branches_pkey |            40960
 2017-02-05 03:03:17.416941+01 | 1486260197.41694 | pgbench_tellers_pkey  |           245760
 2017-02-05 03:03:17.416941+01 | 1486260197.41694 | pgbench_accounts_pkey |       2246197248

 2017-02-05 03:03:18.498063+01 | 1486260198.49806 | pgbench_branches_pkey |            40960
 2017-02-05 03:03:18.498063+01 | 1486260198.49806 | pgbench_tellers_pkey  |           245760
 2017-02-05 03:03:18.498063+01 | 1486260198.49806 | pgbench_accounts_pkey |       2246197248

 2017-02-05 03:03:19.579493+01 | 1486260199.57949 | pgbench_branches_pkey |            40960
 2017-02-05 03:03:19.579493+01 | 1486260199.57949 | pgbench_tellers_pkey  |           245760
 2017-02-05 03:03:19.579493+01 | 1486260199.57949 | pgbench_accounts_pkey |       2246197248

 2017-02-05 03:03:20.65554+01 | 1486260200.65554 | pgbench_branches_pkey |            40960
 2017-02-05 03:03:20.65554+01 | 1486260200.65554 | pgbench_tellers_pkey  |           245760
 2017-02-05 03:03:20.65554+01 | 1486260200.65554 | pgbench_accounts_pkey |       2246197248

 2017-02-05 03:03:21.729654+01 | 1486260201.72965 | pgbench_branches_pkey |            40960
 2017-02-05 03:03:21.729654+01 | 1486260201.72965 | pgbench_tellers_pkey  |           245760
 2017-02-05 03:03:21.729654+01 | 1486260201.72965 | pgbench_accounts_pkey |       2246197248

 2017-02-05 03:03:22.816118+01 | 1486260202.81612 | pgbench_branches_pkey |            40960
 2017-02-05 03:03:22.816118+01 | 1486260202.81612 | pgbench_tellers_pkey  |           245760
 2017-02-05 03:03:22.816118+01 | 1486260202.81612 | pgbench_accounts_pkey |       2246197248

 2017-02-05 03:03:23.910326+01 | 1486260203.91033 | pgbench_branches_pkey |            40960
 2017-02-05 03:03:23.910326+01 | 1486260203.91033 | pgbench_tellers_pkey  |           245760
 2017-02-05 03:03:23.910326+01 | 1486260203.91033 | pgbench_accounts_pkey |       2246197248

 2017-02-05 03:03:24.997889+01 | 1486260204.99789 | pgbench_branches_pkey |            40960
 2017-02-05 03:03:24.997889+01 | 1486260204.99789 | pgbench_tellers_pkey  |           245760
 2017-02-05 03:03:24.997889+01 | 1486260204.99789 | pgbench_accounts_pkey |       2246197248

 2017-02-05 03:03:26.087696+01 | 1486260206.0877 | pgbench_branches_pkey |            40960
 2017-02-05 03:03:26.087696+01 | 1486260206.0877 | pgbench_tellers_pkey  |           245760
 2017-02-05 03:03:26.087696+01 | 1486260206.0877 | pgbench_accounts_pkey |       2246197248

 2017-02-05 03:03:27.17478+01 | 1486260207.17478 | pgbench_branches_pkey |            40960
 2017-02-05 03:03:27.17478+01 | 1486260207.17478 | pgbench_tellers_pkey  |           245760
 2017-02-05 03:03:27.17478+01 | 1486260207.17478 | pgbench_accounts_pkey |       2246197248

 2017-02-05 03:03:28.259725+01 | 1486260208.25973 | pgbench_branches_pkey |            40960
 2017-02-05 03:03:28.259725+01 | 1486260208.25973 | pgbench_tellers_pkey  |           245760
 2017-02-05 03:03:28.259725+01 | 1486260208.25973 | pgbench_accounts_pkey |       2246197248

 2017-02-05 03:03:29.343763+01 | 1486260209.34376 | pgbench_branches_pkey |            40960
 2017-02-05 03:03:29.343763+01 | 1486260209.34376 | pgbench_tellers_pkey  |           245760
 2017-02-05 03:03:29.343763+01 | 1486260209.34376 | pgbench_accounts_pkey |       2246197248

 2017-02-05 03:03:30.426088+01 | 1486260210.42609 | pgbench_branches_pkey |            40960
 2017-02-05 03:03:30.426088+01 | 1486260210.42609 | pgbench_tellers_pkey  |           245760
 2017-02-05 03:03:30.426088+01 | 1486260210.42609 | pgbench_accounts_pkey |       2246197248

 2017-02-05 03:03:31.506655+01 | 1486260211.50665 | pgbench_branches_pkey |            40960
 2017-02-05 03:03:31.506655+01 | 1486260211.50665 | pgbench_tellers_pkey  |           245760
 2017-02-05 03:03:31.506655+01 | 1486260211.50665 | pgbench_accounts_pkey |       2246197248

 2017-02-05 03:03:32.599265+01 | 1486260212.59927 | pgbench_branches_pkey |            40960
 2017-02-05 03:03:32.599265+01 | 1486260212.59927 | pgbench_tellers_pkey  |           245760
 2017-02-05 03:03:32.599265+01 | 1486260212.59927 | pgbench_accounts_pkey |       2246197248

 2017-02-05 03:03:33.683659+01 | 1486260213.68366 | pgbench_branches_pkey |            40960
 2017-02-05 03:03:33.683659+01 | 1486260213.68366 | pgbench_tellers_pkey  |           245760
 2017-02-05 03:03:33.683659+01 | 1486260213.68366 | pgbench_accounts_pkey |       2246197248

 2017-02-05 03:03:34.766582+01 | 1486260214.76658 | pgbench_branches_pkey |            40960
 2017-02-05 03:03:34.766582+01 | 1486260214.76658 | pgbench_tellers_pkey  |           245760
 2017-02-05 03:03:34.766582+01 | 1486260214.76658 | pgbench_accounts_pkey |       2246197248

 2017-02-05 03:03:35.849915+01 | 1486260215.84992 | pgbench_branches_pkey |            40960
 2017-02-05 03:03:35.849915+01 | 1486260215.84992 | pgbench_tellers_pkey  |           245760
 2017-02-05 03:03:35.849915+01 | 1486260215.84992 | pgbench_accounts_pkey |       2246197248

 2017-02-05 03:03:36.931809+01 | 1486260216.93181 | pgbench_branches_pkey |            40960
 2017-02-05 03:03:36.931809+01 | 1486260216.93181 | pgbench_tellers_pkey  |           245760
 2017-02-05 03:03:36.931809+01 | 1486260216.93181 | pgbench_accounts_pkey |       2246197248

 2017-02-05 03:03:38.013619+01 | 1486260218.01362 | pgbench_branches_pkey |            40960
 2017-02-05 03:03:38.013619+01 | 1486260218.01362 | pgbench_tellers_pkey  |           245760
 2017-02-05 03:03:38.013619+01 | 1486260218.01362 | pgbench_accounts_pkey |       2246197248

 2017-02-05 03:03:39.098955+01 | 1486260219.09895 | pgbench_branches_pkey |            40960
 2017-02-05 03:03:39.098955+01 | 1486260219.09895 | pgbench_tellers_pkey  |           245760
 2017-02-05 03:03:39.098955+01 | 1486260219.09895 | pgbench_accounts_pkey |       2246197248

 2017-02-05 03:03:40.182238+01 | 1486260220.18224 | pgbench_branches_pkey |            40960
 2017-02-05 03:03:40.182238+01 | 1486260220.18224 | pgbench_tellers_pkey  |           245760
 2017-02-05 03:03:40.182238+01 | 1486260220.18224 | pgbench_accounts_pkey |       2246197248

 2017-02-05 03:03:41.264469+01 | 1486260221.26447 | pgbench_branches_pkey |            40960
 2017-02-05 03:03:41.264469+01 | 1486260221.26447 | pgbench_tellers_pkey  |           245760
 2017-02-05 03:03:41.264469+01 | 1486260221.26447 | pgbench_accounts_pkey |       2246197248

 2017-02-05 03:03:42.348106+01 | 1486260222.34811 | pgbench_branches_pkey |            40960
 2017-02-05 03:03:42.348106+01 | 1486260222.34811 | pgbench_tellers_pkey  |           245760
 2017-02-05 03:03:42.348106+01 | 1486260222.34811 | pgbench_accounts_pkey |       2246197248

 2017-02-05 03:03:43.43209+01 | 1486260223.43209 | pgbench_branches_pkey |            40960
 2017-02-05 03:03:43.43209+01 | 1486260223.43209 | pgbench_tellers_pkey  |           245760
 2017-02-05 03:03:43.43209+01 | 1486260223.43209 | pgbench_accounts_pkey |       2246197248

 2017-02-05 03:03:44.518438+01 | 1486260224.51844 | pgbench_branches_pkey |            40960
 2017-02-05 03:03:44.518438+01 | 1486260224.51844 | pgbench_tellers_pkey  |           245760
 2017-02-05 03:03:44.518438+01 | 1486260224.51844 | pgbench_accounts_pkey |       2246197248

 2017-02-05 03:03:45.604756+01 | 1486260225.60476 | pgbench_branches_pkey |            40960
 2017-02-05 03:03:45.604756+01 | 1486260225.60476 | pgbench_tellers_pkey  |           245760
 2017-02-05 03:03:45.604756+01 | 1486260225.60476 | pgbench_accounts_pkey |       2246197248

 2017-02-05 03:03:46.686618+01 | 1486260226.68662 | pgbench_branches_pkey |            40960
 2017-02-05 03:03:46.686618+01 | 1486260226.68662 | pgbench_tellers_pkey  |           245760
 2017-02-05 03:03:46.686618+01 | 1486260226.68662 | pgbench_accounts_pkey |       2246197248

 2017-02-05 03:03:47.76435+01 | 1486260227.76435 | pgbench_branches_pkey |            40960
 2017-02-05 03:03:47.76435+01 | 1486260227.76435 | pgbench_tellers_pkey  |           245760
 2017-02-05 03:03:47.76435+01 | 1486260227.76435 | pgbench_accounts_pkey |       2246197248

 2017-02-05 03:03:48.842676+01 | 1486260228.84268 | pgbench_branches_pkey |            40960
 2017-02-05 03:03:48.842676+01 | 1486260228.84268 | pgbench_tellers_pkey  |           245760
 2017-02-05 03:03:48.842676+01 | 1486260228.84268 | pgbench_accounts_pkey |       2246197248

 2017-02-05 03:03:49.92653+01 | 1486260229.92653 | pgbench_branches_pkey |            40960
 2017-02-05 03:03:49.92653+01 | 1486260229.92653 | pgbench_tellers_pkey  |           245760
 2017-02-05 03:03:49.92653+01 | 1486260229.92653 | pgbench_accounts_pkey |       2246197248

 2017-02-05 03:03:51.007165+01 | 1486260231.00716 | pgbench_branches_pkey |            40960
 2017-02-05 03:03:51.007165+01 | 1486260231.00716 | pgbench_tellers_pkey  |           245760
 2017-02-05 03:03:51.007165+01 | 1486260231.00716 | pgbench_accounts_pkey |       2246197248

 2017-02-05 03:03:52.095331+01 | 1486260232.09533 | pgbench_branches_pkey |            40960
 2017-02-05 03:03:52.095331+01 | 1486260232.09533 | pgbench_tellers_pkey  |           245760
 2017-02-05 03:03:52.095331+01 | 1486260232.09533 | pgbench_accounts_pkey |       2246197248

 2017-02-05 03:03:53.174945+01 | 1486260233.17495 | pgbench_branches_pkey |            40960
 2017-02-05 03:03:53.174945+01 | 1486260233.17495 | pgbench_tellers_pkey  |           245760
 2017-02-05 03:03:53.174945+01 | 1486260233.17495 | pgbench_accounts_pkey |       2246197248

 2017-02-05 03:03:54.244286+01 | 1486260234.24429 | pgbench_branches_pkey |            40960
 2017-02-05 03:03:54.244286+01 | 1486260234.24429 | pgbench_tellers_pkey  |           245760
 2017-02-05 03:03:54.244286+01 | 1486260234.24429 | pgbench_accounts_pkey |       2246197248

 2017-02-05 03:03:55.311223+01 | 1486260235.31122 | pgbench_branches_pkey |            40960
 2017-02-05 03:03:55.311223+01 | 1486260235.31122 | pgbench_tellers_pkey  |           245760
 2017-02-05 03:03:55.311223+01 | 1486260235.31122 | pgbench_accounts_pkey |       2246197248

 2017-02-05 03:03:56.385926+01 | 1486260236.38593 | pgbench_branches_pkey |            40960
 2017-02-05 03:03:56.385926+01 | 1486260236.38593 | pgbench_tellers_pkey  |           245760
 2017-02-05 03:03:56.385926+01 | 1486260236.38593 | pgbench_accounts_pkey |       2246197248

 2017-02-05 03:03:57.468396+01 | 1486260237.4684 | pgbench_branches_pkey |            40960
 2017-02-05 03:03:57.468396+01 | 1486260237.4684 | pgbench_tellers_pkey  |           245760
 2017-02-05 03:03:57.468396+01 | 1486260237.4684 | pgbench_accounts_pkey |       2246197248

 2017-02-05 03:03:58.543119+01 | 1486260238.54312 | pgbench_branches_pkey |            40960
 2017-02-05 03:03:58.543119+01 | 1486260238.54312 | pgbench_tellers_pkey  |           245760
 2017-02-05 03:03:58.543119+01 | 1486260238.54312 | pgbench_accounts_pkey |       2246197248

 2017-02-05 03:03:59.635196+01 | 1486260239.6352 | pgbench_branches_pkey |            40960
 2017-02-05 03:03:59.635196+01 | 1486260239.6352 | pgbench_tellers_pkey  |           245760
 2017-02-05 03:03:59.635196+01 | 1486260239.6352 | pgbench_accounts_pkey |       2246197248

 2017-02-05 03:04:00.715198+01 | 1486260240.7152 | pgbench_branches_pkey |            40960
 2017-02-05 03:04:00.715198+01 | 1486260240.7152 | pgbench_tellers_pkey  |           245760
 2017-02-05 03:04:00.715198+01 | 1486260240.7152 | pgbench_accounts_pkey |       2246197248

 2017-02-05 03:04:01.802736+01 | 1486260241.80274 | pgbench_branches_pkey |            40960
 2017-02-05 03:04:01.802736+01 | 1486260241.80274 | pgbench_tellers_pkey  |           245760
 2017-02-05 03:04:01.802736+01 | 1486260241.80274 | pgbench_accounts_pkey |       2246197248

 2017-02-05 03:04:02.887762+01 | 1486260242.88776 | pgbench_branches_pkey |            40960
 2017-02-05 03:04:02.887762+01 | 1486260242.88776 | pgbench_tellers_pkey  |           245760
 2017-02-05 03:04:02.887762+01 | 1486260242.88776 | pgbench_accounts_pkey |       2246197248

 2017-02-05 03:04:03.972482+01 | 1486260243.97248 | pgbench_branches_pkey |            40960
 2017-02-05 03:04:03.972482+01 | 1486260243.97248 | pgbench_tellers_pkey  |           245760
 2017-02-05 03:04:03.972482+01 | 1486260243.97248 | pgbench_accounts_pkey |       2246197248

 2017-02-05 03:04:05.052438+01 | 1486260245.05244 | pgbench_branches_pkey |            40960
 2017-02-05 03:04:05.052438+01 | 1486260245.05244 | pgbench_tellers_pkey  |           245760
 2017-02-05 03:04:05.052438+01 | 1486260245.05244 | pgbench_accounts_pkey |       2246197248

 2017-02-05 03:04:06.133267+01 | 1486260246.13327 | pgbench_branches_pkey |            40960
 2017-02-05 03:04:06.133267+01 | 1486260246.13327 | pgbench_tellers_pkey  |           245760
 2017-02-05 03:04:06.133267+01 | 1486260246.13327 | pgbench_accounts_pkey |       2246197248

 2017-02-05 03:04:07.216562+01 | 1486260247.21656 | pgbench_branches_pkey |            40960
 2017-02-05 03:04:07.216562+01 | 1486260247.21656 | pgbench_tellers_pkey  |           245760
 2017-02-05 03:04:07.216562+01 | 1486260247.21656 | pgbench_accounts_pkey |       2246197248

 2017-02-05 03:04:08.294979+01 | 1486260248.29498 | pgbench_branches_pkey |            40960
 2017-02-05 03:04:08.294979+01 | 1486260248.29498 | pgbench_tellers_pkey  |           245760
 2017-02-05 03:04:08.294979+01 | 1486260248.29498 | pgbench_accounts_pkey |       2246197248

 2017-02-05 03:04:09.371163+01 | 1486260249.37116 | pgbench_branches_pkey |            40960
 2017-02-05 03:04:09.371163+01 | 1486260249.37116 | pgbench_tellers_pkey  |           245760
 2017-02-05 03:04:09.371163+01 | 1486260249.37116 | pgbench_accounts_pkey |       2246197248

 2017-02-05 03:04:10.452885+01 | 1486260250.45288 | pgbench_branches_pkey |            40960
 2017-02-05 03:04:10.452885+01 | 1486260250.45288 | pgbench_tellers_pkey  |           245760
 2017-02-05 03:04:10.452885+01 | 1486260250.45288 | pgbench_accounts_pkey |       2246197248

 2017-02-05 03:04:11.545767+01 | 1486260251.54577 | pgbench_branches_pkey |            40960
 2017-02-05 03:04:11.545767+01 | 1486260251.54577 | pgbench_tellers_pkey  |           245760
 2017-02-05 03:04:11.545767+01 | 1486260251.54577 | pgbench_accounts_pkey |       2246197248

 2017-02-05 03:04:12.62994+01 | 1486260252.62994 | pgbench_branches_pkey |            40960
 2017-02-05 03:04:12.62994+01 | 1486260252.62994 | pgbench_tellers_pkey  |           245760
 2017-02-05 03:04:12.62994+01 | 1486260252.62994 | pgbench_accounts_pkey |       2246197248

 2017-02-05 03:04:13.707474+01 | 1486260253.70747 | pgbench_branches_pkey |            40960
 2017-02-05 03:04:13.707474+01 | 1486260253.70747 | pgbench_tellers_pkey  |           245760
 2017-02-05 03:04:13.707474+01 | 1486260253.70747 | pgbench_accounts_pkey |       2246197248

 2017-02-05 03:04:14.779448+01 | 1486260254.77945 | pgbench_branches_pkey |            40960
 2017-02-05 03:04:14.779448+01 | 1486260254.77945 | pgbench_tellers_pkey  |           245760
 2017-02-05 03:04:14.779448+01 | 1486260254.77945 | pgbench_accounts_pkey |       2246197248

 2017-02-05 03:04:15.865161+01 | 1486260255.86516 | pgbench_branches_pkey |            40960
 2017-02-05 03:04:15.865161+01 | 1486260255.86516 | pgbench_tellers_pkey  |           245760
 2017-02-05 03:04:15.865161+01 | 1486260255.86516 | pgbench_accounts_pkey |       2246197248

 2017-02-05 03:04:16.947795+01 | 1486260256.94779 | pgbench_branches_pkey |            40960
 2017-02-05 03:04:16.947795+01 | 1486260256.94779 | pgbench_tellers_pkey  |           245760
 2017-02-05 03:04:16.947795+01 | 1486260256.94779 | pgbench_accounts_pkey |       2246197248

 2017-02-05 03:04:18.030059+01 | 1486260258.03006 | pgbench_branches_pkey |            40960
 2017-02-05 03:04:18.030059+01 | 1486260258.03006 | pgbench_tellers_pkey  |           245760
 2017-02-05 03:04:18.030059+01 | 1486260258.03006 | pgbench_accounts_pkey |       2246197248

 2017-02-05 03:04:19.114869+01 | 1486260259.11487 | pgbench_branches_pkey |            40960
 2017-02-05 03:04:19.114869+01 | 1486260259.11487 | pgbench_tellers_pkey  |           245760
 2017-02-05 03:04:19.114869+01 | 1486260259.11487 | pgbench_accounts_pkey |       2246197248

 2017-02-05 03:04:20.200173+01 | 1486260260.20017 | pgbench_branches_pkey |            40960
 2017-02-05 03:04:20.200173+01 | 1486260260.20017 | pgbench_tellers_pkey  |           245760
 2017-02-05 03:04:20.200173+01 | 1486260260.20017 | pgbench_accounts_pkey |       2246197248

 2017-02-05 03:04:21.294279+01 | 1486260261.29428 | pgbench_branches_pkey |            40960
 2017-02-05 03:04:21.294279+01 | 1486260261.29428 | pgbench_tellers_pkey  |           245760
 2017-02-05 03:04:21.294279+01 | 1486260261.29428 | pgbench_accounts_pkey |       2246197248

 2017-02-05 03:04:22.372702+01 | 1486260262.3727 | pgbench_branches_pkey |            40960
 2017-02-05 03:04:22.372702+01 | 1486260262.3727 | pgbench_tellers_pkey  |           245760
 2017-02-05 03:04:22.372702+01 | 1486260262.3727 | pgbench_accounts_pkey |       2246197248

 2017-02-05 03:04:23.455895+01 | 1486260263.45589 | pgbench_branches_pkey |            40960
 2017-02-05 03:04:23.455895+01 | 1486260263.45589 | pgbench_tellers_pkey  |           245760
 2017-02-05 03:04:23.455895+01 | 1486260263.45589 | pgbench_accounts_pkey |       2246197248

 2017-02-05 03:04:24.551187+01 | 1486260264.55119 | pgbench_branches_pkey |            40960
 2017-02-05 03:04:24.551187+01 | 1486260264.55119 | pgbench_tellers_pkey  |           245760
 2017-02-05 03:04:24.551187+01 | 1486260264.55119 | pgbench_accounts_pkey |       2246197248

 2017-02-05 03:04:25.634117+01 | 1486260265.63412 | pgbench_branches_pkey |            40960
 2017-02-05 03:04:25.634117+01 | 1486260265.63412 | pgbench_tellers_pkey  |           245760
 2017-02-05 03:04:25.634117+01 | 1486260265.63412 | pgbench_accounts_pkey |       2246197248

 2017-02-05 03:04:26.713951+01 | 1486260266.71395 | pgbench_branches_pkey |            40960
 2017-02-05 03:04:26.713951+01 | 1486260266.71395 | pgbench_tellers_pkey  |           245760
 2017-02-05 03:04:26.713951+01 | 1486260266.71395 | pgbench_accounts_pkey |       2246197248

 2017-02-05 03:04:27.806064+01 | 1486260267.80606 | pgbench_branches_pkey |            40960
 2017-02-05 03:04:27.806064+01 | 1486260267.80606 | pgbench_tellers_pkey  |           245760
 2017-02-05 03:04:27.806064+01 | 1486260267.80606 | pgbench_accounts_pkey |       2246197248

 2017-02-05 03:04:28.893282+01 | 1486260268.89328 | pgbench_branches_pkey |            40960
 2017-02-05 03:04:28.893282+01 | 1486260268.89328 | pgbench_tellers_pkey  |           245760
 2017-02-05 03:04:28.893282+01 | 1486260268.89328 | pgbench_accounts_pkey |       2246197248

 2017-02-05 03:04:29.973683+01 | 1486260269.97368 | pgbench_branches_pkey |            40960
 2017-02-05 03:04:29.973683+01 | 1486260269.97368 | pgbench_tellers_pkey  |           245760
 2017-02-05 03:04:29.973683+01 | 1486260269.97368 | pgbench_accounts_pkey |       2246197248

 2017-02-05 03:04:31.060038+01 | 1486260271.06004 | pgbench_branches_pkey |            40960
 2017-02-05 03:04:31.060038+01 | 1486260271.06004 | pgbench_tellers_pkey  |           245760
 2017-02-05 03:04:31.060038+01 | 1486260271.06004 | pgbench_accounts_pkey |       2246197248

 2017-02-05 03:04:32.135424+01 | 1486260272.13542 | pgbench_branches_pkey |            40960
 2017-02-05 03:04:32.135424+01 | 1486260272.13542 | pgbench_tellers_pkey  |           245760
 2017-02-05 03:04:32.135424+01 | 1486260272.13542 | pgbench_accounts_pkey |       2246197248

 2017-02-05 03:04:33.213399+01 | 1486260273.2134 | pgbench_branches_pkey |            40960
 2017-02-05 03:04:33.213399+01 | 1486260273.2134 | pgbench_tellers_pkey  |           245760
 2017-02-05 03:04:33.213399+01 | 1486260273.2134 | pgbench_accounts_pkey |       2246197248

 2017-02-05 03:04:34.288613+01 | 1486260274.28861 | pgbench_branches_pkey |            40960
 2017-02-05 03:04:34.288613+01 | 1486260274.28861 | pgbench_tellers_pkey  |           245760
 2017-02-05 03:04:34.288613+01 | 1486260274.28861 | pgbench_accounts_pkey |       2246197248

 2017-02-05 03:04:35.363799+01 | 1486260275.3638 | pgbench_branches_pkey |            40960
 2017-02-05 03:04:35.363799+01 | 1486260275.3638 | pgbench_tellers_pkey  |           245760
 2017-02-05 03:04:35.363799+01 | 1486260275.3638 | pgbench_accounts_pkey |       2246197248

 2017-02-05 03:04:36.432661+01 | 1486260276.43266 | pgbench_branches_pkey |            40960
 2017-02-05 03:04:36.432661+01 | 1486260276.43266 | pgbench_tellers_pkey  |           245760
 2017-02-05 03:04:36.432661+01 | 1486260276.43266 | pgbench_accounts_pkey |       2246197248

 2017-02-05 03:04:37.51444+01 | 1486260277.51444 | pgbench_branches_pkey |            40960
 2017-02-05 03:04:37.51444+01 | 1486260277.51444 | pgbench_tellers_pkey  |           245760
 2017-02-05 03:04:37.51444+01 | 1486260277.51444 | pgbench_accounts_pkey |       2246197248

 2017-02-05 03:04:38.601767+01 | 1486260278.60177 | pgbench_branches_pkey |            40960
 2017-02-05 03:04:38.601767+01 | 1486260278.60177 | pgbench_tellers_pkey  |           245760
 2017-02-05 03:04:38.601767+01 | 1486260278.60177 | pgbench_accounts_pkey |       2246197248

 2017-02-05 03:04:39.685873+01 | 1486260279.68587 | pgbench_branches_pkey |            40960
 2017-02-05 03:04:39.685873+01 | 1486260279.68587 | pgbench_tellers_pkey  |           245760
 2017-02-05 03:04:39.685873+01 | 1486260279.68587 | pgbench_accounts_pkey |       2246197248

 2017-02-05 03:04:40.765346+01 | 1486260280.76535 | pgbench_branches_pkey |            40960
 2017-02-05 03:04:40.765346+01 | 1486260280.76535 | pgbench_tellers_pkey  |           245760
 2017-02-05 03:04:40.765346+01 | 1486260280.76535 | pgbench_accounts_pkey |       2246197248

 2017-02-05 03:04:41.853668+01 | 1486260281.85367 | pgbench_branches_pkey |            40960
 2017-02-05 03:04:41.853668+01 | 1486260281.85367 | pgbench_tellers_pkey  |           245760
 2017-02-05 03:04:41.853668+01 | 1486260281.85367 | pgbench_accounts_pkey |       2246197248

 2017-02-05 03:04:42.933578+01 | 1486260282.93358 | pgbench_branches_pkey |            40960
 2017-02-05 03:04:42.933578+01 | 1486260282.93358 | pgbench_tellers_pkey  |           245760
 2017-02-05 03:04:42.933578+01 | 1486260282.93358 | pgbench_accounts_pkey |       2246197248

 2017-02-05 03:04:44.013618+01 | 1486260284.01362 | pgbench_branches_pkey |            40960
 2017-02-05 03:04:44.013618+01 | 1486260284.01362 | pgbench_tellers_pkey  |           245760
 2017-02-05 03:04:44.013618+01 | 1486260284.01362 | pgbench_accounts_pkey |       2246197248

 2017-02-05 03:04:45.081717+01 | 1486260285.08172 | pgbench_branches_pkey |            40960
 2017-02-05 03:04:45.081717+01 | 1486260285.08172 | pgbench_tellers_pkey  |           245760
 2017-02-05 03:04:45.081717+01 | 1486260285.08172 | pgbench_accounts_pkey |       2246197248

 2017-02-05 03:04:46.164126+01 | 1486260286.16413 | pgbench_branches_pkey |            40960
 2017-02-05 03:04:46.164126+01 | 1486260286.16413 | pgbench_tellers_pkey  |           245760
 2017-02-05 03:04:46.164126+01 | 1486260286.16413 | pgbench_accounts_pkey |       2246197248

 2017-02-05 03:04:47.245243+01 | 1486260287.24524 | pgbench_branches_pkey |            40960
 2017-02-05 03:04:47.245243+01 | 1486260287.24524 | pgbench_tellers_pkey  |           245760
 2017-02-05 03:04:47.245243+01 | 1486260287.24524 | pgbench_accounts_pkey |       2246197248

 2017-02-05 03:04:48.317732+01 | 1486260288.31773 | pgbench_branches_pkey |            40960
 2017-02-05 03:04:48.317732+01 | 1486260288.31773 | pgbench_tellers_pkey  |           245760
 2017-02-05 03:04:48.317732+01 | 1486260288.31773 | pgbench_accounts_pkey |       2246197248

 2017-02-05 03:04:49.402076+01 | 1486260289.40208 | pgbench_branches_pkey |            40960
 2017-02-05 03:04:49.402076+01 | 1486260289.40208 | pgbench_tellers_pkey  |           245760
 2017-02-05 03:04:49.402076+01 | 1486260289.40208 | pgbench_accounts_pkey |       2246197248

 2017-02-05 03:04:50.488497+01 | 1486260290.4885 | pgbench_branches_pkey |            40960
 2017-02-05 03:04:50.488497+01 | 1486260290.4885 | pgbench_tellers_pkey  |           245760
 2017-02-05 03:04:50.488497+01 | 1486260290.4885 | pgbench_accounts_pkey |       2246197248

 2017-02-05 03:04:51.56835+01 | 1486260291.56835 | pgbench_branches_pkey |            40960
 2017-02-05 03:04:51.56835+01 | 1486260291.56835 | pgbench_tellers_pkey  |           245760
 2017-02-05 03:04:51.56835+01 | 1486260291.56835 | pgbench_accounts_pkey |       2246197248

 2017-02-05 03:04:52.649075+01 | 1486260292.64908 | pgbench_branches_pkey |            40960
 2017-02-05 03:04:52.649075+01 | 1486260292.64908 | pgbench_tellers_pkey  |           245760
 2017-02-05 03:04:52.649075+01 | 1486260292.64908 | pgbench_accounts_pkey |       2246197248

 2017-02-05 03:04:53.728896+01 | 1486260293.7289 | pgbench_branches_pkey |            40960
 2017-02-05 03:04:53.728896+01 | 1486260293.7289 | pgbench_tellers_pkey  |           245760
 2017-02-05 03:04:53.728896+01 | 1486260293.7289 | pgbench_accounts_pkey |       2246197248

 2017-02-05 03:04:54.805659+01 | 1486260294.80566 | pgbench_branches_pkey |            40960
 2017-02-05 03:04:54.805659+01 | 1486260294.80566 | pgbench_tellers_pkey  |           245760
 2017-02-05 03:04:54.805659+01 | 1486260294.80566 | pgbench_accounts_pkey |       2246197248

 2017-02-05 03:04:55.890576+01 | 1486260295.89058 | pgbench_branches_pkey |            40960
 2017-02-05 03:04:55.890576+01 | 1486260295.89058 | pgbench_tellers_pkey  |           245760
 2017-02-05 03:04:55.890576+01 | 1486260295.89058 | pgbench_accounts_pkey |       2246197248

 2017-02-05 03:04:56.96185+01 | 1486260296.96185 | pgbench_branches_pkey |            40960
 2017-02-05 03:04:56.96185+01 | 1486260296.96185 | pgbench_tellers_pkey  |           245760
 2017-02-05 03:04:56.96185+01 | 1486260296.96185 | pgbench_accounts_pkey |       2246197248

 2017-02-05 03:04:58.032205+01 | 1486260298.03221 | pgbench_branches_pkey |            40960
 2017-02-05 03:04:58.032205+01 | 1486260298.03221 | pgbench_tellers_pkey  |           245760
 2017-02-05 03:04:58.032205+01 | 1486260298.03221 | pgbench_accounts_pkey |       2246197248

 2017-02-05 03:04:59.107622+01 | 1486260299.10762 | pgbench_branches_pkey |            40960
 2017-02-05 03:04:59.107622+01 | 1486260299.10762 | pgbench_tellers_pkey  |           245760
 2017-02-05 03:04:59.107622+01 | 1486260299.10762 | pgbench_accounts_pkey |       2246197248

 2017-02-05 03:05:00.185272+01 | 1486260300.18527 | pgbench_branches_pkey |            40960
 2017-02-05 03:05:00.185272+01 | 1486260300.18527 | pgbench_tellers_pkey  |           245760
 2017-02-05 03:05:00.185272+01 | 1486260300.18527 | pgbench_accounts_pkey |       2246197248

 2017-02-05 03:05:01.264649+01 | 1486260301.26465 | pgbench_branches_pkey |            40960
 2017-02-05 03:05:01.264649+01 | 1486260301.26465 | pgbench_tellers_pkey  |           245760
 2017-02-05 03:05:01.264649+01 | 1486260301.26465 | pgbench_accounts_pkey |       2246197248

 2017-02-05 03:05:02.347013+01 | 1486260302.34701 | pgbench_branches_pkey |            40960
 2017-02-05 03:05:02.347013+01 | 1486260302.34701 | pgbench_tellers_pkey  |           245760
 2017-02-05 03:05:02.347013+01 | 1486260302.34701 | pgbench_accounts_pkey |       2246197248

 2017-02-05 03:05:03.422667+01 | 1486260303.42267 | pgbench_branches_pkey |            40960
 2017-02-05 03:05:03.422667+01 | 1486260303.42267 | pgbench_tellers_pkey  |           245760
 2017-02-05 03:05:03.422667+01 | 1486260303.42267 | pgbench_accounts_pkey |       2246197248

 2017-02-05 03:05:04.489372+01 | 1486260304.48937 | pgbench_branches_pkey |            40960
 2017-02-05 03:05:04.489372+01 | 1486260304.48937 | pgbench_tellers_pkey  |           245760
 2017-02-05 03:05:04.489372+01 | 1486260304.48937 | pgbench_accounts_pkey |       2246197248

 2017-02-05 03:05:05.559992+01 | 1486260305.55999 | pgbench_branches_pkey |            40960
 2017-02-05 03:05:05.559992+01 | 1486260305.55999 | pgbench_tellers_pkey  |           245760
 2017-02-05 03:05:05.559992+01 | 1486260305.55999 | pgbench_accounts_pkey |       2246197248

 2017-02-05 03:05:06.63669+01 | 1486260306.63669 | pgbench_branches_pkey |            40960
 2017-02-05 03:05:06.63669+01 | 1486260306.63669 | pgbench_tellers_pkey  |           245760
 2017-02-05 03:05:06.63669+01 | 1486260306.63669 | pgbench_accounts_pkey |       2246197248

 2017-02-05 03:05:07.717543+01 | 1486260307.71754 | pgbench_branches_pkey |            40960
 2017-02-05 03:05:07.717543+01 | 1486260307.71754 | pgbench_tellers_pkey  |           245760
 2017-02-05 03:05:07.717543+01 | 1486260307.71754 | pgbench_accounts_pkey |       2246197248

 2017-02-05 03:05:08.804034+01 | 1486260308.80403 | pgbench_branches_pkey |            40960
 2017-02-05 03:05:08.804034+01 | 1486260308.80403 | pgbench_tellers_pkey  |           245760
 2017-02-05 03:05:08.804034+01 | 1486260308.80403 | pgbench_accounts_pkey |       2246197248

 2017-02-05 03:05:09.879979+01 | 1486260309.87998 | pgbench_branches_pkey |            40960
 2017-02-05 03:05:09.879979+01 | 1486260309.87998 | pgbench_tellers_pkey  |           245760
 2017-02-05 03:05:09.879979+01 | 1486260309.87998 | pgbench_accounts_pkey |       2246197248

 2017-02-05 03:05:10.963869+01 | 1486260310.96387 | pgbench_branches_pkey |            40960
 2017-02-05 03:05:10.963869+01 | 1486260310.96387 | pgbench_tellers_pkey  |           245760
 2017-02-05 03:05:10.963869+01 | 1486260310.96387 | pgbench_accounts_pkey |       2246197248

 2017-02-05 03:05:12.039707+01 | 1486260312.03971 | pgbench_branches_pkey |            40960
 2017-02-05 03:05:12.039707+01 | 1486260312.03971 | pgbench_tellers_pkey  |           245760
 2017-02-05 03:05:12.039707+01 | 1486260312.03971 | pgbench_accounts_pkey |       2246197248

 2017-02-05 03:05:13.117785+01 | 1486260313.11778 | pgbench_branches_pkey |            40960
 2017-02-05 03:05:13.117785+01 | 1486260313.11778 | pgbench_tellers_pkey  |           245760
 2017-02-05 03:05:13.117785+01 | 1486260313.11778 | pgbench_accounts_pkey |       2246197248

 2017-02-05 03:05:14.193055+01 | 1486260314.19305 | pgbench_branches_pkey |            40960
 2017-02-05 03:05:14.193055+01 | 1486260314.19305 | pgbench_tellers_pkey  |           245760
 2017-02-05 03:05:14.193055+01 | 1486260314.19305 | pgbench_accounts_pkey |       2246197248

 2017-02-05 03:05:15.277484+01 | 1486260315.27748 | pgbench_branches_pkey |            40960
 2017-02-05 03:05:15.277484+01 | 1486260315.27748 | pgbench_tellers_pkey  |           245760
 2017-02-05 03:05:15.277484+01 | 1486260315.27748 | pgbench_accounts_pkey |       2246197248

 2017-02-05 03:05:16.351358+01 | 1486260316.35136 | pgbench_branches_pkey |            40960
 2017-02-05 03:05:16.351358+01 | 1486260316.35136 | pgbench_tellers_pkey  |           245760
 2017-02-05 03:05:16.351358+01 | 1486260316.35136 | pgbench_accounts_pkey |       2246197248

 2017-02-05 03:05:17.43792+01 | 1486260317.43792 | pgbench_branches_pkey |            40960
 2017-02-05 03:05:17.43792+01 | 1486260317.43792 | pgbench_tellers_pkey  |           245760
 2017-02-05 03:05:17.43792+01 | 1486260317.43792 | pgbench_accounts_pkey |       2246197248

 2017-02-05 03:05:18.515151+01 | 1486260318.51515 | pgbench_branches_pkey |            40960
 2017-02-05 03:05:18.515151+01 | 1486260318.51515 | pgbench_tellers_pkey  |           245760
 2017-02-05 03:05:18.515151+01 | 1486260318.51515 | pgbench_accounts_pkey |       2246197248

 2017-02-05 03:05:19.592433+01 | 1486260319.59243 | pgbench_branches_pkey |            40960
 2017-02-05 03:05:19.592433+01 | 1486260319.59243 | pgbench_tellers_pkey  |           245760
 2017-02-05 03:05:19.592433+01 | 1486260319.59243 | pgbench_accounts_pkey |       2246197248

 2017-02-05 03:05:20.671111+01 | 1486260320.67111 | pgbench_branches_pkey |            40960
 2017-02-05 03:05:20.671111+01 | 1486260320.67111 | pgbench_tellers_pkey  |           245760
 2017-02-05 03:05:20.671111+01 | 1486260320.67111 | pgbench_accounts_pkey |       2246197248

 2017-02-05 03:05:21.74215+01 | 1486260321.74215 | pgbench_branches_pkey |            40960
 2017-02-05 03:05:21.74215+01 | 1486260321.74215 | pgbench_tellers_pkey  |           245760
 2017-02-05 03:05:21.74215+01 | 1486260321.74215 | pgbench_accounts_pkey |       2246197248

 2017-02-05 03:05:22.812677+01 | 1486260322.81268 | pgbench_branches_pkey |            40960
 2017-02-05 03:05:22.812677+01 | 1486260322.81268 | pgbench_tellers_pkey  |           245760
 2017-02-05 03:05:22.812677+01 | 1486260322.81268 | pgbench_accounts_pkey |       2246197248

 2017-02-05 03:05:23.888403+01 | 1486260323.8884 | pgbench_branches_pkey |            40960
 2017-02-05 03:05:23.888403+01 | 1486260323.8884 | pgbench_tellers_pkey  |           245760
 2017-02-05 03:05:23.888403+01 | 1486260323.8884 | pgbench_accounts_pkey |       2246197248

 2017-02-05 03:05:24.972043+01 | 1486260324.97204 | pgbench_branches_pkey |            40960
 2017-02-05 03:05:24.972043+01 | 1486260324.97204 | pgbench_tellers_pkey  |           245760
 2017-02-05 03:05:24.972043+01 | 1486260324.97204 | pgbench_accounts_pkey |       2246197248

 2017-02-05 03:05:26.053015+01 | 1486260326.05301 | pgbench_branches_pkey |            40960
 2017-02-05 03:05:26.053015+01 | 1486260326.05301 | pgbench_tellers_pkey  |           245760
 2017-02-05 03:05:26.053015+01 | 1486260326.05301 | pgbench_accounts_pkey |       2246197248

 2017-02-05 03:05:27.1342+01 | 1486260327.1342 | pgbench_branches_pkey |            40960
 2017-02-05 03:05:27.1342+01 | 1486260327.1342 | pgbench_tellers_pkey  |           245760
 2017-02-05 03:05:27.1342+01 | 1486260327.1342 | pgbench_accounts_pkey |       2246197248

 2017-02-05 03:05:28.219168+01 | 1486260328.21917 | pgbench_branches_pkey |            40960
 2017-02-05 03:05:28.219168+01 | 1486260328.21917 | pgbench_tellers_pkey  |           245760
 2017-02-05 03:05:28.219168+01 | 1486260328.21917 | pgbench_accounts_pkey |       2246197248

 2017-02-05 03:05:29.294288+01 | 1486260329.29429 | pgbench_branches_pkey |            40960
 2017-02-05 03:05:29.294288+01 | 1486260329.29429 | pgbench_tellers_pkey  |           245760
 2017-02-05 03:05:29.294288+01 | 1486260329.29429 | pgbench_accounts_pkey |       2246197248

 2017-02-05 03:05:30.36647+01 | 1486260330.36647 | pgbench_branches_pkey |            40960
 2017-02-05 03:05:30.36647+01 | 1486260330.36647 | pgbench_tellers_pkey  |           245760
 2017-02-05 03:05:30.36647+01 | 1486260330.36647 | pgbench_accounts_pkey |       2246197248

 2017-02-05 03:05:31.44525+01 | 1486260331.44525 | pgbench_branches_pkey |            40960
 2017-02-05 03:05:31.44525+01 | 1486260331.44525 | pgbench_tellers_pkey  |           245760
 2017-02-05 03:05:31.44525+01 | 1486260331.44525 | pgbench_accounts_pkey |       2246197248

 2017-02-05 03:05:32.531922+01 | 1486260332.53192 | pgbench_branches_pkey |            40960
 2017-02-05 03:05:32.531922+01 | 1486260332.53192 | pgbench_tellers_pkey  |           245760
 2017-02-05 03:05:32.531922+01 | 1486260332.53192 | pgbench_accounts_pkey |       2246197248

 2017-02-05 03:05:33.612877+01 | 1486260333.61288 | pgbench_branches_pkey |            40960
 2017-02-05 03:05:33.612877+01 | 1486260333.61288 | pgbench_tellers_pkey  |           245760
 2017-02-05 03:05:33.612877+01 | 1486260333.61288 | pgbench_accounts_pkey |       2246197248

 2017-02-05 03:05:34.693087+01 | 1486260334.69309 | pgbench_branches_pkey |            40960
 2017-02-05 03:05:34.693087+01 | 1486260334.69309 | pgbench_tellers_pkey  |           245760
 2017-02-05 03:05:34.693087+01 | 1486260334.69309 | pgbench_accounts_pkey |       2246197248

 2017-02-05 03:05:35.768278+01 | 1486260335.76828 | pgbench_branches_pkey |            40960
 2017-02-05 03:05:35.768278+01 | 1486260335.76828 | pgbench_tellers_pkey  |           245760
 2017-02-05 03:05:35.768278+01 | 1486260335.76828 | pgbench_accounts_pkey |       2246197248

 2017-02-05 03:05:36.846292+01 | 1486260336.84629 | pgbench_branches_pkey |            40960
 2017-02-05 03:05:36.846292+01 | 1486260336.84629 | pgbench_tellers_pkey  |           245760
 2017-02-05 03:05:36.846292+01 | 1486260336.84629 | pgbench_accounts_pkey |       2246197248

 2017-02-05 03:05:37.924876+01 | 1486260337.92488 | pgbench_branches_pkey |            40960
 2017-02-05 03:05:37.924876+01 | 1486260337.92488 | pgbench_tellers_pkey  |           245760
 2017-02-05 03:05:37.924876+01 | 1486260337.92488 | pgbench_accounts_pkey |       2246197248

 2017-02-05 03:05:39.008245+01 | 1486260339.00824 | pgbench_branches_pkey |            40960
 2017-02-05 03:05:39.008245+01 | 1486260339.00824 | pgbench_tellers_pkey  |           245760
 2017-02-05 03:05:39.008245+01 | 1486260339.00824 | pgbench_accounts_pkey |       2246197248

 2017-02-05 03:05:40.085248+01 | 1486260340.08525 | pgbench_branches_pkey |            40960
 2017-02-05 03:05:40.085248+01 | 1486260340.08525 | pgbench_tellers_pkey  |           245760
 2017-02-05 03:05:40.085248+01 | 1486260340.08525 | pgbench_accounts_pkey |       2246197248

 2017-02-05 03:05:41.167358+01 | 1486260341.16736 | pgbench_branches_pkey |            40960
 2017-02-05 03:05:41.167358+01 | 1486260341.16736 | pgbench_tellers_pkey  |           245760
 2017-02-05 03:05:41.167358+01 | 1486260341.16736 | pgbench_accounts_pkey |       2246197248

 2017-02-05 03:05:42.247405+01 | 1486260342.24741 | pgbench_branches_pkey |            40960
 2017-02-05 03:05:42.247405+01 | 1486260342.24741 | pgbench_tellers_pkey  |           245760
 2017-02-05 03:05:42.247405+01 | 1486260342.24741 | pgbench_accounts_pkey |       2246197248

 2017-02-05 03:05:43.323189+01 | 1486260343.32319 | pgbench_branches_pkey |            40960
 2017-02-05 03:05:43.323189+01 | 1486260343.32319 | pgbench_tellers_pkey  |           245760
 2017-02-05 03:05:43.323189+01 | 1486260343.32319 | pgbench_accounts_pkey |       2246197248

 2017-02-05 03:05:44.40101+01 | 1486260344.40101 | pgbench_branches_pkey |            40960
 2017-02-05 03:05:44.40101+01 | 1486260344.40101 | pgbench_tellers_pkey  |           245760
 2017-02-05 03:05:44.40101+01 | 1486260344.40101 | pgbench_accounts_pkey |       2246197248

 2017-02-05 03:05:45.47556+01 | 1486260345.47556 | pgbench_branches_pkey |            40960
 2017-02-05 03:05:45.47556+01 | 1486260345.47556 | pgbench_tellers_pkey  |           245760
 2017-02-05 03:05:45.47556+01 | 1486260345.47556 | pgbench_accounts_pkey |       2246197248

 2017-02-05 03:05:46.556569+01 | 1486260346.55657 | pgbench_branches_pkey |            40960
 2017-02-05 03:05:46.556569+01 | 1486260346.55657 | pgbench_tellers_pkey  |           245760
 2017-02-05 03:05:46.556569+01 | 1486260346.55657 | pgbench_accounts_pkey |       2246197248

 2017-02-05 03:05:47.637791+01 | 1486260347.63779 | pgbench_branches_pkey |            40960
 2017-02-05 03:05:47.637791+01 | 1486260347.63779 | pgbench_tellers_pkey  |           245760
 2017-02-05 03:05:47.637791+01 | 1486260347.63779 | pgbench_accounts_pkey |       2246197248

 2017-02-05 03:05:48.705521+01 | 1486260348.70552 | pgbench_branches_pkey |            40960
 2017-02-05 03:05:48.705521+01 | 1486260348.70552 | pgbench_tellers_pkey  |           245760
 2017-02-05 03:05:48.705521+01 | 1486260348.70552 | pgbench_accounts_pkey |       2246197248

 2017-02-05 03:05:49.783567+01 | 1486260349.78357 | pgbench_branches_pkey |            40960
 2017-02-05 03:05:49.783567+01 | 1486260349.78357 | pgbench_tellers_pkey  |           245760
 2017-02-05 03:05:49.783567+01 | 1486260349.78357 | pgbench_accounts_pkey |       2246197248

 2017-02-05 03:05:50.866034+01 | 1486260350.86603 | pgbench_branches_pkey |            40960
 2017-02-05 03:05:50.866034+01 | 1486260350.86603 | pgbench_tellers_pkey  |           245760
 2017-02-05 03:05:50.866034+01 | 1486260350.86603 | pgbench_accounts_pkey |       2246197248

 2017-02-05 03:05:51.946828+01 | 1486260351.94683 | pgbench_branches_pkey |            40960
 2017-02-05 03:05:51.946828+01 | 1486260351.94683 | pgbench_tellers_pkey  |           245760
 2017-02-05 03:05:51.946828+01 | 1486260351.94683 | pgbench_accounts_pkey |       2246197248

 2017-02-05 03:05:53.034872+01 | 1486260353.03487 | pgbench_branches_pkey |            40960
 2017-02-05 03:05:53.034872+01 | 1486260353.03487 | pgbench_tellers_pkey  |           245760
 2017-02-05 03:05:53.034872+01 | 1486260353.03487 | pgbench_accounts_pkey |       2246197248

 2017-02-05 03:05:54.113237+01 | 1486260354.11324 | pgbench_branches_pkey |            40960
 2017-02-05 03:05:54.113237+01 | 1486260354.11324 | pgbench_tellers_pkey  |           245760
 2017-02-05 03:05:54.113237+01 | 1486260354.11324 | pgbench_accounts_pkey |       2246197248

 2017-02-05 03:05:55.194699+01 | 1486260355.1947 | pgbench_branches_pkey |            40960
 2017-02-05 03:05:55.194699+01 | 1486260355.1947 | pgbench_tellers_pkey  |           245760
 2017-02-05 03:05:55.194699+01 | 1486260355.1947 | pgbench_accounts_pkey |       2246197248

 2017-02-05 03:05:56.272087+01 | 1486260356.27209 | pgbench_branches_pkey |            40960
 2017-02-05 03:05:56.272087+01 | 1486260356.27209 | pgbench_tellers_pkey  |           245760
 2017-02-05 03:05:56.272087+01 | 1486260356.27209 | pgbench_accounts_pkey |       2246197248

 2017-02-05 03:05:57.355999+01 | 1486260357.356 | pgbench_branches_pkey |            40960
 2017-02-05 03:05:57.355999+01 | 1486260357.356 | pgbench_tellers_pkey  |           245760
 2017-02-05 03:05:57.355999+01 | 1486260357.356 | pgbench_accounts_pkey |       2246197248

 2017-02-05 03:05:58.435364+01 | 1486260358.43536 | pgbench_branches_pkey |            40960
 2017-02-05 03:05:58.435364+01 | 1486260358.43536 | pgbench_tellers_pkey  |           245760
 2017-02-05 03:05:58.435364+01 | 1486260358.43536 | pgbench_accounts_pkey |       2246197248

 2017-02-05 03:05:59.514683+01 | 1486260359.51468 | pgbench_branches_pkey |            40960
 2017-02-05 03:05:59.514683+01 | 1486260359.51468 | pgbench_tellers_pkey  |           245760
 2017-02-05 03:05:59.514683+01 | 1486260359.51468 | pgbench_accounts_pkey |       2246197248

 2017-02-05 03:06:00.594738+01 | 1486260360.59474 | pgbench_branches_pkey |            40960
 2017-02-05 03:06:00.594738+01 | 1486260360.59474 | pgbench_tellers_pkey  |           245760
 2017-02-05 03:06:00.594738+01 | 1486260360.59474 | pgbench_accounts_pkey |       2246197248

 2017-02-05 03:06:01.6746+01 | 1486260361.6746 | pgbench_branches_pkey |            40960
 2017-02-05 03:06:01.6746+01 | 1486260361.6746 | pgbench_tellers_pkey  |           245760
 2017-02-05 03:06:01.6746+01 | 1486260361.6746 | pgbench_accounts_pkey |       2246197248

 2017-02-05 03:06:02.758436+01 | 1486260362.75844 | pgbench_branches_pkey |            40960
 2017-02-05 03:06:02.758436+01 | 1486260362.75844 | pgbench_tellers_pkey  |           245760
 2017-02-05 03:06:02.758436+01 | 1486260362.75844 | pgbench_accounts_pkey |       2246197248

 2017-02-05 03:06:03.835974+01 | 1486260363.83597 | pgbench_branches_pkey |            40960
 2017-02-05 03:06:03.835974+01 | 1486260363.83597 | pgbench_tellers_pkey  |           245760
 2017-02-05 03:06:03.835974+01 | 1486260363.83597 | pgbench_accounts_pkey |       2246197248

 2017-02-05 03:06:04.914733+01 | 1486260364.91473 | pgbench_branches_pkey |            40960
 2017-02-05 03:06:04.914733+01 | 1486260364.91473 | pgbench_tellers_pkey  |           245760
 2017-02-05 03:06:04.914733+01 | 1486260364.91473 | pgbench_accounts_pkey |       2246197248

 2017-02-05 03:06:05.994727+01 | 1486260365.99473 | pgbench_branches_pkey |            40960
 2017-02-05 03:06:05.994727+01 | 1486260365.99473 | pgbench_tellers_pkey  |           245760
 2017-02-05 03:06:05.994727+01 | 1486260365.99473 | pgbench_accounts_pkey |       2246197248

 2017-02-05 03:06:07.068571+01 | 1486260367.06857 | pgbench_branches_pkey |            40960
 2017-02-05 03:06:07.068571+01 | 1486260367.06857 | pgbench_tellers_pkey  |           245760
 2017-02-05 03:06:07.068571+01 | 1486260367.06857 | pgbench_accounts_pkey |       2246197248

 2017-02-05 03:06:08.148217+01 | 1486260368.14822 | pgbench_branches_pkey |            40960
 2017-02-05 03:06:08.148217+01 | 1486260368.14822 | pgbench_tellers_pkey  |           245760
 2017-02-05 03:06:08.148217+01 | 1486260368.14822 | pgbench_accounts_pkey |       2246197248

 2017-02-05 03:06:09.231008+01 | 1486260369.23101 | pgbench_branches_pkey |            40960
 2017-02-05 03:06:09.231008+01 | 1486260369.23101 | pgbench_tellers_pkey  |           245760
 2017-02-05 03:06:09.231008+01 | 1486260369.23101 | pgbench_accounts_pkey |       2246197248

 2017-02-05 03:06:10.314088+01 | 1486260370.31409 | pgbench_branches_pkey |            40960
 2017-02-05 03:06:10.314088+01 | 1486260370.31409 | pgbench_tellers_pkey  |           245760
 2017-02-05 03:06:10.314088+01 | 1486260370.31409 | pgbench_accounts_pkey |       2246197248

 2017-02-05 03:06:11.397087+01 | 1486260371.39709 | pgbench_branches_pkey |            40960
 2017-02-05 03:06:11.397087+01 | 1486260371.39709 | pgbench_tellers_pkey  |           245760
 2017-02-05 03:06:11.397087+01 | 1486260371.39709 | pgbench_accounts_pkey |       2246197248

 2017-02-05 03:06:12.480495+01 | 1486260372.48049 | pgbench_branches_pkey |            40960
 2017-02-05 03:06:12.480495+01 | 1486260372.48049 | pgbench_tellers_pkey  |           245760
 2017-02-05 03:06:12.480495+01 | 1486260372.48049 | pgbench_accounts_pkey |       2246197248

 2017-02-05 03:06:13.561281+01 | 1486260373.56128 | pgbench_branches_pkey |            40960
 2017-02-05 03:06:13.561281+01 | 1486260373.56128 | pgbench_tellers_pkey  |           245760
 2017-02-05 03:06:13.561281+01 | 1486260373.56128 | pgbench_accounts_pkey |       2246197248

 2017-02-05 03:06:14.644456+01 | 1486260374.64446 | pgbench_branches_pkey |            40960
 2017-02-05 03:06:14.644456+01 | 1486260374.64446 | pgbench_tellers_pkey  |           245760
 2017-02-05 03:06:14.644456+01 | 1486260374.64446 | pgbench_accounts_pkey |       2246197248

 2017-02-05 03:06:15.723262+01 | 1486260375.72326 | pgbench_branches_pkey |            40960
 2017-02-05 03:06:15.723262+01 | 1486260375.72326 | pgbench_tellers_pkey  |           245760
 2017-02-05 03:06:15.723262+01 | 1486260375.72326 | pgbench_accounts_pkey |       2246197248

 2017-02-05 03:06:16.808495+01 | 1486260376.8085 | pgbench_branches_pkey |            40960
 2017-02-05 03:06:16.808495+01 | 1486260376.8085 | pgbench_tellers_pkey  |           245760
 2017-02-05 03:06:16.808495+01 | 1486260376.8085 | pgbench_accounts_pkey |       2246197248

 2017-02-05 03:06:17.889801+01 | 1486260377.8898 | pgbench_branches_pkey |            40960
 2017-02-05 03:06:17.889801+01 | 1486260377.8898 | pgbench_tellers_pkey  |           245760
 2017-02-05 03:06:17.889801+01 | 1486260377.8898 | pgbench_accounts_pkey |       2246197248

 2017-02-05 03:06:18.972508+01 | 1486260378.97251 | pgbench_branches_pkey |            40960
 2017-02-05 03:06:18.972508+01 | 1486260378.97251 | pgbench_tellers_pkey  |           245760
 2017-02-05 03:06:18.972508+01 | 1486260378.97251 | pgbench_accounts_pkey |       2246197248

 2017-02-05 03:06:20.058675+01 | 1486260380.05868 | pgbench_branches_pkey |            40960
 2017-02-05 03:06:20.058675+01 | 1486260380.05868 | pgbench_tellers_pkey  |           245760
 2017-02-05 03:06:20.058675+01 | 1486260380.05868 | pgbench_accounts_pkey |       2246197248

 2017-02-05 03:06:21.137249+01 | 1486260381.13725 | pgbench_branches_pkey |            40960
 2017-02-05 03:06:21.137249+01 | 1486260381.13725 | pgbench_tellers_pkey  |           245760
 2017-02-05 03:06:21.137249+01 | 1486260381.13725 | pgbench_accounts_pkey |       2246197248

 2017-02-05 03:06:22.224228+01 | 1486260382.22423 | pgbench_branches_pkey |            40960
 2017-02-05 03:06:22.224228+01 | 1486260382.22423 | pgbench_tellers_pkey  |           245760
 2017-02-05 03:06:22.224228+01 | 1486260382.22423 | pgbench_accounts_pkey |       2246197248

 2017-02-05 03:06:23.305217+01 | 1486260383.30522 | pgbench_branches_pkey |            40960
 2017-02-05 03:06:23.305217+01 | 1486260383.30522 | pgbench_tellers_pkey  |           245760
 2017-02-05 03:06:23.305217+01 | 1486260383.30522 | pgbench_accounts_pkey |       2246197248

 2017-02-05 03:06:24.383228+01 | 1486260384.38323 | pgbench_branches_pkey |            40960
 2017-02-05 03:06:24.383228+01 | 1486260384.38323 | pgbench_tellers_pkey  |           245760
 2017-02-05 03:06:24.383228+01 | 1486260384.38323 | pgbench_accounts_pkey |       2246197248

 2017-02-05 03:06:25.470911+01 | 1486260385.47091 | pgbench_branches_pkey |            40960
 2017-02-05 03:06:25.470911+01 | 1486260385.47091 | pgbench_tellers_pkey  |           245760
 2017-02-05 03:06:25.470911+01 | 1486260385.47091 | pgbench_accounts_pkey |       2246197248

 2017-02-05 03:06:26.535836+01 | 1486260386.53584 | pgbench_branches_pkey |            40960
 2017-02-05 03:06:26.535836+01 | 1486260386.53584 | pgbench_tellers_pkey  |           245760
 2017-02-05 03:06:26.535836+01 | 1486260386.53584 | pgbench_accounts_pkey |       2246197248

 2017-02-05 03:06:27.623511+01 | 1486260387.62351 | pgbench_branches_pkey |            40960
 2017-02-05 03:06:27.623511+01 | 1486260387.62351 | pgbench_tellers_pkey  |           245760
 2017-02-05 03:06:27.623511+01 | 1486260387.62351 | pgbench_accounts_pkey |       2246197248

 2017-02-05 03:06:28.702138+01 | 1486260388.70214 | pgbench_branches_pkey |            40960
 2017-02-05 03:06:28.702138+01 | 1486260388.70214 | pgbench_tellers_pkey  |           245760
 2017-02-05 03:06:28.702138+01 | 1486260388.70214 | pgbench_accounts_pkey |       2246197248

 2017-02-05 03:06:29.785504+01 | 1486260389.7855 | pgbench_branches_pkey |            40960
 2017-02-05 03:06:29.785504+01 | 1486260389.7855 | pgbench_tellers_pkey  |           245760
 2017-02-05 03:06:29.785504+01 | 1486260389.7855 | pgbench_accounts_pkey |       2246197248

 2017-02-05 03:06:30.869833+01 | 1486260390.86983 | pgbench_branches_pkey |            40960
 2017-02-05 03:06:30.869833+01 | 1486260390.86983 | pgbench_tellers_pkey  |           245760
 2017-02-05 03:06:30.869833+01 | 1486260390.86983 | pgbench_accounts_pkey |       2246197248

 2017-02-05 03:06:31.957645+01 | 1486260391.95764 | pgbench_branches_pkey |            40960
 2017-02-05 03:06:31.957645+01 | 1486260391.95764 | pgbench_tellers_pkey  |           245760
 2017-02-05 03:06:31.957645+01 | 1486260391.95764 | pgbench_accounts_pkey |       2246197248

 2017-02-05 03:06:33.03894+01 | 1486260393.03894 | pgbench_branches_pkey |            40960
 2017-02-05 03:06:33.03894+01 | 1486260393.03894 | pgbench_tellers_pkey  |           245760
 2017-02-05 03:06:33.03894+01 | 1486260393.03894 | pgbench_accounts_pkey |       2246197248

 2017-02-05 03:06:34.120608+01 | 1486260394.12061 | pgbench_branches_pkey |            40960
 2017-02-05 03:06:34.120608+01 | 1486260394.12061 | pgbench_tellers_pkey  |           245760
 2017-02-05 03:06:34.120608+01 | 1486260394.12061 | pgbench_accounts_pkey |       2246197248

 2017-02-05 03:06:35.201807+01 | 1486260395.20181 | pgbench_branches_pkey |            40960
 2017-02-05 03:06:35.201807+01 | 1486260395.20181 | pgbench_tellers_pkey  |           245760
 2017-02-05 03:06:35.201807+01 | 1486260395.20181 | pgbench_accounts_pkey |       2246197248

 2017-02-05 03:06:36.283636+01 | 1486260396.28364 | pgbench_branches_pkey |            40960
 2017-02-05 03:06:36.283636+01 | 1486260396.28364 | pgbench_tellers_pkey  |           245760
 2017-02-05 03:06:36.283636+01 | 1486260396.28364 | pgbench_accounts_pkey |       2246197248

 2017-02-05 03:06:37.365964+01 | 1486260397.36596 | pgbench_branches_pkey |            40960
 2017-02-05 03:06:37.365964+01 | 1486260397.36596 | pgbench_tellers_pkey  |           245760
 2017-02-05 03:06:37.365964+01 | 1486260397.36596 | pgbench_accounts_pkey |       2246197248

 2017-02-05 03:06:38.444881+01 | 1486260398.44488 | pgbench_branches_pkey |            40960
 2017-02-05 03:06:38.444881+01 | 1486260398.44488 | pgbench_tellers_pkey  |           245760
 2017-02-05 03:06:38.444881+01 | 1486260398.44488 | pgbench_accounts_pkey |       2246197248

 2017-02-05 03:06:39.524128+01 | 1486260399.52413 | pgbench_branches_pkey |            40960
 2017-02-05 03:06:39.524128+01 | 1486260399.52413 | pgbench_tellers_pkey  |           245760
 2017-02-05 03:06:39.524128+01 | 1486260399.52413 | pgbench_accounts_pkey |       2246197248

 2017-02-05 03:06:40.604418+01 | 1486260400.60442 | pgbench_branches_pkey |            40960
 2017-02-05 03:06:40.604418+01 | 1486260400.60442 | pgbench_tellers_pkey  |           245760
 2017-02-05 03:06:40.604418+01 | 1486260400.60442 | pgbench_accounts_pkey |       2246197248

 2017-02-05 03:06:41.676001+01 | 1486260401.676 | pgbench_branches_pkey |            40960
 2017-02-05 03:06:41.676001+01 | 1486260401.676 | pgbench_tellers_pkey  |           245760
 2017-02-05 03:06:41.676001+01 | 1486260401.676 | pgbench_accounts_pkey |       2246197248

 2017-02-05 03:06:42.754641+01 | 1486260402.75464 | pgbench_branches_pkey |            40960
 2017-02-05 03:06:42.754641+01 | 1486260402.75464 | pgbench_tellers_pkey  |           245760
 2017-02-05 03:06:42.754641+01 | 1486260402.75464 | pgbench_accounts_pkey |       2246197248

 2017-02-05 03:06:43.837345+01 | 1486260403.83734 | pgbench_branches_pkey |            40960
 2017-02-05 03:06:43.837345+01 | 1486260403.83734 | pgbench_tellers_pkey  |           245760
 2017-02-05 03:06:43.837345+01 | 1486260403.83734 | pgbench_accounts_pkey |       2246197248

 2017-02-05 03:06:44.917273+01 | 1486260404.91727 | pgbench_branches_pkey |            40960
 2017-02-05 03:06:44.917273+01 | 1486260404.91727 | pgbench_tellers_pkey  |           245760
 2017-02-05 03:06:44.917273+01 | 1486260404.91727 | pgbench_accounts_pkey |       2246197248

 2017-02-05 03:06:45.995088+01 | 1486260405.99509 | pgbench_branches_pkey |            40960
 2017-02-05 03:06:45.995088+01 | 1486260405.99509 | pgbench_tellers_pkey  |           245760
 2017-02-05 03:06:45.995088+01 | 1486260405.99509 | pgbench_accounts_pkey |       2246197248

 2017-02-05 03:06:47.079937+01 | 1486260407.07994 | pgbench_branches_pkey |            40960
 2017-02-05 03:06:47.079937+01 | 1486260407.07994 | pgbench_tellers_pkey  |           245760
 2017-02-05 03:06:47.079937+01 | 1486260407.07994 | pgbench_accounts_pkey |       2246197248

 2017-02-05 03:06:48.15859+01 | 1486260408.15859 | pgbench_branches_pkey |            40960
 2017-02-05 03:06:48.15859+01 | 1486260408.15859 | pgbench_tellers_pkey  |           245760
 2017-02-05 03:06:48.15859+01 | 1486260408.15859 | pgbench_accounts_pkey |       2246197248

 2017-02-05 03:06:49.229952+01 | 1486260409.22995 | pgbench_branches_pkey |            40960
 2017-02-05 03:06:49.229952+01 | 1486260409.22995 | pgbench_tellers_pkey  |           245760
 2017-02-05 03:06:49.229952+01 | 1486260409.22995 | pgbench_accounts_pkey |       2246197248

 2017-02-05 03:06:50.318951+01 | 1486260410.31895 | pgbench_branches_pkey |            40960
 2017-02-05 03:06:50.318951+01 | 1486260410.31895 | pgbench_tellers_pkey  |           245760
 2017-02-05 03:06:50.318951+01 | 1486260410.31895 | pgbench_accounts_pkey |       2246197248

 2017-02-05 03:06:51.403386+01 | 1486260411.40339 | pgbench_branches_pkey |            40960
 2017-02-05 03:06:51.403386+01 | 1486260411.40339 | pgbench_tellers_pkey  |           245760
 2017-02-05 03:06:51.403386+01 | 1486260411.40339 | pgbench_accounts_pkey |       2246197248

 2017-02-05 03:06:52.481289+01 | 1486260412.48129 | pgbench_branches_pkey |            40960
 2017-02-05 03:06:52.481289+01 | 1486260412.48129 | pgbench_tellers_pkey  |           245760
 2017-02-05 03:06:52.481289+01 | 1486260412.48129 | pgbench_accounts_pkey |       2246197248

 2017-02-05 03:06:53.560872+01 | 1486260413.56087 | pgbench_branches_pkey |            40960
 2017-02-05 03:06:53.560872+01 | 1486260413.56087 | pgbench_tellers_pkey  |           245760
 2017-02-05 03:06:53.560872+01 | 1486260413.56087 | pgbench_accounts_pkey |       2246197248

 2017-02-05 03:06:54.641234+01 | 1486260414.64123 | pgbench_branches_pkey |            40960
 2017-02-05 03:06:54.641234+01 | 1486260414.64123 | pgbench_tellers_pkey  |           245760
 2017-02-05 03:06:54.641234+01 | 1486260414.64123 | pgbench_accounts_pkey |       2246197248

 2017-02-05 03:06:55.72509+01 | 1486260415.72509 | pgbench_branches_pkey |            40960
 2017-02-05 03:06:55.72509+01 | 1486260415.72509 | pgbench_tellers_pkey  |           245760
 2017-02-05 03:06:55.72509+01 | 1486260415.72509 | pgbench_accounts_pkey |       2246197248

 2017-02-05 03:06:56.808502+01 | 1486260416.8085 | pgbench_branches_pkey |            40960
 2017-02-05 03:06:56.808502+01 | 1486260416.8085 | pgbench_tellers_pkey  |           245760
 2017-02-05 03:06:56.808502+01 | 1486260416.8085 | pgbench_accounts_pkey |       2246197248

 2017-02-05 03:06:57.887919+01 | 1486260417.88792 | pgbench_branches_pkey |            40960
 2017-02-05 03:06:57.887919+01 | 1486260417.88792 | pgbench_tellers_pkey  |           245760
 2017-02-05 03:06:57.887919+01 | 1486260417.88792 | pgbench_accounts_pkey |       2246197248

 2017-02-05 03:06:58.956168+01 | 1486260418.95617 | pgbench_branches_pkey |            40960
 2017-02-05 03:06:58.956168+01 | 1486260418.95617 | pgbench_tellers_pkey  |           245760
 2017-02-05 03:06:58.956168+01 | 1486260418.95617 | pgbench_accounts_pkey |       2246197248

 2017-02-05 03:07:00.035302+01 | 1486260420.0353 | pgbench_branches_pkey |            40960
 2017-02-05 03:07:00.035302+01 | 1486260420.0353 | pgbench_tellers_pkey  |           245760
 2017-02-05 03:07:00.035302+01 | 1486260420.0353 | pgbench_accounts_pkey |       2246197248

 2017-02-05 03:07:01.113139+01 | 1486260421.11314 | pgbench_branches_pkey |            40960
 2017-02-05 03:07:01.113139+01 | 1486260421.11314 | pgbench_tellers_pkey  |           245760
 2017-02-05 03:07:01.113139+01 | 1486260421.11314 | pgbench_accounts_pkey |       2246197248

 2017-02-05 03:07:02.194855+01 | 1486260422.19485 | pgbench_branches_pkey |            40960
 2017-02-05 03:07:02.194855+01 | 1486260422.19485 | pgbench_tellers_pkey  |           245760
 2017-02-05 03:07:02.194855+01 | 1486260422.19485 | pgbench_accounts_pkey |       2246197248

 2017-02-05 03:07:03.274658+01 | 1486260423.27466 | pgbench_branches_pkey |            40960
 2017-02-05 03:07:03.274658+01 | 1486260423.27466 | pgbench_tellers_pkey  |           245760
 2017-02-05 03:07:03.274658+01 | 1486260423.27466 | pgbench_accounts_pkey |       2246197248

 2017-02-05 03:07:04.358585+01 | 1486260424.35858 | pgbench_branches_pkey |            40960
 2017-02-05 03:07:04.358585+01 | 1486260424.35858 | pgbench_tellers_pkey  |           245760
 2017-02-05 03:07:04.358585+01 | 1486260424.35858 | pgbench_accounts_pkey |       2246197248

 2017-02-05 03:07:05.438273+01 | 1486260425.43827 | pgbench_branches_pkey |            40960
 2017-02-05 03:07:05.438273+01 | 1486260425.43827 | pgbench_tellers_pkey  |           245760
 2017-02-05 03:07:05.438273+01 | 1486260425.43827 | pgbench_accounts_pkey |       2246197248

 2017-02-05 03:07:06.523801+01 | 1486260426.5238 | pgbench_branches_pkey |            40960
 2017-02-05 03:07:06.523801+01 | 1486260426.5238 | pgbench_tellers_pkey  |           245760
 2017-02-05 03:07:06.523801+01 | 1486260426.5238 | pgbench_accounts_pkey |       2246197248

 2017-02-05 03:07:07.605755+01 | 1486260427.60576 | pgbench_branches_pkey |            40960
 2017-02-05 03:07:07.605755+01 | 1486260427.60576 | pgbench_tellers_pkey  |           245760
 2017-02-05 03:07:07.605755+01 | 1486260427.60576 | pgbench_accounts_pkey |       2246197248

 2017-02-05 03:07:08.698413+01 | 1486260428.69841 | pgbench_branches_pkey |            40960
 2017-02-05 03:07:08.698413+01 | 1486260428.69841 | pgbench_tellers_pkey  |           245760
 2017-02-05 03:07:08.698413+01 | 1486260428.69841 | pgbench_accounts_pkey |       2246197248

 2017-02-05 03:07:09.777756+01 | 1486260429.77776 | pgbench_branches_pkey |            40960
 2017-02-05 03:07:09.777756+01 | 1486260429.77776 | pgbench_tellers_pkey  |           245760
 2017-02-05 03:07:09.777756+01 | 1486260429.77776 | pgbench_accounts_pkey |       2246197248

 2017-02-05 03:07:10.85015+01 | 1486260430.85015 | pgbench_branches_pkey |            40960
 2017-02-05 03:07:10.85015+01 | 1486260430.85015 | pgbench_tellers_pkey  |           245760
 2017-02-05 03:07:10.85015+01 | 1486260430.85015 | pgbench_accounts_pkey |       2246197248

 2017-02-05 03:07:11.934752+01 | 1486260431.93475 | pgbench_branches_pkey |            40960
 2017-02-05 03:07:11.934752+01 | 1486260431.93475 | pgbench_tellers_pkey  |           245760
 2017-02-05 03:07:11.934752+01 | 1486260431.93475 | pgbench_accounts_pkey |       2246197248

 2017-02-05 03:07:13.020957+01 | 1486260433.02096 | pgbench_branches_pkey |            40960
 2017-02-05 03:07:13.020957+01 | 1486260433.02096 | pgbench_tellers_pkey  |           245760
 2017-02-05 03:07:13.020957+01 | 1486260433.02096 | pgbench_accounts_pkey |       2246197248

 2017-02-05 03:07:14.102407+01 | 1486260434.10241 | pgbench_branches_pkey |            40960
 2017-02-05 03:07:14.102407+01 | 1486260434.10241 | pgbench_tellers_pkey  |           245760
 2017-02-05 03:07:14.102407+01 | 1486260434.10241 | pgbench_accounts_pkey |       2246197248

 2017-02-05 03:07:15.185339+01 | 1486260435.18534 | pgbench_branches_pkey |            40960
 2017-02-05 03:07:15.185339+01 | 1486260435.18534 | pgbench_tellers_pkey  |           245760
 2017-02-05 03:07:15.185339+01 | 1486260435.18534 | pgbench_accounts_pkey |       2246197248

 2017-02-05 03:07:16.260848+01 | 1486260436.26085 | pgbench_branches_pkey |            40960
 2017-02-05 03:07:16.260848+01 | 1486260436.26085 | pgbench_tellers_pkey  |           245760
 2017-02-05 03:07:16.260848+01 | 1486260436.26085 | pgbench_accounts_pkey |       2246197248

 2017-02-05 03:07:17.337036+01 | 1486260437.33704 | pgbench_branches_pkey |            40960
 2017-02-05 03:07:17.337036+01 | 1486260437.33704 | pgbench_tellers_pkey  |           245760
 2017-02-05 03:07:17.337036+01 | 1486260437.33704 | pgbench_accounts_pkey |       2246197248

 2017-02-05 03:07:18.429543+01 | 1486260438.42954 | pgbench_branches_pkey |            40960
 2017-02-05 03:07:18.429543+01 | 1486260438.42954 | pgbench_tellers_pkey  |           245760
 2017-02-05 03:07:18.429543+01 | 1486260438.42954 | pgbench_accounts_pkey |       2246197248

 2017-02-05 03:07:19.507628+01 | 1486260439.50763 | pgbench_branches_pkey |            40960
 2017-02-05 03:07:19.507628+01 | 1486260439.50763 | pgbench_tellers_pkey  |           245760
 2017-02-05 03:07:19.507628+01 | 1486260439.50763 | pgbench_accounts_pkey |       2246197248

 2017-02-05 03:07:20.589011+01 | 1486260440.58901 | pgbench_branches_pkey |            40960
 2017-02-05 03:07:20.589011+01 | 1486260440.58901 | pgbench_tellers_pkey  |           245760
 2017-02-05 03:07:20.589011+01 | 1486260440.58901 | pgbench_accounts_pkey |       2246197248

 2017-02-05 03:07:21.667884+01 | 1486260441.66788 | pgbench_branches_pkey |            40960
 2017-02-05 03:07:21.667884+01 | 1486260441.66788 | pgbench_tellers_pkey  |           245760
 2017-02-05 03:07:21.667884+01 | 1486260441.66788 | pgbench_accounts_pkey |       2246197248

 2017-02-05 03:07:22.746011+01 | 1486260442.74601 | pgbench_branches_pkey |            40960
 2017-02-05 03:07:22.746011+01 | 1486260442.74601 | pgbench_tellers_pkey  |           245760
 2017-02-05 03:07:22.746011+01 | 1486260442.74601 | pgbench_accounts_pkey |       2246197248

 2017-02-05 03:07:23.819562+01 | 1486260443.81956 | pgbench_branches_pkey |            40960
 2017-02-05 03:07:23.819562+01 | 1486260443.81956 | pgbench_tellers_pkey  |           245760
 2017-02-05 03:07:23.819562+01 | 1486260443.81956 | pgbench_accounts_pkey |       2246197248

 2017-02-05 03:07:24.897655+01 | 1486260444.89766 | pgbench_branches_pkey |            40960
 2017-02-05 03:07:24.897655+01 | 1486260444.89766 | pgbench_tellers_pkey  |           245760
 2017-02-05 03:07:24.897655+01 | 1486260444.89766 | pgbench_accounts_pkey |       2246197248

 2017-02-05 03:07:25.96291+01 | 1486260445.96291 | pgbench_branches_pkey |            40960
 2017-02-05 03:07:25.96291+01 | 1486260445.96291 | pgbench_tellers_pkey  |           245760
 2017-02-05 03:07:25.96291+01 | 1486260445.96291 | pgbench_accounts_pkey |       2246197248

 2017-02-05 03:07:27.034875+01 | 1486260447.03487 | pgbench_branches_pkey |            40960
 2017-02-05 03:07:27.034875+01 | 1486260447.03487 | pgbench_tellers_pkey  |           245760
 2017-02-05 03:07:27.034875+01 | 1486260447.03487 | pgbench_accounts_pkey |       2246197248

 2017-02-05 03:07:28.118735+01 | 1486260448.11874 | pgbench_branches_pkey |            40960
 2017-02-05 03:07:28.118735+01 | 1486260448.11874 | pgbench_tellers_pkey  |           245760
 2017-02-05 03:07:28.118735+01 | 1486260448.11874 | pgbench_accounts_pkey |       2246197248

 2017-02-05 03:07:29.200004+01 | 1486260449.2 | pgbench_branches_pkey |            40960
 2017-02-05 03:07:29.200004+01 | 1486260449.2 | pgbench_tellers_pkey  |           245760
 2017-02-05 03:07:29.200004+01 | 1486260449.2 | pgbench_accounts_pkey |       2246197248

 2017-02-05 03:07:30.273006+01 | 1486260450.27301 | pgbench_branches_pkey |            40960
 2017-02-05 03:07:30.273006+01 | 1486260450.27301 | pgbench_tellers_pkey  |           245760
 2017-02-05 03:07:30.273006+01 | 1486260450.27301 | pgbench_accounts_pkey |       2246197248

 2017-02-05 03:07:31.353397+01 | 1486260451.3534 | pgbench_branches_pkey |            40960
 2017-02-05 03:07:31.353397+01 | 1486260451.3534 | pgbench_tellers_pkey  |           245760
 2017-02-05 03:07:31.353397+01 | 1486260451.3534 | pgbench_accounts_pkey |       2246197248

 2017-02-05 03:07:32.436483+01 | 1486260452.43648 | pgbench_branches_pkey |            40960
 2017-02-05 03:07:32.436483+01 | 1486260452.43648 | pgbench_tellers_pkey  |           245760
 2017-02-05 03:07:32.436483+01 | 1486260452.43648 | pgbench_accounts_pkey |       2246197248

 2017-02-05 03:07:33.506202+01 | 1486260453.5062 | pgbench_branches_pkey |            40960
 2017-02-05 03:07:33.506202+01 | 1486260453.5062 | pgbench_tellers_pkey  |           245760
 2017-02-05 03:07:33.506202+01 | 1486260453.5062 | pgbench_accounts_pkey |       2246197248

 2017-02-05 03:07:34.578243+01 | 1486260454.57824 | pgbench_branches_pkey |            40960
 2017-02-05 03:07:34.578243+01 | 1486260454.57824 | pgbench_tellers_pkey  |           245760
 2017-02-05 03:07:34.578243+01 | 1486260454.57824 | pgbench_accounts_pkey |       2246197248

 2017-02-05 03:07:35.656179+01 | 1486260455.65618 | pgbench_branches_pkey |            40960
 2017-02-05 03:07:35.656179+01 | 1486260455.65618 | pgbench_tellers_pkey  |           245760
 2017-02-05 03:07:35.656179+01 | 1486260455.65618 | pgbench_accounts_pkey |       2246197248

 2017-02-05 03:07:36.734293+01 | 1486260456.73429 | pgbench_branches_pkey |            40960
 2017-02-05 03:07:36.734293+01 | 1486260456.73429 | pgbench_tellers_pkey  |           245760
 2017-02-05 03:07:36.734293+01 | 1486260456.73429 | pgbench_accounts_pkey |       2246197248

 2017-02-05 03:07:37.807786+01 | 1486260457.80779 | pgbench_branches_pkey |            40960
 2017-02-05 03:07:37.807786+01 | 1486260457.80779 | pgbench_tellers_pkey  |           245760
 2017-02-05 03:07:37.807786+01 | 1486260457.80779 | pgbench_accounts_pkey |       2246197248

 2017-02-05 03:07:38.895899+01 | 1486260458.8959 | pgbench_branches_pkey |            40960
 2017-02-05 03:07:38.895899+01 | 1486260458.8959 | pgbench_tellers_pkey  |           245760
 2017-02-05 03:07:38.895899+01 | 1486260458.8959 | pgbench_accounts_pkey |       2246197248

 2017-02-05 03:07:39.982326+01 | 1486260459.98233 | pgbench_branches_pkey |            40960
 2017-02-05 03:07:39.982326+01 | 1486260459.98233 | pgbench_tellers_pkey  |           245760
 2017-02-05 03:07:39.982326+01 | 1486260459.98233 | pgbench_accounts_pkey |       2246197248

 2017-02-05 03:07:41.074136+01 | 1486260461.07414 | pgbench_branches_pkey |            40960
 2017-02-05 03:07:41.074136+01 | 1486260461.07414 | pgbench_tellers_pkey  |           245760
 2017-02-05 03:07:41.074136+01 | 1486260461.07414 | pgbench_accounts_pkey |       2246197248

