 2017-02-05 03:02:41.680681+01 | 1486260161.68068 | 30/CF54E000              |          209636876288

 2017-02-05 03:02:42.776584+01 | 1486260162.77658 | 30/DEAB62A0              |          209894204064

 2017-02-05 03:02:43.8575+01 | 1486260163.8575 | 30/ED390B00              |          210138368768

 2017-02-05 03:02:44.939743+01 | 1486260164.93974 | 30/FD6C22C8              |          210410152648

 2017-02-05 03:02:46.015327+01 | 1486260166.01533 | 31/E622E40               |          210694712896

 2017-02-05 03:02:47.096824+01 | 1486260167.09682 | 31/1F2F6660              |          210976597600

 2017-02-05 03:02:48.175869+01 | 1486260168.17587 | 31/2D2A2180              |          211211133312

 2017-02-05 03:02:49.262278+01 | 1486260169.26228 | 31/3A432EF8              |          211430878968

 2017-02-05 03:02:50.330219+01 | 1486260170.33022 | 31/458355A8              |          211619632552

 2017-02-05 03:02:51.410773+01 | 1486260171.41077 | 31/504DE700              |          211800680192

 2017-02-05 03:02:52.493899+01 | 1486260172.4939 | 31/5B32B540              |          211983447360

 2017-02-05 03:02:53.573076+01 | 1486260173.57308 | 31/65C4FD40              |          212160806208

 2017-02-05 03:02:54.66468+01 | 1486260174.66468 | 31/6FC1E278              |          212328374904

 2017-02-05 03:02:55.74382+01 | 1486260175.74382 | 31/7936E000              |          212487036928

 2017-02-05 03:02:56.82306+01 | 1486260176.82306 | 31/82EB2E10              |          212649848336

 2017-02-05 03:02:57.90697+01 | 1486260177.90697 | 31/8C7569E8              |          212809935752

 2017-02-05 03:02:58.985806+01 | 1486260178.98581 | 31/95671A08              |          212959959560

 2017-02-05 03:03:00.064916+01 | 1486260180.06492 | 31/9E0902B8              |          213104788152

 2017-02-05 03:03:01.13542+01 | 1486260181.13542 | 31/A5FE4768              |          213238302568

 2017-02-05 03:03:02.215112+01 | 1486260182.21511 | 31/ADFE8F60              |          213372538720

 2017-02-05 03:03:03.296289+01 | 1486260183.29629 | 31/B63317A8              |          213510199208

 2017-02-05 03:03:04.379472+01 | 1486260184.37947 | 31/BE413EF0              |          213645344496

 2017-02-05 03:03:05.465321+01 | 1486260185.46532 | 31/C5F035E8              |          213774251496

 2017-02-05 03:03:06.545045+01 | 1486260186.54504 | 31/CD0AD4D8              |          213893436632

 2017-02-05 03:03:07.625721+01 | 1486260187.62572 | 31/D45FFDD8              |          214016458200

 2017-02-05 03:03:08.707636+01 | 1486260188.70764 | 31/DBCD2F70              |          214141054832

 2017-02-05 03:03:09.790387+01 | 1486260189.79039 | 31/E384E988              |          214270536072

 2017-02-05 03:03:10.85645+01 | 1486260190.85645 | 31/EA74AC90              |          214386912400

 2017-02-05 03:03:11.939807+01 | 1486260191.93981 | 31/F109C260              |          214497346144

 2017-02-05 03:03:13.026353+01 | 1486260193.02635 | 31/F7F6ACE0              |          214613535968

 2017-02-05 03:03:14.108633+01 | 1486260194.10863 | 31/FF0BCA50              |          214732360272

 2017-02-05 03:03:15.194345+01 | 1486260195.19434 | 32/5C922B0               |          214845432496

 2017-02-05 03:03:16.277332+01 | 1486260196.27733 | 32/C259888               |          214952155272

 2017-02-05 03:03:17.354127+01 | 1486260197.35413 | 32/1238C940              |          215054076224

 2017-02-05 03:03:18.439909+01 | 1486260198.43991 | 32/188CFE00              |          215160258048

 2017-02-05 03:03:19.521201+01 | 1486260199.5212 | 32/1E80A038              |          215260110904

 2017-02-05 03:03:20.605632+01 | 1486260200.60563 | 32/23FEDB58              |          215352269656

 2017-02-05 03:03:21.675919+01 | 1486260201.67592 | 32/29AD28C8              |          215447578824

 2017-02-05 03:03:22.749439+01 | 1486260202.74944 | 32/2F55DE38              |          215542521400

 2017-02-05 03:03:23.844981+01 | 1486260203.84498 | 32/353A4FD0              |          215641378768

 2017-02-05 03:03:24.931688+01 | 1486260204.93169 | 32/3AB21DD0              |          215733116368

 2017-02-05 03:03:26.023269+01 | 1486260206.02327 | 32/407468E8              |          215829735656

 2017-02-05 03:03:27.114697+01 | 1486260207.1147 | 32/461019E0              |          215923825120

 2017-02-05 03:03:28.201418+01 | 1486260208.20142 | 32/4B4C4000              |          216011653120

 2017-02-05 03:03:29.283534+01 | 1486260209.28353 | 32/512F2360              |          216110408544

 2017-02-05 03:03:30.368141+01 | 1486260210.36814 | 32/56C97D30              |          216204410160

 2017-02-05 03:03:31.447775+01 | 1486260211.44777 | 32/5B9A8E40              |          216285220416

 2017-02-05 03:03:32.536303+01 | 1486260212.5363 | 32/5FE2F878              |          216357075064

 2017-02-05 03:03:33.623713+01 | 1486260213.62371 | 32/639F9320              |          216419767072

 2017-02-05 03:03:34.70779+01 | 1486260214.70779 | 32/6884B218              |          216501891608

 2017-02-05 03:03:35.790626+01 | 1486260215.79063 | 32/6CC1A098              |          216572993688

 2017-02-05 03:03:36.871865+01 | 1486260216.87187 | 32/71FCDCE8              |          216660761832

 2017-02-05 03:03:37.955691+01 | 1486260217.95569 | 32/772812C0              |          216747479744

 2017-02-05 03:03:39.037303+01 | 1486260219.0373 | 32/7B9ABA40              |          216822102592

 2017-02-05 03:03:40.120332+01 | 1486260220.12033 | 32/80411BD0              |          216900115408

 2017-02-05 03:03:41.207136+01 | 1486260221.20714 | 32/85658BC0              |          216986389440

 2017-02-05 03:03:42.289576+01 | 1486260222.28958 | 32/8A38A198              |          217067331992

 2017-02-05 03:03:43.373586+01 | 1486260223.37359 | 32/8F4D07C8              |          217152554952

 2017-02-05 03:03:44.457513+01 | 1486260224.45751 | 32/93F3E238              |          217230598712

 2017-02-05 03:03:45.544201+01 | 1486260225.5442 | 32/988EE720              |          217307866912

 2017-02-05 03:03:46.627703+01 | 1486260226.6277 | 32/9D39A260              |          217386164832

 2017-02-05 03:03:47.710887+01 | 1486260227.71089 | 32/A1902D58              |          217458945368

 2017-02-05 03:03:48.787783+01 | 1486260228.78778 | 32/A57B5E90              |          217524690576

 2017-02-05 03:03:49.866012+01 | 1486260229.86601 | 32/A8732150              |          217574482256

 2017-02-05 03:03:50.949622+01 | 1486260230.94962 | 32/AC7E0118              |          217642303768

 2017-02-05 03:03:52.032636+01 | 1486260232.03264 | 32/AFDAECE0              |          217698725088

 2017-02-05 03:03:53.120499+01 | 1486260233.1205 | 32/B4946448              |          217777988680

 2017-02-05 03:03:54.195652+01 | 1486260234.19565 | 32/B8D28410              |          217849168912

 2017-02-05 03:03:55.263083+01 | 1486260235.26308 | 32/BCF9A518              |          217918842136

 2017-02-05 03:03:56.332818+01 | 1486260236.33282 | 32/C153AA70              |          217991850608

 2017-02-05 03:03:57.407421+01 | 1486260237.40742 | 32/C5605BA0              |          218059791264

 2017-02-05 03:03:58.492322+01 | 1486260238.49232 | 32/C97934E8              |          218128528616

 2017-02-05 03:03:59.565885+01 | 1486260239.56589 | 32/CD7C2178              |          218195829112

 2017-02-05 03:04:00.659021+01 | 1486260240.65902 | 32/D1A7D310              |          218265801488

 2017-02-05 03:04:01.740895+01 | 1486260241.7409 | 32/D5657AF8              |          218328562424

 2017-02-05 03:04:02.824372+01 | 1486260242.82437 | 32/D8ACD850              |          218383571024

 2017-02-05 03:04:03.914553+01 | 1486260243.91455 | 32/DBD1EB30              |          218436332336

 2017-02-05 03:04:04.994767+01 | 1486260244.99477 | 32/DEFAA9E0              |          218489334240

 2017-02-05 03:04:06.07578+01 | 1486260246.07578 | 32/E2696F30              |          218546925360

 2017-02-05 03:04:07.1573+01 | 1486260247.1573 | 32/E54DB010              |          218595438608

 2017-02-05 03:04:08.240997+01 | 1486260248.241 | 32/E8D3AE10              |          218654551568

 2017-02-05 03:04:09.315228+01 | 1486260249.31523 | 32/EBE44808              |          218705971208

 2017-02-05 03:04:10.395654+01 | 1486260250.39565 | 32/EEE56D60              |          218756377952

 2017-02-05 03:04:11.478114+01 | 1486260251.47811 | 32/F1DB6BE0              |          218806053856

 2017-02-05 03:04:12.573946+01 | 1486260252.57395 | 32/F57F8ED8              |          218867142360

 2017-02-05 03:04:13.652676+01 | 1486260253.65268 | 32/F9466000              |          218930503680

 2017-02-05 03:04:14.726471+01 | 1486260254.72647 | 32/FCEA70B0              |          218991587504

 2017-02-05 03:04:15.801334+01 | 1486260255.80133 | 33/748D40                |          219050970432

 2017-02-05 03:04:16.893148+01 | 1486260256.89315 | 33/4197528               |          219112109352

 2017-02-05 03:04:17.970743+01 | 1486260257.97074 | 33/7CDF6C0               |          219174270656

 2017-02-05 03:04:19.05418+01 | 1486260259.05418 | 33/B6FDBC8               |          219235212232

 2017-02-05 03:04:20.137826+01 | 1486260260.13783 | 33/F1651B0               |          219296453040

 2017-02-05 03:04:21.227172+01 | 1486260261.22717 | 33/122C56E8              |          219348227816

 2017-02-05 03:04:22.318367+01 | 1486260262.31837 | 33/153683D0              |          219399226320

 2017-02-05 03:04:23.39513+01 | 1486260263.39513 | 33/18167190              |          219447456144

 2017-02-05 03:04:24.479719+01 | 1486260264.47972 | 33/1ADE8258              |          219494122072

 2017-02-05 03:04:25.578601+01 | 1486260265.5786 | 33/1D8ADEF8              |          219538972408

 2017-02-05 03:04:26.657905+01 | 1486260266.65791 | 33/20712E80              |          219587620480

 2017-02-05 03:04:27.73807+01 | 1486260267.73807 | 33/22E13D18              |          219628518680

 2017-02-05 03:04:28.833908+01 | 1486260268.83391 | 33/257A1DC8              |          219672092104

 2017-02-05 03:04:29.917558+01 | 1486260269.91756 | 33/282FAB78              |          219717544824

 2017-02-05 03:04:30.99873+01 | 1486260270.99873 | 33/2B33BBF8              |          219768142840

 2017-02-05 03:04:32.081826+01 | 1486260272.08183 | 33/2E8A69A8              |          219824155048

 2017-02-05 03:04:33.160356+01 | 1486260273.16036 | 33/31D1D438              |          219879167032

 2017-02-05 03:04:34.23523+01 | 1486260274.23523 | 33/3509BE20              |          219933163040

 2017-02-05 03:04:35.311008+01 | 1486260275.31101 | 33/38282FE8              |          219985489896

 2017-02-05 03:04:36.384557+01 | 1486260276.38456 | 33/3B6A7800              |          220040165376

 2017-02-05 03:04:37.452483+01 | 1486260277.45248 | 33/3E43F030              |          220087971888

 2017-02-05 03:04:38.539684+01 | 1486260278.53968 | 33/4146F5B0              |          220138501552

 2017-02-05 03:04:39.628888+01 | 1486260279.62889 | 33/4460A520              |          220190516512

 2017-02-05 03:04:40.707838+01 | 1486260280.70784 | 33/475B6880              |          220240504960

 2017-02-05 03:04:41.788211+01 | 1486260281.78821 | 33/4A81B1D8              |          220293345752

 2017-02-05 03:04:42.880127+01 | 1486260282.88013 | 33/4DA4D040              |          220345978944

 2017-02-05 03:04:43.955098+01 | 1486260283.9551 | 33/505F3030              |          220391747632

 2017-02-05 03:04:45.03782+01 | 1486260285.03782 | 33/531E8B48              |          220437842760

 2017-02-05 03:04:46.106211+01 | 1486260286.10621 | 33/55EBC840              |          220484847680

 2017-02-05 03:04:47.186883+01 | 1486260287.18688 | 33/58EA16A0              |          220535068320

 2017-02-05 03:04:48.266677+01 | 1486260288.26668 | 33/5BC2E408              |          220582831112

 2017-02-05 03:04:49.336924+01 | 1486260289.33692 | 33/5E73C640              |          220627977792

 2017-02-05 03:04:50.424782+01 | 1486260290.42478 | 33/6129D448              |          220673463368

 2017-02-05 03:04:51.512338+01 | 1486260291.51234 | 33/640E7FA0              |          220722003872

 2017-02-05 03:04:52.589755+01 | 1486260292.58976 | 33/66D59140              |          220768604480

 2017-02-05 03:04:53.670617+01 | 1486260293.67062 | 33/69A72BE8              |          220815895528

 2017-02-05 03:04:54.754223+01 | 1486260294.75422 | 33/6C65CF10              |          220861943568

 2017-02-05 03:04:55.826039+01 | 1486260295.82604 | 33/6ED8DDC0              |          220903038400

 2017-02-05 03:04:56.914293+01 | 1486260296.91429 | 33/71923178              |          220948738424

 2017-02-05 03:04:57.979525+01 | 1486260297.97953 | 33/742AB0E0              |          220992286944

 2017-02-05 03:04:59.053257+01 | 1486260299.05326 | 33/76A20190              |          221033660816

 2017-02-05 03:05:00.129004+01 | 1486260300.129 | 33/79601350              |          221079671632

 2017-02-05 03:05:01.209114+01 | 1486260301.20911 | 33/7C2291A8              |          221125972392

 2017-02-05 03:05:02.287417+01 | 1486260302.28742 | 33/7EAD25F0              |          221168608752

 2017-02-05 03:05:03.371326+01 | 1486260303.37133 | 33/8147E548              |          221212304712

 2017-02-05 03:05:04.444097+01 | 1486260304.4441 | 33/83C92210              |          221254328848

 2017-02-05 03:05:05.511701+01 | 1486260305.5117 | 33/862ABF98              |          221294280600

 2017-02-05 03:05:06.582096+01 | 1486260306.5821 | 33/889104D0              |          221334537424

 2017-02-05 03:05:07.663265+01 | 1486260307.66326 | 33/8B11D528              |          221376533800

 2017-02-05 03:05:08.738739+01 | 1486260308.73874 | 33/8D8E6728              |          221418252072

 2017-02-05 03:05:09.824902+01 | 1486260309.8249 | 33/8FF4B7C8              |          221458511816

 2017-02-05 03:05:10.903905+01 | 1486260310.9039 | 33/926BB7D0              |          221499865040

 2017-02-05 03:05:11.982987+01 | 1486260311.98299 | 33/94AB0000              |          221537566720

 2017-02-05 03:05:13.062199+01 | 1486260313.0622 | 33/96D6EC78              |          221573999736

 2017-02-05 03:05:14.139801+01 | 1486260314.1398 | 33/991EC4E8              |          221612262632

 2017-02-05 03:05:15.213683+01 | 1486260315.21368 | 33/9B4E9A88              |          221648951944

 2017-02-05 03:05:16.301566+01 | 1486260316.30157 | 33/9DAAC7E8              |          221688547304

 2017-02-05 03:05:17.37657+01 | 1486260317.37657 | 33/9FE0B128              |          221725634856

 2017-02-05 03:05:18.460474+01 | 1486260318.46047 | 33/A226C698              |          221763782296

 2017-02-05 03:05:19.538588+01 | 1486260319.53859 | 33/A44640F0              |          221799399664

 2017-02-05 03:05:20.61603+01 | 1486260320.61603 | 33/A65530A0              |          221833932960

 2017-02-05 03:05:21.693712+01 | 1486260321.69371 | 33/A87BEAE8              |          221870025448

 2017-02-05 03:05:22.760795+01 | 1486260322.7608 | 33/AA874480              |          221904323712

 2017-02-05 03:05:23.837333+01 | 1486260323.83733 | 33/AC9689C8              |          221938878920

 2017-02-05 03:05:24.912783+01 | 1486260324.91278 | 33/AE94AE60              |          221972311648

 2017-02-05 03:05:25.994939+01 | 1486260325.99494 | 33/B0C472B8              |          222008996536

 2017-02-05 03:05:27.074254+01 | 1486260327.07425 | 33/B2CDBBD8              |          222043159512

 2017-02-05 03:05:28.158286+01 | 1486260328.15829 | 33/B4F68FE0              |          222079389664

 2017-02-05 03:05:29.246651+01 | 1486260329.24665 | 33/B70FCAD0              |          222114597584

 2017-02-05 03:05:30.312415+01 | 1486260330.31241 | 33/B90B1AE0              |          222147844832

 2017-02-05 03:05:31.387173+01 | 1486260331.38717 | 33/BAE551C8              |          222178922952

 2017-02-05 03:05:32.472878+01 | 1486260332.47288 | 33/BCDE6BB8              |          222212025272

 2017-02-05 03:05:33.555863+01 | 1486260333.55586 | 33/BEE7F350              |          222246204240

 2017-02-05 03:05:34.637067+01 | 1486260334.63707 | 33/C0DC7EA0              |          222279007904

 2017-02-05 03:05:35.714239+01 | 1486260335.71424 | 33/C2CEB0B0              |          222311657648

 2017-02-05 03:05:36.788992+01 | 1486260336.78899 | 33/C4A04740              |          222342170432

 2017-02-05 03:05:37.867913+01 | 1486260337.86791 | 33/C6768F98              |          222372990872

 2017-02-05 03:05:38.949678+01 | 1486260338.94968 | 33/C84A4668              |          222403642984

 2017-02-05 03:05:40.032509+01 | 1486260340.03251 | 33/CA2E69D0              |          222435371472

 2017-02-05 03:05:41.110103+01 | 1486260341.1101 | 33/CC0867A0              |          222466434976

 2017-02-05 03:05:42.193348+01 | 1486260342.19335 | 33/CD800928              |          222491052328

 2017-02-05 03:05:43.272151+01 | 1486260343.27215 | 33/CF08BDA0              |          222516788640

 2017-02-05 03:05:44.343931+01 | 1486260344.34393 | 33/D06E99F0              |          222540241392

 2017-02-05 03:05:45.425607+01 | 1486260345.42561 | 33/D1F3BFA0              |          222565744544

 2017-02-05 03:05:46.496418+01 | 1486260346.49642 | 33/D34CB3F8              |          222588351480

 2017-02-05 03:05:47.580015+01 | 1486260347.58001 | 33/D4D94E48              |          222614343240

 2017-02-05 03:05:48.661411+01 | 1486260348.66141 | 33/D6502390              |          222638908304

 2017-02-05 03:05:49.725344+01 | 1486260349.72534 | 33/D7C61BB0              |          222663416752

 2017-02-05 03:05:50.807659+01 | 1486260350.80766 | 33/D9811DC0              |          222692449728

 2017-02-05 03:05:51.890472+01 | 1486260351.89047 | 33/DB2687C0              |          222720067520

 2017-02-05 03:05:52.971882+01 | 1486260352.97188 | 33/DCD3EC68              |          222748208232

 2017-02-05 03:05:54.058311+01 | 1486260354.05831 | 33/DE7387F8              |          222775445496

 2017-02-05 03:05:55.135463+01 | 1486260355.13546 | 33/E0283968              |          222804064616

 2017-02-05 03:05:56.217002+01 | 1486260356.217 | 33/E1D0D560              |          222831891808

 2017-02-05 03:05:57.292572+01 | 1486260357.29257 | 33/E3720CC8              |          222859234504

 2017-02-05 03:05:58.379585+01 | 1486260358.37959 | 33/E5233F68              |          222887624552

 2017-02-05 03:05:59.45769+01 | 1486260359.45769 | 33/E6CEA000              |          222915633152

 2017-02-05 03:06:00.540642+01 | 1486260360.54064 | 33/E884BAB0              |          222944344752

 2017-02-05 03:06:01.61392+01 | 1486260361.61392 | 33/E9FFDD98              |          222969191832

 2017-02-05 03:06:02.701115+01 | 1486260362.70111 | 33/EB98F948              |          222996003144

 2017-02-05 03:06:03.78023+01 | 1486260363.78023 | 33/ED3F1F50              |          223023669072

 2017-02-05 03:06:04.861058+01 | 1486260364.86106 | 33/EEC7CF00              |          223049404160

 2017-02-05 03:06:05.938312+01 | 1486260365.93831 | 33/F05F4E98              |          223076109976

 2017-02-05 03:06:07.017401+01 | 1486260367.0174 | 33/F1CB9E30              |          223099985456

 2017-02-05 03:06:08.091333+01 | 1486260368.09133 | 33/F34C9660              |          223125214816

 2017-02-05 03:06:09.172707+01 | 1486260369.17271 | 33/F4D78840              |          223151097920

 2017-02-05 03:06:10.256211+01 | 1486260370.25621 | 33/F64EF318              |          223175701272

 2017-02-05 03:06:11.335482+01 | 1486260371.33548 | 33/F7AE1A10              |          223198714384

 2017-02-05 03:06:12.422987+01 | 1486260372.42299 | 33/F9281178              |          223223484792

 2017-02-05 03:06:13.505893+01 | 1486260373.50589 | 33/FAA80510              |          223248647440

 2017-02-05 03:06:14.585184+01 | 1486260374.58518 | 33/FC1DDEB0              |          223273148080

 2017-02-05 03:06:15.66616+01 | 1486260375.66616 | 33/FD4B7348              |          223292912456

 2017-02-05 03:06:16.747734+01 | 1486260376.74773 | 33/FE4587A8              |          223309301672

 2017-02-05 03:06:17.833031+01 | 1486260377.83303 | 33/FF75DC78              |          223329246328

 2017-02-05 03:06:18.909754+01 | 1486260378.90975 | 34/848F58                |          223346986840

 2017-02-05 03:06:20.001206+01 | 1486260380.00121 | 34/1944E28               |          223364795944

 2017-02-05 03:06:21.082146+01 | 1486260381.08215 | 34/2A9A538               |          223382971704

 2017-02-05 03:06:22.163106+01 | 1486260382.16311 | 34/3BB48A0               |          223400904864

 2017-02-05 03:06:23.25065+01 | 1486260383.25065 | 34/50BB198               |          223422951832

 2017-02-05 03:06:24.328009+01 | 1486260384.32801 | 34/657FD68               |          223444729192

 2017-02-05 03:06:25.410228+01 | 1486260385.41023 | 34/7CE0420               |          223469241376

 2017-02-05 03:06:26.492977+01 | 1486260386.49298 | 34/930E8C0               |          223492499648

 2017-02-05 03:06:27.555762+01 | 1486260387.55576 | 34/A6C8FF0               |          223513186288

 2017-02-05 03:06:28.649026+01 | 1486260388.64903 | 34/BBDB998               |          223535282584

 2017-02-05 03:06:29.726204+01 | 1486260389.7262 | 34/CF7EF10               |          223555874576

 2017-02-05 03:06:30.809399+01 | 1486260390.8094 | 34/E3D77E8               |          223577208808

 2017-02-05 03:06:31.895488+01 | 1486260391.89549 | 34/F6C2308               |          223597044488

 2017-02-05 03:06:32.98123+01 | 1486260392.98123 | 34/10A3D828              |          223617472552

 2017-02-05 03:06:34.06315+01 | 1486260394.06315 | 34/11E662E8              |          223638610664

 2017-02-05 03:06:35.145798+01 | 1486260395.1458 | 34/132604B0              |          223659558064

 2017-02-05 03:06:36.225046+01 | 1486260396.22505 | 34/1458A330              |          223679652656

 2017-02-05 03:06:37.310955+01 | 1486260397.31096 | 34/15851708              |          223699343112

 2017-02-05 03:06:38.388663+01 | 1486260398.38866 | 34/16C4EE70              |          223720304240

 2017-02-05 03:06:39.467512+01 | 1486260399.46751 | 34/17FD4F88              |          223740776328

 2017-02-05 03:06:40.54748+01 | 1486260400.54748 | 34/19303140              |          223760888128

 2017-02-05 03:06:41.630169+01 | 1486260401.63017 | 34/1A60E398              |          223780856728

 2017-02-05 03:06:42.693767+01 | 1486260402.69377 | 34/1B6DDB78              |          223798483832

 2017-02-05 03:06:43.783921+01 | 1486260403.78392 | 34/1C8FB9E8              |          223817480680

 2017-02-05 03:06:44.858732+01 | 1486260404.85873 | 34/1DBD1D58              |          223837232472

 2017-02-05 03:06:45.941117+01 | 1486260405.94112 | 34/1EDF4A38              |          223856249400

 2017-02-05 03:06:47.019235+01 | 1486260407.01923 | 34/2000FA68              |          223875234408

 2017-02-05 03:06:48.101974+01 | 1486260408.10197 | 34/2121E360              |          223894168416

 2017-02-05 03:06:49.176936+01 | 1486260409.17694 | 34/222BB578              |          223911589240

 2017-02-05 03:06:50.252564+01 | 1486260410.25256 | 34/23303158              |          223928660312

 2017-02-05 03:06:51.34474+01 | 1486260411.34474 | 34/244E0F80              |          223947394944

 2017-02-05 03:06:52.426961+01 | 1486260412.42696 | 34/2564A130              |          223965651248

 2017-02-05 03:06:53.506935+01 | 1486260413.50693 | 34/26734FE8              |          223983390696

 2017-02-05 03:06:54.579932+01 | 1486260414.57993 | 34/276D1D88              |          223999761800

 2017-02-05 03:06:55.667665+01 | 1486260415.66767 | 34/2883CFE8              |          224018026472

 2017-02-05 03:06:56.748718+01 | 1486260416.74872 | 34/29887980              |          224035109248

 2017-02-05 03:06:57.829923+01 | 1486260417.82992 | 34/2A958A28              |          224052742696

 2017-02-05 03:06:58.909265+01 | 1486260418.90927 | 34/2B9CB8B8              |          224069990584

 2017-02-05 03:06:59.977371+01 | 1486260419.97737 | 34/2C990608              |          224086525448

 2017-02-05 03:07:01.054025+01 | 1486260421.05402 | 34/2D81B108              |          224101773576

 2017-02-05 03:07:02.136418+01 | 1486260422.13642 | 34/2E882A08              |          224118974984

 2017-02-05 03:07:03.21941+01 | 1486260423.21941 | 34/2F867AD0              |          224135641808

 2017-02-05 03:07:04.299194+01 | 1486260424.29919 | 34/3074E868              |          224151267432

 2017-02-05 03:07:05.381243+01 | 1486260425.38124 | 34/316B88C8              |          224167430344

 2017-02-05 03:07:06.464567+01 | 1486260426.46457 | 34/326CBCF8              |          224184286456

 2017-02-05 03:07:07.545578+01 | 1486260427.54558 | 34/334872D8              |          224198685400

 2017-02-05 03:07:08.630899+01 | 1486260428.6309 | 34/342C4C58              |          224213617752

 2017-02-05 03:07:09.721207+01 | 1486260429.72121 | 34/3511CEB0              |          224228658864

 2017-02-05 03:07:10.799439+01 | 1486260430.79944 | 34/35D41A50              |          224241392208

 2017-02-05 03:07:11.872395+01 | 1486260431.8724 | 34/36B116E0              |          224255874784

 2017-02-05 03:07:12.962877+01 | 1486260432.96288 | 34/37912EC0              |          224270560960

 2017-02-05 03:07:14.042902+01 | 1486260434.0429 | 34/38867B00              |          224286636800

 2017-02-05 03:07:15.126587+01 | 1486260435.12659 | 34/396854A0              |          224301438112

 2017-02-05 03:07:16.208503+01 | 1486260436.2085 | 34/3A4C2A88              |          224316369544

 2017-02-05 03:07:17.28089+01 | 1486260437.28089 | 34/3B2C3AF0              |          224331053808

 2017-02-05 03:07:18.367235+01 | 1486260438.36723 | 34/3BF306A8              |          224344082088

 2017-02-05 03:07:19.451681+01 | 1486260439.45168 | 34/3CCE1828              |          224358438952

 2017-02-05 03:07:20.530398+01 | 1486260440.5304 | 34/3D9F0000              |          224372129792

 2017-02-05 03:07:21.612185+01 | 1486260441.61219 | 34/3E7E7A10              |          224386775568

 2017-02-05 03:07:22.690762+01 | 1486260442.69076 | 34/3F55BD48              |          224400883016

 2017-02-05 03:07:23.768692+01 | 1486260443.76869 | 34/4033BEB0              |          224415432368

 2017-02-05 03:07:24.843141+01 | 1486260444.84314 | 34/410ACAE0              |          224429525728

 2017-02-05 03:07:25.916828+01 | 1486260445.91683 | 34/41D99C68              |          224443079784

 2017-02-05 03:07:26.982448+01 | 1486260446.98245 | 34/429C9248              |          224455856712

 2017-02-05 03:07:28.05582+01 | 1486260448.05582 | 34/43625E80              |          224468819584

 2017-02-05 03:07:29.144482+01 | 1486260449.14448 | 34/442A80D8              |          224481935576

 2017-02-05 03:07:30.22028+01 | 1486260450.22028 | 34/44FA0B98              |          224495537048

 2017-02-05 03:07:31.296927+01 | 1486260451.29693 | 34/45CCBA88              |          224509344392

 2017-02-05 03:07:32.376335+01 | 1486260452.37633 | 34/4697A428              |          224522642472

 2017-02-05 03:07:33.454914+01 | 1486260453.45491 | 34/47609778              |          224535811960

 2017-02-05 03:07:34.525246+01 | 1486260454.52525 | 34/48249048              |          224548655176

 2017-02-05 03:07:35.601292+01 | 1486260455.60129 | 34/48D87230              |          224560443952

 2017-02-05 03:07:36.679868+01 | 1486260456.67987 | 34/4978BC48              |          224570949632

 2017-02-05 03:07:37.757275+01 | 1486260457.75728 | 34/4A1534F0              |          224581203184

 2017-02-05 03:07:38.830618+01 | 1486260458.83062 | 34/4AA014D0              |          224590304464

 2017-02-05 03:07:39.920721+01 | 1486260459.92072 | 34/4B1B1750              |          224598366032

 2017-02-05 03:07:41.01341+01 | 1486260461.01341 | 34/4BC832C8              |          224609710792

