 2017-02-05 03:07:49.686755+01 | 1486260469.68675 | pgbench_branches_pkey |            40960
 2017-02-05 03:07:49.686755+01 | 1486260469.68675 | pgbench_tellers_pkey  |           245760
 2017-02-05 03:07:49.686755+01 | 1486260469.68675 | pgbench_accounts_pkey |       2246197248

 2017-02-05 03:07:50.778288+01 | 1486260470.77829 | pgbench_branches_pkey |            40960
 2017-02-05 03:07:50.778288+01 | 1486260470.77829 | pgbench_tellers_pkey  |           245760
 2017-02-05 03:07:50.778288+01 | 1486260470.77829 | pgbench_accounts_pkey |       2246197248

 2017-02-05 03:07:51.872277+01 | 1486260471.87228 | pgbench_branches_pkey |            40960
 2017-02-05 03:07:51.872277+01 | 1486260471.87228 | pgbench_tellers_pkey  |           245760
 2017-02-05 03:07:51.872277+01 | 1486260471.87228 | pgbench_accounts_pkey |       2246197248

 2017-02-05 03:07:52.962273+01 | 1486260472.96227 | pgbench_branches_pkey |            40960
 2017-02-05 03:07:52.962273+01 | 1486260472.96227 | pgbench_tellers_pkey  |           245760
 2017-02-05 03:07:52.962273+01 | 1486260472.96227 | pgbench_accounts_pkey |       2246197248

 2017-02-05 03:07:54.055888+01 | 1486260474.05589 | pgbench_branches_pkey |            40960
 2017-02-05 03:07:54.055888+01 | 1486260474.05589 | pgbench_tellers_pkey  |           245760
 2017-02-05 03:07:54.055888+01 | 1486260474.05589 | pgbench_accounts_pkey |       2246197248

 2017-02-05 03:07:55.131276+01 | 1486260475.13128 | pgbench_branches_pkey |            40960
 2017-02-05 03:07:55.131276+01 | 1486260475.13128 | pgbench_tellers_pkey  |           245760
 2017-02-05 03:07:55.131276+01 | 1486260475.13128 | pgbench_accounts_pkey |       2246197248

 2017-02-05 03:07:56.208633+01 | 1486260476.20863 | pgbench_branches_pkey |            40960
 2017-02-05 03:07:56.208633+01 | 1486260476.20863 | pgbench_tellers_pkey  |           245760
 2017-02-05 03:07:56.208633+01 | 1486260476.20863 | pgbench_accounts_pkey |       2246197248

 2017-02-05 03:07:57.285672+01 | 1486260477.28567 | pgbench_branches_pkey |            40960
 2017-02-05 03:07:57.285672+01 | 1486260477.28567 | pgbench_tellers_pkey  |           245760
 2017-02-05 03:07:57.285672+01 | 1486260477.28567 | pgbench_accounts_pkey |       2246197248

 2017-02-05 03:07:58.353252+01 | 1486260478.35325 | pgbench_branches_pkey |            40960
 2017-02-05 03:07:58.353252+01 | 1486260478.35325 | pgbench_tellers_pkey  |           245760
 2017-02-05 03:07:58.353252+01 | 1486260478.35325 | pgbench_accounts_pkey |       2246197248

 2017-02-05 03:07:59.436666+01 | 1486260479.43667 | pgbench_branches_pkey |            40960
 2017-02-05 03:07:59.436666+01 | 1486260479.43667 | pgbench_tellers_pkey  |           245760
 2017-02-05 03:07:59.436666+01 | 1486260479.43667 | pgbench_accounts_pkey |       2246197248

 2017-02-05 03:08:00.524787+01 | 1486260480.52479 | pgbench_branches_pkey |            40960
 2017-02-05 03:08:00.524787+01 | 1486260480.52479 | pgbench_tellers_pkey  |           245760
 2017-02-05 03:08:00.524787+01 | 1486260480.52479 | pgbench_accounts_pkey |       2246197248

 2017-02-05 03:08:01.609901+01 | 1486260481.6099 | pgbench_branches_pkey |            40960
 2017-02-05 03:08:01.609901+01 | 1486260481.6099 | pgbench_tellers_pkey  |           245760
 2017-02-05 03:08:01.609901+01 | 1486260481.6099 | pgbench_accounts_pkey |       2246197248

 2017-02-05 03:08:02.68846+01 | 1486260482.68846 | pgbench_branches_pkey |            40960
 2017-02-05 03:08:02.68846+01 | 1486260482.68846 | pgbench_tellers_pkey  |           245760
 2017-02-05 03:08:02.68846+01 | 1486260482.68846 | pgbench_accounts_pkey |       2246197248

 2017-02-05 03:08:03.776898+01 | 1486260483.7769 | pgbench_branches_pkey |            40960
 2017-02-05 03:08:03.776898+01 | 1486260483.7769 | pgbench_tellers_pkey  |           245760
 2017-02-05 03:08:03.776898+01 | 1486260483.7769 | pgbench_accounts_pkey |       2246197248

 2017-02-05 03:08:04.849189+01 | 1486260484.84919 | pgbench_branches_pkey |            40960
 2017-02-05 03:08:04.849189+01 | 1486260484.84919 | pgbench_tellers_pkey  |           245760
 2017-02-05 03:08:04.849189+01 | 1486260484.84919 | pgbench_accounts_pkey |       2246197248

 2017-02-05 03:08:05.93968+01 | 1486260485.93968 | pgbench_branches_pkey |            40960
 2017-02-05 03:08:05.93968+01 | 1486260485.93968 | pgbench_tellers_pkey  |           245760
 2017-02-05 03:08:05.93968+01 | 1486260485.93968 | pgbench_accounts_pkey |       2246197248

 2017-02-05 03:08:07.025902+01 | 1486260487.0259 | pgbench_branches_pkey |            40960
 2017-02-05 03:08:07.025902+01 | 1486260487.0259 | pgbench_tellers_pkey  |           245760
 2017-02-05 03:08:07.025902+01 | 1486260487.0259 | pgbench_accounts_pkey |       2246197248

 2017-02-05 03:08:08.095397+01 | 1486260488.0954 | pgbench_branches_pkey |            40960
 2017-02-05 03:08:08.095397+01 | 1486260488.0954 | pgbench_tellers_pkey  |           245760
 2017-02-05 03:08:08.095397+01 | 1486260488.0954 | pgbench_accounts_pkey |       2246197248

 2017-02-05 03:08:09.180172+01 | 1486260489.18017 | pgbench_branches_pkey |            40960
 2017-02-05 03:08:09.180172+01 | 1486260489.18017 | pgbench_tellers_pkey  |           245760
 2017-02-05 03:08:09.180172+01 | 1486260489.18017 | pgbench_accounts_pkey |       2246197248

 2017-02-05 03:08:10.268345+01 | 1486260490.26835 | pgbench_branches_pkey |            40960
 2017-02-05 03:08:10.268345+01 | 1486260490.26835 | pgbench_tellers_pkey  |           245760
 2017-02-05 03:08:10.268345+01 | 1486260490.26835 | pgbench_accounts_pkey |       2246197248

 2017-02-05 03:08:11.34488+01 | 1486260491.34488 | pgbench_branches_pkey |            40960
 2017-02-05 03:08:11.34488+01 | 1486260491.34488 | pgbench_tellers_pkey  |           245760
 2017-02-05 03:08:11.34488+01 | 1486260491.34488 | pgbench_accounts_pkey |       2246197248

 2017-02-05 03:08:12.414365+01 | 1486260492.41437 | pgbench_branches_pkey |            40960
 2017-02-05 03:08:12.414365+01 | 1486260492.41437 | pgbench_tellers_pkey  |           245760
 2017-02-05 03:08:12.414365+01 | 1486260492.41437 | pgbench_accounts_pkey |       2246197248

 2017-02-05 03:08:13.49669+01 | 1486260493.49669 | pgbench_branches_pkey |            40960
 2017-02-05 03:08:13.49669+01 | 1486260493.49669 | pgbench_tellers_pkey  |           245760
 2017-02-05 03:08:13.49669+01 | 1486260493.49669 | pgbench_accounts_pkey |       2246197248

 2017-02-05 03:08:14.582108+01 | 1486260494.58211 | pgbench_branches_pkey |            40960
 2017-02-05 03:08:14.582108+01 | 1486260494.58211 | pgbench_tellers_pkey  |           245760
 2017-02-05 03:08:14.582108+01 | 1486260494.58211 | pgbench_accounts_pkey |       2246197248

 2017-02-05 03:08:15.664671+01 | 1486260495.66467 | pgbench_branches_pkey |            40960
 2017-02-05 03:08:15.664671+01 | 1486260495.66467 | pgbench_tellers_pkey  |           245760
 2017-02-05 03:08:15.664671+01 | 1486260495.66467 | pgbench_accounts_pkey |       2246197248

 2017-02-05 03:08:16.74605+01 | 1486260496.74605 | pgbench_branches_pkey |            40960
 2017-02-05 03:08:16.74605+01 | 1486260496.74605 | pgbench_tellers_pkey  |           245760
 2017-02-05 03:08:16.74605+01 | 1486260496.74605 | pgbench_accounts_pkey |       2246197248

 2017-02-05 03:08:17.843951+01 | 1486260497.84395 | pgbench_branches_pkey |            40960
 2017-02-05 03:08:17.843951+01 | 1486260497.84395 | pgbench_tellers_pkey  |           245760
 2017-02-05 03:08:17.843951+01 | 1486260497.84395 | pgbench_accounts_pkey |       2246197248

 2017-02-05 03:08:18.923349+01 | 1486260498.92335 | pgbench_branches_pkey |            40960
 2017-02-05 03:08:18.923349+01 | 1486260498.92335 | pgbench_tellers_pkey  |           245760
 2017-02-05 03:08:18.923349+01 | 1486260498.92335 | pgbench_accounts_pkey |       2246197248

 2017-02-05 03:08:20.020341+01 | 1486260500.02034 | pgbench_branches_pkey |            40960
 2017-02-05 03:08:20.020341+01 | 1486260500.02034 | pgbench_tellers_pkey  |           245760
 2017-02-05 03:08:20.020341+01 | 1486260500.02034 | pgbench_accounts_pkey |       2246197248

 2017-02-05 03:08:21.116969+01 | 1486260501.11697 | pgbench_branches_pkey |            40960
 2017-02-05 03:08:21.116969+01 | 1486260501.11697 | pgbench_tellers_pkey  |           245760
 2017-02-05 03:08:21.116969+01 | 1486260501.11697 | pgbench_accounts_pkey |       2246197248

 2017-02-05 03:08:22.192797+01 | 1486260502.1928 | pgbench_branches_pkey |            40960
 2017-02-05 03:08:22.192797+01 | 1486260502.1928 | pgbench_tellers_pkey  |           245760
 2017-02-05 03:08:22.192797+01 | 1486260502.1928 | pgbench_accounts_pkey |       2246197248

 2017-02-05 03:08:23.278314+01 | 1486260503.27831 | pgbench_branches_pkey |            40960
 2017-02-05 03:08:23.278314+01 | 1486260503.27831 | pgbench_tellers_pkey  |           245760
 2017-02-05 03:08:23.278314+01 | 1486260503.27831 | pgbench_accounts_pkey |       2246197248

 2017-02-05 03:08:24.367028+01 | 1486260504.36703 | pgbench_branches_pkey |            40960
 2017-02-05 03:08:24.367028+01 | 1486260504.36703 | pgbench_tellers_pkey  |           245760
 2017-02-05 03:08:24.367028+01 | 1486260504.36703 | pgbench_accounts_pkey |       2246197248

 2017-02-05 03:08:25.44259+01 | 1486260505.44259 | pgbench_branches_pkey |            40960
 2017-02-05 03:08:25.44259+01 | 1486260505.44259 | pgbench_tellers_pkey  |           245760
 2017-02-05 03:08:25.44259+01 | 1486260505.44259 | pgbench_accounts_pkey |       2246197248

 2017-02-05 03:08:26.533757+01 | 1486260506.53376 | pgbench_branches_pkey |            40960
 2017-02-05 03:08:26.533757+01 | 1486260506.53376 | pgbench_tellers_pkey  |           245760
 2017-02-05 03:08:26.533757+01 | 1486260506.53376 | pgbench_accounts_pkey |       2246197248

 2017-02-05 03:08:27.617953+01 | 1486260507.61795 | pgbench_branches_pkey |            40960
 2017-02-05 03:08:27.617953+01 | 1486260507.61795 | pgbench_tellers_pkey  |           245760
 2017-02-05 03:08:27.617953+01 | 1486260507.61795 | pgbench_accounts_pkey |       2246197248

 2017-02-05 03:08:28.702261+01 | 1486260508.70226 | pgbench_branches_pkey |            40960
 2017-02-05 03:08:28.702261+01 | 1486260508.70226 | pgbench_tellers_pkey  |           245760
 2017-02-05 03:08:28.702261+01 | 1486260508.70226 | pgbench_accounts_pkey |       2246197248

 2017-02-05 03:08:29.778799+01 | 1486260509.7788 | pgbench_branches_pkey |            40960
 2017-02-05 03:08:29.778799+01 | 1486260509.7788 | pgbench_tellers_pkey  |           245760
 2017-02-05 03:08:29.778799+01 | 1486260509.7788 | pgbench_accounts_pkey |       2246197248

 2017-02-05 03:08:30.861944+01 | 1486260510.86194 | pgbench_branches_pkey |            40960
 2017-02-05 03:08:30.861944+01 | 1486260510.86194 | pgbench_tellers_pkey  |           245760
 2017-02-05 03:08:30.861944+01 | 1486260510.86194 | pgbench_accounts_pkey |       2246197248

 2017-02-05 03:08:31.951485+01 | 1486260511.95148 | pgbench_branches_pkey |            40960
 2017-02-05 03:08:31.951485+01 | 1486260511.95148 | pgbench_tellers_pkey  |           245760
 2017-02-05 03:08:31.951485+01 | 1486260511.95148 | pgbench_accounts_pkey |       2246197248

 2017-02-05 03:08:33.036641+01 | 1486260513.03664 | pgbench_branches_pkey |            40960
 2017-02-05 03:08:33.036641+01 | 1486260513.03664 | pgbench_tellers_pkey  |           245760
 2017-02-05 03:08:33.036641+01 | 1486260513.03664 | pgbench_accounts_pkey |       2246197248

 2017-02-05 03:08:34.136717+01 | 1486260514.13672 | pgbench_branches_pkey |            40960
 2017-02-05 03:08:34.136717+01 | 1486260514.13672 | pgbench_tellers_pkey  |           245760
 2017-02-05 03:08:34.136717+01 | 1486260514.13672 | pgbench_accounts_pkey |       2246197248

 2017-02-05 03:08:35.219708+01 | 1486260515.21971 | pgbench_branches_pkey |            40960
 2017-02-05 03:08:35.219708+01 | 1486260515.21971 | pgbench_tellers_pkey  |           245760
 2017-02-05 03:08:35.219708+01 | 1486260515.21971 | pgbench_accounts_pkey |       2246197248

 2017-02-05 03:08:36.310553+01 | 1486260516.31055 | pgbench_branches_pkey |            40960
 2017-02-05 03:08:36.310553+01 | 1486260516.31055 | pgbench_tellers_pkey  |           245760
 2017-02-05 03:08:36.310553+01 | 1486260516.31055 | pgbench_accounts_pkey |       2246197248

 2017-02-05 03:08:37.396694+01 | 1486260517.39669 | pgbench_branches_pkey |            40960
 2017-02-05 03:08:37.396694+01 | 1486260517.39669 | pgbench_tellers_pkey  |           245760
 2017-02-05 03:08:37.396694+01 | 1486260517.39669 | pgbench_accounts_pkey |       2246197248

 2017-02-05 03:08:38.476758+01 | 1486260518.47676 | pgbench_branches_pkey |            40960
 2017-02-05 03:08:38.476758+01 | 1486260518.47676 | pgbench_tellers_pkey  |           245760
 2017-02-05 03:08:38.476758+01 | 1486260518.47676 | pgbench_accounts_pkey |       2246197248

 2017-02-05 03:08:39.567177+01 | 1486260519.56718 | pgbench_branches_pkey |            40960
 2017-02-05 03:08:39.567177+01 | 1486260519.56718 | pgbench_tellers_pkey  |           245760
 2017-02-05 03:08:39.567177+01 | 1486260519.56718 | pgbench_accounts_pkey |       2246197248

 2017-02-05 03:08:40.662808+01 | 1486260520.66281 | pgbench_branches_pkey |            40960
 2017-02-05 03:08:40.662808+01 | 1486260520.66281 | pgbench_tellers_pkey  |           245760
 2017-02-05 03:08:40.662808+01 | 1486260520.66281 | pgbench_accounts_pkey |       2246197248

 2017-02-05 03:08:41.745139+01 | 1486260521.74514 | pgbench_branches_pkey |            40960
 2017-02-05 03:08:41.745139+01 | 1486260521.74514 | pgbench_tellers_pkey  |           245760
 2017-02-05 03:08:41.745139+01 | 1486260521.74514 | pgbench_accounts_pkey |       2246197248

 2017-02-05 03:08:42.831906+01 | 1486260522.83191 | pgbench_branches_pkey |            40960
 2017-02-05 03:08:42.831906+01 | 1486260522.83191 | pgbench_tellers_pkey  |           245760
 2017-02-05 03:08:42.831906+01 | 1486260522.83191 | pgbench_accounts_pkey |       2246197248

 2017-02-05 03:08:43.913369+01 | 1486260523.91337 | pgbench_branches_pkey |            40960
 2017-02-05 03:08:43.913369+01 | 1486260523.91337 | pgbench_tellers_pkey  |           245760
 2017-02-05 03:08:43.913369+01 | 1486260523.91337 | pgbench_accounts_pkey |       2246197248

 2017-02-05 03:08:44.97549+01 | 1486260524.97549 | pgbench_branches_pkey |            40960
 2017-02-05 03:08:44.97549+01 | 1486260524.97549 | pgbench_tellers_pkey  |           245760
 2017-02-05 03:08:44.97549+01 | 1486260524.97549 | pgbench_accounts_pkey |       2246197248

 2017-02-05 03:08:46.061737+01 | 1486260526.06174 | pgbench_branches_pkey |            40960
 2017-02-05 03:08:46.061737+01 | 1486260526.06174 | pgbench_tellers_pkey  |           245760
 2017-02-05 03:08:46.061737+01 | 1486260526.06174 | pgbench_accounts_pkey |       2246197248

 2017-02-05 03:08:47.150552+01 | 1486260527.15055 | pgbench_branches_pkey |            40960
 2017-02-05 03:08:47.150552+01 | 1486260527.15055 | pgbench_tellers_pkey  |           245760
 2017-02-05 03:08:47.150552+01 | 1486260527.15055 | pgbench_accounts_pkey |       2246197248

 2017-02-05 03:08:48.240399+01 | 1486260528.2404 | pgbench_branches_pkey |            40960
 2017-02-05 03:08:48.240399+01 | 1486260528.2404 | pgbench_tellers_pkey  |           245760
 2017-02-05 03:08:48.240399+01 | 1486260528.2404 | pgbench_accounts_pkey |       2246197248

 2017-02-05 03:08:49.3439+01 | 1486260529.3439 | pgbench_branches_pkey |            40960
 2017-02-05 03:08:49.3439+01 | 1486260529.3439 | pgbench_tellers_pkey  |           245760
 2017-02-05 03:08:49.3439+01 | 1486260529.3439 | pgbench_accounts_pkey |       2246197248

 2017-02-05 03:08:50.425466+01 | 1486260530.42547 | pgbench_branches_pkey |            40960
 2017-02-05 03:08:50.425466+01 | 1486260530.42547 | pgbench_tellers_pkey  |           245760
 2017-02-05 03:08:50.425466+01 | 1486260530.42547 | pgbench_accounts_pkey |       2246197248

 2017-02-05 03:08:51.507245+01 | 1486260531.50725 | pgbench_branches_pkey |            40960
 2017-02-05 03:08:51.507245+01 | 1486260531.50725 | pgbench_tellers_pkey  |           245760
 2017-02-05 03:08:51.507245+01 | 1486260531.50725 | pgbench_accounts_pkey |       2246197248

 2017-02-05 03:08:52.599302+01 | 1486260532.5993 | pgbench_branches_pkey |            40960
 2017-02-05 03:08:52.599302+01 | 1486260532.5993 | pgbench_tellers_pkey  |           245760
 2017-02-05 03:08:52.599302+01 | 1486260532.5993 | pgbench_accounts_pkey |       2246197248

 2017-02-05 03:08:53.691429+01 | 1486260533.69143 | pgbench_branches_pkey |            40960
 2017-02-05 03:08:53.691429+01 | 1486260533.69143 | pgbench_tellers_pkey  |           245760
 2017-02-05 03:08:53.691429+01 | 1486260533.69143 | pgbench_accounts_pkey |       2246197248

 2017-02-05 03:08:54.76441+01 | 1486260534.76441 | pgbench_branches_pkey |            40960
 2017-02-05 03:08:54.76441+01 | 1486260534.76441 | pgbench_tellers_pkey  |           245760
 2017-02-05 03:08:54.76441+01 | 1486260534.76441 | pgbench_accounts_pkey |       2246197248

 2017-02-05 03:08:55.848176+01 | 1486260535.84818 | pgbench_branches_pkey |            40960
 2017-02-05 03:08:55.848176+01 | 1486260535.84818 | pgbench_tellers_pkey  |           245760
 2017-02-05 03:08:55.848176+01 | 1486260535.84818 | pgbench_accounts_pkey |       2246197248

 2017-02-05 03:08:56.933952+01 | 1486260536.93395 | pgbench_branches_pkey |            40960
 2017-02-05 03:08:56.933952+01 | 1486260536.93395 | pgbench_tellers_pkey  |           245760
 2017-02-05 03:08:56.933952+01 | 1486260536.93395 | pgbench_accounts_pkey |       2246197248

 2017-02-05 03:08:58.026751+01 | 1486260538.02675 | pgbench_branches_pkey |            40960
 2017-02-05 03:08:58.026751+01 | 1486260538.02675 | pgbench_tellers_pkey  |           245760
 2017-02-05 03:08:58.026751+01 | 1486260538.02675 | pgbench_accounts_pkey |       2246197248

 2017-02-05 03:08:59.121789+01 | 1486260539.12179 | pgbench_branches_pkey |            40960
 2017-02-05 03:08:59.121789+01 | 1486260539.12179 | pgbench_tellers_pkey  |           245760
 2017-02-05 03:08:59.121789+01 | 1486260539.12179 | pgbench_accounts_pkey |       2246197248

 2017-02-05 03:09:00.208462+01 | 1486260540.20846 | pgbench_branches_pkey |            40960
 2017-02-05 03:09:00.208462+01 | 1486260540.20846 | pgbench_tellers_pkey  |           245760
 2017-02-05 03:09:00.208462+01 | 1486260540.20846 | pgbench_accounts_pkey |       2246197248

 2017-02-05 03:09:01.305445+01 | 1486260541.30544 | pgbench_branches_pkey |            40960
 2017-02-05 03:09:01.305445+01 | 1486260541.30544 | pgbench_tellers_pkey  |           245760
 2017-02-05 03:09:01.305445+01 | 1486260541.30544 | pgbench_accounts_pkey |       2246197248

 2017-02-05 03:09:02.399478+01 | 1486260542.39948 | pgbench_branches_pkey |            40960
 2017-02-05 03:09:02.399478+01 | 1486260542.39948 | pgbench_tellers_pkey  |           245760
 2017-02-05 03:09:02.399478+01 | 1486260542.39948 | pgbench_accounts_pkey |       2246197248

 2017-02-05 03:09:03.485377+01 | 1486260543.48538 | pgbench_branches_pkey |            40960
 2017-02-05 03:09:03.485377+01 | 1486260543.48538 | pgbench_tellers_pkey  |           245760
 2017-02-05 03:09:03.485377+01 | 1486260543.48538 | pgbench_accounts_pkey |       2246197248

 2017-02-05 03:09:04.579772+01 | 1486260544.57977 | pgbench_branches_pkey |            40960
 2017-02-05 03:09:04.579772+01 | 1486260544.57977 | pgbench_tellers_pkey  |           245760
 2017-02-05 03:09:04.579772+01 | 1486260544.57977 | pgbench_accounts_pkey |       2246197248

 2017-02-05 03:09:05.668849+01 | 1486260545.66885 | pgbench_branches_pkey |            40960
 2017-02-05 03:09:05.668849+01 | 1486260545.66885 | pgbench_tellers_pkey  |           245760
 2017-02-05 03:09:05.668849+01 | 1486260545.66885 | pgbench_accounts_pkey |       2246197248

 2017-02-05 03:09:06.757993+01 | 1486260546.75799 | pgbench_branches_pkey |            40960
 2017-02-05 03:09:06.757993+01 | 1486260546.75799 | pgbench_tellers_pkey  |           245760
 2017-02-05 03:09:06.757993+01 | 1486260546.75799 | pgbench_accounts_pkey |       2246197248

 2017-02-05 03:09:07.853663+01 | 1486260547.85366 | pgbench_branches_pkey |            40960
 2017-02-05 03:09:07.853663+01 | 1486260547.85366 | pgbench_tellers_pkey  |           245760
 2017-02-05 03:09:07.853663+01 | 1486260547.85366 | pgbench_accounts_pkey |       2246197248

 2017-02-05 03:09:08.936976+01 | 1486260548.93698 | pgbench_branches_pkey |            40960
 2017-02-05 03:09:08.936976+01 | 1486260548.93698 | pgbench_tellers_pkey  |           245760
 2017-02-05 03:09:08.936976+01 | 1486260548.93698 | pgbench_accounts_pkey |       2246197248

 2017-02-05 03:09:10.017187+01 | 1486260550.01719 | pgbench_branches_pkey |            40960
 2017-02-05 03:09:10.017187+01 | 1486260550.01719 | pgbench_tellers_pkey  |           245760
 2017-02-05 03:09:10.017187+01 | 1486260550.01719 | pgbench_accounts_pkey |       2246197248

 2017-02-05 03:09:11.097582+01 | 1486260551.09758 | pgbench_branches_pkey |            40960
 2017-02-05 03:09:11.097582+01 | 1486260551.09758 | pgbench_tellers_pkey  |           245760
 2017-02-05 03:09:11.097582+01 | 1486260551.09758 | pgbench_accounts_pkey |       2246197248

 2017-02-05 03:09:12.164476+01 | 1486260552.16448 | pgbench_branches_pkey |            40960
 2017-02-05 03:09:12.164476+01 | 1486260552.16448 | pgbench_tellers_pkey  |           245760
 2017-02-05 03:09:12.164476+01 | 1486260552.16448 | pgbench_accounts_pkey |       2246197248

 2017-02-05 03:09:13.247802+01 | 1486260553.2478 | pgbench_branches_pkey |            40960
 2017-02-05 03:09:13.247802+01 | 1486260553.2478 | pgbench_tellers_pkey  |           245760
 2017-02-05 03:09:13.247802+01 | 1486260553.2478 | pgbench_accounts_pkey |       2246197248

 2017-02-05 03:09:14.33754+01 | 1486260554.33754 | pgbench_branches_pkey |            40960
 2017-02-05 03:09:14.33754+01 | 1486260554.33754 | pgbench_tellers_pkey  |           245760
 2017-02-05 03:09:14.33754+01 | 1486260554.33754 | pgbench_accounts_pkey |       2246197248

 2017-02-05 03:09:15.424722+01 | 1486260555.42472 | pgbench_branches_pkey |            40960
 2017-02-05 03:09:15.424722+01 | 1486260555.42472 | pgbench_tellers_pkey  |           245760
 2017-02-05 03:09:15.424722+01 | 1486260555.42472 | pgbench_accounts_pkey |       2246197248

 2017-02-05 03:09:16.512998+01 | 1486260556.513 | pgbench_branches_pkey |            40960
 2017-02-05 03:09:16.512998+01 | 1486260556.513 | pgbench_tellers_pkey  |           245760
 2017-02-05 03:09:16.512998+01 | 1486260556.513 | pgbench_accounts_pkey |       2246197248

 2017-02-05 03:09:17.598645+01 | 1486260557.59864 | pgbench_branches_pkey |            40960
 2017-02-05 03:09:17.598645+01 | 1486260557.59864 | pgbench_tellers_pkey  |           245760
 2017-02-05 03:09:17.598645+01 | 1486260557.59864 | pgbench_accounts_pkey |       2246197248

 2017-02-05 03:09:18.678471+01 | 1486260558.67847 | pgbench_branches_pkey |            40960
 2017-02-05 03:09:18.678471+01 | 1486260558.67847 | pgbench_tellers_pkey  |           245760
 2017-02-05 03:09:18.678471+01 | 1486260558.67847 | pgbench_accounts_pkey |       2246197248

 2017-02-05 03:09:19.775784+01 | 1486260559.77578 | pgbench_branches_pkey |            40960
 2017-02-05 03:09:19.775784+01 | 1486260559.77578 | pgbench_tellers_pkey  |           245760
 2017-02-05 03:09:19.775784+01 | 1486260559.77578 | pgbench_accounts_pkey |       2246197248

 2017-02-05 03:09:20.864961+01 | 1486260560.86496 | pgbench_branches_pkey |            40960
 2017-02-05 03:09:20.864961+01 | 1486260560.86496 | pgbench_tellers_pkey  |           245760
 2017-02-05 03:09:20.864961+01 | 1486260560.86496 | pgbench_accounts_pkey |       2246197248

 2017-02-05 03:09:21.946171+01 | 1486260561.94617 | pgbench_branches_pkey |            40960
 2017-02-05 03:09:21.946171+01 | 1486260561.94617 | pgbench_tellers_pkey  |           245760
 2017-02-05 03:09:21.946171+01 | 1486260561.94617 | pgbench_accounts_pkey |       2246197248

 2017-02-05 03:09:23.032438+01 | 1486260563.03244 | pgbench_branches_pkey |            40960
 2017-02-05 03:09:23.032438+01 | 1486260563.03244 | pgbench_tellers_pkey  |           245760
 2017-02-05 03:09:23.032438+01 | 1486260563.03244 | pgbench_accounts_pkey |       2246197248

 2017-02-05 03:09:24.114439+01 | 1486260564.11444 | pgbench_branches_pkey |            40960
 2017-02-05 03:09:24.114439+01 | 1486260564.11444 | pgbench_tellers_pkey  |           245760
 2017-02-05 03:09:24.114439+01 | 1486260564.11444 | pgbench_accounts_pkey |       2246197248

 2017-02-05 03:09:25.187181+01 | 1486260565.18718 | pgbench_branches_pkey |            40960
 2017-02-05 03:09:25.187181+01 | 1486260565.18718 | pgbench_tellers_pkey  |           245760
 2017-02-05 03:09:25.187181+01 | 1486260565.18718 | pgbench_accounts_pkey |       2246197248

 2017-02-05 03:09:26.273154+01 | 1486260566.27315 | pgbench_branches_pkey |            40960
 2017-02-05 03:09:26.273154+01 | 1486260566.27315 | pgbench_tellers_pkey  |           245760
 2017-02-05 03:09:26.273154+01 | 1486260566.27315 | pgbench_accounts_pkey |       2246197248

 2017-02-05 03:09:27.340796+01 | 1486260567.3408 | pgbench_branches_pkey |            40960
 2017-02-05 03:09:27.340796+01 | 1486260567.3408 | pgbench_tellers_pkey  |           245760
 2017-02-05 03:09:27.340796+01 | 1486260567.3408 | pgbench_accounts_pkey |       2246197248

 2017-02-05 03:09:28.426543+01 | 1486260568.42654 | pgbench_branches_pkey |            40960
 2017-02-05 03:09:28.426543+01 | 1486260568.42654 | pgbench_tellers_pkey  |           245760
 2017-02-05 03:09:28.426543+01 | 1486260568.42654 | pgbench_accounts_pkey |       2246197248

 2017-02-05 03:09:29.518322+01 | 1486260569.51832 | pgbench_branches_pkey |            40960
 2017-02-05 03:09:29.518322+01 | 1486260569.51832 | pgbench_tellers_pkey  |           245760
 2017-02-05 03:09:29.518322+01 | 1486260569.51832 | pgbench_accounts_pkey |       2246197248

 2017-02-05 03:09:30.602182+01 | 1486260570.60218 | pgbench_branches_pkey |            40960
 2017-02-05 03:09:30.602182+01 | 1486260570.60218 | pgbench_tellers_pkey  |           245760
 2017-02-05 03:09:30.602182+01 | 1486260570.60218 | pgbench_accounts_pkey |       2246197248

 2017-02-05 03:09:31.691467+01 | 1486260571.69147 | pgbench_branches_pkey |            40960
 2017-02-05 03:09:31.691467+01 | 1486260571.69147 | pgbench_tellers_pkey  |           245760
 2017-02-05 03:09:31.691467+01 | 1486260571.69147 | pgbench_accounts_pkey |       2246197248

 2017-02-05 03:09:32.787807+01 | 1486260572.78781 | pgbench_branches_pkey |            40960
 2017-02-05 03:09:32.787807+01 | 1486260572.78781 | pgbench_tellers_pkey  |           245760
 2017-02-05 03:09:32.787807+01 | 1486260572.78781 | pgbench_accounts_pkey |       2246197248

 2017-02-05 03:09:33.873026+01 | 1486260573.87303 | pgbench_branches_pkey |            40960
 2017-02-05 03:09:33.873026+01 | 1486260573.87303 | pgbench_tellers_pkey  |           245760
 2017-02-05 03:09:33.873026+01 | 1486260573.87303 | pgbench_accounts_pkey |       2246197248

 2017-02-05 03:09:34.956782+01 | 1486260574.95678 | pgbench_branches_pkey |            40960
 2017-02-05 03:09:34.956782+01 | 1486260574.95678 | pgbench_tellers_pkey  |           245760
 2017-02-05 03:09:34.956782+01 | 1486260574.95678 | pgbench_accounts_pkey |       2246197248

 2017-02-05 03:09:36.038667+01 | 1486260576.03867 | pgbench_branches_pkey |            40960
 2017-02-05 03:09:36.038667+01 | 1486260576.03867 | pgbench_tellers_pkey  |           245760
 2017-02-05 03:09:36.038667+01 | 1486260576.03867 | pgbench_accounts_pkey |       2246197248

 2017-02-05 03:09:37.123189+01 | 1486260577.12319 | pgbench_branches_pkey |            40960
 2017-02-05 03:09:37.123189+01 | 1486260577.12319 | pgbench_tellers_pkey  |           245760
 2017-02-05 03:09:37.123189+01 | 1486260577.12319 | pgbench_accounts_pkey |       2246197248

 2017-02-05 03:09:38.203181+01 | 1486260578.20318 | pgbench_branches_pkey |            40960
 2017-02-05 03:09:38.203181+01 | 1486260578.20318 | pgbench_tellers_pkey  |           245760
 2017-02-05 03:09:38.203181+01 | 1486260578.20318 | pgbench_accounts_pkey |       2246197248

 2017-02-05 03:09:39.283712+01 | 1486260579.28371 | pgbench_branches_pkey |            40960
 2017-02-05 03:09:39.283712+01 | 1486260579.28371 | pgbench_tellers_pkey  |           245760
 2017-02-05 03:09:39.283712+01 | 1486260579.28371 | pgbench_accounts_pkey |       2246197248

 2017-02-05 03:09:40.360394+01 | 1486260580.36039 | pgbench_branches_pkey |            40960
 2017-02-05 03:09:40.360394+01 | 1486260580.36039 | pgbench_tellers_pkey  |           245760
 2017-02-05 03:09:40.360394+01 | 1486260580.36039 | pgbench_accounts_pkey |       2246197248

 2017-02-05 03:09:41.427702+01 | 1486260581.4277 | pgbench_branches_pkey |            40960
 2017-02-05 03:09:41.427702+01 | 1486260581.4277 | pgbench_tellers_pkey  |           245760
 2017-02-05 03:09:41.427702+01 | 1486260581.4277 | pgbench_accounts_pkey |       2246197248

 2017-02-05 03:09:42.508678+01 | 1486260582.50868 | pgbench_branches_pkey |            40960
 2017-02-05 03:09:42.508678+01 | 1486260582.50868 | pgbench_tellers_pkey  |           245760
 2017-02-05 03:09:42.508678+01 | 1486260582.50868 | pgbench_accounts_pkey |       2246197248

 2017-02-05 03:09:43.608078+01 | 1486260583.60808 | pgbench_branches_pkey |            40960
 2017-02-05 03:09:43.608078+01 | 1486260583.60808 | pgbench_tellers_pkey  |           245760
 2017-02-05 03:09:43.608078+01 | 1486260583.60808 | pgbench_accounts_pkey |       2246197248

 2017-02-05 03:09:44.685332+01 | 1486260584.68533 | pgbench_branches_pkey |            40960
 2017-02-05 03:09:44.685332+01 | 1486260584.68533 | pgbench_tellers_pkey  |           245760
 2017-02-05 03:09:44.685332+01 | 1486260584.68533 | pgbench_accounts_pkey |       2246197248

 2017-02-05 03:09:45.752628+01 | 1486260585.75263 | pgbench_branches_pkey |            40960
 2017-02-05 03:09:45.752628+01 | 1486260585.75263 | pgbench_tellers_pkey  |           245760
 2017-02-05 03:09:45.752628+01 | 1486260585.75263 | pgbench_accounts_pkey |       2246197248

 2017-02-05 03:09:46.820296+01 | 1486260586.8203 | pgbench_branches_pkey |            40960
 2017-02-05 03:09:46.820296+01 | 1486260586.8203 | pgbench_tellers_pkey  |           245760
 2017-02-05 03:09:46.820296+01 | 1486260586.8203 | pgbench_accounts_pkey |       2246197248

 2017-02-05 03:09:47.902539+01 | 1486260587.90254 | pgbench_branches_pkey |            40960
 2017-02-05 03:09:47.902539+01 | 1486260587.90254 | pgbench_tellers_pkey  |           245760
 2017-02-05 03:09:47.902539+01 | 1486260587.90254 | pgbench_accounts_pkey |       2246197248

 2017-02-05 03:09:48.976277+01 | 1486260588.97628 | pgbench_branches_pkey |            40960
 2017-02-05 03:09:48.976277+01 | 1486260588.97628 | pgbench_tellers_pkey  |           245760
 2017-02-05 03:09:48.976277+01 | 1486260588.97628 | pgbench_accounts_pkey |       2246197248

 2017-02-05 03:09:50.054392+01 | 1486260590.05439 | pgbench_branches_pkey |            40960
 2017-02-05 03:09:50.054392+01 | 1486260590.05439 | pgbench_tellers_pkey  |           245760
 2017-02-05 03:09:50.054392+01 | 1486260590.05439 | pgbench_accounts_pkey |       2246197248

 2017-02-05 03:09:51.132735+01 | 1486260591.13274 | pgbench_branches_pkey |            40960
 2017-02-05 03:09:51.132735+01 | 1486260591.13274 | pgbench_tellers_pkey  |           245760
 2017-02-05 03:09:51.132735+01 | 1486260591.13274 | pgbench_accounts_pkey |       2246197248

 2017-02-05 03:09:52.223911+01 | 1486260592.22391 | pgbench_branches_pkey |            40960
 2017-02-05 03:09:52.223911+01 | 1486260592.22391 | pgbench_tellers_pkey  |           245760
 2017-02-05 03:09:52.223911+01 | 1486260592.22391 | pgbench_accounts_pkey |       2246197248

 2017-02-05 03:09:53.307924+01 | 1486260593.30792 | pgbench_branches_pkey |            40960
 2017-02-05 03:09:53.307924+01 | 1486260593.30792 | pgbench_tellers_pkey  |           245760
 2017-02-05 03:09:53.307924+01 | 1486260593.30792 | pgbench_accounts_pkey |       2246197248

 2017-02-05 03:09:54.39783+01 | 1486260594.39783 | pgbench_branches_pkey |            40960
 2017-02-05 03:09:54.39783+01 | 1486260594.39783 | pgbench_tellers_pkey  |           245760
 2017-02-05 03:09:54.39783+01 | 1486260594.39783 | pgbench_accounts_pkey |       2246197248

 2017-02-05 03:09:55.487049+01 | 1486260595.48705 | pgbench_branches_pkey |            40960
 2017-02-05 03:09:55.487049+01 | 1486260595.48705 | pgbench_tellers_pkey  |           245760
 2017-02-05 03:09:55.487049+01 | 1486260595.48705 | pgbench_accounts_pkey |       2246197248

 2017-02-05 03:09:56.586276+01 | 1486260596.58628 | pgbench_branches_pkey |            40960
 2017-02-05 03:09:56.586276+01 | 1486260596.58628 | pgbench_tellers_pkey  |           245760
 2017-02-05 03:09:56.586276+01 | 1486260596.58628 | pgbench_accounts_pkey |       2246197248

 2017-02-05 03:09:57.681289+01 | 1486260597.68129 | pgbench_branches_pkey |            40960
 2017-02-05 03:09:57.681289+01 | 1486260597.68129 | pgbench_tellers_pkey  |           245760
 2017-02-05 03:09:57.681289+01 | 1486260597.68129 | pgbench_accounts_pkey |       2246197248

 2017-02-05 03:09:58.752088+01 | 1486260598.75209 | pgbench_branches_pkey |            40960
 2017-02-05 03:09:58.752088+01 | 1486260598.75209 | pgbench_tellers_pkey  |           245760
 2017-02-05 03:09:58.752088+01 | 1486260598.75209 | pgbench_accounts_pkey |       2246197248

 2017-02-05 03:09:59.831001+01 | 1486260599.831 | pgbench_branches_pkey |            40960
 2017-02-05 03:09:59.831001+01 | 1486260599.831 | pgbench_tellers_pkey  |           245760
 2017-02-05 03:09:59.831001+01 | 1486260599.831 | pgbench_accounts_pkey |       2246197248

 2017-02-05 03:10:00.924317+01 | 1486260600.92432 | pgbench_branches_pkey |            40960
 2017-02-05 03:10:00.924317+01 | 1486260600.92432 | pgbench_tellers_pkey  |           245760
 2017-02-05 03:10:00.924317+01 | 1486260600.92432 | pgbench_accounts_pkey |       2246197248

 2017-02-05 03:10:02.007857+01 | 1486260602.00786 | pgbench_branches_pkey |            40960
 2017-02-05 03:10:02.007857+01 | 1486260602.00786 | pgbench_tellers_pkey  |           245760
 2017-02-05 03:10:02.007857+01 | 1486260602.00786 | pgbench_accounts_pkey |       2246197248

 2017-02-05 03:10:03.096676+01 | 1486260603.09668 | pgbench_branches_pkey |            40960
 2017-02-05 03:10:03.096676+01 | 1486260603.09668 | pgbench_tellers_pkey  |           245760
 2017-02-05 03:10:03.096676+01 | 1486260603.09668 | pgbench_accounts_pkey |       2246197248

 2017-02-05 03:10:04.177105+01 | 1486260604.1771 | pgbench_branches_pkey |            40960
 2017-02-05 03:10:04.177105+01 | 1486260604.1771 | pgbench_tellers_pkey  |           245760
 2017-02-05 03:10:04.177105+01 | 1486260604.1771 | pgbench_accounts_pkey |       2246197248

 2017-02-05 03:10:05.260714+01 | 1486260605.26071 | pgbench_branches_pkey |            40960
 2017-02-05 03:10:05.260714+01 | 1486260605.26071 | pgbench_tellers_pkey  |           245760
 2017-02-05 03:10:05.260714+01 | 1486260605.26071 | pgbench_accounts_pkey |       2246197248

 2017-02-05 03:10:06.350035+01 | 1486260606.35003 | pgbench_branches_pkey |            40960
 2017-02-05 03:10:06.350035+01 | 1486260606.35003 | pgbench_tellers_pkey  |           245760
 2017-02-05 03:10:06.350035+01 | 1486260606.35003 | pgbench_accounts_pkey |       2246197248

 2017-02-05 03:10:07.438702+01 | 1486260607.4387 | pgbench_branches_pkey |            40960
 2017-02-05 03:10:07.438702+01 | 1486260607.4387 | pgbench_tellers_pkey  |           245760
 2017-02-05 03:10:07.438702+01 | 1486260607.4387 | pgbench_accounts_pkey |       2246197248

 2017-02-05 03:10:08.509908+01 | 1486260608.50991 | pgbench_branches_pkey |            40960
 2017-02-05 03:10:08.509908+01 | 1486260608.50991 | pgbench_tellers_pkey  |           245760
 2017-02-05 03:10:08.509908+01 | 1486260608.50991 | pgbench_accounts_pkey |       2246197248

 2017-02-05 03:10:09.589403+01 | 1486260609.5894 | pgbench_branches_pkey |            40960
 2017-02-05 03:10:09.589403+01 | 1486260609.5894 | pgbench_tellers_pkey  |           245760
 2017-02-05 03:10:09.589403+01 | 1486260609.5894 | pgbench_accounts_pkey |       2246197248

 2017-02-05 03:10:10.673098+01 | 1486260610.6731 | pgbench_branches_pkey |            40960
 2017-02-05 03:10:10.673098+01 | 1486260610.6731 | pgbench_tellers_pkey  |           245760
 2017-02-05 03:10:10.673098+01 | 1486260610.6731 | pgbench_accounts_pkey |       2246197248

 2017-02-05 03:10:11.761072+01 | 1486260611.76107 | pgbench_branches_pkey |            40960
 2017-02-05 03:10:11.761072+01 | 1486260611.76107 | pgbench_tellers_pkey  |           245760
 2017-02-05 03:10:11.761072+01 | 1486260611.76107 | pgbench_accounts_pkey |       2246197248

 2017-02-05 03:10:12.847394+01 | 1486260612.84739 | pgbench_branches_pkey |            40960
 2017-02-05 03:10:12.847394+01 | 1486260612.84739 | pgbench_tellers_pkey  |           245760
 2017-02-05 03:10:12.847394+01 | 1486260612.84739 | pgbench_accounts_pkey |       2246197248

 2017-02-05 03:10:13.943492+01 | 1486260613.94349 | pgbench_branches_pkey |            40960
 2017-02-05 03:10:13.943492+01 | 1486260613.94349 | pgbench_tellers_pkey  |           245760
 2017-02-05 03:10:13.943492+01 | 1486260613.94349 | pgbench_accounts_pkey |       2246197248

 2017-02-05 03:10:15.026655+01 | 1486260615.02665 | pgbench_branches_pkey |            40960
 2017-02-05 03:10:15.026655+01 | 1486260615.02665 | pgbench_tellers_pkey  |           245760
 2017-02-05 03:10:15.026655+01 | 1486260615.02665 | pgbench_accounts_pkey |       2246197248

 2017-02-05 03:10:16.110658+01 | 1486260616.11066 | pgbench_branches_pkey |            40960
 2017-02-05 03:10:16.110658+01 | 1486260616.11066 | pgbench_tellers_pkey  |           245760
 2017-02-05 03:10:16.110658+01 | 1486260616.11066 | pgbench_accounts_pkey |       2246197248

 2017-02-05 03:10:17.19908+01 | 1486260617.19908 | pgbench_branches_pkey |            40960
 2017-02-05 03:10:17.19908+01 | 1486260617.19908 | pgbench_tellers_pkey  |           245760
 2017-02-05 03:10:17.19908+01 | 1486260617.19908 | pgbench_accounts_pkey |       2246197248

 2017-02-05 03:10:18.274573+01 | 1486260618.27457 | pgbench_branches_pkey |            40960
 2017-02-05 03:10:18.274573+01 | 1486260618.27457 | pgbench_tellers_pkey  |           245760
 2017-02-05 03:10:18.274573+01 | 1486260618.27457 | pgbench_accounts_pkey |       2246197248

 2017-02-05 03:10:19.358641+01 | 1486260619.35864 | pgbench_branches_pkey |            40960
 2017-02-05 03:10:19.358641+01 | 1486260619.35864 | pgbench_tellers_pkey  |           245760
 2017-02-05 03:10:19.358641+01 | 1486260619.35864 | pgbench_accounts_pkey |       2246197248

 2017-02-05 03:10:20.43227+01 | 1486260620.43227 | pgbench_branches_pkey |            40960
 2017-02-05 03:10:20.43227+01 | 1486260620.43227 | pgbench_tellers_pkey  |           245760
 2017-02-05 03:10:20.43227+01 | 1486260620.43227 | pgbench_accounts_pkey |       2246197248

 2017-02-05 03:10:21.516356+01 | 1486260621.51636 | pgbench_branches_pkey |            40960
 2017-02-05 03:10:21.516356+01 | 1486260621.51636 | pgbench_tellers_pkey  |           245760
 2017-02-05 03:10:21.516356+01 | 1486260621.51636 | pgbench_accounts_pkey |       2246197248

 2017-02-05 03:10:22.600754+01 | 1486260622.60075 | pgbench_branches_pkey |            40960
 2017-02-05 03:10:22.600754+01 | 1486260622.60075 | pgbench_tellers_pkey  |           245760
 2017-02-05 03:10:22.600754+01 | 1486260622.60075 | pgbench_accounts_pkey |       2246197248

 2017-02-05 03:10:23.686279+01 | 1486260623.68628 | pgbench_branches_pkey |            40960
 2017-02-05 03:10:23.686279+01 | 1486260623.68628 | pgbench_tellers_pkey  |           245760
 2017-02-05 03:10:23.686279+01 | 1486260623.68628 | pgbench_accounts_pkey |       2246197248

 2017-02-05 03:10:24.769601+01 | 1486260624.7696 | pgbench_branches_pkey |            40960
 2017-02-05 03:10:24.769601+01 | 1486260624.7696 | pgbench_tellers_pkey  |           245760
 2017-02-05 03:10:24.769601+01 | 1486260624.7696 | pgbench_accounts_pkey |       2246197248

 2017-02-05 03:10:25.856875+01 | 1486260625.85687 | pgbench_branches_pkey |            40960
 2017-02-05 03:10:25.856875+01 | 1486260625.85687 | pgbench_tellers_pkey  |           245760
 2017-02-05 03:10:25.856875+01 | 1486260625.85687 | pgbench_accounts_pkey |       2246197248

 2017-02-05 03:10:26.950885+01 | 1486260626.95089 | pgbench_branches_pkey |            40960
 2017-02-05 03:10:26.950885+01 | 1486260626.95089 | pgbench_tellers_pkey  |           245760
 2017-02-05 03:10:26.950885+01 | 1486260626.95089 | pgbench_accounts_pkey |       2246197248

 2017-02-05 03:10:28.021428+01 | 1486260628.02143 | pgbench_branches_pkey |            40960
 2017-02-05 03:10:28.021428+01 | 1486260628.02143 | pgbench_tellers_pkey  |           245760
 2017-02-05 03:10:28.021428+01 | 1486260628.02143 | pgbench_accounts_pkey |       2246197248

 2017-02-05 03:10:29.104474+01 | 1486260629.10447 | pgbench_branches_pkey |            40960
 2017-02-05 03:10:29.104474+01 | 1486260629.10447 | pgbench_tellers_pkey  |           245760
 2017-02-05 03:10:29.104474+01 | 1486260629.10447 | pgbench_accounts_pkey |       2246197248

 2017-02-05 03:10:30.194419+01 | 1486260630.19442 | pgbench_branches_pkey |            40960
 2017-02-05 03:10:30.194419+01 | 1486260630.19442 | pgbench_tellers_pkey  |           245760
 2017-02-05 03:10:30.194419+01 | 1486260630.19442 | pgbench_accounts_pkey |       2246197248

 2017-02-05 03:10:31.277412+01 | 1486260631.27741 | pgbench_branches_pkey |            40960
 2017-02-05 03:10:31.277412+01 | 1486260631.27741 | pgbench_tellers_pkey  |           245760
 2017-02-05 03:10:31.277412+01 | 1486260631.27741 | pgbench_accounts_pkey |       2246197248

 2017-02-05 03:10:32.369052+01 | 1486260632.36905 | pgbench_branches_pkey |            40960
 2017-02-05 03:10:32.369052+01 | 1486260632.36905 | pgbench_tellers_pkey  |           245760
 2017-02-05 03:10:32.369052+01 | 1486260632.36905 | pgbench_accounts_pkey |       2246197248

 2017-02-05 03:10:33.452466+01 | 1486260633.45247 | pgbench_branches_pkey |            40960
 2017-02-05 03:10:33.452466+01 | 1486260633.45247 | pgbench_tellers_pkey  |           245760
 2017-02-05 03:10:33.452466+01 | 1486260633.45247 | pgbench_accounts_pkey |       2246197248

 2017-02-05 03:10:34.538443+01 | 1486260634.53844 | pgbench_branches_pkey |            40960
 2017-02-05 03:10:34.538443+01 | 1486260634.53844 | pgbench_tellers_pkey  |           245760
 2017-02-05 03:10:34.538443+01 | 1486260634.53844 | pgbench_accounts_pkey |       2246197248

 2017-02-05 03:10:35.625914+01 | 1486260635.62591 | pgbench_branches_pkey |            40960
 2017-02-05 03:10:35.625914+01 | 1486260635.62591 | pgbench_tellers_pkey  |           245760
 2017-02-05 03:10:35.625914+01 | 1486260635.62591 | pgbench_accounts_pkey |       2246197248

 2017-02-05 03:10:36.717717+01 | 1486260636.71772 | pgbench_branches_pkey |            40960
 2017-02-05 03:10:36.717717+01 | 1486260636.71772 | pgbench_tellers_pkey  |           245760
 2017-02-05 03:10:36.717717+01 | 1486260636.71772 | pgbench_accounts_pkey |       2246197248

 2017-02-05 03:10:37.795977+01 | 1486260637.79598 | pgbench_branches_pkey |            40960
 2017-02-05 03:10:37.795977+01 | 1486260637.79598 | pgbench_tellers_pkey  |           245760
 2017-02-05 03:10:37.795977+01 | 1486260637.79598 | pgbench_accounts_pkey |       2246197248

 2017-02-05 03:10:38.879622+01 | 1486260638.87962 | pgbench_branches_pkey |            40960
 2017-02-05 03:10:38.879622+01 | 1486260638.87962 | pgbench_tellers_pkey  |           245760
 2017-02-05 03:10:38.879622+01 | 1486260638.87962 | pgbench_accounts_pkey |       2246197248

 2017-02-05 03:10:39.955923+01 | 1486260639.95592 | pgbench_branches_pkey |            40960
 2017-02-05 03:10:39.955923+01 | 1486260639.95592 | pgbench_tellers_pkey  |           245760
 2017-02-05 03:10:39.955923+01 | 1486260639.95592 | pgbench_accounts_pkey |       2246197248

 2017-02-05 03:10:41.03871+01 | 1486260641.03871 | pgbench_branches_pkey |            40960
 2017-02-05 03:10:41.03871+01 | 1486260641.03871 | pgbench_tellers_pkey  |           245760
 2017-02-05 03:10:41.03871+01 | 1486260641.03871 | pgbench_accounts_pkey |       2246197248

 2017-02-05 03:10:42.11822+01 | 1486260642.11822 | pgbench_branches_pkey |            40960
 2017-02-05 03:10:42.11822+01 | 1486260642.11822 | pgbench_tellers_pkey  |           245760
 2017-02-05 03:10:42.11822+01 | 1486260642.11822 | pgbench_accounts_pkey |       2246197248

 2017-02-05 03:10:43.197588+01 | 1486260643.19759 | pgbench_branches_pkey |            40960
 2017-02-05 03:10:43.197588+01 | 1486260643.19759 | pgbench_tellers_pkey  |           245760
 2017-02-05 03:10:43.197588+01 | 1486260643.19759 | pgbench_accounts_pkey |       2246197248

 2017-02-05 03:10:44.283444+01 | 1486260644.28344 | pgbench_branches_pkey |            40960
 2017-02-05 03:10:44.283444+01 | 1486260644.28344 | pgbench_tellers_pkey  |           245760
 2017-02-05 03:10:44.283444+01 | 1486260644.28344 | pgbench_accounts_pkey |       2246197248

 2017-02-05 03:10:45.359493+01 | 1486260645.35949 | pgbench_branches_pkey |            40960
 2017-02-05 03:10:45.359493+01 | 1486260645.35949 | pgbench_tellers_pkey  |           245760
 2017-02-05 03:10:45.359493+01 | 1486260645.35949 | pgbench_accounts_pkey |       2246197248

 2017-02-05 03:10:46.445093+01 | 1486260646.44509 | pgbench_branches_pkey |            40960
 2017-02-05 03:10:46.445093+01 | 1486260646.44509 | pgbench_tellers_pkey  |           245760
 2017-02-05 03:10:46.445093+01 | 1486260646.44509 | pgbench_accounts_pkey |       2246197248

 2017-02-05 03:10:47.52809+01 | 1486260647.52809 | pgbench_branches_pkey |            40960
 2017-02-05 03:10:47.52809+01 | 1486260647.52809 | pgbench_tellers_pkey  |           245760
 2017-02-05 03:10:47.52809+01 | 1486260647.52809 | pgbench_accounts_pkey |       2246197248

 2017-02-05 03:10:48.61536+01 | 1486260648.61536 | pgbench_branches_pkey |            40960
 2017-02-05 03:10:48.61536+01 | 1486260648.61536 | pgbench_tellers_pkey  |           245760
 2017-02-05 03:10:48.61536+01 | 1486260648.61536 | pgbench_accounts_pkey |       2246197248

 2017-02-05 03:10:49.704658+01 | 1486260649.70466 | pgbench_branches_pkey |            40960
 2017-02-05 03:10:49.704658+01 | 1486260649.70466 | pgbench_tellers_pkey  |           245760
 2017-02-05 03:10:49.704658+01 | 1486260649.70466 | pgbench_accounts_pkey |       2246197248

 2017-02-05 03:10:50.778833+01 | 1486260650.77883 | pgbench_branches_pkey |            40960
 2017-02-05 03:10:50.778833+01 | 1486260650.77883 | pgbench_tellers_pkey  |           245760
 2017-02-05 03:10:50.778833+01 | 1486260650.77883 | pgbench_accounts_pkey |       2246197248

 2017-02-05 03:10:51.868806+01 | 1486260651.86881 | pgbench_branches_pkey |            40960
 2017-02-05 03:10:51.868806+01 | 1486260651.86881 | pgbench_tellers_pkey  |           245760
 2017-02-05 03:10:51.868806+01 | 1486260651.86881 | pgbench_accounts_pkey |       2246197248

 2017-02-05 03:10:52.946626+01 | 1486260652.94663 | pgbench_branches_pkey |            40960
 2017-02-05 03:10:52.946626+01 | 1486260652.94663 | pgbench_tellers_pkey  |           245760
 2017-02-05 03:10:52.946626+01 | 1486260652.94663 | pgbench_accounts_pkey |       2246197248

 2017-02-05 03:10:54.037271+01 | 1486260654.03727 | pgbench_branches_pkey |            40960
 2017-02-05 03:10:54.037271+01 | 1486260654.03727 | pgbench_tellers_pkey  |           245760
 2017-02-05 03:10:54.037271+01 | 1486260654.03727 | pgbench_accounts_pkey |       2246197248

 2017-02-05 03:10:55.126995+01 | 1486260655.127 | pgbench_branches_pkey |            40960
 2017-02-05 03:10:55.126995+01 | 1486260655.127 | pgbench_tellers_pkey  |           245760
 2017-02-05 03:10:55.126995+01 | 1486260655.127 | pgbench_accounts_pkey |       2246197248

 2017-02-05 03:10:56.218279+01 | 1486260656.21828 | pgbench_branches_pkey |            40960
 2017-02-05 03:10:56.218279+01 | 1486260656.21828 | pgbench_tellers_pkey  |           245760
 2017-02-05 03:10:56.218279+01 | 1486260656.21828 | pgbench_accounts_pkey |       2246197248

 2017-02-05 03:10:57.29494+01 | 1486260657.29494 | pgbench_branches_pkey |            40960
 2017-02-05 03:10:57.29494+01 | 1486260657.29494 | pgbench_tellers_pkey  |           245760
 2017-02-05 03:10:57.29494+01 | 1486260657.29494 | pgbench_accounts_pkey |       2246197248

 2017-02-05 03:10:58.384582+01 | 1486260658.38458 | pgbench_branches_pkey |            40960
 2017-02-05 03:10:58.384582+01 | 1486260658.38458 | pgbench_tellers_pkey  |           245760
 2017-02-05 03:10:58.384582+01 | 1486260658.38458 | pgbench_accounts_pkey |       2246197248

 2017-02-05 03:10:59.469834+01 | 1486260659.46983 | pgbench_branches_pkey |            40960
 2017-02-05 03:10:59.469834+01 | 1486260659.46983 | pgbench_tellers_pkey  |           245760
 2017-02-05 03:10:59.469834+01 | 1486260659.46983 | pgbench_accounts_pkey |       2246197248

 2017-02-05 03:11:00.555909+01 | 1486260660.55591 | pgbench_branches_pkey |            40960
 2017-02-05 03:11:00.555909+01 | 1486260660.55591 | pgbench_tellers_pkey  |           245760
 2017-02-05 03:11:00.555909+01 | 1486260660.55591 | pgbench_accounts_pkey |       2246197248

 2017-02-05 03:11:01.638632+01 | 1486260661.63863 | pgbench_branches_pkey |            40960
 2017-02-05 03:11:01.638632+01 | 1486260661.63863 | pgbench_tellers_pkey  |           245760
 2017-02-05 03:11:01.638632+01 | 1486260661.63863 | pgbench_accounts_pkey |       2246197248

 2017-02-05 03:11:02.728891+01 | 1486260662.72889 | pgbench_branches_pkey |            40960
 2017-02-05 03:11:02.728891+01 | 1486260662.72889 | pgbench_tellers_pkey  |           245760
 2017-02-05 03:11:02.728891+01 | 1486260662.72889 | pgbench_accounts_pkey |       2246197248

 2017-02-05 03:11:03.824893+01 | 1486260663.82489 | pgbench_branches_pkey |            40960
 2017-02-05 03:11:03.824893+01 | 1486260663.82489 | pgbench_tellers_pkey  |           245760
 2017-02-05 03:11:03.824893+01 | 1486260663.82489 | pgbench_accounts_pkey |       2246197248

 2017-02-05 03:11:04.90544+01 | 1486260664.90544 | pgbench_branches_pkey |            40960
 2017-02-05 03:11:04.90544+01 | 1486260664.90544 | pgbench_tellers_pkey  |           245760
 2017-02-05 03:11:04.90544+01 | 1486260664.90544 | pgbench_accounts_pkey |       2246197248

 2017-02-05 03:11:05.997221+01 | 1486260665.99722 | pgbench_branches_pkey |            40960
 2017-02-05 03:11:05.997221+01 | 1486260665.99722 | pgbench_tellers_pkey  |           245760
 2017-02-05 03:11:05.997221+01 | 1486260665.99722 | pgbench_accounts_pkey |       2246197248

 2017-02-05 03:11:07.083152+01 | 1486260667.08315 | pgbench_branches_pkey |            40960
 2017-02-05 03:11:07.083152+01 | 1486260667.08315 | pgbench_tellers_pkey  |           245760
 2017-02-05 03:11:07.083152+01 | 1486260667.08315 | pgbench_accounts_pkey |       2246197248

 2017-02-05 03:11:08.162701+01 | 1486260668.1627 | pgbench_branches_pkey |            40960
 2017-02-05 03:11:08.162701+01 | 1486260668.1627 | pgbench_tellers_pkey  |           245760
 2017-02-05 03:11:08.162701+01 | 1486260668.1627 | pgbench_accounts_pkey |       2246197248

 2017-02-05 03:11:09.254056+01 | 1486260669.25406 | pgbench_branches_pkey |            40960
 2017-02-05 03:11:09.254056+01 | 1486260669.25406 | pgbench_tellers_pkey  |           245760
 2017-02-05 03:11:09.254056+01 | 1486260669.25406 | pgbench_accounts_pkey |       2246197248

 2017-02-05 03:11:10.336354+01 | 1486260670.33635 | pgbench_branches_pkey |            40960
 2017-02-05 03:11:10.336354+01 | 1486260670.33635 | pgbench_tellers_pkey  |           245760
 2017-02-05 03:11:10.336354+01 | 1486260670.33635 | pgbench_accounts_pkey |       2246197248

 2017-02-05 03:11:11.416824+01 | 1486260671.41682 | pgbench_branches_pkey |            40960
 2017-02-05 03:11:11.416824+01 | 1486260671.41682 | pgbench_tellers_pkey  |           245760
 2017-02-05 03:11:11.416824+01 | 1486260671.41682 | pgbench_accounts_pkey |       2246197248

 2017-02-05 03:11:12.48637+01 | 1486260672.48637 | pgbench_branches_pkey |            40960
 2017-02-05 03:11:12.48637+01 | 1486260672.48637 | pgbench_tellers_pkey  |           245760
 2017-02-05 03:11:12.48637+01 | 1486260672.48637 | pgbench_accounts_pkey |       2246197248

 2017-02-05 03:11:13.567786+01 | 1486260673.56779 | pgbench_branches_pkey |            40960
 2017-02-05 03:11:13.567786+01 | 1486260673.56779 | pgbench_tellers_pkey  |           245760
 2017-02-05 03:11:13.567786+01 | 1486260673.56779 | pgbench_accounts_pkey |       2246197248

 2017-02-05 03:11:14.641835+01 | 1486260674.64183 | pgbench_branches_pkey |            40960
 2017-02-05 03:11:14.641835+01 | 1486260674.64183 | pgbench_tellers_pkey  |           245760
 2017-02-05 03:11:14.641835+01 | 1486260674.64183 | pgbench_accounts_pkey |       2246197248

 2017-02-05 03:11:15.721281+01 | 1486260675.72128 | pgbench_branches_pkey |            40960
 2017-02-05 03:11:15.721281+01 | 1486260675.72128 | pgbench_tellers_pkey  |           245760
 2017-02-05 03:11:15.721281+01 | 1486260675.72128 | pgbench_accounts_pkey |       2246197248

 2017-02-05 03:11:16.808809+01 | 1486260676.80881 | pgbench_branches_pkey |            40960
 2017-02-05 03:11:16.808809+01 | 1486260676.80881 | pgbench_tellers_pkey  |           245760
 2017-02-05 03:11:16.808809+01 | 1486260676.80881 | pgbench_accounts_pkey |       2246197248

 2017-02-05 03:11:17.898086+01 | 1486260677.89809 | pgbench_branches_pkey |            40960
 2017-02-05 03:11:17.898086+01 | 1486260677.89809 | pgbench_tellers_pkey  |           245760
 2017-02-05 03:11:17.898086+01 | 1486260677.89809 | pgbench_accounts_pkey |       2246197248

 2017-02-05 03:11:18.981264+01 | 1486260678.98126 | pgbench_branches_pkey |            40960
 2017-02-05 03:11:18.981264+01 | 1486260678.98126 | pgbench_tellers_pkey  |           245760
 2017-02-05 03:11:18.981264+01 | 1486260678.98126 | pgbench_accounts_pkey |       2246197248

 2017-02-05 03:11:20.063033+01 | 1486260680.06303 | pgbench_branches_pkey |            40960
 2017-02-05 03:11:20.063033+01 | 1486260680.06303 | pgbench_tellers_pkey  |           245760
 2017-02-05 03:11:20.063033+01 | 1486260680.06303 | pgbench_accounts_pkey |       2246197248

 2017-02-05 03:11:21.14062+01 | 1486260681.14062 | pgbench_branches_pkey |            40960
 2017-02-05 03:11:21.14062+01 | 1486260681.14062 | pgbench_tellers_pkey  |           245760
 2017-02-05 03:11:21.14062+01 | 1486260681.14062 | pgbench_accounts_pkey |       2246197248

 2017-02-05 03:11:22.223754+01 | 1486260682.22375 | pgbench_branches_pkey |            40960
 2017-02-05 03:11:22.223754+01 | 1486260682.22375 | pgbench_tellers_pkey  |           245760
 2017-02-05 03:11:22.223754+01 | 1486260682.22375 | pgbench_accounts_pkey |       2246197248

 2017-02-05 03:11:23.306124+01 | 1486260683.30612 | pgbench_branches_pkey |            40960
 2017-02-05 03:11:23.306124+01 | 1486260683.30612 | pgbench_tellers_pkey  |           245760
 2017-02-05 03:11:23.306124+01 | 1486260683.30612 | pgbench_accounts_pkey |       2246197248

 2017-02-05 03:11:24.390216+01 | 1486260684.39022 | pgbench_branches_pkey |            40960
 2017-02-05 03:11:24.390216+01 | 1486260684.39022 | pgbench_tellers_pkey  |           245760
 2017-02-05 03:11:24.390216+01 | 1486260684.39022 | pgbench_accounts_pkey |       2246197248

 2017-02-05 03:11:25.481652+01 | 1486260685.48165 | pgbench_branches_pkey |            40960
 2017-02-05 03:11:25.481652+01 | 1486260685.48165 | pgbench_tellers_pkey  |           245760
 2017-02-05 03:11:25.481652+01 | 1486260685.48165 | pgbench_accounts_pkey |       2246197248

 2017-02-05 03:11:26.57765+01 | 1486260686.57765 | pgbench_branches_pkey |            40960
 2017-02-05 03:11:26.57765+01 | 1486260686.57765 | pgbench_tellers_pkey  |           245760
 2017-02-05 03:11:26.57765+01 | 1486260686.57765 | pgbench_accounts_pkey |       2246197248

 2017-02-05 03:11:27.651653+01 | 1486260687.65165 | pgbench_branches_pkey |            40960
 2017-02-05 03:11:27.651653+01 | 1486260687.65165 | pgbench_tellers_pkey  |           245760
 2017-02-05 03:11:27.651653+01 | 1486260687.65165 | pgbench_accounts_pkey |       2246197248

 2017-02-05 03:11:28.724595+01 | 1486260688.7246 | pgbench_branches_pkey |            40960
 2017-02-05 03:11:28.724595+01 | 1486260688.7246 | pgbench_tellers_pkey  |           245760
 2017-02-05 03:11:28.724595+01 | 1486260688.7246 | pgbench_accounts_pkey |       2246197248

 2017-02-05 03:11:29.81633+01 | 1486260689.81633 | pgbench_branches_pkey |            40960
 2017-02-05 03:11:29.81633+01 | 1486260689.81633 | pgbench_tellers_pkey  |           245760
 2017-02-05 03:11:29.81633+01 | 1486260689.81633 | pgbench_accounts_pkey |       2246197248

 2017-02-05 03:11:30.910263+01 | 1486260690.91026 | pgbench_branches_pkey |            40960
 2017-02-05 03:11:30.910263+01 | 1486260690.91026 | pgbench_tellers_pkey  |           245760
 2017-02-05 03:11:30.910263+01 | 1486260690.91026 | pgbench_accounts_pkey |       2246197248

 2017-02-05 03:11:32.003148+01 | 1486260692.00315 | pgbench_branches_pkey |            40960
 2017-02-05 03:11:32.003148+01 | 1486260692.00315 | pgbench_tellers_pkey  |           245760
 2017-02-05 03:11:32.003148+01 | 1486260692.00315 | pgbench_accounts_pkey |       2246197248

 2017-02-05 03:11:33.092832+01 | 1486260693.09283 | pgbench_branches_pkey |            40960
 2017-02-05 03:11:33.092832+01 | 1486260693.09283 | pgbench_tellers_pkey  |           245760
 2017-02-05 03:11:33.092832+01 | 1486260693.09283 | pgbench_accounts_pkey |       2246197248

 2017-02-05 03:11:34.172494+01 | 1486260694.17249 | pgbench_branches_pkey |            40960
 2017-02-05 03:11:34.172494+01 | 1486260694.17249 | pgbench_tellers_pkey  |           245760
 2017-02-05 03:11:34.172494+01 | 1486260694.17249 | pgbench_accounts_pkey |       2246197248

 2017-02-05 03:11:35.254978+01 | 1486260695.25498 | pgbench_branches_pkey |            40960
 2017-02-05 03:11:35.254978+01 | 1486260695.25498 | pgbench_tellers_pkey  |           245760
 2017-02-05 03:11:35.254978+01 | 1486260695.25498 | pgbench_accounts_pkey |       2246197248

 2017-02-05 03:11:36.331902+01 | 1486260696.3319 | pgbench_branches_pkey |            40960
 2017-02-05 03:11:36.331902+01 | 1486260696.3319 | pgbench_tellers_pkey  |           245760
 2017-02-05 03:11:36.331902+01 | 1486260696.3319 | pgbench_accounts_pkey |       2246197248

 2017-02-05 03:11:37.411255+01 | 1486260697.41125 | pgbench_branches_pkey |            40960
 2017-02-05 03:11:37.411255+01 | 1486260697.41125 | pgbench_tellers_pkey  |           245760
 2017-02-05 03:11:37.411255+01 | 1486260697.41125 | pgbench_accounts_pkey |       2246197248

 2017-02-05 03:11:38.489965+01 | 1486260698.48996 | pgbench_branches_pkey |            40960
 2017-02-05 03:11:38.489965+01 | 1486260698.48996 | pgbench_tellers_pkey  |           245760
 2017-02-05 03:11:38.489965+01 | 1486260698.48996 | pgbench_accounts_pkey |       2246197248

 2017-02-05 03:11:39.56621+01 | 1486260699.56621 | pgbench_branches_pkey |            40960
 2017-02-05 03:11:39.56621+01 | 1486260699.56621 | pgbench_tellers_pkey  |           245760
 2017-02-05 03:11:39.56621+01 | 1486260699.56621 | pgbench_accounts_pkey |       2246197248

 2017-02-05 03:11:40.64693+01 | 1486260700.64693 | pgbench_branches_pkey |            40960
 2017-02-05 03:11:40.64693+01 | 1486260700.64693 | pgbench_tellers_pkey  |           245760
 2017-02-05 03:11:40.64693+01 | 1486260700.64693 | pgbench_accounts_pkey |       2246197248

 2017-02-05 03:11:41.72649+01 | 1486260701.72649 | pgbench_branches_pkey |            40960
 2017-02-05 03:11:41.72649+01 | 1486260701.72649 | pgbench_tellers_pkey  |           245760
 2017-02-05 03:11:41.72649+01 | 1486260701.72649 | pgbench_accounts_pkey |       2246197248

 2017-02-05 03:11:42.819117+01 | 1486260702.81912 | pgbench_branches_pkey |            40960
 2017-02-05 03:11:42.819117+01 | 1486260702.81912 | pgbench_tellers_pkey  |           245760
 2017-02-05 03:11:42.819117+01 | 1486260702.81912 | pgbench_accounts_pkey |       2246197248

 2017-02-05 03:11:43.897684+01 | 1486260703.89768 | pgbench_branches_pkey |            40960
 2017-02-05 03:11:43.897684+01 | 1486260703.89768 | pgbench_tellers_pkey  |           245760
 2017-02-05 03:11:43.897684+01 | 1486260703.89768 | pgbench_accounts_pkey |       2246197248

 2017-02-05 03:11:44.981327+01 | 1486260704.98133 | pgbench_branches_pkey |            40960
 2017-02-05 03:11:44.981327+01 | 1486260704.98133 | pgbench_tellers_pkey  |           245760
 2017-02-05 03:11:44.981327+01 | 1486260704.98133 | pgbench_accounts_pkey |       2246197248

 2017-02-05 03:11:46.060769+01 | 1486260706.06077 | pgbench_branches_pkey |            40960
 2017-02-05 03:11:46.060769+01 | 1486260706.06077 | pgbench_tellers_pkey  |           245760
 2017-02-05 03:11:46.060769+01 | 1486260706.06077 | pgbench_accounts_pkey |       2246197248

 2017-02-05 03:11:47.14706+01 | 1486260707.14706 | pgbench_branches_pkey |            40960
 2017-02-05 03:11:47.14706+01 | 1486260707.14706 | pgbench_tellers_pkey  |           245760
 2017-02-05 03:11:47.14706+01 | 1486260707.14706 | pgbench_accounts_pkey |       2246197248

 2017-02-05 03:11:48.232497+01 | 1486260708.2325 | pgbench_branches_pkey |            40960
 2017-02-05 03:11:48.232497+01 | 1486260708.2325 | pgbench_tellers_pkey  |           245760
 2017-02-05 03:11:48.232497+01 | 1486260708.2325 | pgbench_accounts_pkey |       2246197248

 2017-02-05 03:11:49.310238+01 | 1486260709.31024 | pgbench_branches_pkey |            40960
 2017-02-05 03:11:49.310238+01 | 1486260709.31024 | pgbench_tellers_pkey  |           245760
 2017-02-05 03:11:49.310238+01 | 1486260709.31024 | pgbench_accounts_pkey |       2246197248

 2017-02-05 03:11:50.386727+01 | 1486260710.38673 | pgbench_branches_pkey |            40960
 2017-02-05 03:11:50.386727+01 | 1486260710.38673 | pgbench_tellers_pkey  |           245760
 2017-02-05 03:11:50.386727+01 | 1486260710.38673 | pgbench_accounts_pkey |       2246197248

 2017-02-05 03:11:51.463995+01 | 1486260711.46399 | pgbench_branches_pkey |            40960
 2017-02-05 03:11:51.463995+01 | 1486260711.46399 | pgbench_tellers_pkey  |           245760
 2017-02-05 03:11:51.463995+01 | 1486260711.46399 | pgbench_accounts_pkey |       2246197248

 2017-02-05 03:11:52.555005+01 | 1486260712.55501 | pgbench_branches_pkey |            40960
 2017-02-05 03:11:52.555005+01 | 1486260712.55501 | pgbench_tellers_pkey  |           245760
 2017-02-05 03:11:52.555005+01 | 1486260712.55501 | pgbench_accounts_pkey |       2246197248

 2017-02-05 03:11:53.639477+01 | 1486260713.63948 | pgbench_branches_pkey |            40960
 2017-02-05 03:11:53.639477+01 | 1486260713.63948 | pgbench_tellers_pkey  |           245760
 2017-02-05 03:11:53.639477+01 | 1486260713.63948 | pgbench_accounts_pkey |       2246197248

 2017-02-05 03:11:54.708718+01 | 1486260714.70872 | pgbench_branches_pkey |            40960
 2017-02-05 03:11:54.708718+01 | 1486260714.70872 | pgbench_tellers_pkey  |           245760
 2017-02-05 03:11:54.708718+01 | 1486260714.70872 | pgbench_accounts_pkey |       2246197248

 2017-02-05 03:11:55.792913+01 | 1486260715.79291 | pgbench_branches_pkey |            40960
 2017-02-05 03:11:55.792913+01 | 1486260715.79291 | pgbench_tellers_pkey  |           245760
 2017-02-05 03:11:55.792913+01 | 1486260715.79291 | pgbench_accounts_pkey |       2246197248

 2017-02-05 03:11:56.874501+01 | 1486260716.8745 | pgbench_branches_pkey |            40960
 2017-02-05 03:11:56.874501+01 | 1486260716.8745 | pgbench_tellers_pkey  |           245760
 2017-02-05 03:11:56.874501+01 | 1486260716.8745 | pgbench_accounts_pkey |       2246197248

 2017-02-05 03:11:57.958408+01 | 1486260717.95841 | pgbench_branches_pkey |            40960
 2017-02-05 03:11:57.958408+01 | 1486260717.95841 | pgbench_tellers_pkey  |           245760
 2017-02-05 03:11:57.958408+01 | 1486260717.95841 | pgbench_accounts_pkey |       2246197248

 2017-02-05 03:11:59.04141+01 | 1486260719.04141 | pgbench_branches_pkey |            40960
 2017-02-05 03:11:59.04141+01 | 1486260719.04141 | pgbench_tellers_pkey  |           245760
 2017-02-05 03:11:59.04141+01 | 1486260719.04141 | pgbench_accounts_pkey |       2246197248

 2017-02-05 03:12:00.127707+01 | 1486260720.12771 | pgbench_branches_pkey |            40960
 2017-02-05 03:12:00.127707+01 | 1486260720.12771 | pgbench_tellers_pkey  |           245760
 2017-02-05 03:12:00.127707+01 | 1486260720.12771 | pgbench_accounts_pkey |       2246197248

 2017-02-05 03:12:01.211773+01 | 1486260721.21177 | pgbench_branches_pkey |            40960
 2017-02-05 03:12:01.211773+01 | 1486260721.21177 | pgbench_tellers_pkey  |           245760
 2017-02-05 03:12:01.211773+01 | 1486260721.21177 | pgbench_accounts_pkey |       2246197248

 2017-02-05 03:12:02.298056+01 | 1486260722.29806 | pgbench_branches_pkey |            40960
 2017-02-05 03:12:02.298056+01 | 1486260722.29806 | pgbench_tellers_pkey  |           245760
 2017-02-05 03:12:02.298056+01 | 1486260722.29806 | pgbench_accounts_pkey |       2246197248

 2017-02-05 03:12:03.388962+01 | 1486260723.38896 | pgbench_branches_pkey |            40960
 2017-02-05 03:12:03.388962+01 | 1486260723.38896 | pgbench_tellers_pkey  |           245760
 2017-02-05 03:12:03.388962+01 | 1486260723.38896 | pgbench_accounts_pkey |       2246197248

 2017-02-05 03:12:04.478297+01 | 1486260724.4783 | pgbench_branches_pkey |            40960
 2017-02-05 03:12:04.478297+01 | 1486260724.4783 | pgbench_tellers_pkey  |           245760
 2017-02-05 03:12:04.478297+01 | 1486260724.4783 | pgbench_accounts_pkey |       2246197248

 2017-02-05 03:12:05.548498+01 | 1486260725.5485 | pgbench_branches_pkey |            40960
 2017-02-05 03:12:05.548498+01 | 1486260725.5485 | pgbench_tellers_pkey  |           245760
 2017-02-05 03:12:05.548498+01 | 1486260725.5485 | pgbench_accounts_pkey |       2246197248

 2017-02-05 03:12:06.629552+01 | 1486260726.62955 | pgbench_branches_pkey |            40960
 2017-02-05 03:12:06.629552+01 | 1486260726.62955 | pgbench_tellers_pkey  |           245760
 2017-02-05 03:12:06.629552+01 | 1486260726.62955 | pgbench_accounts_pkey |       2246197248

 2017-02-05 03:12:07.705073+01 | 1486260727.70507 | pgbench_branches_pkey |            40960
 2017-02-05 03:12:07.705073+01 | 1486260727.70507 | pgbench_tellers_pkey  |           245760
 2017-02-05 03:12:07.705073+01 | 1486260727.70507 | pgbench_accounts_pkey |       2246197248

 2017-02-05 03:12:08.789294+01 | 1486260728.78929 | pgbench_branches_pkey |            40960
 2017-02-05 03:12:08.789294+01 | 1486260728.78929 | pgbench_tellers_pkey  |           245760
 2017-02-05 03:12:08.789294+01 | 1486260728.78929 | pgbench_accounts_pkey |       2246197248

 2017-02-05 03:12:09.869226+01 | 1486260729.86923 | pgbench_branches_pkey |            40960
 2017-02-05 03:12:09.869226+01 | 1486260729.86923 | pgbench_tellers_pkey  |           245760
 2017-02-05 03:12:09.869226+01 | 1486260729.86923 | pgbench_accounts_pkey |       2246197248

 2017-02-05 03:12:10.951539+01 | 1486260730.95154 | pgbench_branches_pkey |            40960
 2017-02-05 03:12:10.951539+01 | 1486260730.95154 | pgbench_tellers_pkey  |           245760
 2017-02-05 03:12:10.951539+01 | 1486260730.95154 | pgbench_accounts_pkey |       2246197248

 2017-02-05 03:12:12.044195+01 | 1486260732.04419 | pgbench_branches_pkey |            40960
 2017-02-05 03:12:12.044195+01 | 1486260732.04419 | pgbench_tellers_pkey  |           245760
 2017-02-05 03:12:12.044195+01 | 1486260732.04419 | pgbench_accounts_pkey |       2246197248

 2017-02-05 03:12:13.142999+01 | 1486260733.143 | pgbench_branches_pkey |            40960
 2017-02-05 03:12:13.142999+01 | 1486260733.143 | pgbench_tellers_pkey  |           245760
 2017-02-05 03:12:13.142999+01 | 1486260733.143 | pgbench_accounts_pkey |       2246197248

 2017-02-05 03:12:14.237696+01 | 1486260734.2377 | pgbench_branches_pkey |            40960
 2017-02-05 03:12:14.237696+01 | 1486260734.2377 | pgbench_tellers_pkey  |           245760
 2017-02-05 03:12:14.237696+01 | 1486260734.2377 | pgbench_accounts_pkey |       2246197248

 2017-02-05 03:12:15.323256+01 | 1486260735.32326 | pgbench_branches_pkey |            40960
 2017-02-05 03:12:15.323256+01 | 1486260735.32326 | pgbench_tellers_pkey  |           245760
 2017-02-05 03:12:15.323256+01 | 1486260735.32326 | pgbench_accounts_pkey |       2246197248

 2017-02-05 03:12:16.390621+01 | 1486260736.39062 | pgbench_branches_pkey |            40960
 2017-02-05 03:12:16.390621+01 | 1486260736.39062 | pgbench_tellers_pkey  |           245760
 2017-02-05 03:12:16.390621+01 | 1486260736.39062 | pgbench_accounts_pkey |       2246197248

 2017-02-05 03:12:17.479784+01 | 1486260737.47978 | pgbench_branches_pkey |            40960
 2017-02-05 03:12:17.479784+01 | 1486260737.47978 | pgbench_tellers_pkey  |           245760
 2017-02-05 03:12:17.479784+01 | 1486260737.47978 | pgbench_accounts_pkey |       2246197248

 2017-02-05 03:12:18.556783+01 | 1486260738.55678 | pgbench_branches_pkey |            40960
 2017-02-05 03:12:18.556783+01 | 1486260738.55678 | pgbench_tellers_pkey  |           245760
 2017-02-05 03:12:18.556783+01 | 1486260738.55678 | pgbench_accounts_pkey |       2246197248

 2017-02-05 03:12:19.636827+01 | 1486260739.63683 | pgbench_branches_pkey |            40960
 2017-02-05 03:12:19.636827+01 | 1486260739.63683 | pgbench_tellers_pkey  |           245760
 2017-02-05 03:12:19.636827+01 | 1486260739.63683 | pgbench_accounts_pkey |       2246197248

 2017-02-05 03:12:20.720495+01 | 1486260740.72049 | pgbench_branches_pkey |            40960
 2017-02-05 03:12:20.720495+01 | 1486260740.72049 | pgbench_tellers_pkey  |           245760
 2017-02-05 03:12:20.720495+01 | 1486260740.72049 | pgbench_accounts_pkey |       2246197248

 2017-02-05 03:12:21.809154+01 | 1486260741.80915 | pgbench_branches_pkey |            40960
 2017-02-05 03:12:21.809154+01 | 1486260741.80915 | pgbench_tellers_pkey  |           245760
 2017-02-05 03:12:21.809154+01 | 1486260741.80915 | pgbench_accounts_pkey |       2246197248

 2017-02-05 03:12:22.888878+01 | 1486260742.88888 | pgbench_branches_pkey |            40960
 2017-02-05 03:12:22.888878+01 | 1486260742.88888 | pgbench_tellers_pkey  |           245760
 2017-02-05 03:12:22.888878+01 | 1486260742.88888 | pgbench_accounts_pkey |       2246197248

 2017-02-05 03:12:23.975407+01 | 1486260743.97541 | pgbench_branches_pkey |            40960
 2017-02-05 03:12:23.975407+01 | 1486260743.97541 | pgbench_tellers_pkey  |           245760
 2017-02-05 03:12:23.975407+01 | 1486260743.97541 | pgbench_accounts_pkey |       2246197248

 2017-02-05 03:12:25.055141+01 | 1486260745.05514 | pgbench_branches_pkey |            40960
 2017-02-05 03:12:25.055141+01 | 1486260745.05514 | pgbench_tellers_pkey  |           245760
 2017-02-05 03:12:25.055141+01 | 1486260745.05514 | pgbench_accounts_pkey |       2246197248

 2017-02-05 03:12:26.140595+01 | 1486260746.14059 | pgbench_branches_pkey |            40960
 2017-02-05 03:12:26.140595+01 | 1486260746.14059 | pgbench_tellers_pkey  |           245760
 2017-02-05 03:12:26.140595+01 | 1486260746.14059 | pgbench_accounts_pkey |       2246197248

 2017-02-05 03:12:27.231058+01 | 1486260747.23106 | pgbench_branches_pkey |            40960
 2017-02-05 03:12:27.231058+01 | 1486260747.23106 | pgbench_tellers_pkey  |           245760
 2017-02-05 03:12:27.231058+01 | 1486260747.23106 | pgbench_accounts_pkey |       2246197248

 2017-02-05 03:12:28.313117+01 | 1486260748.31312 | pgbench_branches_pkey |            40960
 2017-02-05 03:12:28.313117+01 | 1486260748.31312 | pgbench_tellers_pkey  |           245760
 2017-02-05 03:12:28.313117+01 | 1486260748.31312 | pgbench_accounts_pkey |       2246197248

 2017-02-05 03:12:29.403292+01 | 1486260749.40329 | pgbench_branches_pkey |            40960
 2017-02-05 03:12:29.403292+01 | 1486260749.40329 | pgbench_tellers_pkey  |           245760
 2017-02-05 03:12:29.403292+01 | 1486260749.40329 | pgbench_accounts_pkey |       2246197248

 2017-02-05 03:12:30.478938+01 | 1486260750.47894 | pgbench_branches_pkey |            40960
 2017-02-05 03:12:30.478938+01 | 1486260750.47894 | pgbench_tellers_pkey  |           245760
 2017-02-05 03:12:30.478938+01 | 1486260750.47894 | pgbench_accounts_pkey |       2246197248

 2017-02-05 03:12:31.559733+01 | 1486260751.55973 | pgbench_branches_pkey |            40960
 2017-02-05 03:12:31.559733+01 | 1486260751.55973 | pgbench_tellers_pkey  |           245760
 2017-02-05 03:12:31.559733+01 | 1486260751.55973 | pgbench_accounts_pkey |       2246197248

 2017-02-05 03:12:32.647437+01 | 1486260752.64744 | pgbench_branches_pkey |            40960
 2017-02-05 03:12:32.647437+01 | 1486260752.64744 | pgbench_tellers_pkey  |           245760
 2017-02-05 03:12:32.647437+01 | 1486260752.64744 | pgbench_accounts_pkey |       2246197248

 2017-02-05 03:12:33.736412+01 | 1486260753.73641 | pgbench_branches_pkey |            40960
 2017-02-05 03:12:33.736412+01 | 1486260753.73641 | pgbench_tellers_pkey  |           245760
 2017-02-05 03:12:33.736412+01 | 1486260753.73641 | pgbench_accounts_pkey |       2246197248

 2017-02-05 03:12:34.823582+01 | 1486260754.82358 | pgbench_branches_pkey |            40960
 2017-02-05 03:12:34.823582+01 | 1486260754.82358 | pgbench_tellers_pkey  |           245760
 2017-02-05 03:12:34.823582+01 | 1486260754.82358 | pgbench_accounts_pkey |       2246197248

 2017-02-05 03:12:35.907434+01 | 1486260755.90743 | pgbench_branches_pkey |            40960
 2017-02-05 03:12:35.907434+01 | 1486260755.90743 | pgbench_tellers_pkey  |           245760
 2017-02-05 03:12:35.907434+01 | 1486260755.90743 | pgbench_accounts_pkey |       2246197248

 2017-02-05 03:12:37.000762+01 | 1486260757.00076 | pgbench_branches_pkey |            40960
 2017-02-05 03:12:37.000762+01 | 1486260757.00076 | pgbench_tellers_pkey  |           245760
 2017-02-05 03:12:37.000762+01 | 1486260757.00076 | pgbench_accounts_pkey |       2246197248

 2017-02-05 03:12:38.07365+01 | 1486260758.07365 | pgbench_branches_pkey |            40960
 2017-02-05 03:12:38.07365+01 | 1486260758.07365 | pgbench_tellers_pkey  |           245760
 2017-02-05 03:12:38.07365+01 | 1486260758.07365 | pgbench_accounts_pkey |       2246197248

 2017-02-05 03:12:39.162442+01 | 1486260759.16244 | pgbench_branches_pkey |            40960
 2017-02-05 03:12:39.162442+01 | 1486260759.16244 | pgbench_tellers_pkey  |           245760
 2017-02-05 03:12:39.162442+01 | 1486260759.16244 | pgbench_accounts_pkey |       2246197248

 2017-02-05 03:12:40.258238+01 | 1486260760.25824 | pgbench_branches_pkey |            40960
 2017-02-05 03:12:40.258238+01 | 1486260760.25824 | pgbench_tellers_pkey  |           245760
 2017-02-05 03:12:40.258238+01 | 1486260760.25824 | pgbench_accounts_pkey |       2246197248

 2017-02-05 03:12:41.34958+01 | 1486260761.34958 | pgbench_branches_pkey |            40960
 2017-02-05 03:12:41.34958+01 | 1486260761.34958 | pgbench_tellers_pkey  |           245760
 2017-02-05 03:12:41.34958+01 | 1486260761.34958 | pgbench_accounts_pkey |       2246197248

 2017-02-05 03:12:42.442005+01 | 1486260762.442 | pgbench_branches_pkey |            40960
 2017-02-05 03:12:42.442005+01 | 1486260762.442 | pgbench_tellers_pkey  |           245760
 2017-02-05 03:12:42.442005+01 | 1486260762.442 | pgbench_accounts_pkey |       2246197248

 2017-02-05 03:12:43.52208+01 | 1486260763.52208 | pgbench_branches_pkey |            40960
 2017-02-05 03:12:43.52208+01 | 1486260763.52208 | pgbench_tellers_pkey  |           245760
 2017-02-05 03:12:43.52208+01 | 1486260763.52208 | pgbench_accounts_pkey |       2246197248

 2017-02-05 03:12:44.604575+01 | 1486260764.60457 | pgbench_branches_pkey |            40960
 2017-02-05 03:12:44.604575+01 | 1486260764.60457 | pgbench_tellers_pkey  |           245760
 2017-02-05 03:12:44.604575+01 | 1486260764.60457 | pgbench_accounts_pkey |       2246197248

 2017-02-05 03:12:45.691959+01 | 1486260765.69196 | pgbench_branches_pkey |            40960
 2017-02-05 03:12:45.691959+01 | 1486260765.69196 | pgbench_tellers_pkey  |           245760
 2017-02-05 03:12:45.691959+01 | 1486260765.69196 | pgbench_accounts_pkey |       2246197248

 2017-02-05 03:12:46.797719+01 | 1486260766.79772 | pgbench_branches_pkey |            40960
 2017-02-05 03:12:46.797719+01 | 1486260766.79772 | pgbench_tellers_pkey  |           245760
 2017-02-05 03:12:46.797719+01 | 1486260766.79772 | pgbench_accounts_pkey |       2246197248

 2017-02-05 03:12:47.885075+01 | 1486260767.88508 | pgbench_branches_pkey |            40960
 2017-02-05 03:12:47.885075+01 | 1486260767.88508 | pgbench_tellers_pkey  |           245760
 2017-02-05 03:12:47.885075+01 | 1486260767.88508 | pgbench_accounts_pkey |       2246197248

 2017-02-05 03:12:48.962689+01 | 1486260768.96269 | pgbench_branches_pkey |            40960
 2017-02-05 03:12:48.962689+01 | 1486260768.96269 | pgbench_tellers_pkey  |           245760
 2017-02-05 03:12:48.962689+01 | 1486260768.96269 | pgbench_accounts_pkey |       2246197248

