 2017-02-05 15:44:01.137247+01 | 1486305841.13725 | pgbench_branches_pkey |            16384
 2017-02-05 15:44:01.137247+01 | 1486305841.13725 | pgbench_tellers_pkey  |            40960
 2017-02-05 15:44:01.137247+01 | 1486305841.13725 | pgbench_accounts_pkey |        224641024

 2017-02-05 15:44:02.221231+01 | 1486305842.22123 | pgbench_branches_pkey |            16384
 2017-02-05 15:44:02.221231+01 | 1486305842.22123 | pgbench_tellers_pkey  |            40960
 2017-02-05 15:44:02.221231+01 | 1486305842.22123 | pgbench_accounts_pkey |        224641024

 2017-02-05 15:44:03.311014+01 | 1486305843.31101 | pgbench_branches_pkey |            16384
 2017-02-05 15:44:03.311014+01 | 1486305843.31101 | pgbench_tellers_pkey  |            40960
 2017-02-05 15:44:03.311014+01 | 1486305843.31101 | pgbench_accounts_pkey |        224641024

 2017-02-05 15:44:04.385349+01 | 1486305844.38535 | pgbench_branches_pkey |            16384
 2017-02-05 15:44:04.385349+01 | 1486305844.38535 | pgbench_tellers_pkey  |            40960
 2017-02-05 15:44:04.385349+01 | 1486305844.38535 | pgbench_accounts_pkey |        224641024

 2017-02-05 15:44:05.460659+01 | 1486305845.46066 | pgbench_branches_pkey |            16384
 2017-02-05 15:44:05.460659+01 | 1486305845.46066 | pgbench_tellers_pkey  |            40960
 2017-02-05 15:44:05.460659+01 | 1486305845.46066 | pgbench_accounts_pkey |        224641024

 2017-02-05 15:44:06.527353+01 | 1486305846.52735 | pgbench_branches_pkey |            16384
 2017-02-05 15:44:06.527353+01 | 1486305846.52735 | pgbench_tellers_pkey  |            40960
 2017-02-05 15:44:06.527353+01 | 1486305846.52735 | pgbench_accounts_pkey |        224993280

 2017-02-05 15:44:07.604968+01 | 1486305847.60497 | pgbench_branches_pkey |            16384
 2017-02-05 15:44:07.604968+01 | 1486305847.60497 | pgbench_tellers_pkey  |            40960
 2017-02-05 15:44:07.604968+01 | 1486305847.60497 | pgbench_accounts_pkey |        225001472

 2017-02-05 15:44:08.683992+01 | 1486305848.68399 | pgbench_branches_pkey |            16384
 2017-02-05 15:44:08.683992+01 | 1486305848.68399 | pgbench_tellers_pkey  |            40960
 2017-02-05 15:44:08.683992+01 | 1486305848.68399 | pgbench_accounts_pkey |        225017856

 2017-02-05 15:44:09.762601+01 | 1486305849.7626 | pgbench_branches_pkey |            16384
 2017-02-05 15:44:09.762601+01 | 1486305849.7626 | pgbench_tellers_pkey  |            40960
 2017-02-05 15:44:09.762601+01 | 1486305849.7626 | pgbench_accounts_pkey |        225017856

 2017-02-05 15:44:10.847088+01 | 1486305850.84709 | pgbench_branches_pkey |            16384
 2017-02-05 15:44:10.847088+01 | 1486305850.84709 | pgbench_tellers_pkey  |            40960
 2017-02-05 15:44:10.847088+01 | 1486305850.84709 | pgbench_accounts_pkey |        225017856

 2017-02-05 15:44:11.928373+01 | 1486305851.92837 | pgbench_branches_pkey |            16384
 2017-02-05 15:44:11.928373+01 | 1486305851.92837 | pgbench_tellers_pkey  |            40960
 2017-02-05 15:44:11.928373+01 | 1486305851.92837 | pgbench_accounts_pkey |        225017856

 2017-02-05 15:44:13.011572+01 | 1486305853.01157 | pgbench_branches_pkey |            16384
 2017-02-05 15:44:13.011572+01 | 1486305853.01157 | pgbench_tellers_pkey  |            40960
 2017-02-05 15:44:13.011572+01 | 1486305853.01157 | pgbench_accounts_pkey |        225017856

 2017-02-05 15:44:14.089163+01 | 1486305854.08916 | pgbench_branches_pkey |            16384
 2017-02-05 15:44:14.089163+01 | 1486305854.08916 | pgbench_tellers_pkey  |            40960
 2017-02-05 15:44:14.089163+01 | 1486305854.08916 | pgbench_accounts_pkey |        225017856

 2017-02-05 15:44:15.164369+01 | 1486305855.16437 | pgbench_branches_pkey |            16384
 2017-02-05 15:44:15.164369+01 | 1486305855.16437 | pgbench_tellers_pkey  |            40960
 2017-02-05 15:44:15.164369+01 | 1486305855.16437 | pgbench_accounts_pkey |        225017856

 2017-02-05 15:44:16.237205+01 | 1486305856.23721 | pgbench_branches_pkey |            16384
 2017-02-05 15:44:16.237205+01 | 1486305856.23721 | pgbench_tellers_pkey  |            40960
 2017-02-05 15:44:16.237205+01 | 1486305856.23721 | pgbench_accounts_pkey |        225017856

 2017-02-05 15:44:17.314713+01 | 1486305857.31471 | pgbench_branches_pkey |            16384
 2017-02-05 15:44:17.314713+01 | 1486305857.31471 | pgbench_tellers_pkey  |            40960
 2017-02-05 15:44:17.314713+01 | 1486305857.31471 | pgbench_accounts_pkey |        225017856

 2017-02-05 15:44:18.395675+01 | 1486305858.39567 | pgbench_branches_pkey |            16384
 2017-02-05 15:44:18.395675+01 | 1486305858.39567 | pgbench_tellers_pkey  |            40960
 2017-02-05 15:44:18.395675+01 | 1486305858.39567 | pgbench_accounts_pkey |        225017856

 2017-02-05 15:44:19.476433+01 | 1486305859.47643 | pgbench_branches_pkey |            16384
 2017-02-05 15:44:19.476433+01 | 1486305859.47643 | pgbench_tellers_pkey  |            40960
 2017-02-05 15:44:19.476433+01 | 1486305859.47643 | pgbench_accounts_pkey |        225017856

 2017-02-05 15:44:20.555468+01 | 1486305860.55547 | pgbench_branches_pkey |            16384
 2017-02-05 15:44:20.555468+01 | 1486305860.55547 | pgbench_tellers_pkey  |            40960
 2017-02-05 15:44:20.555468+01 | 1486305860.55547 | pgbench_accounts_pkey |        225017856

 2017-02-05 15:44:21.638878+01 | 1486305861.63888 | pgbench_branches_pkey |            16384
 2017-02-05 15:44:21.638878+01 | 1486305861.63888 | pgbench_tellers_pkey  |            40960
 2017-02-05 15:44:21.638878+01 | 1486305861.63888 | pgbench_accounts_pkey |        225017856

 2017-02-05 15:44:22.714816+01 | 1486305862.71482 | pgbench_branches_pkey |            16384
 2017-02-05 15:44:22.714816+01 | 1486305862.71482 | pgbench_tellers_pkey  |            40960
 2017-02-05 15:44:22.714816+01 | 1486305862.71482 | pgbench_accounts_pkey |        225017856

 2017-02-05 15:44:23.7933+01 | 1486305863.7933 | pgbench_branches_pkey |            16384
 2017-02-05 15:44:23.7933+01 | 1486305863.7933 | pgbench_tellers_pkey  |            40960
 2017-02-05 15:44:23.7933+01 | 1486305863.7933 | pgbench_accounts_pkey |        225017856

 2017-02-05 15:44:24.872399+01 | 1486305864.8724 | pgbench_branches_pkey |            16384
 2017-02-05 15:44:24.872399+01 | 1486305864.8724 | pgbench_tellers_pkey  |            40960
 2017-02-05 15:44:24.872399+01 | 1486305864.8724 | pgbench_accounts_pkey |        225017856

 2017-02-05 15:44:25.953246+01 | 1486305865.95325 | pgbench_branches_pkey |            16384
 2017-02-05 15:44:25.953246+01 | 1486305865.95325 | pgbench_tellers_pkey  |            40960
 2017-02-05 15:44:25.953246+01 | 1486305865.95325 | pgbench_accounts_pkey |        225017856

 2017-02-05 15:44:27.034812+01 | 1486305867.03481 | pgbench_branches_pkey |            16384
 2017-02-05 15:44:27.034812+01 | 1486305867.03481 | pgbench_tellers_pkey  |            40960
 2017-02-05 15:44:27.034812+01 | 1486305867.03481 | pgbench_accounts_pkey |        225017856

 2017-02-05 15:44:28.124267+01 | 1486305868.12427 | pgbench_branches_pkey |            16384
 2017-02-05 15:44:28.124267+01 | 1486305868.12427 | pgbench_tellers_pkey  |            40960
 2017-02-05 15:44:28.124267+01 | 1486305868.12427 | pgbench_accounts_pkey |        225017856

 2017-02-05 15:44:29.202949+01 | 1486305869.20295 | pgbench_branches_pkey |            16384
 2017-02-05 15:44:29.202949+01 | 1486305869.20295 | pgbench_tellers_pkey  |            40960
 2017-02-05 15:44:29.202949+01 | 1486305869.20295 | pgbench_accounts_pkey |        225017856

 2017-02-05 15:44:30.279263+01 | 1486305870.27926 | pgbench_branches_pkey |            16384
 2017-02-05 15:44:30.279263+01 | 1486305870.27926 | pgbench_tellers_pkey  |            40960
 2017-02-05 15:44:30.279263+01 | 1486305870.27926 | pgbench_accounts_pkey |        225017856

 2017-02-05 15:44:31.358891+01 | 1486305871.35889 | pgbench_branches_pkey |            16384
 2017-02-05 15:44:31.358891+01 | 1486305871.35889 | pgbench_tellers_pkey  |            40960
 2017-02-05 15:44:31.358891+01 | 1486305871.35889 | pgbench_accounts_pkey |        225017856

 2017-02-05 15:44:32.43903+01 | 1486305872.43903 | pgbench_branches_pkey |            16384
 2017-02-05 15:44:32.43903+01 | 1486305872.43903 | pgbench_tellers_pkey  |            40960
 2017-02-05 15:44:32.43903+01 | 1486305872.43903 | pgbench_accounts_pkey |        225017856

 2017-02-05 15:44:33.519013+01 | 1486305873.51901 | pgbench_branches_pkey |            16384
 2017-02-05 15:44:33.519013+01 | 1486305873.51901 | pgbench_tellers_pkey  |            40960
 2017-02-05 15:44:33.519013+01 | 1486305873.51901 | pgbench_accounts_pkey |        225017856

 2017-02-05 15:44:34.60983+01 | 1486305874.60983 | pgbench_branches_pkey |            16384
 2017-02-05 15:44:34.60983+01 | 1486305874.60983 | pgbench_tellers_pkey  |            40960
 2017-02-05 15:44:34.60983+01 | 1486305874.60983 | pgbench_accounts_pkey |        225017856

 2017-02-05 15:44:35.691532+01 | 1486305875.69153 | pgbench_branches_pkey |            16384
 2017-02-05 15:44:35.691532+01 | 1486305875.69153 | pgbench_tellers_pkey  |            40960
 2017-02-05 15:44:35.691532+01 | 1486305875.69153 | pgbench_accounts_pkey |        225017856

 2017-02-05 15:44:36.776344+01 | 1486305876.77634 | pgbench_branches_pkey |            16384
 2017-02-05 15:44:36.776344+01 | 1486305876.77634 | pgbench_tellers_pkey  |            40960
 2017-02-05 15:44:36.776344+01 | 1486305876.77634 | pgbench_accounts_pkey |        225017856

 2017-02-05 15:44:37.859133+01 | 1486305877.85913 | pgbench_branches_pkey |            16384
 2017-02-05 15:44:37.859133+01 | 1486305877.85913 | pgbench_tellers_pkey  |            40960
 2017-02-05 15:44:37.859133+01 | 1486305877.85913 | pgbench_accounts_pkey |        225017856

 2017-02-05 15:44:38.949993+01 | 1486305878.94999 | pgbench_branches_pkey |            16384
 2017-02-05 15:44:38.949993+01 | 1486305878.94999 | pgbench_tellers_pkey  |            40960
 2017-02-05 15:44:38.949993+01 | 1486305878.94999 | pgbench_accounts_pkey |        225017856

 2017-02-05 15:44:40.035102+01 | 1486305880.0351 | pgbench_branches_pkey |            16384
 2017-02-05 15:44:40.035102+01 | 1486305880.0351 | pgbench_tellers_pkey  |            40960
 2017-02-05 15:44:40.035102+01 | 1486305880.0351 | pgbench_accounts_pkey |        225017856

 2017-02-05 15:44:41.116622+01 | 1486305881.11662 | pgbench_branches_pkey |            16384
 2017-02-05 15:44:41.116622+01 | 1486305881.11662 | pgbench_tellers_pkey  |            40960
 2017-02-05 15:44:41.116622+01 | 1486305881.11662 | pgbench_accounts_pkey |        225017856

 2017-02-05 15:44:42.191519+01 | 1486305882.19152 | pgbench_branches_pkey |            16384
 2017-02-05 15:44:42.191519+01 | 1486305882.19152 | pgbench_tellers_pkey  |            40960
 2017-02-05 15:44:42.191519+01 | 1486305882.19152 | pgbench_accounts_pkey |        225017856

 2017-02-05 15:44:43.265641+01 | 1486305883.26564 | pgbench_branches_pkey |            16384
 2017-02-05 15:44:43.265641+01 | 1486305883.26564 | pgbench_tellers_pkey  |            40960
 2017-02-05 15:44:43.265641+01 | 1486305883.26564 | pgbench_accounts_pkey |        225017856

 2017-02-05 15:44:44.348672+01 | 1486305884.34867 | pgbench_branches_pkey |            16384
 2017-02-05 15:44:44.348672+01 | 1486305884.34867 | pgbench_tellers_pkey  |            40960
 2017-02-05 15:44:44.348672+01 | 1486305884.34867 | pgbench_accounts_pkey |        225017856

 2017-02-05 15:44:45.435939+01 | 1486305885.43594 | pgbench_branches_pkey |            16384
 2017-02-05 15:44:45.435939+01 | 1486305885.43594 | pgbench_tellers_pkey  |            40960
 2017-02-05 15:44:45.435939+01 | 1486305885.43594 | pgbench_accounts_pkey |        225017856

 2017-02-05 15:44:46.521595+01 | 1486305886.5216 | pgbench_branches_pkey |            16384
 2017-02-05 15:44:46.521595+01 | 1486305886.5216 | pgbench_tellers_pkey  |            40960
 2017-02-05 15:44:46.521595+01 | 1486305886.5216 | pgbench_accounts_pkey |        225017856

 2017-02-05 15:44:47.606626+01 | 1486305887.60663 | pgbench_branches_pkey |            16384
 2017-02-05 15:44:47.606626+01 | 1486305887.60663 | pgbench_tellers_pkey  |            40960
 2017-02-05 15:44:47.606626+01 | 1486305887.60663 | pgbench_accounts_pkey |        225017856

 2017-02-05 15:44:48.689904+01 | 1486305888.6899 | pgbench_branches_pkey |            16384
 2017-02-05 15:44:48.689904+01 | 1486305888.6899 | pgbench_tellers_pkey  |            40960
 2017-02-05 15:44:48.689904+01 | 1486305888.6899 | pgbench_accounts_pkey |        225017856

 2017-02-05 15:44:49.775566+01 | 1486305889.77557 | pgbench_branches_pkey |            16384
 2017-02-05 15:44:49.775566+01 | 1486305889.77557 | pgbench_tellers_pkey  |            40960
 2017-02-05 15:44:49.775566+01 | 1486305889.77557 | pgbench_accounts_pkey |        225017856

 2017-02-05 15:44:50.85182+01 | 1486305890.85182 | pgbench_branches_pkey |            16384
 2017-02-05 15:44:50.85182+01 | 1486305890.85182 | pgbench_tellers_pkey  |            40960
 2017-02-05 15:44:50.85182+01 | 1486305890.85182 | pgbench_accounts_pkey |        225017856

 2017-02-05 15:44:51.934478+01 | 1486305891.93448 | pgbench_branches_pkey |            16384
 2017-02-05 15:44:51.934478+01 | 1486305891.93448 | pgbench_tellers_pkey  |            40960
 2017-02-05 15:44:51.934478+01 | 1486305891.93448 | pgbench_accounts_pkey |        225017856

 2017-02-05 15:44:53.019361+01 | 1486305893.01936 | pgbench_branches_pkey |            16384
 2017-02-05 15:44:53.019361+01 | 1486305893.01936 | pgbench_tellers_pkey  |            40960
 2017-02-05 15:44:53.019361+01 | 1486305893.01936 | pgbench_accounts_pkey |        225017856

 2017-02-05 15:44:54.10241+01 | 1486305894.10241 | pgbench_branches_pkey |            16384
 2017-02-05 15:44:54.10241+01 | 1486305894.10241 | pgbench_tellers_pkey  |            40960
 2017-02-05 15:44:54.10241+01 | 1486305894.10241 | pgbench_accounts_pkey |        225017856

 2017-02-05 15:44:55.186673+01 | 1486305895.18667 | pgbench_branches_pkey |            16384
 2017-02-05 15:44:55.186673+01 | 1486305895.18667 | pgbench_tellers_pkey  |            40960
 2017-02-05 15:44:55.186673+01 | 1486305895.18667 | pgbench_accounts_pkey |        225017856

 2017-02-05 15:44:56.262852+01 | 1486305896.26285 | pgbench_branches_pkey |            16384
 2017-02-05 15:44:56.262852+01 | 1486305896.26285 | pgbench_tellers_pkey  |            40960
 2017-02-05 15:44:56.262852+01 | 1486305896.26285 | pgbench_accounts_pkey |        225017856

 2017-02-05 15:44:57.348502+01 | 1486305897.3485 | pgbench_branches_pkey |            16384
 2017-02-05 15:44:57.348502+01 | 1486305897.3485 | pgbench_tellers_pkey  |            40960
 2017-02-05 15:44:57.348502+01 | 1486305897.3485 | pgbench_accounts_pkey |        225017856

 2017-02-05 15:44:58.427597+01 | 1486305898.4276 | pgbench_branches_pkey |            16384
 2017-02-05 15:44:58.427597+01 | 1486305898.4276 | pgbench_tellers_pkey  |            40960
 2017-02-05 15:44:58.427597+01 | 1486305898.4276 | pgbench_accounts_pkey |        225017856

 2017-02-05 15:44:59.507549+01 | 1486305899.50755 | pgbench_branches_pkey |            16384
 2017-02-05 15:44:59.507549+01 | 1486305899.50755 | pgbench_tellers_pkey  |            40960
 2017-02-05 15:44:59.507549+01 | 1486305899.50755 | pgbench_accounts_pkey |        225017856

 2017-02-05 15:45:00.577838+01 | 1486305900.57784 | pgbench_branches_pkey |            16384
 2017-02-05 15:45:00.577838+01 | 1486305900.57784 | pgbench_tellers_pkey  |            40960
 2017-02-05 15:45:00.577838+01 | 1486305900.57784 | pgbench_accounts_pkey |        225017856

 2017-02-05 15:45:01.660922+01 | 1486305901.66092 | pgbench_branches_pkey |            16384
 2017-02-05 15:45:01.660922+01 | 1486305901.66092 | pgbench_tellers_pkey  |            40960
 2017-02-05 15:45:01.660922+01 | 1486305901.66092 | pgbench_accounts_pkey |        225017856

 2017-02-05 15:45:02.738608+01 | 1486305902.73861 | pgbench_branches_pkey |            16384
 2017-02-05 15:45:02.738608+01 | 1486305902.73861 | pgbench_tellers_pkey  |            40960
 2017-02-05 15:45:02.738608+01 | 1486305902.73861 | pgbench_accounts_pkey |        225017856

 2017-02-05 15:45:03.820511+01 | 1486305903.82051 | pgbench_branches_pkey |            16384
 2017-02-05 15:45:03.820511+01 | 1486305903.82051 | pgbench_tellers_pkey  |            40960
 2017-02-05 15:45:03.820511+01 | 1486305903.82051 | pgbench_accounts_pkey |        225017856

 2017-02-05 15:45:04.899204+01 | 1486305904.8992 | pgbench_branches_pkey |            16384
 2017-02-05 15:45:04.899204+01 | 1486305904.8992 | pgbench_tellers_pkey  |            40960
 2017-02-05 15:45:04.899204+01 | 1486305904.8992 | pgbench_accounts_pkey |        225017856

 2017-02-05 15:45:05.981858+01 | 1486305905.98186 | pgbench_branches_pkey |            16384
 2017-02-05 15:45:05.981858+01 | 1486305905.98186 | pgbench_tellers_pkey  |            40960
 2017-02-05 15:45:05.981858+01 | 1486305905.98186 | pgbench_accounts_pkey |        225017856

 2017-02-05 15:45:07.064465+01 | 1486305907.06447 | pgbench_branches_pkey |            16384
 2017-02-05 15:45:07.064465+01 | 1486305907.06447 | pgbench_tellers_pkey  |            40960
 2017-02-05 15:45:07.064465+01 | 1486305907.06447 | pgbench_accounts_pkey |        225017856

 2017-02-05 15:45:08.143657+01 | 1486305908.14366 | pgbench_branches_pkey |            16384
 2017-02-05 15:45:08.143657+01 | 1486305908.14366 | pgbench_tellers_pkey  |            40960
 2017-02-05 15:45:08.143657+01 | 1486305908.14366 | pgbench_accounts_pkey |        225017856

 2017-02-05 15:45:09.222976+01 | 1486305909.22298 | pgbench_branches_pkey |            16384
 2017-02-05 15:45:09.222976+01 | 1486305909.22298 | pgbench_tellers_pkey  |            40960
 2017-02-05 15:45:09.222976+01 | 1486305909.22298 | pgbench_accounts_pkey |        225017856

 2017-02-05 15:45:10.303682+01 | 1486305910.30368 | pgbench_branches_pkey |            16384
 2017-02-05 15:45:10.303682+01 | 1486305910.30368 | pgbench_tellers_pkey  |            40960
 2017-02-05 15:45:10.303682+01 | 1486305910.30368 | pgbench_accounts_pkey |        225017856

 2017-02-05 15:45:11.384437+01 | 1486305911.38444 | pgbench_branches_pkey |            16384
 2017-02-05 15:45:11.384437+01 | 1486305911.38444 | pgbench_tellers_pkey  |            40960
 2017-02-05 15:45:11.384437+01 | 1486305911.38444 | pgbench_accounts_pkey |        225017856

 2017-02-05 15:45:12.465067+01 | 1486305912.46507 | pgbench_branches_pkey |            16384
 2017-02-05 15:45:12.465067+01 | 1486305912.46507 | pgbench_tellers_pkey  |            40960
 2017-02-05 15:45:12.465067+01 | 1486305912.46507 | pgbench_accounts_pkey |        225017856

 2017-02-05 15:45:13.544829+01 | 1486305913.54483 | pgbench_branches_pkey |            16384
 2017-02-05 15:45:13.544829+01 | 1486305913.54483 | pgbench_tellers_pkey  |            40960
 2017-02-05 15:45:13.544829+01 | 1486305913.54483 | pgbench_accounts_pkey |        225017856

 2017-02-05 15:45:14.623833+01 | 1486305914.62383 | pgbench_branches_pkey |            16384
 2017-02-05 15:45:14.623833+01 | 1486305914.62383 | pgbench_tellers_pkey  |            40960
 2017-02-05 15:45:14.623833+01 | 1486305914.62383 | pgbench_accounts_pkey |        225017856

 2017-02-05 15:45:15.701003+01 | 1486305915.701 | pgbench_branches_pkey |            16384
 2017-02-05 15:45:15.701003+01 | 1486305915.701 | pgbench_tellers_pkey  |            40960
 2017-02-05 15:45:15.701003+01 | 1486305915.701 | pgbench_accounts_pkey |        225017856

 2017-02-05 15:45:16.78756+01 | 1486305916.78756 | pgbench_branches_pkey |            16384
 2017-02-05 15:45:16.78756+01 | 1486305916.78756 | pgbench_tellers_pkey  |            40960
 2017-02-05 15:45:16.78756+01 | 1486305916.78756 | pgbench_accounts_pkey |        225017856

 2017-02-05 15:45:17.870108+01 | 1486305917.87011 | pgbench_branches_pkey |            16384
 2017-02-05 15:45:17.870108+01 | 1486305917.87011 | pgbench_tellers_pkey  |            40960
 2017-02-05 15:45:17.870108+01 | 1486305917.87011 | pgbench_accounts_pkey |        225017856

 2017-02-05 15:45:18.949565+01 | 1486305918.94956 | pgbench_branches_pkey |            16384
 2017-02-05 15:45:18.949565+01 | 1486305918.94956 | pgbench_tellers_pkey  |            40960
 2017-02-05 15:45:18.949565+01 | 1486305918.94956 | pgbench_accounts_pkey |        225017856

 2017-02-05 15:45:20.036573+01 | 1486305920.03657 | pgbench_branches_pkey |            16384
 2017-02-05 15:45:20.036573+01 | 1486305920.03657 | pgbench_tellers_pkey  |            40960
 2017-02-05 15:45:20.036573+01 | 1486305920.03657 | pgbench_accounts_pkey |        225017856

 2017-02-05 15:45:21.121663+01 | 1486305921.12166 | pgbench_branches_pkey |            16384
 2017-02-05 15:45:21.121663+01 | 1486305921.12166 | pgbench_tellers_pkey  |            40960
 2017-02-05 15:45:21.121663+01 | 1486305921.12166 | pgbench_accounts_pkey |        225017856

 2017-02-05 15:45:22.198226+01 | 1486305922.19823 | pgbench_branches_pkey |            16384
 2017-02-05 15:45:22.198226+01 | 1486305922.19823 | pgbench_tellers_pkey  |            40960
 2017-02-05 15:45:22.198226+01 | 1486305922.19823 | pgbench_accounts_pkey |        225017856

 2017-02-05 15:45:23.277158+01 | 1486305923.27716 | pgbench_branches_pkey |            16384
 2017-02-05 15:45:23.277158+01 | 1486305923.27716 | pgbench_tellers_pkey  |            40960
 2017-02-05 15:45:23.277158+01 | 1486305923.27716 | pgbench_accounts_pkey |        225017856

 2017-02-05 15:45:24.355971+01 | 1486305924.35597 | pgbench_branches_pkey |            16384
 2017-02-05 15:45:24.355971+01 | 1486305924.35597 | pgbench_tellers_pkey  |            40960
 2017-02-05 15:45:24.355971+01 | 1486305924.35597 | pgbench_accounts_pkey |        225017856

 2017-02-05 15:45:25.433955+01 | 1486305925.43395 | pgbench_branches_pkey |            16384
 2017-02-05 15:45:25.433955+01 | 1486305925.43395 | pgbench_tellers_pkey  |            40960
 2017-02-05 15:45:25.433955+01 | 1486305925.43395 | pgbench_accounts_pkey |        225017856

 2017-02-05 15:45:26.514152+01 | 1486305926.51415 | pgbench_branches_pkey |            16384
 2017-02-05 15:45:26.514152+01 | 1486305926.51415 | pgbench_tellers_pkey  |            40960
 2017-02-05 15:45:26.514152+01 | 1486305926.51415 | pgbench_accounts_pkey |        225017856

 2017-02-05 15:45:27.598079+01 | 1486305927.59808 | pgbench_branches_pkey |            16384
 2017-02-05 15:45:27.598079+01 | 1486305927.59808 | pgbench_tellers_pkey  |            40960
 2017-02-05 15:45:27.598079+01 | 1486305927.59808 | pgbench_accounts_pkey |        225017856

 2017-02-05 15:45:28.674198+01 | 1486305928.6742 | pgbench_branches_pkey |            16384
 2017-02-05 15:45:28.674198+01 | 1486305928.6742 | pgbench_tellers_pkey  |            40960
 2017-02-05 15:45:28.674198+01 | 1486305928.6742 | pgbench_accounts_pkey |        225017856

 2017-02-05 15:45:29.75486+01 | 1486305929.75486 | pgbench_branches_pkey |            16384
 2017-02-05 15:45:29.75486+01 | 1486305929.75486 | pgbench_tellers_pkey  |            40960
 2017-02-05 15:45:29.75486+01 | 1486305929.75486 | pgbench_accounts_pkey |        225017856

 2017-02-05 15:45:30.829048+01 | 1486305930.82905 | pgbench_branches_pkey |            16384
 2017-02-05 15:45:30.829048+01 | 1486305930.82905 | pgbench_tellers_pkey  |            40960
 2017-02-05 15:45:30.829048+01 | 1486305930.82905 | pgbench_accounts_pkey |        225017856

 2017-02-05 15:45:31.900355+01 | 1486305931.90036 | pgbench_branches_pkey |            16384
 2017-02-05 15:45:31.900355+01 | 1486305931.90036 | pgbench_tellers_pkey  |            40960
 2017-02-05 15:45:31.900355+01 | 1486305931.90036 | pgbench_accounts_pkey |        225017856

 2017-02-05 15:45:32.986177+01 | 1486305932.98618 | pgbench_branches_pkey |            16384
 2017-02-05 15:45:32.986177+01 | 1486305932.98618 | pgbench_tellers_pkey  |            40960
 2017-02-05 15:45:32.986177+01 | 1486305932.98618 | pgbench_accounts_pkey |        225017856

 2017-02-05 15:45:34.062832+01 | 1486305934.06283 | pgbench_branches_pkey |            16384
 2017-02-05 15:45:34.062832+01 | 1486305934.06283 | pgbench_tellers_pkey  |            40960
 2017-02-05 15:45:34.062832+01 | 1486305934.06283 | pgbench_accounts_pkey |        225017856

 2017-02-05 15:45:35.151287+01 | 1486305935.15129 | pgbench_branches_pkey |            16384
 2017-02-05 15:45:35.151287+01 | 1486305935.15129 | pgbench_tellers_pkey  |            40960
 2017-02-05 15:45:35.151287+01 | 1486305935.15129 | pgbench_accounts_pkey |        225017856

 2017-02-05 15:45:36.22631+01 | 1486305936.22631 | pgbench_branches_pkey |            16384
 2017-02-05 15:45:36.22631+01 | 1486305936.22631 | pgbench_tellers_pkey  |            40960
 2017-02-05 15:45:36.22631+01 | 1486305936.22631 | pgbench_accounts_pkey |        225017856

 2017-02-05 15:45:37.298668+01 | 1486305937.29867 | pgbench_branches_pkey |            16384
 2017-02-05 15:45:37.298668+01 | 1486305937.29867 | pgbench_tellers_pkey  |            40960
 2017-02-05 15:45:37.298668+01 | 1486305937.29867 | pgbench_accounts_pkey |        225017856

 2017-02-05 15:45:38.376814+01 | 1486305938.37681 | pgbench_branches_pkey |            16384
 2017-02-05 15:45:38.376814+01 | 1486305938.37681 | pgbench_tellers_pkey  |            40960
 2017-02-05 15:45:38.376814+01 | 1486305938.37681 | pgbench_accounts_pkey |        225017856

 2017-02-05 15:45:39.457082+01 | 1486305939.45708 | pgbench_branches_pkey |            16384
 2017-02-05 15:45:39.457082+01 | 1486305939.45708 | pgbench_tellers_pkey  |            40960
 2017-02-05 15:45:39.457082+01 | 1486305939.45708 | pgbench_accounts_pkey |        225017856

 2017-02-05 15:45:40.536992+01 | 1486305940.53699 | pgbench_branches_pkey |            16384
 2017-02-05 15:45:40.536992+01 | 1486305940.53699 | pgbench_tellers_pkey  |            40960
 2017-02-05 15:45:40.536992+01 | 1486305940.53699 | pgbench_accounts_pkey |        225017856

 2017-02-05 15:45:41.61096+01 | 1486305941.61096 | pgbench_branches_pkey |            16384
 2017-02-05 15:45:41.61096+01 | 1486305941.61096 | pgbench_tellers_pkey  |            40960
 2017-02-05 15:45:41.61096+01 | 1486305941.61096 | pgbench_accounts_pkey |        225017856

 2017-02-05 15:45:42.691151+01 | 1486305942.69115 | pgbench_branches_pkey |            16384
 2017-02-05 15:45:42.691151+01 | 1486305942.69115 | pgbench_tellers_pkey  |            40960
 2017-02-05 15:45:42.691151+01 | 1486305942.69115 | pgbench_accounts_pkey |        225017856

 2017-02-05 15:45:43.764969+01 | 1486305943.76497 | pgbench_branches_pkey |            16384
 2017-02-05 15:45:43.764969+01 | 1486305943.76497 | pgbench_tellers_pkey  |            40960
 2017-02-05 15:45:43.764969+01 | 1486305943.76497 | pgbench_accounts_pkey |        225017856

 2017-02-05 15:45:44.839599+01 | 1486305944.8396 | pgbench_branches_pkey |            16384
 2017-02-05 15:45:44.839599+01 | 1486305944.8396 | pgbench_tellers_pkey  |            40960
 2017-02-05 15:45:44.839599+01 | 1486305944.8396 | pgbench_accounts_pkey |        225017856

 2017-02-05 15:45:45.919542+01 | 1486305945.91954 | pgbench_branches_pkey |            16384
 2017-02-05 15:45:45.919542+01 | 1486305945.91954 | pgbench_tellers_pkey  |            40960
 2017-02-05 15:45:45.919542+01 | 1486305945.91954 | pgbench_accounts_pkey |        225017856

 2017-02-05 15:45:47.003451+01 | 1486305947.00345 | pgbench_branches_pkey |            16384
 2017-02-05 15:45:47.003451+01 | 1486305947.00345 | pgbench_tellers_pkey  |            40960
 2017-02-05 15:45:47.003451+01 | 1486305947.00345 | pgbench_accounts_pkey |        225017856

 2017-02-05 15:45:48.079995+01 | 1486305948.07999 | pgbench_branches_pkey |            16384
 2017-02-05 15:45:48.079995+01 | 1486305948.07999 | pgbench_tellers_pkey  |            40960
 2017-02-05 15:45:48.079995+01 | 1486305948.07999 | pgbench_accounts_pkey |        225017856

 2017-02-05 15:45:49.158378+01 | 1486305949.15838 | pgbench_branches_pkey |            16384
 2017-02-05 15:45:49.158378+01 | 1486305949.15838 | pgbench_tellers_pkey  |            40960
 2017-02-05 15:45:49.158378+01 | 1486305949.15838 | pgbench_accounts_pkey |        225017856

 2017-02-05 15:45:50.232303+01 | 1486305950.2323 | pgbench_branches_pkey |            16384
 2017-02-05 15:45:50.232303+01 | 1486305950.2323 | pgbench_tellers_pkey  |            40960
 2017-02-05 15:45:50.232303+01 | 1486305950.2323 | pgbench_accounts_pkey |        225017856

 2017-02-05 15:45:51.310732+01 | 1486305951.31073 | pgbench_branches_pkey |            16384
 2017-02-05 15:45:51.310732+01 | 1486305951.31073 | pgbench_tellers_pkey  |            40960
 2017-02-05 15:45:51.310732+01 | 1486305951.31073 | pgbench_accounts_pkey |        225017856

 2017-02-05 15:45:52.392159+01 | 1486305952.39216 | pgbench_branches_pkey |            16384
 2017-02-05 15:45:52.392159+01 | 1486305952.39216 | pgbench_tellers_pkey  |            40960
 2017-02-05 15:45:52.392159+01 | 1486305952.39216 | pgbench_accounts_pkey |        225017856

 2017-02-05 15:45:53.473588+01 | 1486305953.47359 | pgbench_branches_pkey |            16384
 2017-02-05 15:45:53.473588+01 | 1486305953.47359 | pgbench_tellers_pkey  |            40960
 2017-02-05 15:45:53.473588+01 | 1486305953.47359 | pgbench_accounts_pkey |        225017856

 2017-02-05 15:45:54.55569+01 | 1486305954.55569 | pgbench_branches_pkey |            16384
 2017-02-05 15:45:54.55569+01 | 1486305954.55569 | pgbench_tellers_pkey  |            40960
 2017-02-05 15:45:54.55569+01 | 1486305954.55569 | pgbench_accounts_pkey |        225017856

 2017-02-05 15:45:55.634615+01 | 1486305955.63461 | pgbench_branches_pkey |            16384
 2017-02-05 15:45:55.634615+01 | 1486305955.63461 | pgbench_tellers_pkey  |            40960
 2017-02-05 15:45:55.634615+01 | 1486305955.63461 | pgbench_accounts_pkey |        225017856

 2017-02-05 15:45:56.716547+01 | 1486305956.71655 | pgbench_branches_pkey |            16384
 2017-02-05 15:45:56.716547+01 | 1486305956.71655 | pgbench_tellers_pkey  |            40960
 2017-02-05 15:45:56.716547+01 | 1486305956.71655 | pgbench_accounts_pkey |        225017856

 2017-02-05 15:45:57.799266+01 | 1486305957.79927 | pgbench_branches_pkey |            16384
 2017-02-05 15:45:57.799266+01 | 1486305957.79927 | pgbench_tellers_pkey  |            40960
 2017-02-05 15:45:57.799266+01 | 1486305957.79927 | pgbench_accounts_pkey |        225017856

 2017-02-05 15:45:58.876106+01 | 1486305958.87611 | pgbench_branches_pkey |            16384
 2017-02-05 15:45:58.876106+01 | 1486305958.87611 | pgbench_tellers_pkey  |            40960
 2017-02-05 15:45:58.876106+01 | 1486305958.87611 | pgbench_accounts_pkey |        225017856

 2017-02-05 15:45:59.953941+01 | 1486305959.95394 | pgbench_branches_pkey |            16384
 2017-02-05 15:45:59.953941+01 | 1486305959.95394 | pgbench_tellers_pkey  |            40960
 2017-02-05 15:45:59.953941+01 | 1486305959.95394 | pgbench_accounts_pkey |        225017856

 2017-02-05 15:46:01.040576+01 | 1486305961.04058 | pgbench_branches_pkey |            16384
 2017-02-05 15:46:01.040576+01 | 1486305961.04058 | pgbench_tellers_pkey  |            40960
 2017-02-05 15:46:01.040576+01 | 1486305961.04058 | pgbench_accounts_pkey |        225017856

 2017-02-05 15:46:02.120696+01 | 1486305962.1207 | pgbench_branches_pkey |            16384
 2017-02-05 15:46:02.120696+01 | 1486305962.1207 | pgbench_tellers_pkey  |            40960
 2017-02-05 15:46:02.120696+01 | 1486305962.1207 | pgbench_accounts_pkey |        225017856

 2017-02-05 15:46:03.199777+01 | 1486305963.19978 | pgbench_branches_pkey |            16384
 2017-02-05 15:46:03.199777+01 | 1486305963.19978 | pgbench_tellers_pkey  |            40960
 2017-02-05 15:46:03.199777+01 | 1486305963.19978 | pgbench_accounts_pkey |        225017856

 2017-02-05 15:46:04.27858+01 | 1486305964.27858 | pgbench_branches_pkey |            16384
 2017-02-05 15:46:04.27858+01 | 1486305964.27858 | pgbench_tellers_pkey  |            40960
 2017-02-05 15:46:04.27858+01 | 1486305964.27858 | pgbench_accounts_pkey |        225017856

 2017-02-05 15:46:05.362298+01 | 1486305965.3623 | pgbench_branches_pkey |            16384
 2017-02-05 15:46:05.362298+01 | 1486305965.3623 | pgbench_tellers_pkey  |            40960
 2017-02-05 15:46:05.362298+01 | 1486305965.3623 | pgbench_accounts_pkey |        225017856

 2017-02-05 15:46:06.446628+01 | 1486305966.44663 | pgbench_branches_pkey |            16384
 2017-02-05 15:46:06.446628+01 | 1486305966.44663 | pgbench_tellers_pkey  |            40960
 2017-02-05 15:46:06.446628+01 | 1486305966.44663 | pgbench_accounts_pkey |        225017856

 2017-02-05 15:46:07.539423+01 | 1486305967.53942 | pgbench_branches_pkey |            16384
 2017-02-05 15:46:07.539423+01 | 1486305967.53942 | pgbench_tellers_pkey  |            40960
 2017-02-05 15:46:07.539423+01 | 1486305967.53942 | pgbench_accounts_pkey |        225017856

 2017-02-05 15:46:08.62843+01 | 1486305968.62843 | pgbench_branches_pkey |            16384
 2017-02-05 15:46:08.62843+01 | 1486305968.62843 | pgbench_tellers_pkey  |            40960
 2017-02-05 15:46:08.62843+01 | 1486305968.62843 | pgbench_accounts_pkey |        225017856

 2017-02-05 15:46:09.71278+01 | 1486305969.71278 | pgbench_branches_pkey |            16384
 2017-02-05 15:46:09.71278+01 | 1486305969.71278 | pgbench_tellers_pkey  |            40960
 2017-02-05 15:46:09.71278+01 | 1486305969.71278 | pgbench_accounts_pkey |        225017856

 2017-02-05 15:46:10.795397+01 | 1486305970.7954 | pgbench_branches_pkey |            16384
 2017-02-05 15:46:10.795397+01 | 1486305970.7954 | pgbench_tellers_pkey  |            40960
 2017-02-05 15:46:10.795397+01 | 1486305970.7954 | pgbench_accounts_pkey |        225017856

 2017-02-05 15:46:11.880275+01 | 1486305971.88028 | pgbench_branches_pkey |            16384
 2017-02-05 15:46:11.880275+01 | 1486305971.88028 | pgbench_tellers_pkey  |            40960
 2017-02-05 15:46:11.880275+01 | 1486305971.88028 | pgbench_accounts_pkey |        225017856

 2017-02-05 15:46:12.959428+01 | 1486305972.95943 | pgbench_branches_pkey |            16384
 2017-02-05 15:46:12.959428+01 | 1486305972.95943 | pgbench_tellers_pkey  |            40960
 2017-02-05 15:46:12.959428+01 | 1486305972.95943 | pgbench_accounts_pkey |        225017856

 2017-02-05 15:46:14.033065+01 | 1486305974.03307 | pgbench_branches_pkey |            16384
 2017-02-05 15:46:14.033065+01 | 1486305974.03307 | pgbench_tellers_pkey  |            40960
 2017-02-05 15:46:14.033065+01 | 1486305974.03307 | pgbench_accounts_pkey |        225017856

 2017-02-05 15:46:15.120149+01 | 1486305975.12015 | pgbench_branches_pkey |            16384
 2017-02-05 15:46:15.120149+01 | 1486305975.12015 | pgbench_tellers_pkey  |            40960
 2017-02-05 15:46:15.120149+01 | 1486305975.12015 | pgbench_accounts_pkey |        225017856

 2017-02-05 15:46:16.204111+01 | 1486305976.20411 | pgbench_branches_pkey |            16384
 2017-02-05 15:46:16.204111+01 | 1486305976.20411 | pgbench_tellers_pkey  |            40960
 2017-02-05 15:46:16.204111+01 | 1486305976.20411 | pgbench_accounts_pkey |        225017856

 2017-02-05 15:46:17.288111+01 | 1486305977.28811 | pgbench_branches_pkey |            16384
 2017-02-05 15:46:17.288111+01 | 1486305977.28811 | pgbench_tellers_pkey  |            40960
 2017-02-05 15:46:17.288111+01 | 1486305977.28811 | pgbench_accounts_pkey |        225017856

 2017-02-05 15:46:18.373934+01 | 1486305978.37393 | pgbench_branches_pkey |            16384
 2017-02-05 15:46:18.373934+01 | 1486305978.37393 | pgbench_tellers_pkey  |            40960
 2017-02-05 15:46:18.373934+01 | 1486305978.37393 | pgbench_accounts_pkey |        225017856

 2017-02-05 15:46:19.455127+01 | 1486305979.45513 | pgbench_branches_pkey |            16384
 2017-02-05 15:46:19.455127+01 | 1486305979.45513 | pgbench_tellers_pkey  |            40960
 2017-02-05 15:46:19.455127+01 | 1486305979.45513 | pgbench_accounts_pkey |        225017856

 2017-02-05 15:46:20.537246+01 | 1486305980.53725 | pgbench_branches_pkey |            16384
 2017-02-05 15:46:20.537246+01 | 1486305980.53725 | pgbench_tellers_pkey  |            40960
 2017-02-05 15:46:20.537246+01 | 1486305980.53725 | pgbench_accounts_pkey |        225017856

 2017-02-05 15:46:21.614267+01 | 1486305981.61427 | pgbench_branches_pkey |            16384
 2017-02-05 15:46:21.614267+01 | 1486305981.61427 | pgbench_tellers_pkey  |            40960
 2017-02-05 15:46:21.614267+01 | 1486305981.61427 | pgbench_accounts_pkey |        225017856

 2017-02-05 15:46:22.687683+01 | 1486305982.68768 | pgbench_branches_pkey |            16384
 2017-02-05 15:46:22.687683+01 | 1486305982.68768 | pgbench_tellers_pkey  |            40960
 2017-02-05 15:46:22.687683+01 | 1486305982.68768 | pgbench_accounts_pkey |        225017856

 2017-02-05 15:46:23.765245+01 | 1486305983.76524 | pgbench_branches_pkey |            16384
 2017-02-05 15:46:23.765245+01 | 1486305983.76524 | pgbench_tellers_pkey  |            40960
 2017-02-05 15:46:23.765245+01 | 1486305983.76524 | pgbench_accounts_pkey |        225017856

 2017-02-05 15:46:24.845962+01 | 1486305984.84596 | pgbench_branches_pkey |            16384
 2017-02-05 15:46:24.845962+01 | 1486305984.84596 | pgbench_tellers_pkey  |            40960
 2017-02-05 15:46:24.845962+01 | 1486305984.84596 | pgbench_accounts_pkey |        225017856

 2017-02-05 15:46:25.926958+01 | 1486305985.92696 | pgbench_branches_pkey |            16384
 2017-02-05 15:46:25.926958+01 | 1486305985.92696 | pgbench_tellers_pkey  |            40960
 2017-02-05 15:46:25.926958+01 | 1486305985.92696 | pgbench_accounts_pkey |        225017856

 2017-02-05 15:46:27.010347+01 | 1486305987.01035 | pgbench_branches_pkey |            16384
 2017-02-05 15:46:27.010347+01 | 1486305987.01035 | pgbench_tellers_pkey  |            40960
 2017-02-05 15:46:27.010347+01 | 1486305987.01035 | pgbench_accounts_pkey |        225017856

 2017-02-05 15:46:28.08906+01 | 1486305988.08906 | pgbench_branches_pkey |            16384
 2017-02-05 15:46:28.08906+01 | 1486305988.08906 | pgbench_tellers_pkey  |            40960
 2017-02-05 15:46:28.08906+01 | 1486305988.08906 | pgbench_accounts_pkey |        225017856

 2017-02-05 15:46:29.168684+01 | 1486305989.16868 | pgbench_branches_pkey |            16384
 2017-02-05 15:46:29.168684+01 | 1486305989.16868 | pgbench_tellers_pkey  |            40960
 2017-02-05 15:46:29.168684+01 | 1486305989.16868 | pgbench_accounts_pkey |        225017856

 2017-02-05 15:46:30.249259+01 | 1486305990.24926 | pgbench_branches_pkey |            16384
 2017-02-05 15:46:30.249259+01 | 1486305990.24926 | pgbench_tellers_pkey  |            40960
 2017-02-05 15:46:30.249259+01 | 1486305990.24926 | pgbench_accounts_pkey |        225017856

 2017-02-05 15:46:31.322688+01 | 1486305991.32269 | pgbench_branches_pkey |            16384
 2017-02-05 15:46:31.322688+01 | 1486305991.32269 | pgbench_tellers_pkey  |            40960
 2017-02-05 15:46:31.322688+01 | 1486305991.32269 | pgbench_accounts_pkey |        225017856

 2017-02-05 15:46:32.400589+01 | 1486305992.40059 | pgbench_branches_pkey |            16384
 2017-02-05 15:46:32.400589+01 | 1486305992.40059 | pgbench_tellers_pkey  |            40960
 2017-02-05 15:46:32.400589+01 | 1486305992.40059 | pgbench_accounts_pkey |        225017856

 2017-02-05 15:46:33.475369+01 | 1486305993.47537 | pgbench_branches_pkey |            16384
 2017-02-05 15:46:33.475369+01 | 1486305993.47537 | pgbench_tellers_pkey  |            40960
 2017-02-05 15:46:33.475369+01 | 1486305993.47537 | pgbench_accounts_pkey |        225017856

 2017-02-05 15:46:34.559588+01 | 1486305994.55959 | pgbench_branches_pkey |            16384
 2017-02-05 15:46:34.559588+01 | 1486305994.55959 | pgbench_tellers_pkey  |            40960
 2017-02-05 15:46:34.559588+01 | 1486305994.55959 | pgbench_accounts_pkey |        225017856

 2017-02-05 15:46:35.6355+01 | 1486305995.6355 | pgbench_branches_pkey |            16384
 2017-02-05 15:46:35.6355+01 | 1486305995.6355 | pgbench_tellers_pkey  |            40960
 2017-02-05 15:46:35.6355+01 | 1486305995.6355 | pgbench_accounts_pkey |        225017856

 2017-02-05 15:46:36.714688+01 | 1486305996.71469 | pgbench_branches_pkey |            16384
 2017-02-05 15:46:36.714688+01 | 1486305996.71469 | pgbench_tellers_pkey  |            40960
 2017-02-05 15:46:36.714688+01 | 1486305996.71469 | pgbench_accounts_pkey |        225017856

 2017-02-05 15:46:37.798697+01 | 1486305997.7987 | pgbench_branches_pkey |            16384
 2017-02-05 15:46:37.798697+01 | 1486305997.7987 | pgbench_tellers_pkey  |            40960
 2017-02-05 15:46:37.798697+01 | 1486305997.7987 | pgbench_accounts_pkey |        225017856

 2017-02-05 15:46:38.882762+01 | 1486305998.88276 | pgbench_branches_pkey |            16384
 2017-02-05 15:46:38.882762+01 | 1486305998.88276 | pgbench_tellers_pkey  |            40960
 2017-02-05 15:46:38.882762+01 | 1486305998.88276 | pgbench_accounts_pkey |        225017856

 2017-02-05 15:46:39.956733+01 | 1486305999.95673 | pgbench_branches_pkey |            16384
 2017-02-05 15:46:39.956733+01 | 1486305999.95673 | pgbench_tellers_pkey  |            40960
 2017-02-05 15:46:39.956733+01 | 1486305999.95673 | pgbench_accounts_pkey |        225017856

 2017-02-05 15:46:41.039235+01 | 1486306001.03924 | pgbench_branches_pkey |            16384
 2017-02-05 15:46:41.039235+01 | 1486306001.03924 | pgbench_tellers_pkey  |            40960
 2017-02-05 15:46:41.039235+01 | 1486306001.03924 | pgbench_accounts_pkey |        225017856

 2017-02-05 15:46:42.125094+01 | 1486306002.12509 | pgbench_branches_pkey |            16384
 2017-02-05 15:46:42.125094+01 | 1486306002.12509 | pgbench_tellers_pkey  |            40960
 2017-02-05 15:46:42.125094+01 | 1486306002.12509 | pgbench_accounts_pkey |        225017856

 2017-02-05 15:46:43.199953+01 | 1486306003.19995 | pgbench_branches_pkey |            16384
 2017-02-05 15:46:43.199953+01 | 1486306003.19995 | pgbench_tellers_pkey  |            40960
 2017-02-05 15:46:43.199953+01 | 1486306003.19995 | pgbench_accounts_pkey |        225017856

 2017-02-05 15:46:44.272377+01 | 1486306004.27238 | pgbench_branches_pkey |            16384
 2017-02-05 15:46:44.272377+01 | 1486306004.27238 | pgbench_tellers_pkey  |            40960
 2017-02-05 15:46:44.272377+01 | 1486306004.27238 | pgbench_accounts_pkey |        225017856

 2017-02-05 15:46:45.353117+01 | 1486306005.35312 | pgbench_branches_pkey |            16384
 2017-02-05 15:46:45.353117+01 | 1486306005.35312 | pgbench_tellers_pkey  |            40960
 2017-02-05 15:46:45.353117+01 | 1486306005.35312 | pgbench_accounts_pkey |        225017856

 2017-02-05 15:46:46.436803+01 | 1486306006.4368 | pgbench_branches_pkey |            16384
 2017-02-05 15:46:46.436803+01 | 1486306006.4368 | pgbench_tellers_pkey  |            40960
 2017-02-05 15:46:46.436803+01 | 1486306006.4368 | pgbench_accounts_pkey |        225017856

 2017-02-05 15:46:47.522909+01 | 1486306007.52291 | pgbench_branches_pkey |            16384
 2017-02-05 15:46:47.522909+01 | 1486306007.52291 | pgbench_tellers_pkey  |            40960
 2017-02-05 15:46:47.522909+01 | 1486306007.52291 | pgbench_accounts_pkey |        225017856

 2017-02-05 15:46:48.600404+01 | 1486306008.6004 | pgbench_branches_pkey |            16384
 2017-02-05 15:46:48.600404+01 | 1486306008.6004 | pgbench_tellers_pkey  |            40960
 2017-02-05 15:46:48.600404+01 | 1486306008.6004 | pgbench_accounts_pkey |        225017856

 2017-02-05 15:46:49.680661+01 | 1486306009.68066 | pgbench_branches_pkey |            16384
 2017-02-05 15:46:49.680661+01 | 1486306009.68066 | pgbench_tellers_pkey  |            40960
 2017-02-05 15:46:49.680661+01 | 1486306009.68066 | pgbench_accounts_pkey |        225017856

 2017-02-05 15:46:50.76793+01 | 1486306010.76793 | pgbench_branches_pkey |            16384
 2017-02-05 15:46:50.76793+01 | 1486306010.76793 | pgbench_tellers_pkey  |            40960
 2017-02-05 15:46:50.76793+01 | 1486306010.76793 | pgbench_accounts_pkey |        225017856

 2017-02-05 15:46:51.852293+01 | 1486306011.85229 | pgbench_branches_pkey |            16384
 2017-02-05 15:46:51.852293+01 | 1486306011.85229 | pgbench_tellers_pkey  |            40960
 2017-02-05 15:46:51.852293+01 | 1486306011.85229 | pgbench_accounts_pkey |        225017856

 2017-02-05 15:46:52.927507+01 | 1486306012.92751 | pgbench_branches_pkey |            16384
 2017-02-05 15:46:52.927507+01 | 1486306012.92751 | pgbench_tellers_pkey  |            40960
 2017-02-05 15:46:52.927507+01 | 1486306012.92751 | pgbench_accounts_pkey |        225017856

 2017-02-05 15:46:54.007722+01 | 1486306014.00772 | pgbench_branches_pkey |            16384
 2017-02-05 15:46:54.007722+01 | 1486306014.00772 | pgbench_tellers_pkey  |            40960
 2017-02-05 15:46:54.007722+01 | 1486306014.00772 | pgbench_accounts_pkey |        225017856

 2017-02-05 15:46:55.092719+01 | 1486306015.09272 | pgbench_branches_pkey |            16384
 2017-02-05 15:46:55.092719+01 | 1486306015.09272 | pgbench_tellers_pkey  |            40960
 2017-02-05 15:46:55.092719+01 | 1486306015.09272 | pgbench_accounts_pkey |        225017856

 2017-02-05 15:46:56.178596+01 | 1486306016.1786 | pgbench_branches_pkey |            16384
 2017-02-05 15:46:56.178596+01 | 1486306016.1786 | pgbench_tellers_pkey  |            40960
 2017-02-05 15:46:56.178596+01 | 1486306016.1786 | pgbench_accounts_pkey |        225017856

 2017-02-05 15:46:57.260173+01 | 1486306017.26017 | pgbench_branches_pkey |            16384
 2017-02-05 15:46:57.260173+01 | 1486306017.26017 | pgbench_tellers_pkey  |            40960
 2017-02-05 15:46:57.260173+01 | 1486306017.26017 | pgbench_accounts_pkey |        225017856

 2017-02-05 15:46:58.336233+01 | 1486306018.33623 | pgbench_branches_pkey |            16384
 2017-02-05 15:46:58.336233+01 | 1486306018.33623 | pgbench_tellers_pkey  |            40960
 2017-02-05 15:46:58.336233+01 | 1486306018.33623 | pgbench_accounts_pkey |        225017856

 2017-02-05 15:46:59.412715+01 | 1486306019.41271 | pgbench_branches_pkey |            16384
 2017-02-05 15:46:59.412715+01 | 1486306019.41271 | pgbench_tellers_pkey  |            40960
 2017-02-05 15:46:59.412715+01 | 1486306019.41271 | pgbench_accounts_pkey |        225017856

 2017-02-05 15:47:00.482896+01 | 1486306020.4829 | pgbench_branches_pkey |            16384
 2017-02-05 15:47:00.482896+01 | 1486306020.4829 | pgbench_tellers_pkey  |            40960
 2017-02-05 15:47:00.482896+01 | 1486306020.4829 | pgbench_accounts_pkey |        225017856

 2017-02-05 15:47:01.563739+01 | 1486306021.56374 | pgbench_branches_pkey |            16384
 2017-02-05 15:47:01.563739+01 | 1486306021.56374 | pgbench_tellers_pkey  |            40960
 2017-02-05 15:47:01.563739+01 | 1486306021.56374 | pgbench_accounts_pkey |        225017856

 2017-02-05 15:47:02.649501+01 | 1486306022.6495 | pgbench_branches_pkey |            16384
 2017-02-05 15:47:02.649501+01 | 1486306022.6495 | pgbench_tellers_pkey  |            40960
 2017-02-05 15:47:02.649501+01 | 1486306022.6495 | pgbench_accounts_pkey |        225017856

 2017-02-05 15:47:03.729359+01 | 1486306023.72936 | pgbench_branches_pkey |            16384
 2017-02-05 15:47:03.729359+01 | 1486306023.72936 | pgbench_tellers_pkey  |            40960
 2017-02-05 15:47:03.729359+01 | 1486306023.72936 | pgbench_accounts_pkey |        225017856

 2017-02-05 15:47:04.804799+01 | 1486306024.8048 | pgbench_branches_pkey |            16384
 2017-02-05 15:47:04.804799+01 | 1486306024.8048 | pgbench_tellers_pkey  |            40960
 2017-02-05 15:47:04.804799+01 | 1486306024.8048 | pgbench_accounts_pkey |        225017856

 2017-02-05 15:47:05.880969+01 | 1486306025.88097 | pgbench_branches_pkey |            16384
 2017-02-05 15:47:05.880969+01 | 1486306025.88097 | pgbench_tellers_pkey  |            40960
 2017-02-05 15:47:05.880969+01 | 1486306025.88097 | pgbench_accounts_pkey |        225017856

 2017-02-05 15:47:06.957392+01 | 1486306026.95739 | pgbench_branches_pkey |            16384
 2017-02-05 15:47:06.957392+01 | 1486306026.95739 | pgbench_tellers_pkey  |            40960
 2017-02-05 15:47:06.957392+01 | 1486306026.95739 | pgbench_accounts_pkey |        225017856

 2017-02-05 15:47:08.030281+01 | 1486306028.03028 | pgbench_branches_pkey |            16384
 2017-02-05 15:47:08.030281+01 | 1486306028.03028 | pgbench_tellers_pkey  |            40960
 2017-02-05 15:47:08.030281+01 | 1486306028.03028 | pgbench_accounts_pkey |        225017856

 2017-02-05 15:47:09.106193+01 | 1486306029.10619 | pgbench_branches_pkey |            16384
 2017-02-05 15:47:09.106193+01 | 1486306029.10619 | pgbench_tellers_pkey  |            40960
 2017-02-05 15:47:09.106193+01 | 1486306029.10619 | pgbench_accounts_pkey |        225017856

 2017-02-05 15:47:10.180653+01 | 1486306030.18065 | pgbench_branches_pkey |            16384
 2017-02-05 15:47:10.180653+01 | 1486306030.18065 | pgbench_tellers_pkey  |            40960
 2017-02-05 15:47:10.180653+01 | 1486306030.18065 | pgbench_accounts_pkey |        225017856

 2017-02-05 15:47:11.256182+01 | 1486306031.25618 | pgbench_branches_pkey |            16384
 2017-02-05 15:47:11.256182+01 | 1486306031.25618 | pgbench_tellers_pkey  |            40960
 2017-02-05 15:47:11.256182+01 | 1486306031.25618 | pgbench_accounts_pkey |        225017856

 2017-02-05 15:47:12.33577+01 | 1486306032.33577 | pgbench_branches_pkey |            16384
 2017-02-05 15:47:12.33577+01 | 1486306032.33577 | pgbench_tellers_pkey  |            40960
 2017-02-05 15:47:12.33577+01 | 1486306032.33577 | pgbench_accounts_pkey |        225017856

 2017-02-05 15:47:13.410333+01 | 1486306033.41033 | pgbench_branches_pkey |            16384
 2017-02-05 15:47:13.410333+01 | 1486306033.41033 | pgbench_tellers_pkey  |            40960
 2017-02-05 15:47:13.410333+01 | 1486306033.41033 | pgbench_accounts_pkey |        225017856

 2017-02-05 15:47:14.490666+01 | 1486306034.49067 | pgbench_branches_pkey |            16384
 2017-02-05 15:47:14.490666+01 | 1486306034.49067 | pgbench_tellers_pkey  |            40960
 2017-02-05 15:47:14.490666+01 | 1486306034.49067 | pgbench_accounts_pkey |        225017856

 2017-02-05 15:47:15.567555+01 | 1486306035.56755 | pgbench_branches_pkey |            16384
 2017-02-05 15:47:15.567555+01 | 1486306035.56755 | pgbench_tellers_pkey  |            40960
 2017-02-05 15:47:15.567555+01 | 1486306035.56755 | pgbench_accounts_pkey |        225017856

 2017-02-05 15:47:16.647331+01 | 1486306036.64733 | pgbench_branches_pkey |            16384
 2017-02-05 15:47:16.647331+01 | 1486306036.64733 | pgbench_tellers_pkey  |            40960
 2017-02-05 15:47:16.647331+01 | 1486306036.64733 | pgbench_accounts_pkey |        225017856

 2017-02-05 15:47:17.736869+01 | 1486306037.73687 | pgbench_branches_pkey |            16384
 2017-02-05 15:47:17.736869+01 | 1486306037.73687 | pgbench_tellers_pkey  |            40960
 2017-02-05 15:47:17.736869+01 | 1486306037.73687 | pgbench_accounts_pkey |        225017856

 2017-02-05 15:47:18.816389+01 | 1486306038.81639 | pgbench_branches_pkey |            16384
 2017-02-05 15:47:18.816389+01 | 1486306038.81639 | pgbench_tellers_pkey  |            40960
 2017-02-05 15:47:18.816389+01 | 1486306038.81639 | pgbench_accounts_pkey |        225017856

 2017-02-05 15:47:19.887606+01 | 1486306039.88761 | pgbench_branches_pkey |            16384
 2017-02-05 15:47:19.887606+01 | 1486306039.88761 | pgbench_tellers_pkey  |            40960
 2017-02-05 15:47:19.887606+01 | 1486306039.88761 | pgbench_accounts_pkey |        225017856

 2017-02-05 15:47:20.967753+01 | 1486306040.96775 | pgbench_branches_pkey |            16384
 2017-02-05 15:47:20.967753+01 | 1486306040.96775 | pgbench_tellers_pkey  |            40960
 2017-02-05 15:47:20.967753+01 | 1486306040.96775 | pgbench_accounts_pkey |        225017856

 2017-02-05 15:47:22.053044+01 | 1486306042.05304 | pgbench_branches_pkey |            16384
 2017-02-05 15:47:22.053044+01 | 1486306042.05304 | pgbench_tellers_pkey  |            40960
 2017-02-05 15:47:22.053044+01 | 1486306042.05304 | pgbench_accounts_pkey |        225017856

 2017-02-05 15:47:23.134011+01 | 1486306043.13401 | pgbench_branches_pkey |            16384
 2017-02-05 15:47:23.134011+01 | 1486306043.13401 | pgbench_tellers_pkey  |            40960
 2017-02-05 15:47:23.134011+01 | 1486306043.13401 | pgbench_accounts_pkey |        225017856

 2017-02-05 15:47:24.222063+01 | 1486306044.22206 | pgbench_branches_pkey |            16384
 2017-02-05 15:47:24.222063+01 | 1486306044.22206 | pgbench_tellers_pkey  |            40960
 2017-02-05 15:47:24.222063+01 | 1486306044.22206 | pgbench_accounts_pkey |        225017856

 2017-02-05 15:47:25.292774+01 | 1486306045.29277 | pgbench_branches_pkey |            16384
 2017-02-05 15:47:25.292774+01 | 1486306045.29277 | pgbench_tellers_pkey  |            40960
 2017-02-05 15:47:25.292774+01 | 1486306045.29277 | pgbench_accounts_pkey |        225017856

 2017-02-05 15:47:26.377119+01 | 1486306046.37712 | pgbench_branches_pkey |            16384
 2017-02-05 15:47:26.377119+01 | 1486306046.37712 | pgbench_tellers_pkey  |            40960
 2017-02-05 15:47:26.377119+01 | 1486306046.37712 | pgbench_accounts_pkey |        225017856

 2017-02-05 15:47:27.456519+01 | 1486306047.45652 | pgbench_branches_pkey |            16384
 2017-02-05 15:47:27.456519+01 | 1486306047.45652 | pgbench_tellers_pkey  |            40960
 2017-02-05 15:47:27.456519+01 | 1486306047.45652 | pgbench_accounts_pkey |        225017856

 2017-02-05 15:47:28.544089+01 | 1486306048.54409 | pgbench_branches_pkey |            16384
 2017-02-05 15:47:28.544089+01 | 1486306048.54409 | pgbench_tellers_pkey  |            40960
 2017-02-05 15:47:28.544089+01 | 1486306048.54409 | pgbench_accounts_pkey |        225017856

 2017-02-05 15:47:29.616625+01 | 1486306049.61663 | pgbench_branches_pkey |            16384
 2017-02-05 15:47:29.616625+01 | 1486306049.61663 | pgbench_tellers_pkey  |            40960
 2017-02-05 15:47:29.616625+01 | 1486306049.61663 | pgbench_accounts_pkey |        225017856

 2017-02-05 15:47:30.696303+01 | 1486306050.6963 | pgbench_branches_pkey |            16384
 2017-02-05 15:47:30.696303+01 | 1486306050.6963 | pgbench_tellers_pkey  |            40960
 2017-02-05 15:47:30.696303+01 | 1486306050.6963 | pgbench_accounts_pkey |        225017856

 2017-02-05 15:47:31.775766+01 | 1486306051.77577 | pgbench_branches_pkey |            16384
 2017-02-05 15:47:31.775766+01 | 1486306051.77577 | pgbench_tellers_pkey  |            40960
 2017-02-05 15:47:31.775766+01 | 1486306051.77577 | pgbench_accounts_pkey |        225017856

 2017-02-05 15:47:32.858064+01 | 1486306052.85806 | pgbench_branches_pkey |            16384
 2017-02-05 15:47:32.858064+01 | 1486306052.85806 | pgbench_tellers_pkey  |            40960
 2017-02-05 15:47:32.858064+01 | 1486306052.85806 | pgbench_accounts_pkey |        225017856

 2017-02-05 15:47:33.936105+01 | 1486306053.93611 | pgbench_branches_pkey |            16384
 2017-02-05 15:47:33.936105+01 | 1486306053.93611 | pgbench_tellers_pkey  |            40960
 2017-02-05 15:47:33.936105+01 | 1486306053.93611 | pgbench_accounts_pkey |        225017856

 2017-02-05 15:47:35.013901+01 | 1486306055.0139 | pgbench_branches_pkey |            16384
 2017-02-05 15:47:35.013901+01 | 1486306055.0139 | pgbench_tellers_pkey  |            40960
 2017-02-05 15:47:35.013901+01 | 1486306055.0139 | pgbench_accounts_pkey |        225017856

 2017-02-05 15:47:36.088089+01 | 1486306056.08809 | pgbench_branches_pkey |            16384
 2017-02-05 15:47:36.088089+01 | 1486306056.08809 | pgbench_tellers_pkey  |            40960
 2017-02-05 15:47:36.088089+01 | 1486306056.08809 | pgbench_accounts_pkey |        225017856

 2017-02-05 15:47:37.167806+01 | 1486306057.16781 | pgbench_branches_pkey |            16384
 2017-02-05 15:47:37.167806+01 | 1486306057.16781 | pgbench_tellers_pkey  |            40960
 2017-02-05 15:47:37.167806+01 | 1486306057.16781 | pgbench_accounts_pkey |        225017856

 2017-02-05 15:47:38.24918+01 | 1486306058.24918 | pgbench_branches_pkey |            16384
 2017-02-05 15:47:38.24918+01 | 1486306058.24918 | pgbench_tellers_pkey  |            40960
 2017-02-05 15:47:38.24918+01 | 1486306058.24918 | pgbench_accounts_pkey |        225017856

 2017-02-05 15:47:39.327677+01 | 1486306059.32768 | pgbench_branches_pkey |            16384
 2017-02-05 15:47:39.327677+01 | 1486306059.32768 | pgbench_tellers_pkey  |            40960
 2017-02-05 15:47:39.327677+01 | 1486306059.32768 | pgbench_accounts_pkey |        225017856

 2017-02-05 15:47:40.404976+01 | 1486306060.40498 | pgbench_branches_pkey |            16384
 2017-02-05 15:47:40.404976+01 | 1486306060.40498 | pgbench_tellers_pkey  |            40960
 2017-02-05 15:47:40.404976+01 | 1486306060.40498 | pgbench_accounts_pkey |        225017856

 2017-02-05 15:47:41.483036+01 | 1486306061.48304 | pgbench_branches_pkey |            16384
 2017-02-05 15:47:41.483036+01 | 1486306061.48304 | pgbench_tellers_pkey  |            40960
 2017-02-05 15:47:41.483036+01 | 1486306061.48304 | pgbench_accounts_pkey |        225017856

 2017-02-05 15:47:42.562+01 | 1486306062.562 | pgbench_branches_pkey |            16384
 2017-02-05 15:47:42.562+01 | 1486306062.562 | pgbench_tellers_pkey  |            40960
 2017-02-05 15:47:42.562+01 | 1486306062.562 | pgbench_accounts_pkey |        225017856

 2017-02-05 15:47:43.638417+01 | 1486306063.63842 | pgbench_branches_pkey |            16384
 2017-02-05 15:47:43.638417+01 | 1486306063.63842 | pgbench_tellers_pkey  |            40960
 2017-02-05 15:47:43.638417+01 | 1486306063.63842 | pgbench_accounts_pkey |        225017856

 2017-02-05 15:47:44.718876+01 | 1486306064.71888 | pgbench_branches_pkey |            16384
 2017-02-05 15:47:44.718876+01 | 1486306064.71888 | pgbench_tellers_pkey  |            40960
 2017-02-05 15:47:44.718876+01 | 1486306064.71888 | pgbench_accounts_pkey |        225017856

 2017-02-05 15:47:45.795148+01 | 1486306065.79515 | pgbench_branches_pkey |            16384
 2017-02-05 15:47:45.795148+01 | 1486306065.79515 | pgbench_tellers_pkey  |            40960
 2017-02-05 15:47:45.795148+01 | 1486306065.79515 | pgbench_accounts_pkey |        225017856

 2017-02-05 15:47:46.87926+01 | 1486306066.87926 | pgbench_branches_pkey |            16384
 2017-02-05 15:47:46.87926+01 | 1486306066.87926 | pgbench_tellers_pkey  |            40960
 2017-02-05 15:47:46.87926+01 | 1486306066.87926 | pgbench_accounts_pkey |        225017856

 2017-02-05 15:47:47.959027+01 | 1486306067.95903 | pgbench_branches_pkey |            16384
 2017-02-05 15:47:47.959027+01 | 1486306067.95903 | pgbench_tellers_pkey  |            40960
 2017-02-05 15:47:47.959027+01 | 1486306067.95903 | pgbench_accounts_pkey |        225017856

 2017-02-05 15:47:49.0487+01 | 1486306069.0487 | pgbench_branches_pkey |            16384
 2017-02-05 15:47:49.0487+01 | 1486306069.0487 | pgbench_tellers_pkey  |            40960
 2017-02-05 15:47:49.0487+01 | 1486306069.0487 | pgbench_accounts_pkey |        225017856

 2017-02-05 15:47:50.134442+01 | 1486306070.13444 | pgbench_branches_pkey |            16384
 2017-02-05 15:47:50.134442+01 | 1486306070.13444 | pgbench_tellers_pkey  |            40960
 2017-02-05 15:47:50.134442+01 | 1486306070.13444 | pgbench_accounts_pkey |        225017856

 2017-02-05 15:47:51.20772+01 | 1486306071.20772 | pgbench_branches_pkey |            16384
 2017-02-05 15:47:51.20772+01 | 1486306071.20772 | pgbench_tellers_pkey  |            40960
 2017-02-05 15:47:51.20772+01 | 1486306071.20772 | pgbench_accounts_pkey |        225017856

 2017-02-05 15:47:52.289641+01 | 1486306072.28964 | pgbench_branches_pkey |            16384
 2017-02-05 15:47:52.289641+01 | 1486306072.28964 | pgbench_tellers_pkey  |            40960
 2017-02-05 15:47:52.289641+01 | 1486306072.28964 | pgbench_accounts_pkey |        225017856

 2017-02-05 15:47:53.366313+01 | 1486306073.36631 | pgbench_branches_pkey |            16384
 2017-02-05 15:47:53.366313+01 | 1486306073.36631 | pgbench_tellers_pkey  |            40960
 2017-02-05 15:47:53.366313+01 | 1486306073.36631 | pgbench_accounts_pkey |        225017856

 2017-02-05 15:47:54.447362+01 | 1486306074.44736 | pgbench_branches_pkey |            16384
 2017-02-05 15:47:54.447362+01 | 1486306074.44736 | pgbench_tellers_pkey  |            40960
 2017-02-05 15:47:54.447362+01 | 1486306074.44736 | pgbench_accounts_pkey |        225017856

 2017-02-05 15:47:55.526165+01 | 1486306075.52617 | pgbench_branches_pkey |            16384
 2017-02-05 15:47:55.526165+01 | 1486306075.52617 | pgbench_tellers_pkey  |            40960
 2017-02-05 15:47:55.526165+01 | 1486306075.52617 | pgbench_accounts_pkey |        225017856

 2017-02-05 15:47:56.603298+01 | 1486306076.6033 | pgbench_branches_pkey |            16384
 2017-02-05 15:47:56.603298+01 | 1486306076.6033 | pgbench_tellers_pkey  |            40960
 2017-02-05 15:47:56.603298+01 | 1486306076.6033 | pgbench_accounts_pkey |        225017856

 2017-02-05 15:47:57.678487+01 | 1486306077.67849 | pgbench_branches_pkey |            16384
 2017-02-05 15:47:57.678487+01 | 1486306077.67849 | pgbench_tellers_pkey  |            40960
 2017-02-05 15:47:57.678487+01 | 1486306077.67849 | pgbench_accounts_pkey |        225017856

 2017-02-05 15:47:58.753187+01 | 1486306078.75319 | pgbench_branches_pkey |            16384
 2017-02-05 15:47:58.753187+01 | 1486306078.75319 | pgbench_tellers_pkey  |            40960
 2017-02-05 15:47:58.753187+01 | 1486306078.75319 | pgbench_accounts_pkey |        225017856

 2017-02-05 15:47:59.833709+01 | 1486306079.83371 | pgbench_branches_pkey |            16384
 2017-02-05 15:47:59.833709+01 | 1486306079.83371 | pgbench_tellers_pkey  |            40960
 2017-02-05 15:47:59.833709+01 | 1486306079.83371 | pgbench_accounts_pkey |        225017856

 2017-02-05 15:48:00.908774+01 | 1486306080.90877 | pgbench_branches_pkey |            16384
 2017-02-05 15:48:00.908774+01 | 1486306080.90877 | pgbench_tellers_pkey  |            40960
 2017-02-05 15:48:00.908774+01 | 1486306080.90877 | pgbench_accounts_pkey |        225017856

 2017-02-05 15:48:01.990665+01 | 1486306081.99066 | pgbench_branches_pkey |            16384
 2017-02-05 15:48:01.990665+01 | 1486306081.99066 | pgbench_tellers_pkey  |            40960
 2017-02-05 15:48:01.990665+01 | 1486306081.99066 | pgbench_accounts_pkey |        225017856

 2017-02-05 15:48:03.075457+01 | 1486306083.07546 | pgbench_branches_pkey |            16384
 2017-02-05 15:48:03.075457+01 | 1486306083.07546 | pgbench_tellers_pkey  |            40960
 2017-02-05 15:48:03.075457+01 | 1486306083.07546 | pgbench_accounts_pkey |        225017856

 2017-02-05 15:48:04.156629+01 | 1486306084.15663 | pgbench_branches_pkey |            16384
 2017-02-05 15:48:04.156629+01 | 1486306084.15663 | pgbench_tellers_pkey  |            40960
 2017-02-05 15:48:04.156629+01 | 1486306084.15663 | pgbench_accounts_pkey |        225017856

 2017-02-05 15:48:05.234736+01 | 1486306085.23474 | pgbench_branches_pkey |            16384
 2017-02-05 15:48:05.234736+01 | 1486306085.23474 | pgbench_tellers_pkey  |            40960
 2017-02-05 15:48:05.234736+01 | 1486306085.23474 | pgbench_accounts_pkey |        225017856

 2017-02-05 15:48:06.305951+01 | 1486306086.30595 | pgbench_branches_pkey |            16384
 2017-02-05 15:48:06.305951+01 | 1486306086.30595 | pgbench_tellers_pkey  |            40960
 2017-02-05 15:48:06.305951+01 | 1486306086.30595 | pgbench_accounts_pkey |        225017856

 2017-02-05 15:48:07.385997+01 | 1486306087.386 | pgbench_branches_pkey |            16384
 2017-02-05 15:48:07.385997+01 | 1486306087.386 | pgbench_tellers_pkey  |            40960
 2017-02-05 15:48:07.385997+01 | 1486306087.386 | pgbench_accounts_pkey |        225017856

 2017-02-05 15:48:08.470312+01 | 1486306088.47031 | pgbench_branches_pkey |            16384
 2017-02-05 15:48:08.470312+01 | 1486306088.47031 | pgbench_tellers_pkey  |            40960
 2017-02-05 15:48:08.470312+01 | 1486306088.47031 | pgbench_accounts_pkey |        225017856

 2017-02-05 15:48:09.553633+01 | 1486306089.55363 | pgbench_branches_pkey |            16384
 2017-02-05 15:48:09.553633+01 | 1486306089.55363 | pgbench_tellers_pkey  |            40960
 2017-02-05 15:48:09.553633+01 | 1486306089.55363 | pgbench_accounts_pkey |        225017856

 2017-02-05 15:48:10.636498+01 | 1486306090.6365 | pgbench_branches_pkey |            16384
 2017-02-05 15:48:10.636498+01 | 1486306090.6365 | pgbench_tellers_pkey  |            40960
 2017-02-05 15:48:10.636498+01 | 1486306090.6365 | pgbench_accounts_pkey |        225017856

 2017-02-05 15:48:11.719263+01 | 1486306091.71926 | pgbench_branches_pkey |            16384
 2017-02-05 15:48:11.719263+01 | 1486306091.71926 | pgbench_tellers_pkey  |            40960
 2017-02-05 15:48:11.719263+01 | 1486306091.71926 | pgbench_accounts_pkey |        225017856

 2017-02-05 15:48:12.800884+01 | 1486306092.80088 | pgbench_branches_pkey |            16384
 2017-02-05 15:48:12.800884+01 | 1486306092.80088 | pgbench_tellers_pkey  |            40960
 2017-02-05 15:48:12.800884+01 | 1486306092.80088 | pgbench_accounts_pkey |        225017856

 2017-02-05 15:48:13.878011+01 | 1486306093.87801 | pgbench_branches_pkey |            16384
 2017-02-05 15:48:13.878011+01 | 1486306093.87801 | pgbench_tellers_pkey  |            40960
 2017-02-05 15:48:13.878011+01 | 1486306093.87801 | pgbench_accounts_pkey |        225017856

 2017-02-05 15:48:14.95783+01 | 1486306094.95783 | pgbench_branches_pkey |            16384
 2017-02-05 15:48:14.95783+01 | 1486306094.95783 | pgbench_tellers_pkey  |            40960
 2017-02-05 15:48:14.95783+01 | 1486306094.95783 | pgbench_accounts_pkey |        225017856

 2017-02-05 15:48:16.033364+01 | 1486306096.03336 | pgbench_branches_pkey |            16384
 2017-02-05 15:48:16.033364+01 | 1486306096.03336 | pgbench_tellers_pkey  |            40960
 2017-02-05 15:48:16.033364+01 | 1486306096.03336 | pgbench_accounts_pkey |        225017856

 2017-02-05 15:48:17.111317+01 | 1486306097.11132 | pgbench_branches_pkey |            16384
 2017-02-05 15:48:17.111317+01 | 1486306097.11132 | pgbench_tellers_pkey  |            40960
 2017-02-05 15:48:17.111317+01 | 1486306097.11132 | pgbench_accounts_pkey |        225017856

 2017-02-05 15:48:18.19053+01 | 1486306098.19053 | pgbench_branches_pkey |            16384
 2017-02-05 15:48:18.19053+01 | 1486306098.19053 | pgbench_tellers_pkey  |            40960
 2017-02-05 15:48:18.19053+01 | 1486306098.19053 | pgbench_accounts_pkey |        225017856

 2017-02-05 15:48:19.276291+01 | 1486306099.27629 | pgbench_branches_pkey |            16384
 2017-02-05 15:48:19.276291+01 | 1486306099.27629 | pgbench_tellers_pkey  |            40960
 2017-02-05 15:48:19.276291+01 | 1486306099.27629 | pgbench_accounts_pkey |        225017856

 2017-02-05 15:48:20.349729+01 | 1486306100.34973 | pgbench_branches_pkey |            16384
 2017-02-05 15:48:20.349729+01 | 1486306100.34973 | pgbench_tellers_pkey  |            40960
 2017-02-05 15:48:20.349729+01 | 1486306100.34973 | pgbench_accounts_pkey |        225017856

 2017-02-05 15:48:21.43617+01 | 1486306101.43617 | pgbench_branches_pkey |            16384
 2017-02-05 15:48:21.43617+01 | 1486306101.43617 | pgbench_tellers_pkey  |            40960
 2017-02-05 15:48:21.43617+01 | 1486306101.43617 | pgbench_accounts_pkey |        225017856

 2017-02-05 15:48:22.522425+01 | 1486306102.52242 | pgbench_branches_pkey |            16384
 2017-02-05 15:48:22.522425+01 | 1486306102.52242 | pgbench_tellers_pkey  |            40960
 2017-02-05 15:48:22.522425+01 | 1486306102.52242 | pgbench_accounts_pkey |        225017856

 2017-02-05 15:48:23.601434+01 | 1486306103.60143 | pgbench_branches_pkey |            16384
 2017-02-05 15:48:23.601434+01 | 1486306103.60143 | pgbench_tellers_pkey  |            40960
 2017-02-05 15:48:23.601434+01 | 1486306103.60143 | pgbench_accounts_pkey |        225017856

 2017-02-05 15:48:24.679102+01 | 1486306104.6791 | pgbench_branches_pkey |            16384
 2017-02-05 15:48:24.679102+01 | 1486306104.6791 | pgbench_tellers_pkey  |            40960
 2017-02-05 15:48:24.679102+01 | 1486306104.6791 | pgbench_accounts_pkey |        225017856

 2017-02-05 15:48:25.755674+01 | 1486306105.75567 | pgbench_branches_pkey |            16384
 2017-02-05 15:48:25.755674+01 | 1486306105.75567 | pgbench_tellers_pkey  |            40960
 2017-02-05 15:48:25.755674+01 | 1486306105.75567 | pgbench_accounts_pkey |        225017856

 2017-02-05 15:48:26.838791+01 | 1486306106.83879 | pgbench_branches_pkey |            16384
 2017-02-05 15:48:26.838791+01 | 1486306106.83879 | pgbench_tellers_pkey  |            40960
 2017-02-05 15:48:26.838791+01 | 1486306106.83879 | pgbench_accounts_pkey |        225017856

 2017-02-05 15:48:27.921757+01 | 1486306107.92176 | pgbench_branches_pkey |            16384
 2017-02-05 15:48:27.921757+01 | 1486306107.92176 | pgbench_tellers_pkey  |            40960
 2017-02-05 15:48:27.921757+01 | 1486306107.92176 | pgbench_accounts_pkey |        225017856

 2017-02-05 15:48:29.010866+01 | 1486306109.01087 | pgbench_branches_pkey |            16384
 2017-02-05 15:48:29.010866+01 | 1486306109.01087 | pgbench_tellers_pkey  |            40960
 2017-02-05 15:48:29.010866+01 | 1486306109.01087 | pgbench_accounts_pkey |        225017856

 2017-02-05 15:48:30.09028+01 | 1486306110.09028 | pgbench_branches_pkey |            16384
 2017-02-05 15:48:30.09028+01 | 1486306110.09028 | pgbench_tellers_pkey  |            40960
 2017-02-05 15:48:30.09028+01 | 1486306110.09028 | pgbench_accounts_pkey |        225017856

 2017-02-05 15:48:31.174385+01 | 1486306111.17439 | pgbench_branches_pkey |            16384
 2017-02-05 15:48:31.174385+01 | 1486306111.17439 | pgbench_tellers_pkey  |            40960
 2017-02-05 15:48:31.174385+01 | 1486306111.17439 | pgbench_accounts_pkey |        225017856

 2017-02-05 15:48:32.253259+01 | 1486306112.25326 | pgbench_branches_pkey |            16384
 2017-02-05 15:48:32.253259+01 | 1486306112.25326 | pgbench_tellers_pkey  |            40960
 2017-02-05 15:48:32.253259+01 | 1486306112.25326 | pgbench_accounts_pkey |        225017856

 2017-02-05 15:48:33.333272+01 | 1486306113.33327 | pgbench_branches_pkey |            16384
 2017-02-05 15:48:33.333272+01 | 1486306113.33327 | pgbench_tellers_pkey  |            40960
 2017-02-05 15:48:33.333272+01 | 1486306113.33327 | pgbench_accounts_pkey |        225017856

 2017-02-05 15:48:34.408152+01 | 1486306114.40815 | pgbench_branches_pkey |            16384
 2017-02-05 15:48:34.408152+01 | 1486306114.40815 | pgbench_tellers_pkey  |            40960
 2017-02-05 15:48:34.408152+01 | 1486306114.40815 | pgbench_accounts_pkey |        225017856

 2017-02-05 15:48:35.497975+01 | 1486306115.49798 | pgbench_branches_pkey |            16384
 2017-02-05 15:48:35.497975+01 | 1486306115.49798 | pgbench_tellers_pkey  |            40960
 2017-02-05 15:48:35.497975+01 | 1486306115.49798 | pgbench_accounts_pkey |        225017856

 2017-02-05 15:48:36.573542+01 | 1486306116.57354 | pgbench_branches_pkey |            16384
 2017-02-05 15:48:36.573542+01 | 1486306116.57354 | pgbench_tellers_pkey  |            40960
 2017-02-05 15:48:36.573542+01 | 1486306116.57354 | pgbench_accounts_pkey |        225017856

 2017-02-05 15:48:37.65302+01 | 1486306117.65302 | pgbench_branches_pkey |            16384
 2017-02-05 15:48:37.65302+01 | 1486306117.65302 | pgbench_tellers_pkey  |            40960
 2017-02-05 15:48:37.65302+01 | 1486306117.65302 | pgbench_accounts_pkey |        225017856

 2017-02-05 15:48:38.7396+01 | 1486306118.7396 | pgbench_branches_pkey |            16384
 2017-02-05 15:48:38.7396+01 | 1486306118.7396 | pgbench_tellers_pkey  |            40960
 2017-02-05 15:48:38.7396+01 | 1486306118.7396 | pgbench_accounts_pkey |        225017856

 2017-02-05 15:48:39.827214+01 | 1486306119.82721 | pgbench_branches_pkey |            16384
 2017-02-05 15:48:39.827214+01 | 1486306119.82721 | pgbench_tellers_pkey  |            40960
 2017-02-05 15:48:39.827214+01 | 1486306119.82721 | pgbench_accounts_pkey |        225017856

 2017-02-05 15:48:40.905421+01 | 1486306120.90542 | pgbench_branches_pkey |            16384
 2017-02-05 15:48:40.905421+01 | 1486306120.90542 | pgbench_tellers_pkey  |            40960
 2017-02-05 15:48:40.905421+01 | 1486306120.90542 | pgbench_accounts_pkey |        225017856

 2017-02-05 15:48:41.983357+01 | 1486306121.98336 | pgbench_branches_pkey |            16384
 2017-02-05 15:48:41.983357+01 | 1486306121.98336 | pgbench_tellers_pkey  |            40960
 2017-02-05 15:48:41.983357+01 | 1486306121.98336 | pgbench_accounts_pkey |        225017856

 2017-02-05 15:48:43.066967+01 | 1486306123.06697 | pgbench_branches_pkey |            16384
 2017-02-05 15:48:43.066967+01 | 1486306123.06697 | pgbench_tellers_pkey  |            40960
 2017-02-05 15:48:43.066967+01 | 1486306123.06697 | pgbench_accounts_pkey |        225017856

 2017-02-05 15:48:44.152579+01 | 1486306124.15258 | pgbench_branches_pkey |            16384
 2017-02-05 15:48:44.152579+01 | 1486306124.15258 | pgbench_tellers_pkey  |            40960
 2017-02-05 15:48:44.152579+01 | 1486306124.15258 | pgbench_accounts_pkey |        225017856

 2017-02-05 15:48:45.233181+01 | 1486306125.23318 | pgbench_branches_pkey |            16384
 2017-02-05 15:48:45.233181+01 | 1486306125.23318 | pgbench_tellers_pkey  |            40960
 2017-02-05 15:48:45.233181+01 | 1486306125.23318 | pgbench_accounts_pkey |        225017856

 2017-02-05 15:48:46.307646+01 | 1486306126.30765 | pgbench_branches_pkey |            16384
 2017-02-05 15:48:46.307646+01 | 1486306126.30765 | pgbench_tellers_pkey  |            40960
 2017-02-05 15:48:46.307646+01 | 1486306126.30765 | pgbench_accounts_pkey |        225017856

 2017-02-05 15:48:47.381207+01 | 1486306127.38121 | pgbench_branches_pkey |            16384
 2017-02-05 15:48:47.381207+01 | 1486306127.38121 | pgbench_tellers_pkey  |            40960
 2017-02-05 15:48:47.381207+01 | 1486306127.38121 | pgbench_accounts_pkey |        225017856

 2017-02-05 15:48:48.452697+01 | 1486306128.4527 | pgbench_branches_pkey |            16384
 2017-02-05 15:48:48.452697+01 | 1486306128.4527 | pgbench_tellers_pkey  |            40960
 2017-02-05 15:48:48.452697+01 | 1486306128.4527 | pgbench_accounts_pkey |        225017856

 2017-02-05 15:48:49.53322+01 | 1486306129.53322 | pgbench_branches_pkey |            16384
 2017-02-05 15:48:49.53322+01 | 1486306129.53322 | pgbench_tellers_pkey  |            40960
 2017-02-05 15:48:49.53322+01 | 1486306129.53322 | pgbench_accounts_pkey |        225017856

 2017-02-05 15:48:50.610798+01 | 1486306130.6108 | pgbench_branches_pkey |            16384
 2017-02-05 15:48:50.610798+01 | 1486306130.6108 | pgbench_tellers_pkey  |            40960
 2017-02-05 15:48:50.610798+01 | 1486306130.6108 | pgbench_accounts_pkey |        225017856

 2017-02-05 15:48:51.700197+01 | 1486306131.7002 | pgbench_branches_pkey |            16384
 2017-02-05 15:48:51.700197+01 | 1486306131.7002 | pgbench_tellers_pkey  |            40960
 2017-02-05 15:48:51.700197+01 | 1486306131.7002 | pgbench_accounts_pkey |        225017856

 2017-02-05 15:48:52.785442+01 | 1486306132.78544 | pgbench_branches_pkey |            16384
 2017-02-05 15:48:52.785442+01 | 1486306132.78544 | pgbench_tellers_pkey  |            40960
 2017-02-05 15:48:52.785442+01 | 1486306132.78544 | pgbench_accounts_pkey |        225017856

 2017-02-05 15:48:53.865061+01 | 1486306133.86506 | pgbench_branches_pkey |            16384
 2017-02-05 15:48:53.865061+01 | 1486306133.86506 | pgbench_tellers_pkey  |            40960
 2017-02-05 15:48:53.865061+01 | 1486306133.86506 | pgbench_accounts_pkey |        225017856

 2017-02-05 15:48:54.946759+01 | 1486306134.94676 | pgbench_branches_pkey |            16384
 2017-02-05 15:48:54.946759+01 | 1486306134.94676 | pgbench_tellers_pkey  |            40960
 2017-02-05 15:48:54.946759+01 | 1486306134.94676 | pgbench_accounts_pkey |        225017856

 2017-02-05 15:48:56.02654+01 | 1486306136.02654 | pgbench_branches_pkey |            16384
 2017-02-05 15:48:56.02654+01 | 1486306136.02654 | pgbench_tellers_pkey  |            40960
 2017-02-05 15:48:56.02654+01 | 1486306136.02654 | pgbench_accounts_pkey |        225017856

 2017-02-05 15:48:57.100521+01 | 1486306137.10052 | pgbench_branches_pkey |            16384
 2017-02-05 15:48:57.100521+01 | 1486306137.10052 | pgbench_tellers_pkey  |            40960
 2017-02-05 15:48:57.100521+01 | 1486306137.10052 | pgbench_accounts_pkey |        225017856

 2017-02-05 15:48:58.182371+01 | 1486306138.18237 | pgbench_branches_pkey |            16384
 2017-02-05 15:48:58.182371+01 | 1486306138.18237 | pgbench_tellers_pkey  |            40960
 2017-02-05 15:48:58.182371+01 | 1486306138.18237 | pgbench_accounts_pkey |        225017856

 2017-02-05 15:48:59.275765+01 | 1486306139.27576 | pgbench_branches_pkey |            16384
 2017-02-05 15:48:59.275765+01 | 1486306139.27576 | pgbench_tellers_pkey  |            40960
 2017-02-05 15:48:59.275765+01 | 1486306139.27576 | pgbench_accounts_pkey |        225017856

 2017-02-05 15:49:00.364596+01 | 1486306140.3646 | pgbench_branches_pkey |            16384
 2017-02-05 15:49:00.364596+01 | 1486306140.3646 | pgbench_tellers_pkey  |            40960
 2017-02-05 15:49:00.364596+01 | 1486306140.3646 | pgbench_accounts_pkey |        225017856

