 2017-02-05 15:44:01.144546+01 | 1486305841.14455 |                 0 |               4 |                  4730 |                  232 |             487038 |             0 |                0 |          678693 |                     0 |        381447 | 2017-02-05 15:28:29.905286+01

 2017-02-05 15:44:02.230752+01 | 1486305842.23075 |                 0 |               4 |                  4730 |                  232 |             487038 |             0 |                0 |          678693 |                     0 |        381702 | 2017-02-05 15:28:29.905286+01

 2017-02-05 15:44:03.31929+01 | 1486305843.31929 |                 0 |               4 |                  4730 |                  232 |             487038 |             0 |                0 |          678693 |                     0 |        381872 | 2017-02-05 15:28:29.905286+01

 2017-02-05 15:44:04.391371+01 | 1486305844.39137 |                 0 |               4 |                  4730 |                  232 |             487038 |             0 |                0 |          678693 |                     0 |        382102 | 2017-02-05 15:28:29.905286+01

 2017-02-05 15:44:05.46881+01 | 1486305845.46881 |                 0 |               4 |                  4730 |                  232 |             487038 |             0 |                0 |          678693 |                     0 |        382295 | 2017-02-05 15:28:29.905286+01

 2017-02-05 15:44:06.535955+01 | 1486305846.53595 |                 0 |               4 |                  4730 |                  232 |             487038 |             0 |                0 |          678693 |                     0 |        382775 | 2017-02-05 15:28:29.905286+01

 2017-02-05 15:44:07.612158+01 | 1486305847.61216 |                 0 |               4 |                  4730 |                  232 |             487038 |             0 |                0 |          678693 |                     0 |        383062 | 2017-02-05 15:28:29.905286+01

 2017-02-05 15:44:08.693093+01 | 1486305848.69309 |                 0 |               4 |                  4730 |                  232 |             487038 |             0 |                0 |          678693 |                     0 |        383343 | 2017-02-05 15:28:29.905286+01

 2017-02-05 15:44:09.769974+01 | 1486305849.76997 |                 0 |               4 |                  4730 |                  232 |             487038 |             0 |                0 |          678693 |                     0 |        383610 | 2017-02-05 15:28:29.905286+01

 2017-02-05 15:44:10.855294+01 | 1486305850.85529 |                 0 |               4 |                  4730 |                  232 |             487038 |             0 |                0 |          678693 |                     0 |        383780 | 2017-02-05 15:28:29.905286+01

 2017-02-05 15:44:11.93703+01 | 1486305851.93703 |                 0 |               4 |                  4730 |                  232 |             487038 |             0 |                0 |          678693 |                     0 |        384020 | 2017-02-05 15:28:29.905286+01

 2017-02-05 15:44:13.019374+01 | 1486305853.01937 |                 0 |               4 |                  4730 |                  232 |             487038 |             0 |                0 |          678693 |                     0 |        384211 | 2017-02-05 15:28:29.905286+01

 2017-02-05 15:44:14.095917+01 | 1486305854.09592 |                 0 |               4 |                  4730 |                  232 |             487038 |             0 |                0 |          678693 |                     0 |        384418 | 2017-02-05 15:28:29.905286+01

 2017-02-05 15:44:15.171461+01 | 1486305855.17146 |                 0 |               4 |                  4730 |                  232 |             487038 |             0 |                0 |          678693 |                     0 |        384624 | 2017-02-05 15:28:29.905286+01

 2017-02-05 15:44:16.24434+01 | 1486305856.24434 |                 0 |               4 |                  4730 |                  232 |             487038 |             0 |                0 |          678693 |                     0 |        384833 | 2017-02-05 15:28:29.905286+01

 2017-02-05 15:44:17.321707+01 | 1486305857.32171 |                 0 |               4 |                  4730 |                  232 |             487038 |             0 |                0 |          678693 |                     0 |        385019 | 2017-02-05 15:28:29.905286+01

 2017-02-05 15:44:18.402983+01 | 1486305858.40298 |                 0 |               4 |                  4730 |                  232 |             487038 |             0 |                0 |          678693 |                     0 |        385281 | 2017-02-05 15:28:29.905286+01

 2017-02-05 15:44:19.48412+01 | 1486305859.48412 |                 0 |               4 |                  4730 |                  232 |             487038 |             0 |                0 |          678693 |                     0 |        385399 | 2017-02-05 15:28:29.905286+01

 2017-02-05 15:44:20.5656+01 | 1486305860.5656 |                 0 |               4 |                  4730 |                  232 |             487038 |             0 |                0 |          678693 |                     0 |        385585 | 2017-02-05 15:28:29.905286+01

 2017-02-05 15:44:21.645877+01 | 1486305861.64588 |                 0 |               4 |                  4730 |                  232 |             487038 |             0 |                0 |          678693 |                     0 |        385743 | 2017-02-05 15:28:29.905286+01

 2017-02-05 15:44:22.721815+01 | 1486305862.72182 |                 0 |               4 |                  4730 |                  232 |             487038 |             0 |                0 |          678693 |                     0 |        385923 | 2017-02-05 15:28:29.905286+01

 2017-02-05 15:44:23.799501+01 | 1486305863.7995 |                 0 |               4 |                  4730 |                  232 |             487038 |             0 |                0 |          678693 |                     0 |        386189 | 2017-02-05 15:28:29.905286+01

 2017-02-05 15:44:24.878993+01 | 1486305864.87899 |                 0 |               4 |                  4730 |                  232 |             487038 |             0 |                0 |          678693 |                     0 |        386368 | 2017-02-05 15:28:29.905286+01

 2017-02-05 15:44:25.962962+01 | 1486305865.96296 |                 0 |               4 |                  4730 |                  232 |             487038 |             0 |                0 |          678693 |                     0 |        386508 | 2017-02-05 15:28:29.905286+01

 2017-02-05 15:44:27.045523+01 | 1486305867.04552 |                 0 |               4 |                  4730 |                  232 |             487038 |             0 |                0 |          678693 |                     0 |        386709 | 2017-02-05 15:28:29.905286+01

 2017-02-05 15:44:28.131491+01 | 1486305868.13149 |                 0 |               4 |                  4730 |                  232 |             487038 |             0 |                0 |          678693 |                     0 |        386851 | 2017-02-05 15:28:29.905286+01

 2017-02-05 15:44:29.208913+01 | 1486305869.20891 |                 0 |               4 |                  4730 |                  232 |             487038 |             0 |                0 |          678693 |                     0 |        387098 | 2017-02-05 15:28:29.905286+01

 2017-02-05 15:44:30.286363+01 | 1486305870.28636 |                 0 |               4 |                  4730 |                  232 |             487038 |             0 |                0 |          678693 |                     0 |        387261 | 2017-02-05 15:28:29.905286+01

 2017-02-05 15:44:31.365761+01 | 1486305871.36576 |                 0 |               4 |                  4730 |                  232 |             487038 |             0 |                0 |          678693 |                     0 |        387434 | 2017-02-05 15:28:29.905286+01

 2017-02-05 15:44:32.445246+01 | 1486305872.44525 |                 0 |               4 |                  4730 |                  232 |             487038 |             0 |                0 |          678693 |                     0 |        387610 | 2017-02-05 15:28:29.905286+01

 2017-02-05 15:44:33.526441+01 | 1486305873.52644 |                 0 |               4 |                  4730 |                  232 |             487038 |             0 |                0 |          678693 |                     0 |        387846 | 2017-02-05 15:28:29.905286+01

 2017-02-05 15:44:34.618051+01 | 1486305874.61805 |                 0 |               4 |                  4730 |                  232 |             487038 |             0 |                0 |          678693 |                     0 |        388037 | 2017-02-05 15:28:29.905286+01

 2017-02-05 15:44:35.698911+01 | 1486305875.69891 |                 0 |               4 |                  4730 |                  232 |             487038 |             0 |                0 |          678693 |                     0 |        388283 | 2017-02-05 15:28:29.905286+01

 2017-02-05 15:44:36.783032+01 | 1486305876.78303 |                 0 |               4 |                  4730 |                  232 |             487038 |             0 |                0 |          678693 |                     0 |        388442 | 2017-02-05 15:28:29.905286+01

 2017-02-05 15:44:37.867498+01 | 1486305877.8675 |                 0 |               4 |                  4730 |                  232 |             487038 |             0 |                0 |          678693 |                     0 |        388650 | 2017-02-05 15:28:29.905286+01

 2017-02-05 15:44:38.958093+01 | 1486305878.95809 |                 0 |               4 |                  4730 |                  232 |             487038 |             0 |                0 |          678693 |                     0 |        388885 | 2017-02-05 15:28:29.905286+01

 2017-02-05 15:44:40.04308+01 | 1486305880.04308 |                 0 |               4 |                  4730 |                  232 |             487038 |             0 |                0 |          678693 |                     0 |        389068 | 2017-02-05 15:28:29.905286+01

 2017-02-05 15:44:41.122391+01 | 1486305881.12239 |                 0 |               4 |                  4730 |                  232 |             487038 |             0 |                0 |          678693 |                     0 |        389262 | 2017-02-05 15:28:29.905286+01

 2017-02-05 15:44:42.197761+01 | 1486305882.19776 |                 0 |               4 |                  4730 |                  232 |             487038 |             0 |                0 |          678693 |                     0 |        389501 | 2017-02-05 15:28:29.905286+01

 2017-02-05 15:44:43.272583+01 | 1486305883.27258 |                 0 |               4 |                  4730 |                  232 |             487038 |             0 |                0 |          678693 |                     0 |        389737 | 2017-02-05 15:28:29.905286+01

 2017-02-05 15:44:44.356851+01 | 1486305884.35685 |                 0 |               4 |                  4730 |                  232 |             487038 |             0 |                0 |          678693 |                     0 |        389873 | 2017-02-05 15:28:29.905286+01

 2017-02-05 15:44:45.444598+01 | 1486305885.4446 |                 0 |               4 |                  4730 |                  232 |             487038 |             0 |                0 |          678693 |                     0 |        390215 | 2017-02-05 15:28:29.905286+01

 2017-02-05 15:44:46.532008+01 | 1486305886.53201 |                 0 |               4 |                  4730 |                  232 |             487038 |             0 |                0 |          678693 |                     0 |        390368 | 2017-02-05 15:28:29.905286+01

 2017-02-05 15:44:47.613145+01 | 1486305887.61315 |                 0 |               4 |                  4730 |                  232 |             487038 |             0 |                0 |          678693 |                     0 |        390527 | 2017-02-05 15:28:29.905286+01

 2017-02-05 15:44:48.696976+01 | 1486305888.69698 |                 0 |               4 |                  4730 |                  232 |             487038 |             0 |                0 |          678693 |                     0 |        390790 | 2017-02-05 15:28:29.905286+01

 2017-02-05 15:44:49.782766+01 | 1486305889.78277 |                 0 |               4 |                  4730 |                  232 |             487038 |             0 |                0 |          678693 |                     0 |        390902 | 2017-02-05 15:28:29.905286+01

 2017-02-05 15:44:50.859872+01 | 1486305890.85987 |                 0 |               4 |                  4730 |                  232 |             487038 |             0 |                0 |          678693 |                     0 |        391180 | 2017-02-05 15:28:29.905286+01

 2017-02-05 15:44:51.942593+01 | 1486305891.94259 |                 0 |               4 |                  4730 |                  232 |             487038 |             0 |                0 |          678693 |                     0 |        391336 | 2017-02-05 15:28:29.905286+01

 2017-02-05 15:44:53.026682+01 | 1486305893.02668 |                 0 |               4 |                  4730 |                  232 |             487038 |             0 |                0 |          678693 |                     0 |        391575 | 2017-02-05 15:28:29.905286+01

 2017-02-05 15:44:54.111639+01 | 1486305894.11164 |                 0 |               4 |                  4730 |                  232 |             487038 |             0 |                0 |          678693 |                     0 |        391746 | 2017-02-05 15:28:29.905286+01

 2017-02-05 15:44:55.195835+01 | 1486305895.19584 |                 0 |               4 |                  4730 |                  232 |             487038 |             0 |                0 |          678693 |                     0 |        391996 | 2017-02-05 15:28:29.905286+01

 2017-02-05 15:44:56.26989+01 | 1486305896.26989 |                 0 |               4 |                  4730 |                  232 |             487038 |             0 |                0 |          678693 |                     0 |        392175 | 2017-02-05 15:28:29.905286+01

 2017-02-05 15:44:57.35572+01 | 1486305897.35572 |                 0 |               4 |                  4730 |                  232 |             487038 |             0 |                0 |          678693 |                     0 |        392326 | 2017-02-05 15:28:29.905286+01

 2017-02-05 15:44:58.434226+01 | 1486305898.43423 |                 0 |               4 |                  4730 |                  232 |             487038 |             0 |                0 |          678693 |                     0 |        392590 | 2017-02-05 15:28:29.905286+01

 2017-02-05 15:44:59.516892+01 | 1486305899.51689 |                 0 |               4 |                  4730 |                  232 |             487038 |             0 |                0 |          678693 |                     0 |        392767 | 2017-02-05 15:28:29.905286+01

 2017-02-05 15:45:00.5872+01 | 1486305900.5872 |                 0 |               4 |                  4730 |                  232 |             487038 |             0 |                0 |          678693 |                     0 |        392943 | 2017-02-05 15:28:29.905286+01

 2017-02-05 15:45:01.668913+01 | 1486305901.66891 |                 0 |               4 |                  4730 |                  232 |             487038 |             0 |                0 |          678693 |                     0 |        393118 | 2017-02-05 15:28:29.905286+01

 2017-02-05 15:45:02.747769+01 | 1486305902.74777 |                 0 |               4 |                  4730 |                  232 |             487038 |             0 |                0 |          678693 |                     0 |        393393 | 2017-02-05 15:28:29.905286+01

 2017-02-05 15:45:03.829931+01 | 1486305903.82993 |                 0 |               4 |                  4730 |                  232 |             487038 |             0 |                0 |          678693 |                     0 |        393593 | 2017-02-05 15:28:29.905286+01

 2017-02-05 15:45:04.907097+01 | 1486305904.9071 |                 0 |               4 |                  4730 |                  232 |             487038 |             0 |                0 |          678693 |                     0 |        393766 | 2017-02-05 15:28:29.905286+01

 2017-02-05 15:45:05.989643+01 | 1486305905.98964 |                 0 |               4 |                  4730 |                  232 |             487038 |             0 |                0 |          678693 |                     0 |        393965 | 2017-02-05 15:28:29.905286+01

 2017-02-05 15:45:07.074327+01 | 1486305907.07433 |                 0 |               4 |                  4730 |                  232 |             487038 |             0 |                0 |          678693 |                     0 |        394162 | 2017-02-05 15:28:29.905286+01

 2017-02-05 15:45:08.150815+01 | 1486305908.15082 |                 0 |               4 |                  4730 |                  232 |             487038 |             0 |                0 |          678693 |                     0 |        394428 | 2017-02-05 15:28:29.905286+01

 2017-02-05 15:45:09.22938+01 | 1486305909.22938 |                 0 |               4 |                  4730 |                  232 |             487038 |             0 |                0 |          678693 |                     0 |        394595 | 2017-02-05 15:28:29.905286+01

 2017-02-05 15:45:10.312496+01 | 1486305910.3125 |                 0 |               4 |                  4730 |                  232 |             487038 |             0 |                0 |          678693 |                     0 |        394774 | 2017-02-05 15:28:29.905286+01

 2017-02-05 15:45:11.391959+01 | 1486305911.39196 |                 0 |               4 |                  4730 |                  232 |             487038 |             0 |                0 |          678693 |                     0 |        395009 | 2017-02-05 15:28:29.905286+01

 2017-02-05 15:45:12.474716+01 | 1486305912.47472 |                 0 |               4 |                  4730 |                  232 |             487038 |             0 |                0 |          678693 |                     0 |        395219 | 2017-02-05 15:28:29.905286+01

 2017-02-05 15:45:13.552938+01 | 1486305913.55294 |                 0 |               4 |                  4730 |                  232 |             487038 |             0 |                0 |          678693 |                     0 |        395513 | 2017-02-05 15:28:29.905286+01

 2017-02-05 15:45:14.6317+01 | 1486305914.6317 |                 0 |               4 |                  4730 |                  232 |             487038 |             0 |                0 |          678693 |                     0 |        395598 | 2017-02-05 15:28:29.905286+01

 2017-02-05 15:45:15.708811+01 | 1486305915.70881 |                 0 |               4 |                  4730 |                  232 |             487038 |             0 |                0 |          678693 |                     0 |        395839 | 2017-02-05 15:28:29.905286+01

 2017-02-05 15:45:16.796705+01 | 1486305916.79671 |                 0 |               4 |                  4730 |                  232 |             487038 |             0 |                0 |          678693 |                     0 |        396037 | 2017-02-05 15:28:29.905286+01

 2017-02-05 15:45:17.876572+01 | 1486305917.87657 |                 0 |               4 |                  4730 |                  232 |             487038 |             0 |                0 |          678693 |                     0 |        396210 | 2017-02-05 15:28:29.905286+01

 2017-02-05 15:45:18.956554+01 | 1486305918.95655 |                 0 |               4 |                  4730 |                  232 |             487038 |             0 |                0 |          678693 |                     0 |        396478 | 2017-02-05 15:28:29.905286+01

 2017-02-05 15:45:20.044454+01 | 1486305920.04445 |                 0 |               4 |                  4730 |                  232 |             487038 |             0 |                0 |          678693 |                     0 |        396724 | 2017-02-05 15:28:29.905286+01

 2017-02-05 15:45:21.129139+01 | 1486305921.12914 |                 0 |               4 |                  4730 |                  232 |             487038 |             0 |                0 |          678693 |                     0 |        396868 | 2017-02-05 15:28:29.905286+01

 2017-02-05 15:45:22.20678+01 | 1486305922.20678 |                 0 |               4 |                  4730 |                  232 |             487038 |             0 |                0 |          678693 |                     0 |        397017 | 2017-02-05 15:28:29.905286+01

 2017-02-05 15:45:23.284562+01 | 1486305923.28456 |                 0 |               4 |                  4730 |                  232 |             487038 |             0 |                0 |          678693 |                     0 |        397185 | 2017-02-05 15:28:29.905286+01

 2017-02-05 15:45:24.363333+01 | 1486305924.36333 |                 0 |               4 |                  4730 |                  232 |             487038 |             0 |                0 |          678693 |                     0 |        397544 | 2017-02-05 15:28:29.905286+01

 2017-02-05 15:45:25.441611+01 | 1486305925.44161 |                 0 |               4 |                  4730 |                  232 |             487038 |             0 |                0 |          678693 |                     0 |        397608 | 2017-02-05 15:28:29.905286+01

 2017-02-05 15:45:26.521601+01 | 1486305926.5216 |                 0 |               4 |                  4730 |                  232 |             487038 |             0 |                0 |          678693 |                     0 |        397740 | 2017-02-05 15:28:29.905286+01

 2017-02-05 15:45:27.604361+01 | 1486305927.60436 |                 0 |               4 |                  4730 |                  232 |             487038 |             0 |                0 |          678693 |                     0 |        398034 | 2017-02-05 15:28:29.905286+01

 2017-02-05 15:45:28.681709+01 | 1486305928.68171 |                 0 |               4 |                  4730 |                  232 |             487038 |             0 |                0 |          678693 |                     0 |        398184 | 2017-02-05 15:28:29.905286+01

 2017-02-05 15:45:29.760977+01 | 1486305929.76098 |                 0 |               4 |                  4730 |                  232 |             487038 |             0 |                0 |          678693 |                     0 |        398287 | 2017-02-05 15:28:29.905286+01

 2017-02-05 15:45:30.835499+01 | 1486305930.8355 |                 0 |               4 |                  4730 |                  232 |             487038 |             0 |                0 |          678693 |                     0 |        398578 | 2017-02-05 15:28:29.905286+01

 2017-02-05 15:45:31.907664+01 | 1486305931.90766 |                 0 |               4 |                  4730 |                  232 |             487038 |             0 |                0 |          678693 |                     0 |        398742 | 2017-02-05 15:28:29.905286+01

 2017-02-05 15:45:32.994279+01 | 1486305932.99428 |                 0 |               4 |                  4730 |                  232 |             487038 |             0 |                0 |          678693 |                     0 |        398974 | 2017-02-05 15:28:29.905286+01

 2017-02-05 15:45:34.069595+01 | 1486305934.0696 |                 0 |               4 |                  4730 |                  232 |             487038 |             0 |                0 |          678693 |                     0 |        399150 | 2017-02-05 15:28:29.905286+01

 2017-02-05 15:45:35.159439+01 | 1486305935.15944 |                 0 |               4 |                  4730 |                  232 |             487038 |             0 |                0 |          678693 |                     0 |        399339 | 2017-02-05 15:28:29.905286+01

 2017-02-05 15:45:36.233878+01 | 1486305936.23388 |                 0 |               4 |                  4730 |                  232 |             487038 |             0 |                0 |          678693 |                     0 |        399443 | 2017-02-05 15:28:29.905286+01

 2017-02-05 15:45:37.305513+01 | 1486305937.30551 |                 0 |               4 |                  4730 |                  232 |             487038 |             0 |                0 |          678693 |                     0 |        399705 | 2017-02-05 15:28:29.905286+01

 2017-02-05 15:45:38.383404+01 | 1486305938.3834 |                 0 |               4 |                  4730 |                  232 |             487038 |             0 |                0 |          678693 |                     0 |        399875 | 2017-02-05 15:28:29.905286+01

 2017-02-05 15:45:39.4667+01 | 1486305939.4667 |                 0 |               4 |                  4730 |                  232 |             487038 |             0 |                0 |          678693 |                     0 |        400152 | 2017-02-05 15:28:29.905286+01

 2017-02-05 15:45:40.543996+01 | 1486305940.544 |                 0 |               4 |                  4730 |                  232 |             487038 |             0 |                0 |          678693 |                     0 |        400320 | 2017-02-05 15:28:29.905286+01

 2017-02-05 15:45:41.61789+01 | 1486305941.61789 |                 0 |               4 |                  4730 |                  232 |             487038 |             0 |                0 |          678693 |                     0 |        400496 | 2017-02-05 15:28:29.905286+01

 2017-02-05 15:45:42.698533+01 | 1486305942.69853 |                 0 |               4 |                  4730 |                  232 |             487038 |             0 |                0 |          678693 |                     0 |        400724 | 2017-02-05 15:28:29.905286+01

 2017-02-05 15:45:43.771034+01 | 1486305943.77103 |                 0 |               4 |                  4730 |                  232 |             487038 |             0 |                0 |          678693 |                     0 |        400892 | 2017-02-05 15:28:29.905286+01

 2017-02-05 15:45:44.846293+01 | 1486305944.84629 |                 0 |               4 |                  4730 |                  232 |             487038 |             0 |                0 |          678693 |                     0 |        401081 | 2017-02-05 15:28:29.905286+01

 2017-02-05 15:45:45.925617+01 | 1486305945.92562 |                 0 |               4 |                  4730 |                  232 |             487038 |             0 |                0 |          678693 |                     0 |        401212 | 2017-02-05 15:28:29.905286+01

 2017-02-05 15:45:47.010268+01 | 1486305947.01027 |                 0 |               4 |                  4730 |                  232 |             487038 |             0 |                0 |          678693 |                     0 |        401466 | 2017-02-05 15:28:29.905286+01

 2017-02-05 15:45:48.086237+01 | 1486305948.08624 |                 0 |               4 |                  4730 |                  232 |             487038 |             0 |                0 |          678693 |                     0 |        401553 | 2017-02-05 15:28:29.905286+01

 2017-02-05 15:45:49.16499+01 | 1486305949.16499 |                 0 |               4 |                  4730 |                  232 |             487038 |             0 |                0 |          678693 |                     0 |        401705 | 2017-02-05 15:28:29.905286+01

 2017-02-05 15:45:50.239017+01 | 1486305950.23902 |                 0 |               4 |                  4730 |                  232 |             487038 |             0 |                0 |          678693 |                     0 |        401891 | 2017-02-05 15:28:29.905286+01

 2017-02-05 15:45:51.31838+01 | 1486305951.31838 |                 0 |               4 |                  4730 |                  232 |             487038 |             0 |                0 |          678693 |                     0 |        402069 | 2017-02-05 15:28:29.905286+01

 2017-02-05 15:45:52.398678+01 | 1486305952.39868 |                 0 |               4 |                  4730 |                  232 |             487038 |             0 |                0 |          678693 |                     0 |        402320 | 2017-02-05 15:28:29.905286+01

 2017-02-05 15:45:53.481393+01 | 1486305953.48139 |                 0 |               4 |                  4730 |                  232 |             487038 |             0 |                0 |          678693 |                     0 |        402571 | 2017-02-05 15:28:29.905286+01

 2017-02-05 15:45:54.563028+01 | 1486305954.56303 |                 0 |               4 |                  4730 |                  232 |             487038 |             0 |                0 |          678693 |                     0 |        402635 | 2017-02-05 15:28:29.905286+01

 2017-02-05 15:45:55.641079+01 | 1486305955.64108 |                 0 |               4 |                  4730 |                  232 |             487038 |             0 |                0 |          678693 |                     0 |        402785 | 2017-02-05 15:28:29.905286+01

 2017-02-05 15:45:56.723414+01 | 1486305956.72341 |                 0 |               4 |                  4730 |                  232 |             487038 |             0 |                0 |          678693 |                     0 |        402934 | 2017-02-05 15:28:29.905286+01

 2017-02-05 15:45:57.806224+01 | 1486305957.80622 |                 0 |               4 |                  4730 |                  232 |             487038 |             0 |                0 |          678693 |                     0 |        403171 | 2017-02-05 15:28:29.905286+01

 2017-02-05 15:45:58.883214+01 | 1486305958.88321 |                 0 |               4 |                  4730 |                  232 |             487038 |             0 |                0 |          678693 |                     0 |        403376 | 2017-02-05 15:28:29.905286+01

 2017-02-05 15:45:59.963124+01 | 1486305959.96312 |                 0 |               4 |                  4730 |                  232 |             487038 |             0 |                0 |          678693 |                     0 |        403649 | 2017-02-05 15:28:29.905286+01

 2017-02-05 15:46:01.047813+01 | 1486305961.04781 |                 0 |               4 |                  4730 |                  232 |             487038 |             0 |                0 |          678693 |                     0 |        403757 | 2017-02-05 15:28:29.905286+01

 2017-02-05 15:46:02.12714+01 | 1486305962.12714 |                 0 |               4 |                  4730 |                  232 |             487038 |             0 |                0 |          678693 |                     0 |        403980 | 2017-02-05 15:28:29.905286+01

 2017-02-05 15:46:03.206646+01 | 1486305963.20665 |                 0 |               4 |                  4730 |                  232 |             487038 |             0 |                0 |          678693 |                     0 |        404132 | 2017-02-05 15:28:29.905286+01

 2017-02-05 15:46:04.285474+01 | 1486305964.28547 |                 0 |               4 |                  4730 |                  232 |             487038 |             0 |                0 |          678693 |                     0 |        404432 | 2017-02-05 15:28:29.905286+01

 2017-02-05 15:46:05.370765+01 | 1486305965.37076 |                 0 |               4 |                  4730 |                  232 |             487038 |             0 |                0 |          678693 |                     0 |        404540 | 2017-02-05 15:28:29.905286+01

 2017-02-05 15:46:06.453333+01 | 1486305966.45333 |                 0 |               4 |                  4730 |                  232 |             487038 |             0 |                0 |          678693 |                     0 |        404732 | 2017-02-05 15:28:29.905286+01

 2017-02-05 15:46:07.548761+01 | 1486305967.54876 |                 0 |               4 |                  4730 |                  232 |             487038 |             0 |                0 |          678693 |                     0 |        404945 | 2017-02-05 15:28:29.905286+01

 2017-02-05 15:46:08.637023+01 | 1486305968.63702 |                 0 |               4 |                  4730 |                  232 |             487038 |             0 |                0 |          678693 |                     0 |        405239 | 2017-02-05 15:28:29.905286+01

 2017-02-05 15:46:09.720226+01 | 1486305969.72023 |                 0 |               4 |                  4730 |                  232 |             487038 |             0 |                0 |          678693 |                     0 |        405380 | 2017-02-05 15:28:29.905286+01

 2017-02-05 15:46:10.801986+01 | 1486305970.80199 |                 0 |               4 |                  4730 |                  232 |             487038 |             0 |                0 |          678693 |                     0 |        405610 | 2017-02-05 15:28:29.905286+01

 2017-02-05 15:46:11.889328+01 | 1486305971.88933 |                 0 |               4 |                  4730 |                  232 |             487038 |             0 |                0 |          678693 |                     0 |        405801 | 2017-02-05 15:28:29.905286+01

 2017-02-05 15:46:12.967158+01 | 1486305972.96716 |                 0 |               4 |                  4730 |                  232 |             487038 |             0 |                0 |          678693 |                     0 |        405970 | 2017-02-05 15:28:29.905286+01

 2017-02-05 15:46:14.041185+01 | 1486305974.04118 |                 0 |               4 |                  4730 |                  232 |             487038 |             0 |                0 |          678693 |                     0 |        406141 | 2017-02-05 15:28:29.905286+01

 2017-02-05 15:46:15.129009+01 | 1486305975.12901 |                 0 |               4 |                  4730 |                  232 |             487038 |             0 |                0 |          678693 |                     0 |        406333 | 2017-02-05 15:28:29.905286+01

 2017-02-05 15:46:16.211879+01 | 1486305976.21188 |                 0 |               4 |                  4730 |                  232 |             487038 |             0 |                0 |          678693 |                     0 |        406627 | 2017-02-05 15:28:29.905286+01

 2017-02-05 15:46:17.296916+01 | 1486305977.29692 |                 0 |               4 |                  4730 |                  232 |             487038 |             0 |                0 |          678693 |                     0 |        406775 | 2017-02-05 15:28:29.905286+01

 2017-02-05 15:46:18.380918+01 | 1486305978.38092 |                 0 |               4 |                  4730 |                  232 |             487038 |             0 |                0 |          678693 |                     0 |        406946 | 2017-02-05 15:28:29.905286+01

 2017-02-05 15:46:19.46199+01 | 1486305979.46199 |                 0 |               4 |                  4730 |                  232 |             487038 |             0 |                0 |          678693 |                     0 |        407138 | 2017-02-05 15:28:29.905286+01

 2017-02-05 15:46:20.545186+01 | 1486305980.54519 |                 0 |               4 |                  4730 |                  232 |             487038 |             0 |                0 |          678693 |                     0 |        407305 | 2017-02-05 15:28:29.905286+01

 2017-02-05 15:46:21.621494+01 | 1486305981.62149 |                 0 |               4 |                  4730 |                  232 |             487038 |             0 |                0 |          678693 |                     0 |        407536 | 2017-02-05 15:28:29.905286+01

 2017-02-05 15:46:22.694727+01 | 1486305982.69473 |                 0 |               4 |                  4730 |                  232 |             487038 |             0 |                0 |          678693 |                     0 |        407711 | 2017-02-05 15:28:29.905286+01

 2017-02-05 15:46:23.773242+01 | 1486305983.77324 |                 0 |               4 |                  4730 |                  232 |             487038 |             0 |                0 |          678693 |                     0 |        407982 | 2017-02-05 15:28:29.905286+01

 2017-02-05 15:46:24.852821+01 | 1486305984.85282 |                 0 |               4 |                  4730 |                  232 |             487038 |             0 |                0 |          678693 |                     0 |        408133 | 2017-02-05 15:28:29.905286+01

 2017-02-05 15:46:25.933708+01 | 1486305985.93371 |                 0 |               4 |                  4730 |                  232 |             487038 |             0 |                0 |          678693 |                     0 |        408326 | 2017-02-05 15:28:29.905286+01

 2017-02-05 15:46:27.017897+01 | 1486305987.0179 |                 0 |               4 |                  4730 |                  232 |             487038 |             0 |                0 |          678693 |                     0 |        408516 | 2017-02-05 15:28:29.905286+01

 2017-02-05 15:46:28.097081+01 | 1486305988.09708 |                 0 |               4 |                  4730 |                  232 |             487038 |             0 |                0 |          678693 |                     0 |        408709 | 2017-02-05 15:28:29.905286+01

 2017-02-05 15:46:29.175607+01 | 1486305989.17561 |                 0 |               4 |                  4730 |                  232 |             487038 |             0 |                0 |          678693 |                     0 |        408920 | 2017-02-05 15:28:29.905286+01

 2017-02-05 15:46:30.255538+01 | 1486305990.25554 |                 0 |               4 |                  4730 |                  232 |             487038 |             0 |                0 |          678693 |                     0 |        409252 | 2017-02-05 15:28:29.905286+01

 2017-02-05 15:46:31.330536+01 | 1486305991.33054 |                 0 |               4 |                  4730 |                  232 |             487038 |             0 |                0 |          678693 |                     0 |        409315 | 2017-02-05 15:28:29.905286+01

 2017-02-05 15:46:32.407563+01 | 1486305992.40756 |                 0 |               4 |                  4730 |                  232 |             487038 |             0 |                0 |          678693 |                     0 |        409484 | 2017-02-05 15:28:29.905286+01

 2017-02-05 15:46:33.485909+01 | 1486305993.48591 |                 0 |               4 |                  4730 |                  232 |             487038 |             0 |                0 |          678693 |                     0 |        409677 | 2017-02-05 15:28:29.905286+01

 2017-02-05 15:46:34.567902+01 | 1486305994.5679 |                 0 |               4 |                  4730 |                  232 |             487038 |             0 |                0 |          678693 |                     0 |        409863 | 2017-02-05 15:28:29.905286+01

 2017-02-05 15:46:35.642027+01 | 1486305995.64203 |                 0 |               4 |                  4730 |                  232 |             487038 |             0 |                0 |          678693 |                     0 |        410099 | 2017-02-05 15:28:29.905286+01

 2017-02-05 15:46:36.722487+01 | 1486305996.72249 |                 0 |               4 |                  4730 |                  232 |             487038 |             0 |                0 |          678693 |                     0 |        410229 | 2017-02-05 15:28:29.905286+01

 2017-02-05 15:46:37.805028+01 | 1486305997.80503 |                 0 |               4 |                  4730 |                  232 |             487038 |             0 |                0 |          678693 |                     0 |        410460 | 2017-02-05 15:28:29.905286+01

 2017-02-05 15:46:38.889749+01 | 1486305998.88975 |                 0 |               4 |                  4730 |                  232 |             487038 |             0 |                0 |          678693 |                     0 |        410590 | 2017-02-05 15:28:29.905286+01

 2017-02-05 15:46:39.964617+01 | 1486305999.96462 |                 0 |               4 |                  4730 |                  232 |             487038 |             0 |                0 |          678693 |                     0 |        410796 | 2017-02-05 15:28:29.905286+01

 2017-02-05 15:46:41.047132+01 | 1486306001.04713 |                 0 |               4 |                  4730 |                  232 |             487038 |             0 |                0 |          678693 |                     0 |        411026 | 2017-02-05 15:28:29.905286+01

 2017-02-05 15:46:42.133908+01 | 1486306002.13391 |                 0 |               4 |                  4730 |                  232 |             487038 |             0 |                0 |          678693 |                     0 |        411220 | 2017-02-05 15:28:29.905286+01

 2017-02-05 15:46:43.207349+01 | 1486306003.20735 |                 0 |               4 |                  4730 |                  232 |             487038 |             0 |                0 |          678693 |                     0 |        411323 | 2017-02-05 15:28:29.905286+01

 2017-02-05 15:46:44.280057+01 | 1486306004.28006 |                 0 |               4 |                  4730 |                  232 |             487038 |             0 |                0 |          678693 |                     0 |        411599 | 2017-02-05 15:28:29.905286+01

 2017-02-05 15:46:45.360993+01 | 1486306005.36099 |                 0 |               4 |                  4730 |                  232 |             487038 |             0 |                0 |          678693 |                     0 |        411810 | 2017-02-05 15:28:29.905286+01

 2017-02-05 15:46:46.445123+01 | 1486306006.44512 |                 0 |               4 |                  4730 |                  232 |             487038 |             0 |                0 |          678693 |                     0 |        411999 | 2017-02-05 15:28:29.905286+01

 2017-02-05 15:46:47.531045+01 | 1486306007.53104 |                 0 |               4 |                  4730 |                  232 |             487038 |             0 |                0 |          678693 |                     0 |        412214 | 2017-02-05 15:28:29.905286+01

 2017-02-05 15:46:48.607205+01 | 1486306008.6072 |                 0 |               4 |                  4730 |                  232 |             487038 |             0 |                0 |          678693 |                     0 |        412364 | 2017-02-05 15:28:29.905286+01

 2017-02-05 15:46:49.687894+01 | 1486306009.68789 |                 0 |               4 |                  4730 |                  232 |             487038 |             0 |                0 |          678693 |                     0 |        412575 | 2017-02-05 15:28:29.905286+01

 2017-02-05 15:46:50.77611+01 | 1486306010.77611 |                 0 |               4 |                  4730 |                  232 |             487038 |             0 |                0 |          678693 |                     0 |        412806 | 2017-02-05 15:28:29.905286+01

 2017-02-05 15:46:51.859233+01 | 1486306011.85923 |                 0 |               4 |                  4730 |                  232 |             487038 |             0 |                0 |          678693 |                     0 |        412975 | 2017-02-05 15:28:29.905286+01

 2017-02-05 15:46:52.93574+01 | 1486306012.93574 |                 0 |               4 |                  4730 |                  232 |             487038 |             0 |                0 |          678693 |                     0 |        413123 | 2017-02-05 15:28:29.905286+01

 2017-02-05 15:46:54.014507+01 | 1486306014.01451 |                 0 |               4 |                  4730 |                  232 |             487038 |             0 |                0 |          678693 |                     0 |        413380 | 2017-02-05 15:28:29.905286+01

 2017-02-05 15:46:55.100097+01 | 1486306015.1001 |                 0 |               4 |                  4730 |                  232 |             487038 |             0 |                0 |          678693 |                     0 |        413503 | 2017-02-05 15:28:29.905286+01

 2017-02-05 15:46:56.187009+01 | 1486306016.18701 |                 0 |               4 |                  4730 |                  232 |             487038 |             0 |                0 |          678693 |                     0 |        413799 | 2017-02-05 15:28:29.905286+01

 2017-02-05 15:46:57.266784+01 | 1486306017.26678 |                 0 |               4 |                  4730 |                  232 |             487038 |             0 |                0 |          678693 |                     0 |        413928 | 2017-02-05 15:28:29.905286+01

 2017-02-05 15:46:58.342802+01 | 1486306018.3428 |                 0 |               4 |                  4730 |                  232 |             487038 |             0 |                0 |          678693 |                     0 |        414158 | 2017-02-05 15:28:29.905286+01

 2017-02-05 15:46:59.420893+01 | 1486306019.42089 |                 0 |               4 |                  4730 |                  232 |             487038 |             0 |                0 |          678693 |                     0 |        414324 | 2017-02-05 15:28:29.905286+01

 2017-02-05 15:47:00.4913+01 | 1486306020.4913 |                 0 |               4 |                  4730 |                  232 |             487038 |             0 |                0 |          678693 |                     0 |        414539 | 2017-02-05 15:28:29.905286+01

 2017-02-05 15:47:01.571848+01 | 1486306021.57185 |                 0 |               4 |                  4730 |                  232 |             487038 |             0 |                0 |          678693 |                     0 |        414709 | 2017-02-05 15:28:29.905286+01

 2017-02-05 15:47:02.65797+01 | 1486306022.65797 |                 0 |               4 |                  4730 |                  232 |             487038 |             0 |                0 |          678693 |                     0 |        414947 | 2017-02-05 15:28:29.905286+01

 2017-02-05 15:47:03.736873+01 | 1486306023.73687 |                 0 |               4 |                  4730 |                  232 |             487038 |             0 |                0 |          678693 |                     0 |        415070 | 2017-02-05 15:28:29.905286+01

 2017-02-05 15:47:04.811296+01 | 1486306024.8113 |                 0 |               4 |                  4730 |                  232 |             487038 |             0 |                0 |          678693 |                     0 |        415317 | 2017-02-05 15:28:29.905286+01

 2017-02-05 15:47:05.888776+01 | 1486306025.88878 |                 0 |               4 |                  4730 |                  232 |             487038 |             0 |                0 |          678693 |                     0 |        415611 | 2017-02-05 15:28:29.905286+01

 2017-02-05 15:47:06.964929+01 | 1486306026.96493 |                 0 |               4 |                  4730 |                  232 |             487038 |             0 |                0 |          678693 |                     0 |        415718 | 2017-02-05 15:28:29.905286+01

 2017-02-05 15:47:08.037244+01 | 1486306028.03724 |                 0 |               4 |                  4730 |                  232 |             487038 |             0 |                0 |          678693 |                     0 |        415887 | 2017-02-05 15:28:29.905286+01

 2017-02-05 15:47:09.1149+01 | 1486306029.1149 |                 0 |               4 |                  4730 |                  232 |             487038 |             0 |                0 |          678693 |                     0 |        416055 | 2017-02-05 15:28:29.905286+01

 2017-02-05 15:47:10.189056+01 | 1486306030.18906 |                 0 |               4 |                  4730 |                  232 |             487038 |             0 |                0 |          678693 |                     0 |        416233 | 2017-02-05 15:28:29.905286+01

 2017-02-05 15:47:11.263232+01 | 1486306031.26323 |                 0 |               4 |                  4730 |                  232 |             487038 |             0 |                0 |          678693 |                     0 |        416446 | 2017-02-05 15:28:29.905286+01

 2017-02-05 15:47:12.342543+01 | 1486306032.34254 |                 0 |               4 |                  4730 |                  232 |             487038 |             0 |                0 |          678693 |                     0 |        416674 | 2017-02-05 15:28:29.905286+01

 2017-02-05 15:47:13.417419+01 | 1486306033.41742 |                 0 |               4 |                  4730 |                  232 |             487038 |             0 |                0 |          678693 |                     0 |        416805 | 2017-02-05 15:28:29.905286+01

 2017-02-05 15:47:14.499248+01 | 1486306034.49925 |                 0 |               4 |                  4730 |                  232 |             487038 |             0 |                0 |          678693 |                     0 |        417055 | 2017-02-05 15:28:29.905286+01

 2017-02-05 15:47:15.57475+01 | 1486306035.57475 |                 0 |               4 |                  4730 |                  232 |             487038 |             0 |                0 |          678693 |                     0 |        417159 | 2017-02-05 15:28:29.905286+01

 2017-02-05 15:47:16.65647+01 | 1486306036.65647 |                 0 |               4 |                  4730 |                  232 |             487038 |             0 |                0 |          678693 |                     0 |        417368 | 2017-02-05 15:28:29.905286+01

 2017-02-05 15:47:17.744141+01 | 1486306037.74414 |                 0 |               4 |                  4730 |                  232 |             487038 |             0 |                0 |          678693 |                     0 |        417520 | 2017-02-05 15:28:29.905286+01

 2017-02-05 15:47:18.823502+01 | 1486306038.8235 |                 0 |               4 |                  4730 |                  232 |             487038 |             0 |                0 |          678693 |                     0 |        417694 | 2017-02-05 15:28:29.905286+01

 2017-02-05 15:47:19.895402+01 | 1486306039.8954 |                 0 |               4 |                  4730 |                  232 |             487038 |             0 |                0 |          678693 |                     0 |        417905 | 2017-02-05 15:28:29.905286+01

 2017-02-05 15:47:20.975965+01 | 1486306040.97597 |                 0 |               4 |                  4730 |                  232 |             487038 |             0 |                0 |          678693 |                     0 |        418159 | 2017-02-05 15:28:29.905286+01

 2017-02-05 15:47:22.060305+01 | 1486306042.06031 |                 0 |               4 |                  4730 |                  232 |             487038 |             0 |                0 |          678693 |                     0 |        418329 | 2017-02-05 15:28:29.905286+01

 2017-02-05 15:47:23.140672+01 | 1486306043.14067 |                 0 |               4 |                  4730 |                  232 |             487038 |             0 |                0 |          678693 |                     0 |        418537 | 2017-02-05 15:28:29.905286+01

 2017-02-05 15:47:24.22883+01 | 1486306044.22883 |                 0 |               4 |                  4730 |                  232 |             487038 |             0 |                0 |          678693 |                     0 |        418727 | 2017-02-05 15:28:29.905286+01

 2017-02-05 15:47:25.301168+01 | 1486306045.30117 |                 0 |               4 |                  4730 |                  232 |             487038 |             0 |                0 |          678693 |                     0 |        418915 | 2017-02-05 15:28:29.905286+01

 2017-02-05 15:47:26.3843+01 | 1486306046.3843 |                 0 |               4 |                  4730 |                  232 |             487038 |             0 |                0 |          678693 |                     0 |        419108 | 2017-02-05 15:28:29.905286+01

 2017-02-05 15:47:27.463468+01 | 1486306047.46347 |                 0 |               4 |                  4730 |                  232 |             487038 |             0 |                0 |          678693 |                     0 |        419315 | 2017-02-05 15:28:29.905286+01

 2017-02-05 15:47:28.55116+01 | 1486306048.55116 |                 0 |               4 |                  4730 |                  232 |             487038 |             0 |                0 |          678693 |                     0 |        419588 | 2017-02-05 15:28:29.905286+01

 2017-02-05 15:47:29.623982+01 | 1486306049.62398 |                 0 |               4 |                  4730 |                  232 |             487038 |             0 |                0 |          678693 |                     0 |        419735 | 2017-02-05 15:28:29.905286+01

 2017-02-05 15:47:30.703287+01 | 1486306050.70329 |                 0 |               4 |                  4730 |                  232 |             487038 |             0 |                0 |          678693 |                     0 |        419888 | 2017-02-05 15:28:29.905286+01

 2017-02-05 15:47:31.78222+01 | 1486306051.78222 |                 0 |               4 |                  4730 |                  232 |             487038 |             0 |                0 |          678693 |                     0 |        420103 | 2017-02-05 15:28:29.905286+01

 2017-02-05 15:47:32.865022+01 | 1486306052.86502 |                 0 |               4 |                  4730 |                  232 |             487038 |             0 |                0 |          678693 |                     0 |        420299 | 2017-02-05 15:28:29.905286+01

 2017-02-05 15:47:33.944187+01 | 1486306053.94419 |                 0 |               4 |                  4730 |                  232 |             487038 |             0 |                0 |          678693 |                     0 |        420494 | 2017-02-05 15:28:29.905286+01

 2017-02-05 15:47:35.021762+01 | 1486306055.02176 |                 0 |               4 |                  4730 |                  232 |             487038 |             0 |                0 |          678693 |                     0 |        420598 | 2017-02-05 15:28:29.905286+01

 2017-02-05 15:47:36.096126+01 | 1486306056.09613 |                 0 |               4 |                  4730 |                  232 |             487038 |             0 |                0 |          678693 |                     0 |        420917 | 2017-02-05 15:28:29.905286+01

 2017-02-05 15:47:37.175789+01 | 1486306057.17579 |                 0 |               4 |                  4730 |                  232 |             487038 |             0 |                0 |          678693 |                     0 |        421092 | 2017-02-05 15:28:29.905286+01

 2017-02-05 15:47:38.257218+01 | 1486306058.25722 |                 0 |               4 |                  4730 |                  232 |             487038 |             0 |                0 |          678693 |                     0 |        421340 | 2017-02-05 15:28:29.905286+01

 2017-02-05 15:47:39.334726+01 | 1486306059.33473 |                 0 |               4 |                  4730 |                  232 |             487038 |             0 |                0 |          678693 |                     0 |        421487 | 2017-02-05 15:28:29.905286+01

 2017-02-05 15:47:40.412196+01 | 1486306060.4122 |                 0 |               4 |                  4730 |                  232 |             487038 |             0 |                0 |          678693 |                     0 |        421799 | 2017-02-05 15:28:29.905286+01

 2017-02-05 15:47:41.49188+01 | 1486306061.49188 |                 0 |               4 |                  4730 |                  232 |             487038 |             0 |                0 |          678693 |                     0 |        421889 | 2017-02-05 15:28:29.905286+01

 2017-02-05 15:47:42.569624+01 | 1486306062.56962 |                 0 |               4 |                  4730 |                  232 |             487038 |             0 |                0 |          678693 |                     0 |        422059 | 2017-02-05 15:28:29.905286+01

 2017-02-05 15:47:43.645771+01 | 1486306063.64577 |                 0 |               4 |                  4730 |                  232 |             487038 |             0 |                0 |          678693 |                     0 |        422298 | 2017-02-05 15:28:29.905286+01

 2017-02-05 15:47:44.725909+01 | 1486306064.72591 |                 0 |               4 |                  4730 |                  232 |             487038 |             0 |                0 |          678693 |                     0 |        422421 | 2017-02-05 15:28:29.905286+01

 2017-02-05 15:47:45.801778+01 | 1486306065.80178 |                 0 |               4 |                  4730 |                  232 |             487038 |             0 |                0 |          678693 |                     0 |        422678 | 2017-02-05 15:28:29.905286+01

 2017-02-05 15:47:46.886744+01 | 1486306066.88674 |                 0 |               4 |                  4730 |                  232 |             487038 |             0 |                0 |          678693 |                     0 |        422974 | 2017-02-05 15:28:29.905286+01

 2017-02-05 15:47:47.967961+01 | 1486306067.96796 |                 0 |               4 |                  4730 |                  232 |             487038 |             0 |                0 |          678693 |                     0 |        423059 | 2017-02-05 15:28:29.905286+01

 2017-02-05 15:47:49.056953+01 | 1486306069.05695 |                 0 |               4 |                  4730 |                  232 |             487038 |             0 |                0 |          678693 |                     0 |        423311 | 2017-02-05 15:28:29.905286+01

 2017-02-05 15:47:50.141202+01 | 1486306070.1412 |                 0 |               4 |                  4730 |                  232 |             487038 |             0 |                0 |          678693 |                     0 |        423480 | 2017-02-05 15:28:29.905286+01

 2017-02-05 15:47:51.215981+01 | 1486306071.21598 |                 0 |               4 |                  4730 |                  232 |             487038 |             0 |                0 |          678693 |                     0 |        423673 | 2017-02-05 15:28:29.905286+01

 2017-02-05 15:47:52.297967+01 | 1486306072.29797 |                 0 |               4 |                  4730 |                  232 |             487038 |             0 |                0 |          678693 |                     0 |        423868 | 2017-02-05 15:28:29.905286+01

 2017-02-05 15:47:53.372961+01 | 1486306073.37296 |                 0 |               4 |                  4730 |                  232 |             487038 |             0 |                0 |          678693 |                     0 |        424077 | 2017-02-05 15:28:29.905286+01

 2017-02-05 15:47:54.454642+01 | 1486306074.45464 |                 0 |               4 |                  4730 |                  232 |             487038 |             0 |                0 |          678693 |                     0 |        424260 | 2017-02-05 15:28:29.905286+01

 2017-02-05 15:47:55.533788+01 | 1486306075.53379 |                 0 |               4 |                  4730 |                  232 |             487038 |             0 |                0 |          678693 |                     0 |        424475 | 2017-02-05 15:28:29.905286+01

 2017-02-05 15:47:56.609992+01 | 1486306076.60999 |                 0 |               4 |                  4730 |                  232 |             487038 |             0 |                0 |          678693 |                     0 |        424663 | 2017-02-05 15:28:29.905286+01

 2017-02-05 15:47:57.685642+01 | 1486306077.68564 |                 0 |               4 |                  4730 |                  232 |             487038 |             0 |                0 |          678693 |                     0 |        424815 | 2017-02-05 15:28:29.905286+01

 2017-02-05 15:47:58.76219+01 | 1486306078.76219 |                 0 |               4 |                  4730 |                  232 |             487038 |             0 |                0 |          678693 |                     0 |        424961 | 2017-02-05 15:28:29.905286+01

 2017-02-05 15:47:59.842189+01 | 1486306079.84219 |                 0 |               4 |                  4730 |                  232 |             487038 |             0 |                0 |          678693 |                     0 |        425195 | 2017-02-05 15:28:29.905286+01

 2017-02-05 15:48:00.916813+01 | 1486306080.91681 |                 0 |               4 |                  4730 |                  232 |             487038 |             0 |                0 |          678693 |                     0 |        425406 | 2017-02-05 15:28:29.905286+01

 2017-02-05 15:48:01.997805+01 | 1486306081.99781 |                 0 |               4 |                  4730 |                  232 |             487038 |             0 |                0 |          678693 |                     0 |        425660 | 2017-02-05 15:28:29.905286+01

 2017-02-05 15:48:03.082659+01 | 1486306083.08266 |                 0 |               4 |                  4730 |                  232 |             487038 |             0 |                0 |          678693 |                     0 |        425808 | 2017-02-05 15:28:29.905286+01

 2017-02-05 15:48:04.164247+01 | 1486306084.16425 |                 0 |               4 |                  4730 |                  232 |             487038 |             0 |                0 |          678693 |                     0 |        425985 | 2017-02-05 15:28:29.905286+01

 2017-02-05 15:48:05.241064+01 | 1486306085.24106 |                 0 |               4 |                  4730 |                  232 |             487038 |             0 |                0 |          678693 |                     0 |        426153 | 2017-02-05 15:28:29.905286+01

 2017-02-05 15:48:06.31336+01 | 1486306086.31336 |                 0 |               4 |                  4730 |                  232 |             487038 |             0 |                0 |          678693 |                     0 |        426342 | 2017-02-05 15:28:29.905286+01

 2017-02-05 15:48:07.393124+01 | 1486306087.39312 |                 0 |               4 |                  4730 |                  232 |             487038 |             0 |                0 |          678693 |                     0 |        426612 | 2017-02-05 15:28:29.905286+01

 2017-02-05 15:48:08.478443+01 | 1486306088.47844 |                 0 |               4 |                  4730 |                  232 |             487038 |             0 |                0 |          678693 |                     0 |        426779 | 2017-02-05 15:28:29.905286+01

 2017-02-05 15:48:09.561937+01 | 1486306089.56194 |                 0 |               4 |                  4730 |                  232 |             487038 |             0 |                0 |          678693 |                     0 |        426989 | 2017-02-05 15:28:29.905286+01

 2017-02-05 15:48:10.64366+01 | 1486306090.64366 |                 0 |               4 |                  4730 |                  232 |             487038 |             0 |                0 |          678693 |                     0 |        427245 | 2017-02-05 15:28:29.905286+01

 2017-02-05 15:48:11.727496+01 | 1486306091.7275 |                 0 |               4 |                  4730 |                  232 |             487038 |             0 |                0 |          678693 |                     0 |        427354 | 2017-02-05 15:28:29.905286+01

 2017-02-05 15:48:12.810254+01 | 1486306092.81025 |                 0 |               4 |                  4730 |                  232 |             487038 |             0 |                0 |          678693 |                     0 |        427610 | 2017-02-05 15:28:29.905286+01

 2017-02-05 15:48:13.885119+01 | 1486306093.88512 |                 0 |               4 |                  4730 |                  232 |             487038 |             0 |                0 |          678693 |                     0 |        427842 | 2017-02-05 15:28:29.905286+01

 2017-02-05 15:48:14.965506+01 | 1486306094.96551 |                 0 |               4 |                  4730 |                  232 |             487038 |             0 |                0 |          678693 |                     0 |        427945 | 2017-02-05 15:28:29.905286+01

 2017-02-05 15:48:16.041788+01 | 1486306096.04179 |                 0 |               4 |                  4730 |                  232 |             487038 |             0 |                0 |          678693 |                     0 |        428157 | 2017-02-05 15:28:29.905286+01

 2017-02-05 15:48:17.118398+01 | 1486306097.1184 |                 0 |               4 |                  4730 |                  232 |             487038 |             0 |                0 |          678693 |                     0 |        428305 | 2017-02-05 15:28:29.905286+01

 2017-02-05 15:48:18.197824+01 | 1486306098.19782 |                 0 |               4 |                  4730 |                  232 |             487038 |             0 |                0 |          678693 |                     0 |        428494 | 2017-02-05 15:28:29.905286+01

 2017-02-05 15:48:19.283996+01 | 1486306099.284 |                 0 |               4 |                  4730 |                  232 |             487038 |             0 |                0 |          678693 |                     0 |        428766 | 2017-02-05 15:28:29.905286+01

 2017-02-05 15:48:20.356709+01 | 1486306100.35671 |                 0 |               4 |                  4730 |                  232 |             487038 |             0 |                0 |          678693 |                     0 |        428976 | 2017-02-05 15:28:29.905286+01

 2017-02-05 15:48:21.444366+01 | 1486306101.44437 |                 0 |               4 |                  4730 |                  232 |             487038 |             0 |                0 |          678693 |                     0 |        429108 | 2017-02-05 15:28:29.905286+01

 2017-02-05 15:48:22.529908+01 | 1486306102.52991 |                 0 |               4 |                  4730 |                  232 |             487038 |             0 |                0 |          678693 |                     0 |        429318 | 2017-02-05 15:28:29.905286+01

 2017-02-05 15:48:23.60892+01 | 1486306103.60892 |                 0 |               4 |                  4730 |                  232 |             487038 |             0 |                0 |          678693 |                     0 |        429509 | 2017-02-05 15:28:29.905286+01

 2017-02-05 15:48:24.686686+01 | 1486306104.68669 |                 0 |               4 |                  4730 |                  232 |             487038 |             0 |                0 |          678693 |                     0 |        429758 | 2017-02-05 15:28:29.905286+01

 2017-02-05 15:48:25.762541+01 | 1486306105.76254 |                 0 |               4 |                  4730 |                  232 |             487038 |             0 |                0 |          678693 |                     0 |        429884 | 2017-02-05 15:28:29.905286+01

 2017-02-05 15:48:26.848186+01 | 1486306106.84819 |                 0 |               4 |                  4730 |                  232 |             487038 |             0 |                0 |          678693 |                     0 |        430073 | 2017-02-05 15:28:29.905286+01

 2017-02-05 15:48:27.930418+01 | 1486306107.93042 |                 0 |               4 |                  4730 |                  232 |             487038 |             0 |                0 |          678693 |                     0 |        430290 | 2017-02-05 15:28:29.905286+01

 2017-02-05 15:48:29.018221+01 | 1486306109.01822 |                 0 |               4 |                  4730 |                  232 |             487038 |             0 |                0 |          678693 |                     0 |        430460 | 2017-02-05 15:28:29.905286+01

 2017-02-05 15:48:30.097631+01 | 1486306110.09763 |                 0 |               4 |                  4730 |                  232 |             487038 |             0 |                0 |          678693 |                     0 |        430666 | 2017-02-05 15:28:29.905286+01

 2017-02-05 15:48:31.181975+01 | 1486306111.18197 |                 0 |               4 |                  4730 |                  232 |             487038 |             0 |                0 |          678693 |                     0 |        430906 | 2017-02-05 15:28:29.905286+01

 2017-02-05 15:48:32.260411+01 | 1486306112.26041 |                 0 |               4 |                  4730 |                  232 |             487038 |             0 |                0 |          678693 |                     0 |        431076 | 2017-02-05 15:28:29.905286+01

 2017-02-05 15:48:33.340212+01 | 1486306113.34021 |                 0 |               4 |                  4730 |                  232 |             487038 |             0 |                0 |          678693 |                     0 |        431272 | 2017-02-05 15:28:29.905286+01

 2017-02-05 15:48:34.419449+01 | 1486306114.41945 |                 0 |               4 |                  4730 |                  232 |             487038 |             0 |                0 |          678693 |                     0 |        431445 | 2017-02-05 15:28:29.905286+01

 2017-02-05 15:48:35.505046+01 | 1486306115.50505 |                 0 |               4 |                  4730 |                  232 |             487038 |             0 |                0 |          678693 |                     0 |        431618 | 2017-02-05 15:28:29.905286+01

 2017-02-05 15:48:36.58065+01 | 1486306116.58065 |                 0 |               4 |                  4730 |                  232 |             487038 |             0 |                0 |          678693 |                     0 |        431809 | 2017-02-05 15:28:29.905286+01

 2017-02-05 15:48:37.65981+01 | 1486306117.65981 |                 0 |               4 |                  4730 |                  232 |             487038 |             0 |                0 |          678693 |                     0 |        432059 | 2017-02-05 15:28:29.905286+01

 2017-02-05 15:48:38.747151+01 | 1486306118.74715 |                 0 |               4 |                  4730 |                  232 |             487038 |             0 |                0 |          678693 |                     0 |        432189 | 2017-02-05 15:28:29.905286+01

 2017-02-05 15:48:39.834728+01 | 1486306119.83473 |                 0 |               4 |                  4730 |                  232 |             487038 |             0 |                0 |          678693 |                     0 |        432362 | 2017-02-05 15:28:29.905286+01

 2017-02-05 15:48:40.913375+01 | 1486306120.91337 |                 0 |               4 |                  4730 |                  232 |             487038 |             0 |                0 |          678693 |                     0 |        432572 | 2017-02-05 15:28:29.905286+01

 2017-02-05 15:48:41.990813+01 | 1486306121.99081 |                 0 |               4 |                  4730 |                  232 |             487038 |             0 |                0 |          678693 |                     0 |        432698 | 2017-02-05 15:28:29.905286+01

 2017-02-05 15:48:43.073722+01 | 1486306123.07372 |                 0 |               4 |                  4730 |                  232 |             487038 |             0 |                0 |          678693 |                     0 |        432884 | 2017-02-05 15:28:29.905286+01

 2017-02-05 15:48:44.160863+01 | 1486306124.16086 |                 0 |               4 |                  4730 |                  232 |             487038 |             0 |                0 |          678693 |                     0 |        433073 | 2017-02-05 15:28:29.905286+01

 2017-02-05 15:48:45.239923+01 | 1486306125.23992 |                 0 |               4 |                  4730 |                  232 |             487038 |             0 |                0 |          678693 |                     0 |        433228 | 2017-02-05 15:28:29.905286+01

 2017-02-05 15:48:46.314388+01 | 1486306126.31439 |                 0 |               4 |                  4730 |                  232 |             487038 |             0 |                0 |          678693 |                     0 |        433396 | 2017-02-05 15:28:29.905286+01

 2017-02-05 15:48:47.387385+01 | 1486306127.38738 |                 0 |               4 |                  4730 |                  232 |             487038 |             0 |                0 |          678693 |                     0 |        433542 | 2017-02-05 15:28:29.905286+01

 2017-02-05 15:48:48.460639+01 | 1486306128.46064 |                 0 |               4 |                  4730 |                  232 |             487038 |             0 |                0 |          678693 |                     0 |        433797 | 2017-02-05 15:28:29.905286+01

 2017-02-05 15:48:49.539892+01 | 1486306129.53989 |                 0 |               4 |                  4730 |                  232 |             487038 |             0 |                0 |          678693 |                     0 |        433925 | 2017-02-05 15:28:29.905286+01

 2017-02-05 15:48:50.619182+01 | 1486306130.61918 |                 0 |               4 |                  4730 |                  232 |             487038 |             0 |                0 |          678693 |                     0 |        434167 | 2017-02-05 15:28:29.905286+01

 2017-02-05 15:48:51.709785+01 | 1486306131.70978 |                 0 |               4 |                  4730 |                  232 |             487038 |             0 |                0 |          678693 |                     0 |        434294 | 2017-02-05 15:28:29.905286+01

 2017-02-05 15:48:52.7928+01 | 1486306132.7928 |                 0 |               4 |                  4730 |                  232 |             487038 |             0 |                0 |          678693 |                     0 |        434530 | 2017-02-05 15:28:29.905286+01

 2017-02-05 15:48:53.872291+01 | 1486306133.87229 |                 0 |               4 |                  4730 |                  232 |             487038 |             0 |                0 |          678693 |                     0 |        434705 | 2017-02-05 15:28:29.905286+01

 2017-02-05 15:48:54.954246+01 | 1486306134.95425 |                 0 |               4 |                  4730 |                  232 |             487038 |             0 |                0 |          678693 |                     0 |        434899 | 2017-02-05 15:28:29.905286+01

 2017-02-05 15:48:56.033572+01 | 1486306136.03357 |                 0 |               4 |                  4730 |                  232 |             487038 |             0 |                0 |          678693 |                     0 |        435099 | 2017-02-05 15:28:29.905286+01

 2017-02-05 15:48:57.10807+01 | 1486306137.10807 |                 0 |               4 |                  4730 |                  232 |             487038 |             0 |                0 |          678693 |                     0 |        435311 | 2017-02-05 15:28:29.905286+01

 2017-02-05 15:48:58.191661+01 | 1486306138.19166 |                 0 |               4 |                  4730 |                  232 |             487038 |             0 |                0 |          678693 |                     0 |        435502 | 2017-02-05 15:28:29.905286+01

 2017-02-05 15:48:59.282831+01 | 1486306139.28283 |                 0 |               4 |                  4730 |                  232 |             487038 |             0 |                0 |          678693 |                     0 |        435671 | 2017-02-05 15:28:29.905286+01

 2017-02-05 15:49:00.373194+01 | 1486306140.37319 |                 0 |               4 |                  4730 |                  232 |             487038 |             0 |                0 |          678693 |                     0 |        435880 | 2017-02-05 15:28:29.905286+01

