 2017-02-06 10:12:56.18737+01 | 1486372376.18737 |                 0 |               7 |                 10090 |                  395 |            1192861 |             0 |                0 |          710857 |                     0 |        414896 | 2017-02-06 09:42:18.893067+01

 2017-02-06 10:12:57.276819+01 | 1486372377.27682 |                 0 |               7 |                 10090 |                  395 |            1192861 |             0 |                0 |          710857 |                     0 |        415010 | 2017-02-06 09:42:18.893067+01

 2017-02-06 10:12:58.380732+01 | 1486372378.38073 |                 0 |               7 |                 10090 |                  395 |            1192861 |             0 |                0 |          710857 |                     0 |        415137 | 2017-02-06 09:42:18.893067+01

 2017-02-06 10:12:59.468162+01 | 1486372379.46816 |                 0 |               7 |                 10090 |                  395 |            1192861 |             0 |                0 |          710857 |                     0 |        415247 | 2017-02-06 09:42:18.893067+01

 2017-02-06 10:13:00.551311+01 | 1486372380.55131 |                 0 |               7 |                 10090 |                  395 |            1192861 |             0 |                0 |          710857 |                     0 |        415417 | 2017-02-06 09:42:18.893067+01

 2017-02-06 10:13:01.630663+01 | 1486372381.63066 |                 0 |               7 |                 10090 |                  395 |            1192861 |             0 |                0 |          710857 |                     0 |        415647 | 2017-02-06 09:42:18.893067+01

 2017-02-06 10:13:02.71311+01 | 1486372382.71311 |                 0 |               7 |                 10090 |                  395 |            1192861 |             0 |                0 |          710857 |                     0 |        415756 | 2017-02-06 09:42:18.893067+01

 2017-02-06 10:13:03.803988+01 | 1486372383.80399 |                 0 |               7 |                 10090 |                  395 |            1192861 |             0 |                0 |          710857 |                     0 |        415925 | 2017-02-06 09:42:18.893067+01

 2017-02-06 10:13:04.896127+01 | 1486372384.89613 |                 0 |               7 |                 10090 |                  395 |            1192861 |             0 |                0 |          710857 |                     0 |        416112 | 2017-02-06 09:42:18.893067+01

 2017-02-06 10:13:05.978468+01 | 1486372385.97847 |                 0 |               7 |                 10090 |                  395 |            1192861 |             0 |                0 |          710857 |                     0 |        416404 | 2017-02-06 09:42:18.893067+01

 2017-02-06 10:13:07.058238+01 | 1486372387.05824 |                 0 |               7 |                 10090 |                  395 |            1192861 |             0 |                0 |          710857 |                     0 |        416576 | 2017-02-06 09:42:18.893067+01

 2017-02-06 10:13:08.143711+01 | 1486372388.14371 |                 0 |               7 |                 10090 |                  395 |            1192861 |             0 |                0 |          710857 |                     0 |        416756 | 2017-02-06 09:42:18.893067+01

 2017-02-06 10:13:09.236192+01 | 1486372389.23619 |                 0 |               7 |                 10090 |                  395 |            1192861 |             0 |                0 |          710857 |                     0 |        416995 | 2017-02-06 09:42:18.893067+01

 2017-02-06 10:13:10.330902+01 | 1486372390.3309 |                 0 |               7 |                 10090 |                  395 |            1192861 |             0 |                0 |          710857 |                     0 |        417122 | 2017-02-06 09:42:18.893067+01

 2017-02-06 10:13:11.41725+01 | 1486372391.41725 |                 0 |               7 |                 10090 |                  395 |            1192861 |             0 |                0 |          710857 |                     0 |        417268 | 2017-02-06 09:42:18.893067+01

 2017-02-06 10:13:12.501395+01 | 1486372392.50139 |                 0 |               7 |                 10090 |                  395 |            1192861 |             0 |                0 |          710857 |                     0 |        417557 | 2017-02-06 09:42:18.893067+01

 2017-02-06 10:13:13.592852+01 | 1486372393.59285 |                 0 |               7 |                 10090 |                  395 |            1192861 |             0 |                0 |          710857 |                     0 |        417746 | 2017-02-06 09:42:18.893067+01

 2017-02-06 10:13:14.671935+01 | 1486372394.67194 |                 0 |               7 |                 10090 |                  395 |            1192861 |             0 |                0 |          710857 |                     0 |        417979 | 2017-02-06 09:42:18.893067+01

 2017-02-06 10:13:15.762174+01 | 1486372395.76217 |                 0 |               7 |                 10090 |                  395 |            1192861 |             0 |                0 |          710857 |                     0 |        418125 | 2017-02-06 09:42:18.893067+01

 2017-02-06 10:13:16.857967+01 | 1486372396.85797 |                 0 |               7 |                 10090 |                  395 |            1192861 |             0 |                0 |          710857 |                     0 |        418296 | 2017-02-06 09:42:18.893067+01

 2017-02-06 10:13:17.942776+01 | 1486372397.94278 |                 0 |               7 |                 10090 |                  395 |            1192861 |             0 |                0 |          710857 |                     0 |        418486 | 2017-02-06 09:42:18.893067+01

 2017-02-06 10:13:19.028314+01 | 1486372399.02831 |                 0 |               7 |                 10090 |                  395 |            1192861 |             0 |                0 |          710857 |                     0 |        419024 | 2017-02-06 09:42:18.893067+01

 2017-02-06 10:13:20.110716+01 | 1486372400.11072 |                 0 |               7 |                 10090 |                  395 |            1192861 |             0 |                0 |          710857 |                     0 |        419036 | 2017-02-06 09:42:18.893067+01

 2017-02-06 10:13:21.202905+01 | 1486372401.2029 |                 0 |               7 |                 10090 |                  395 |            1192861 |             0 |                0 |          710857 |                     0 |        419037 | 2017-02-06 09:42:18.893067+01

 2017-02-06 10:13:22.293078+01 | 1486372402.29308 |                 0 |               7 |                 10090 |                  395 |            1192861 |             0 |                0 |          710857 |                     0 |        419294 | 2017-02-06 09:42:18.893067+01

 2017-02-06 10:13:23.376358+01 | 1486372403.37636 |                 0 |               7 |                 10090 |                  395 |            1192861 |             0 |                0 |          710857 |                     0 |        419441 | 2017-02-06 09:42:18.893067+01

 2017-02-06 10:13:24.471682+01 | 1486372404.47168 |                 0 |               7 |                 10090 |                  395 |            1192861 |             0 |                0 |          710857 |                     0 |        419690 | 2017-02-06 09:42:18.893067+01

 2017-02-06 10:13:25.553377+01 | 1486372405.55338 |                 0 |               7 |                 10090 |                  395 |            1192861 |             0 |                0 |          710857 |                     0 |        419876 | 2017-02-06 09:42:18.893067+01

 2017-02-06 10:13:26.644054+01 | 1486372406.64405 |                 0 |               7 |                 10090 |                  395 |            1192861 |             0 |                0 |          710857 |                     0 |        420020 | 2017-02-06 09:42:18.893067+01

 2017-02-06 10:13:27.729107+01 | 1486372407.72911 |                 0 |               7 |                 10090 |                  395 |            1192861 |             0 |                0 |          710857 |                     0 |        420199 | 2017-02-06 09:42:18.893067+01

 2017-02-06 10:13:28.813786+01 | 1486372408.81379 |                 0 |               7 |                 10090 |                  395 |            1192861 |             0 |                0 |          710857 |                     0 |        420409 | 2017-02-06 09:42:18.893067+01

 2017-02-06 10:13:29.899555+01 | 1486372409.89955 |                 0 |               7 |                 10090 |                  395 |            1192861 |             0 |                0 |          710857 |                     0 |        420604 | 2017-02-06 09:42:18.893067+01

 2017-02-06 10:13:30.988247+01 | 1486372410.98825 |                 0 |               7 |                 10090 |                  395 |            1192861 |             0 |                0 |          710857 |                     0 |        420858 | 2017-02-06 09:42:18.893067+01

 2017-02-06 10:13:32.072442+01 | 1486372412.07244 |                 0 |               7 |                 10090 |                  395 |            1192861 |             0 |                0 |          710857 |                     0 |        421004 | 2017-02-06 09:42:18.893067+01

 2017-02-06 10:13:33.156335+01 | 1486372413.15634 |                 0 |               7 |                 10090 |                  395 |            1192861 |             0 |                0 |          710857 |                     0 |        421179 | 2017-02-06 09:42:18.893067+01

 2017-02-06 10:13:34.245268+01 | 1486372414.24527 |                 0 |               7 |                 10090 |                  395 |            1192861 |             0 |                0 |          710857 |                     0 |        421352 | 2017-02-06 09:42:18.893067+01

 2017-02-06 10:13:35.346334+01 | 1486372415.34633 |                 0 |               7 |                 10090 |                  395 |            1192861 |             0 |                0 |          710857 |                     0 |        421528 | 2017-02-06 09:42:18.893067+01

 2017-02-06 10:13:36.435023+01 | 1486372416.43502 |                 0 |               7 |                 10090 |                  395 |            1192861 |             0 |                0 |          710857 |                     0 |        421719 | 2017-02-06 09:42:18.893067+01

 2017-02-06 10:13:37.515543+01 | 1486372417.51554 |                 0 |               7 |                 10090 |                  395 |            1192861 |             0 |                0 |          710857 |                     0 |        422227 | 2017-02-06 09:42:18.893067+01

 2017-02-06 10:13:38.594838+01 | 1486372418.59484 |                 0 |               7 |                 10090 |                  395 |            1192861 |             0 |                0 |          710857 |                     0 |        422227 | 2017-02-06 09:42:18.893067+01

 2017-02-06 10:13:39.68019+01 | 1486372419.68019 |                 0 |               7 |                 10090 |                  395 |            1192861 |             0 |                0 |          710857 |                     0 |        422270 | 2017-02-06 09:42:18.893067+01

 2017-02-06 10:13:40.759777+01 | 1486372420.75978 |                 0 |               7 |                 10090 |                  395 |            1192861 |             0 |                0 |          710857 |                     0 |        422463 | 2017-02-06 09:42:18.893067+01

 2017-02-06 10:13:41.848413+01 | 1486372421.84841 |                 0 |               7 |                 10090 |                  395 |            1192861 |             0 |                0 |          710857 |                     0 |        422757 | 2017-02-06 09:42:18.893067+01

 2017-02-06 10:13:42.922777+01 | 1486372422.92278 |                 0 |               7 |                 10090 |                  395 |            1192861 |             0 |                0 |          710857 |                     0 |        422868 | 2017-02-06 09:42:18.893067+01

 2017-02-06 10:13:44.01318+01 | 1486372424.01318 |                 0 |               7 |                 10090 |                  395 |            1192861 |             0 |                0 |          710857 |                     0 |        422995 | 2017-02-06 09:42:18.893067+01

 2017-02-06 10:13:45.091803+01 | 1486372425.0918 |                 0 |               7 |                 10090 |                  395 |            1192861 |             0 |                0 |          710857 |                     0 |        423286 | 2017-02-06 09:42:18.893067+01

 2017-02-06 10:13:46.167408+01 | 1486372426.16741 |                 0 |               7 |                 10090 |                  395 |            1192861 |             0 |                0 |          710857 |                     0 |        423416 | 2017-02-06 09:42:18.893067+01

 2017-02-06 10:13:47.257762+01 | 1486372427.25776 |                 0 |               7 |                 10090 |                  395 |            1192861 |             0 |                0 |          710857 |                     0 |        423672 | 2017-02-06 09:42:18.893067+01

 2017-02-06 10:13:48.348785+01 | 1486372428.34878 |                 0 |               7 |                 10090 |                  395 |            1192861 |             0 |                0 |          710857 |                     0 |        423815 | 2017-02-06 09:42:18.893067+01

 2017-02-06 10:13:49.435824+01 | 1486372429.43582 |                 0 |               7 |                 10090 |                  395 |            1192861 |             0 |                0 |          710857 |                     0 |        424006 | 2017-02-06 09:42:18.893067+01

 2017-02-06 10:13:50.522106+01 | 1486372430.52211 |                 0 |               7 |                 10090 |                  395 |            1192861 |             0 |                0 |          710857 |                     0 |        424193 | 2017-02-06 09:42:18.893067+01

 2017-02-06 10:13:51.601041+01 | 1486372431.60104 |                 0 |               7 |                 10090 |                  395 |            1192861 |             0 |                0 |          710857 |                     0 |        424340 | 2017-02-06 09:42:18.893067+01

 2017-02-06 10:13:52.679758+01 | 1486372432.67976 |                 0 |               7 |                 10090 |                  395 |            1192861 |             0 |                0 |          710857 |                     0 |        424505 | 2017-02-06 09:42:18.893067+01

 2017-02-06 10:13:53.762498+01 | 1486372433.7625 |                 0 |               7 |                 10090 |                  395 |            1192861 |             0 |                0 |          710857 |                     0 |        424714 | 2017-02-06 09:42:18.893067+01

 2017-02-06 10:13:54.848305+01 | 1486372434.8483 |                 0 |               7 |                 10090 |                  395 |            1192861 |             0 |                0 |          710857 |                     0 |        424929 | 2017-02-06 09:42:18.893067+01

 2017-02-06 10:13:55.944034+01 | 1486372435.94403 |                 0 |               7 |                 10090 |                  395 |            1192861 |             0 |                0 |          710857 |                     0 |        425181 | 2017-02-06 09:42:18.893067+01

 2017-02-06 10:13:57.036013+01 | 1486372437.03601 |                 0 |               7 |                 10090 |                  395 |            1192861 |             0 |                0 |          710857 |                     0 |        425294 | 2017-02-06 09:42:18.893067+01

 2017-02-06 10:13:58.126169+01 | 1486372438.12617 |                 0 |               7 |                 10090 |                  395 |            1192861 |             0 |                0 |          710857 |                     0 |        425579 | 2017-02-06 09:42:18.893067+01

 2017-02-06 10:13:59.207535+01 | 1486372439.20754 |                 0 |               7 |                 10090 |                  395 |            1192861 |             0 |                0 |          710857 |                     0 |        425665 | 2017-02-06 09:42:18.893067+01

 2017-02-06 10:14:00.286478+01 | 1486372440.28648 |                 0 |               7 |                 10090 |                  395 |            1192861 |             0 |                0 |          710857 |                     0 |        425899 | 2017-02-06 09:42:18.893067+01

 2017-02-06 10:14:01.38552+01 | 1486372441.38552 |                 0 |               7 |                 10090 |                  395 |            1192861 |             0 |                0 |          710857 |                     0 |        426048 | 2017-02-06 09:42:18.893067+01

 2017-02-06 10:14:02.481103+01 | 1486372442.4811 |                 0 |               7 |                 10090 |                  395 |            1192861 |             0 |                0 |          710857 |                     0 |        426151 | 2017-02-06 09:42:18.893067+01

 2017-02-06 10:14:03.573617+01 | 1486372443.57362 |                 0 |               7 |                 10090 |                  395 |            1192861 |             0 |                0 |          710857 |                     0 |        426428 | 2017-02-06 09:42:18.893067+01

 2017-02-06 10:14:04.653749+01 | 1486372444.65375 |                 0 |               7 |                 10090 |                  395 |            1192861 |             0 |                0 |          710857 |                     0 |        426596 | 2017-02-06 09:42:18.893067+01

 2017-02-06 10:14:05.742176+01 | 1486372445.74218 |                 0 |               7 |                 10090 |                  395 |            1192861 |             0 |                0 |          710857 |                     0 |        426821 | 2017-02-06 09:42:18.893067+01

 2017-02-06 10:14:06.835932+01 | 1486372446.83593 |                 0 |               7 |                 10090 |                  395 |            1192861 |             0 |                0 |          710857 |                     0 |        426947 | 2017-02-06 09:42:18.893067+01

 2017-02-06 10:14:07.919743+01 | 1486372447.91974 |                 0 |               7 |                 10090 |                  395 |            1192861 |             0 |                0 |          710857 |                     0 |        427173 | 2017-02-06 09:42:18.893067+01

 2017-02-06 10:14:09.002365+01 | 1486372449.00237 |                 0 |               7 |                 10090 |                  395 |            1192861 |             0 |                0 |          710857 |                     0 |        427364 | 2017-02-06 09:42:18.893067+01

 2017-02-06 10:14:10.093713+01 | 1486372450.09371 |                 0 |               7 |                 10090 |                  395 |            1192861 |             0 |                0 |          710857 |                     0 |        427573 | 2017-02-06 09:42:18.893067+01

 2017-02-06 10:14:11.173964+01 | 1486372451.17396 |                 0 |               7 |                 10090 |                  395 |            1192861 |             0 |                0 |          710857 |                     0 |        427740 | 2017-02-06 09:42:18.893067+01

 2017-02-06 10:14:12.250345+01 | 1486372452.25034 |                 0 |               7 |                 10090 |                  395 |            1192861 |             0 |                0 |          710857 |                     0 |        427845 | 2017-02-06 09:42:18.893067+01

 2017-02-06 10:14:13.332441+01 | 1486372453.33244 |                 0 |               7 |                 10090 |                  395 |            1192861 |             0 |                0 |          710857 |                     0 |        428167 | 2017-02-06 09:42:18.893067+01

 2017-02-06 10:14:14.421576+01 | 1486372454.42158 |                 0 |               7 |                 10090 |                  395 |            1192861 |             0 |                0 |          710857 |                     0 |        428296 | 2017-02-06 09:42:18.893067+01

 2017-02-06 10:14:15.511121+01 | 1486372455.51112 |                 0 |               7 |                 10090 |                  395 |            1192861 |             0 |                0 |          710857 |                     0 |        428484 | 2017-02-06 09:42:18.893067+01

 2017-02-06 10:14:16.59446+01 | 1486372456.59446 |                 0 |               7 |                 10090 |                  395 |            1192861 |             0 |                0 |          710857 |                     0 |        428692 | 2017-02-06 09:42:18.893067+01

 2017-02-06 10:14:17.677943+01 | 1486372457.67794 |                 0 |               7 |                 10090 |                  395 |            1192861 |             0 |                0 |          710857 |                     0 |        428836 | 2017-02-06 09:42:18.893067+01

 2017-02-06 10:14:18.756905+01 | 1486372458.75691 |                 0 |               7 |                 10090 |                  395 |            1192861 |             0 |                0 |          710857 |                     0 |        429021 | 2017-02-06 09:42:18.893067+01

 2017-02-06 10:14:19.853047+01 | 1486372459.85305 |                 0 |               7 |                 10090 |                  395 |            1192861 |             0 |                0 |          710857 |                     0 |        429276 | 2017-02-06 09:42:18.893067+01

 2017-02-06 10:14:20.935839+01 | 1486372460.93584 |                 0 |               7 |                 10090 |                  395 |            1192861 |             0 |                0 |          710857 |                     0 |        429422 | 2017-02-06 09:42:18.893067+01

 2017-02-06 10:14:22.020543+01 | 1486372462.02054 |                 0 |               7 |                 10090 |                  395 |            1192861 |             0 |                0 |          710857 |                     0 |        429618 | 2017-02-06 09:42:18.893067+01

 2017-02-06 10:14:23.102433+01 | 1486372463.10243 |                 0 |               7 |                 10090 |                  395 |            1192861 |             0 |                0 |          710857 |                     0 |        429816 | 2017-02-06 09:42:18.893067+01

 2017-02-06 10:14:24.183271+01 | 1486372464.18327 |                 0 |               7 |                 10090 |                  395 |            1192861 |             0 |                0 |          710857 |                     0 |        430265 | 2017-02-06 09:42:18.893067+01

 2017-02-06 10:14:25.273297+01 | 1486372465.2733 |                 0 |               7 |                 10090 |                  395 |            1192861 |             0 |                0 |          710857 |                     0 |        430265 | 2017-02-06 09:42:18.893067+01

 2017-02-06 10:14:26.350763+01 | 1486372466.35076 |                 0 |               7 |                 10090 |                  395 |            1192861 |             0 |                0 |          710857 |                     0 |        430375 | 2017-02-06 09:42:18.893067+01

 2017-02-06 10:14:27.438558+01 | 1486372467.43856 |                 0 |               7 |                 10090 |                  395 |            1192861 |             0 |                0 |          710857 |                     0 |        430566 | 2017-02-06 09:42:18.893067+01

 2017-02-06 10:14:28.522513+01 | 1486372468.52251 |                 0 |               7 |                 10090 |                  395 |            1192861 |             0 |                0 |          710857 |                     0 |        430715 | 2017-02-06 09:42:18.893067+01

 2017-02-06 10:14:29.608472+01 | 1486372469.60847 |                 0 |               7 |                 10090 |                  395 |            1192861 |             0 |                0 |          710857 |                     0 |        430960 | 2017-02-06 09:42:18.893067+01

 2017-02-06 10:14:30.699508+01 | 1486372470.69951 |                 0 |               7 |                 10090 |                  395 |            1192861 |             0 |                0 |          710857 |                     0 |        431090 | 2017-02-06 09:42:18.893067+01

 2017-02-06 10:14:31.784734+01 | 1486372471.78473 |                 0 |               7 |                 10090 |                  395 |            1192861 |             0 |                0 |          710857 |                     0 |        431286 | 2017-02-06 09:42:18.893067+01

 2017-02-06 10:14:32.876635+01 | 1486372472.87664 |                 0 |               7 |                 10090 |                  395 |            1192861 |             0 |                0 |          710857 |                     0 |        431482 | 2017-02-06 09:42:18.893067+01

 2017-02-06 10:14:33.958006+01 | 1486372473.95801 |                 0 |               7 |                 10090 |                  395 |            1192861 |             0 |                0 |          710857 |                     0 |        431674 | 2017-02-06 09:42:18.893067+01

 2017-02-06 10:14:35.042596+01 | 1486372475.0426 |                 0 |               7 |                 10090 |                  395 |            1192861 |             0 |                0 |          710857 |                     0 |        431845 | 2017-02-06 09:42:18.893067+01

 2017-02-06 10:14:36.121199+01 | 1486372476.1212 |                 0 |               7 |                 10090 |                  395 |            1192861 |             0 |                0 |          710857 |                     0 |        432094 | 2017-02-06 09:42:18.893067+01

 2017-02-06 10:14:37.199035+01 | 1486372477.19903 |                 0 |               7 |                 10090 |                  395 |            1192861 |             0 |                0 |          710857 |                     0 |        432240 | 2017-02-06 09:42:18.893067+01

 2017-02-06 10:14:38.275864+01 | 1486372478.27586 |                 0 |               7 |                 10090 |                  395 |            1192861 |             0 |                0 |          710857 |                     0 |        432371 | 2017-02-06 09:42:18.893067+01

 2017-02-06 10:14:39.355048+01 | 1486372479.35505 |                 0 |               7 |                 10090 |                  395 |            1192861 |             0 |                0 |          710857 |                     0 |        432701 | 2017-02-06 09:42:18.893067+01

 2017-02-06 10:14:40.443432+01 | 1486372480.44343 |                 0 |               7 |                 10090 |                  395 |            1192861 |             0 |                0 |          710857 |                     0 |        432784 | 2017-02-06 09:42:18.893067+01

 2017-02-06 10:14:41.535532+01 | 1486372481.53553 |                 0 |               7 |                 10090 |                  395 |            1192861 |             0 |                0 |          710857 |                     0 |        432908 | 2017-02-06 09:42:18.893067+01

 2017-02-06 10:14:42.625867+01 | 1486372482.62587 |                 0 |               7 |                 10090 |                  395 |            1192861 |             0 |                0 |          710857 |                     0 |        433102 | 2017-02-06 09:42:18.893067+01

 2017-02-06 10:14:43.731847+01 | 1486372483.73185 |                 0 |               7 |                 10090 |                  395 |            1192861 |             0 |                0 |          710857 |                     0 |        433329 | 2017-02-06 09:42:18.893067+01

 2017-02-06 10:14:44.820155+01 | 1486372484.82015 |                 0 |               7 |                 10090 |                  395 |            1192861 |             0 |                0 |          710857 |                     0 |        433550 | 2017-02-06 09:42:18.893067+01

 2017-02-06 10:14:45.905553+01 | 1486372485.90555 |                 0 |               7 |                 10090 |                  395 |            1192861 |             0 |                0 |          710857 |                     0 |        433728 | 2017-02-06 09:42:18.893067+01

 2017-02-06 10:14:46.989803+01 | 1486372486.9898 |                 0 |               7 |                 10090 |                  395 |            1192861 |             0 |                0 |          710857 |                     0 |        433882 | 2017-02-06 09:42:18.893067+01

 2017-02-06 10:14:48.074701+01 | 1486372488.0747 |                 0 |               7 |                 10090 |                  395 |            1192861 |             0 |                0 |          710857 |                     0 |        434109 | 2017-02-06 09:42:18.893067+01

 2017-02-06 10:14:49.164325+01 | 1486372489.16432 |                 0 |               7 |                 10090 |                  395 |            1192861 |             0 |                0 |          710857 |                     0 |        434233 | 2017-02-06 09:42:18.893067+01

 2017-02-06 10:14:50.240753+01 | 1486372490.24075 |                 0 |               7 |                 10090 |                  395 |            1192861 |             0 |                0 |          710857 |                     0 |        434343 | 2017-02-06 09:42:18.893067+01

 2017-02-06 10:14:51.321865+01 | 1486372491.32187 |                 0 |               7 |                 10090 |                  395 |            1192861 |             0 |                0 |          710857 |                     0 |        434621 | 2017-02-06 09:42:18.893067+01

 2017-02-06 10:14:52.405453+01 | 1486372492.40545 |                 0 |               7 |                 10090 |                  395 |            1192861 |             0 |                0 |          710857 |                     0 |        434848 | 2017-02-06 09:42:18.893067+01

 2017-02-06 10:14:53.501541+01 | 1486372493.50154 |                 0 |               7 |                 10090 |                  395 |            1192861 |             0 |                0 |          710857 |                     0 |        434978 | 2017-02-06 09:42:18.893067+01

 2017-02-06 10:14:54.581498+01 | 1486372494.5815 |                 0 |               7 |                 10090 |                  395 |            1192861 |             0 |                0 |          710857 |                     0 |        435167 | 2017-02-06 09:42:18.893067+01

 2017-02-06 10:14:55.670408+01 | 1486372495.67041 |                 0 |               7 |                 10090 |                  395 |            1192861 |             0 |                0 |          710857 |                     0 |        435363 | 2017-02-06 09:42:18.893067+01

 2017-02-06 10:14:56.758219+01 | 1486372496.75822 |                 0 |               7 |                 10090 |                  395 |            1192861 |             0 |                0 |          710857 |                     0 |        435486 | 2017-02-06 09:42:18.893067+01

 2017-02-06 10:14:57.857479+01 | 1486372497.85748 |                 0 |               7 |                 10090 |                  395 |            1192861 |             0 |                0 |          710857 |                     0 |        435785 | 2017-02-06 09:42:18.893067+01

 2017-02-06 10:14:58.94483+01 | 1486372498.94483 |                 0 |               7 |                 10090 |                  395 |            1192861 |             0 |                0 |          710857 |                     0 |        435934 | 2017-02-06 09:42:18.893067+01

 2017-02-06 10:15:00.025604+01 | 1486372500.0256 |                 0 |               7 |                 10090 |                  395 |            1192861 |             0 |                0 |          710857 |                     0 |        436109 | 2017-02-06 09:42:18.893067+01

 2017-02-06 10:15:01.111272+01 | 1486372501.11127 |                 0 |               7 |                 10090 |                  395 |            1192861 |             0 |                0 |          710857 |                     0 |        436288 | 2017-02-06 09:42:18.893067+01

 2017-02-06 10:15:02.18989+01 | 1486372502.18989 |                 0 |               7 |                 10090 |                  395 |            1192861 |             0 |                0 |          710857 |                     0 |        436371 | 2017-02-06 09:42:18.893067+01

 2017-02-06 10:15:03.257745+01 | 1486372503.25775 |                 0 |               7 |                 10090 |                  395 |            1192861 |             0 |                0 |          710857 |                     0 |        436664 | 2017-02-06 09:42:18.893067+01

 2017-02-06 10:15:04.343067+01 | 1486372504.34307 |                 0 |               7 |                 10090 |                  395 |            1192861 |             0 |                0 |          710857 |                     0 |        436955 | 2017-02-06 09:42:18.893067+01

 2017-02-06 10:15:05.431672+01 | 1486372505.43167 |                 0 |               7 |                 10090 |                  395 |            1192861 |             0 |                0 |          710857 |                     0 |        437144 | 2017-02-06 09:42:18.893067+01

 2017-02-06 10:15:06.531005+01 | 1486372506.531 |                 0 |               7 |                 10090 |                  395 |            1192861 |             0 |                0 |          710857 |                     0 |        437336 | 2017-02-06 09:42:18.893067+01

 2017-02-06 10:15:07.621745+01 | 1486372507.62175 |                 0 |               7 |                 10090 |                  395 |            1192861 |             0 |                0 |          710857 |                     0 |        437851 | 2017-02-06 09:42:18.893067+01

 2017-02-06 10:15:08.713305+01 | 1486372508.7133 |                 0 |               7 |                 10090 |                  395 |            1192861 |             0 |                0 |          710857 |                     0 |        437851 | 2017-02-06 09:42:18.893067+01

 2017-02-06 10:15:09.805636+01 | 1486372509.80564 |                 0 |               7 |                 10090 |                  395 |            1192861 |             0 |                0 |          710857 |                     0 |        437937 | 2017-02-06 09:42:18.893067+01

 2017-02-06 10:15:10.893753+01 | 1486372510.89375 |                 0 |               7 |                 10090 |                  395 |            1192861 |             0 |                0 |          710857 |                     0 |        438166 | 2017-02-06 09:42:18.893067+01

 2017-02-06 10:15:11.977179+01 | 1486372511.97718 |                 0 |               7 |                 10090 |                  395 |            1192861 |             0 |                0 |          710857 |                     0 |        438349 | 2017-02-06 09:42:18.893067+01

 2017-02-06 10:15:13.065057+01 | 1486372513.06506 |                 0 |               7 |                 10090 |                  395 |            1192861 |             0 |                0 |          710857 |                     0 |        438579 | 2017-02-06 09:42:18.893067+01

 2017-02-06 10:15:14.153657+01 | 1486372514.15366 |                 0 |               7 |                 10090 |                  395 |            1192861 |             0 |                0 |          710857 |                     0 |        438705 | 2017-02-06 09:42:18.893067+01

 2017-02-06 10:15:15.232075+01 | 1486372515.23207 |                 0 |               7 |                 10090 |                  395 |            1192861 |             0 |                0 |          710857 |                     0 |        438971 | 2017-02-06 09:42:18.893067+01

 2017-02-06 10:15:16.312249+01 | 1486372516.31225 |                 0 |               7 |                 10090 |                  395 |            1192861 |             0 |                0 |          710857 |                     0 |        439057 | 2017-02-06 09:42:18.893067+01

 2017-02-06 10:15:17.38959+01 | 1486372517.38959 |                 0 |               7 |                 10090 |                  395 |            1192861 |             0 |                0 |          710857 |                     0 |        439160 | 2017-02-06 09:42:18.893067+01

 2017-02-06 10:15:18.471101+01 | 1486372518.4711 |                 0 |               7 |                 10090 |                  395 |            1192861 |             0 |                0 |          710857 |                     0 |        439449 | 2017-02-06 09:42:18.893067+01

 2017-02-06 10:15:19.558604+01 | 1486372519.5586 |                 0 |               7 |                 10090 |                  395 |            1192861 |             0 |                0 |          710857 |                     0 |        439639 | 2017-02-06 09:42:18.893067+01

 2017-02-06 10:15:20.653339+01 | 1486372520.65334 |                 0 |               7 |                 10090 |                  395 |            1192861 |             0 |                0 |          710857 |                     0 |        439812 | 2017-02-06 09:42:18.893067+01

 2017-02-06 10:15:21.743531+01 | 1486372521.74353 |                 0 |               7 |                 10090 |                  395 |            1192861 |             0 |                0 |          710857 |                     0 |        440044 | 2017-02-06 09:42:18.893067+01

 2017-02-06 10:15:22.835376+01 | 1486372522.83538 |                 0 |               7 |                 10090 |                  395 |            1192861 |             0 |                0 |          710857 |                     0 |        440191 | 2017-02-06 09:42:18.893067+01

 2017-02-06 10:15:23.930189+01 | 1486372523.93019 |                 0 |               7 |                 10090 |                  395 |            1192861 |             0 |                0 |          710857 |                     0 |        440406 | 2017-02-06 09:42:18.893067+01

 2017-02-06 10:15:25.012764+01 | 1486372525.01276 |                 0 |               7 |                 10090 |                  395 |            1192861 |             0 |                0 |          710857 |                     0 |        440469 | 2017-02-06 09:42:18.893067+01

 2017-02-06 10:15:26.095784+01 | 1486372526.09578 |                 0 |               7 |                 10090 |                  395 |            1192861 |             0 |                0 |          710857 |                     0 |        440761 | 2017-02-06 09:42:18.893067+01

 2017-02-06 10:15:27.181934+01 | 1486372527.18193 |                 0 |               7 |                 10090 |                  395 |            1192861 |             0 |                0 |          710857 |                     0 |        441028 | 2017-02-06 09:42:18.893067+01

 2017-02-06 10:15:28.263994+01 | 1486372528.26399 |                 0 |               7 |                 10090 |                  395 |            1192861 |             0 |                0 |          710857 |                     0 |        441375 | 2017-02-06 09:42:18.893067+01

 2017-02-06 10:15:29.338281+01 | 1486372529.33828 |                 0 |               7 |                 10090 |                  395 |            1192861 |             0 |                0 |          710857 |                     0 |        441375 | 2017-02-06 09:42:18.893067+01

 2017-02-06 10:15:30.416344+01 | 1486372530.41634 |                 0 |               7 |                 10090 |                  395 |            1192861 |             0 |                0 |          710857 |                     0 |        441482 | 2017-02-06 09:42:18.893067+01

 2017-02-06 10:15:31.504489+01 | 1486372531.50449 |                 0 |               7 |                 10090 |                  395 |            1192861 |             0 |                0 |          710857 |                     0 |        441659 | 2017-02-06 09:42:18.893067+01

 2017-02-06 10:15:32.604328+01 | 1486372532.60433 |                 0 |               7 |                 10090 |                  395 |            1192861 |             0 |                0 |          710857 |                     0 |        441900 | 2017-02-06 09:42:18.893067+01

 2017-02-06 10:15:33.698371+01 | 1486372533.69837 |                 0 |               7 |                 10090 |                  395 |            1192861 |             0 |                0 |          710857 |                     0 |        442048 | 2017-02-06 09:42:18.893067+01

 2017-02-06 10:15:34.784006+01 | 1486372534.78401 |                 0 |               7 |                 10090 |                  395 |            1192861 |             0 |                0 |          710857 |                     0 |        442257 | 2017-02-06 09:42:18.893067+01

 2017-02-06 10:15:35.873114+01 | 1486372535.87311 |                 0 |               7 |                 10090 |                  395 |            1192861 |             0 |                0 |          710857 |                     0 |        442407 | 2017-02-06 09:42:18.893067+01

 2017-02-06 10:15:36.962657+01 | 1486372536.96266 |                 0 |               7 |                 10090 |                  395 |            1192861 |             0 |                0 |          710857 |                     0 |        442553 | 2017-02-06 09:42:18.893067+01

 2017-02-06 10:15:38.054977+01 | 1486372538.05498 |                 0 |               7 |                 10090 |                  395 |            1192861 |             0 |                0 |          710857 |                     0 |        442790 | 2017-02-06 09:42:18.893067+01

 2017-02-06 10:15:39.137922+01 | 1486372539.13792 |                 0 |               7 |                 10090 |                  395 |            1192861 |             0 |                0 |          710857 |                     0 |        442790 | 2017-02-06 09:42:18.893067+01

 2017-02-06 10:15:40.222216+01 | 1486372540.22222 |                 0 |               7 |                 10090 |                  395 |            1192861 |             0 |                0 |          710857 |                     0 |        443127 | 2017-02-06 09:42:18.893067+01

 2017-02-06 10:15:41.300568+01 | 1486372541.30057 |                 0 |               7 |                 10090 |                  395 |            1192861 |             0 |                0 |          710857 |                     0 |        443303 | 2017-02-06 09:42:18.893067+01

 2017-02-06 10:15:42.379694+01 | 1486372542.37969 |                 0 |               7 |                 10090 |                  395 |            1192861 |             0 |                0 |          710857 |                     0 |        443514 | 2017-02-06 09:42:18.893067+01

 2017-02-06 10:15:43.46456+01 | 1486372543.46456 |                 0 |               7 |                 10090 |                  395 |            1192861 |             0 |                0 |          710857 |                     0 |        443707 | 2017-02-06 09:42:18.893067+01

 2017-02-06 10:15:44.548438+01 | 1486372544.54844 |                 0 |               7 |                 10090 |                  395 |            1192861 |             0 |                0 |          710857 |                     0 |        443880 | 2017-02-06 09:42:18.893067+01

 2017-02-06 10:15:45.635636+01 | 1486372545.63564 |                 0 |               7 |                 10090 |                  395 |            1192861 |             0 |                0 |          710857 |                     0 |        444029 | 2017-02-06 09:42:18.893067+01

 2017-02-06 10:15:46.728738+01 | 1486372546.72874 |                 0 |               7 |                 10090 |                  395 |            1192861 |             0 |                0 |          710857 |                     0 |        444241 | 2017-02-06 09:42:18.893067+01

 2017-02-06 10:15:47.819995+01 | 1486372547.81999 |                 0 |               7 |                 10090 |                  395 |            1192861 |             0 |                0 |          710857 |                     0 |        444428 | 2017-02-06 09:42:18.893067+01

 2017-02-06 10:15:48.913142+01 | 1486372548.91314 |                 0 |               7 |                 10090 |                  395 |            1192861 |             0 |                0 |          710857 |                     0 |        444621 | 2017-02-06 09:42:18.893067+01

 2017-02-06 10:15:49.994276+01 | 1486372549.99428 |                 0 |               7 |                 10090 |                  395 |            1192861 |             0 |                0 |          710857 |                     0 |        444765 | 2017-02-06 09:42:18.893067+01

 2017-02-06 10:15:51.07394+01 | 1486372551.07394 |                 0 |               7 |                 10090 |                  395 |            1192861 |             0 |                0 |          710857 |                     0 |        445078 | 2017-02-06 09:42:18.893067+01

 2017-02-06 10:15:52.161571+01 | 1486372552.16157 |                 0 |               7 |                 10090 |                  395 |            1192861 |             0 |                0 |          710857 |                     0 |        445201 | 2017-02-06 09:42:18.893067+01

 2017-02-06 10:15:53.241039+01 | 1486372553.24104 |                 0 |               7 |                 10090 |                  395 |            1192861 |             0 |                0 |          710857 |                     0 |        445371 | 2017-02-06 09:42:18.893067+01

 2017-02-06 10:15:54.324887+01 | 1486372554.32489 |                 0 |               7 |                 10090 |                  395 |            1192861 |             0 |                0 |          710857 |                     0 |        445527 | 2017-02-06 09:42:18.893067+01

 2017-02-06 10:15:55.41038+01 | 1486372555.41038 |                 0 |               7 |                 10090 |                  395 |            1192861 |             0 |                0 |          710857 |                     0 |        445680 | 2017-02-06 09:42:18.893067+01

 2017-02-06 10:15:56.498735+01 | 1486372556.49873 |                 0 |               7 |                 10090 |                  395 |            1192861 |             0 |                0 |          710857 |                     0 |        445870 | 2017-02-06 09:42:18.893067+01

 2017-02-06 10:15:57.58413+01 | 1486372557.58413 |                 0 |               7 |                 10090 |                  395 |            1192861 |             0 |                0 |          710857 |                     0 |        446065 | 2017-02-06 09:42:18.893067+01

 2017-02-06 10:15:58.677727+01 | 1486372558.67773 |                 0 |               7 |                 10090 |                  395 |            1192861 |             0 |                0 |          710857 |                     0 |        446318 | 2017-02-06 09:42:18.893067+01

 2017-02-06 10:15:59.763452+01 | 1486372559.76345 |                 0 |               7 |                 10090 |                  395 |            1192861 |             0 |                0 |          710857 |                     0 |        446450 | 2017-02-06 09:42:18.893067+01

 2017-02-06 10:16:00.854608+01 | 1486372560.85461 |                 0 |               7 |                 10090 |                  395 |            1192861 |             0 |                0 |          710857 |                     0 |        446636 | 2017-02-06 09:42:18.893067+01

 2017-02-06 10:16:01.937563+01 | 1486372561.93756 |                 0 |               7 |                 10090 |                  395 |            1192861 |             0 |                0 |          710857 |                     0 |        446739 | 2017-02-06 09:42:18.893067+01

 2017-02-06 10:16:03.013819+01 | 1486372563.01382 |                 0 |               7 |                 10090 |                  395 |            1192861 |             0 |                0 |          710857 |                     0 |        446952 | 2017-02-06 09:42:18.893067+01

 2017-02-06 10:16:04.103599+01 | 1486372564.1036 |                 0 |               7 |                 10090 |                  395 |            1192861 |             0 |                0 |          710857 |                     0 |        447190 | 2017-02-06 09:42:18.893067+01

 2017-02-06 10:16:05.200061+01 | 1486372565.20006 |                 0 |               7 |                 10090 |                  395 |            1192861 |             0 |                0 |          710857 |                     0 |        447316 | 2017-02-06 09:42:18.893067+01

 2017-02-06 10:16:06.282076+01 | 1486372566.28208 |                 0 |               7 |                 10090 |                  395 |            1192861 |             0 |                0 |          710857 |                     0 |        447501 | 2017-02-06 09:42:18.893067+01

 2017-02-06 10:16:07.367836+01 | 1486372567.36784 |                 0 |               7 |                 10090 |                  395 |            1192861 |             0 |                0 |          710857 |                     0 |        447645 | 2017-02-06 09:42:18.893067+01

 2017-02-06 10:16:08.443942+01 | 1486372568.44394 |                 0 |               7 |                 10090 |                  395 |            1192861 |             0 |                0 |          710857 |                     0 |        447981 | 2017-02-06 09:42:18.893067+01

 2017-02-06 10:16:09.524925+01 | 1486372569.52492 |                 0 |               7 |                 10090 |                  395 |            1192861 |             0 |                0 |          710857 |                     0 |        448067 | 2017-02-06 09:42:18.893067+01

 2017-02-06 10:16:10.612124+01 | 1486372570.61212 |                 0 |               7 |                 10090 |                  395 |            1192861 |             0 |                0 |          710857 |                     0 |        448170 | 2017-02-06 09:42:18.893067+01

 2017-02-06 10:16:11.704758+01 | 1486372571.70476 |                 0 |               7 |                 10090 |                  395 |            1192861 |             0 |                0 |          710857 |                     0 |        448549 | 2017-02-06 09:42:18.893067+01

 2017-02-06 10:16:12.790133+01 | 1486372572.79013 |                 0 |               7 |                 10090 |                  395 |            1192861 |             0 |                0 |          710857 |                     0 |        448712 | 2017-02-06 09:42:18.893067+01

 2017-02-06 10:16:13.882169+01 | 1486372573.88217 |                 0 |               7 |                 10090 |                  395 |            1192861 |             0 |                0 |          710857 |                     0 |        448795 | 2017-02-06 09:42:18.893067+01

 2017-02-06 10:16:14.969898+01 | 1486372574.9699 |                 0 |               7 |                 10090 |                  395 |            1192861 |             0 |                0 |          710857 |                     0 |        448939 | 2017-02-06 09:42:18.893067+01

 2017-02-06 10:16:16.06164+01 | 1486372576.06164 |                 0 |               7 |                 10090 |                  395 |            1192861 |             0 |                0 |          710857 |                     0 |        449165 | 2017-02-06 09:42:18.893067+01

 2017-02-06 10:16:17.146228+01 | 1486372577.14623 |                 0 |               7 |                 10090 |                  395 |            1192861 |             0 |                0 |          710857 |                     0 |        449268 | 2017-02-06 09:42:18.893067+01

 2017-02-06 10:16:18.233315+01 | 1486372578.23331 |                 0 |               7 |                 10090 |                  395 |            1192861 |             0 |                0 |          710857 |                     0 |        449586 | 2017-02-06 09:42:18.893067+01

 2017-02-06 10:16:19.312433+01 | 1486372579.31243 |                 0 |               7 |                 10090 |                  395 |            1192861 |             0 |                0 |          710857 |                     0 |        449732 | 2017-02-06 09:42:18.893067+01

 2017-02-06 10:16:20.389933+01 | 1486372580.38993 |                 0 |               7 |                 10090 |                  395 |            1192861 |             0 |                0 |          710857 |                     0 |        449836 | 2017-02-06 09:42:18.893067+01

 2017-02-06 10:16:21.470656+01 | 1486372581.47066 |                 0 |               7 |                 10090 |                  395 |            1192861 |             0 |                0 |          710857 |                     0 |        450002 | 2017-02-06 09:42:18.893067+01

 2017-02-06 10:16:22.553997+01 | 1486372582.554 |                 0 |               7 |                 10090 |                  395 |            1192861 |             0 |                0 |          710857 |                     0 |        450229 | 2017-02-06 09:42:18.893067+01

 2017-02-06 10:16:23.641457+01 | 1486372583.64146 |                 0 |               7 |                 10090 |                  395 |            1192861 |             0 |                0 |          710857 |                     0 |        450455 | 2017-02-06 09:42:18.893067+01

 2017-02-06 10:16:24.727429+01 | 1486372584.72743 |                 0 |               7 |                 10090 |                  395 |            1192861 |             0 |                0 |          710857 |                     0 |        450580 | 2017-02-06 09:42:18.893067+01

 2017-02-06 10:16:25.82527+01 | 1486372585.82527 |                 0 |               7 |                 10090 |                  395 |            1192861 |             0 |                0 |          710857 |                     0 |        450753 | 2017-02-06 09:42:18.893067+01

 2017-02-06 10:16:26.919295+01 | 1486372586.9193 |                 0 |               7 |                 10090 |                  395 |            1192861 |             0 |                0 |          710857 |                     0 |        451019 | 2017-02-06 09:42:18.893067+01

 2017-02-06 10:16:28.001892+01 | 1486372588.00189 |                 0 |               7 |                 10090 |                  395 |            1192861 |             0 |                0 |          710857 |                     0 |        451151 | 2017-02-06 09:42:18.893067+01

 2017-02-06 10:16:29.08573+01 | 1486372589.08573 |                 0 |               7 |                 10090 |                  395 |            1192861 |             0 |                0 |          710857 |                     0 |        451298 | 2017-02-06 09:42:18.893067+01

 2017-02-06 10:16:30.173614+01 | 1486372590.17361 |                 0 |               7 |                 10090 |                  395 |            1192861 |             0 |                0 |          710857 |                     0 |        451464 | 2017-02-06 09:42:18.893067+01

 2017-02-06 10:16:31.261145+01 | 1486372591.26115 |                 0 |               7 |                 10090 |                  395 |            1192861 |             0 |                0 |          710857 |                     0 |        451710 | 2017-02-06 09:42:18.893067+01

 2017-02-06 10:16:32.342991+01 | 1486372592.34299 |                 0 |               7 |                 10090 |                  395 |            1192861 |             0 |                0 |          710857 |                     0 |        451887 | 2017-02-06 09:42:18.893067+01

 2017-02-06 10:16:33.419074+01 | 1486372593.41907 |                 0 |               7 |                 10090 |                  395 |            1192861 |             0 |                0 |          710857 |                     0 |        452073 | 2017-02-06 09:42:18.893067+01

 2017-02-06 10:16:34.498403+01 | 1486372594.4984 |                 0 |               7 |                 10090 |                  395 |            1192861 |             0 |                0 |          710857 |                     0 |        452383 | 2017-02-06 09:42:18.893067+01

 2017-02-06 10:16:35.581385+01 | 1486372595.58138 |                 0 |               7 |                 10090 |                  395 |            1192861 |             0 |                0 |          710857 |                     0 |        452384 | 2017-02-06 09:42:18.893067+01

 2017-02-06 10:16:36.662947+01 | 1486372596.66295 |                 0 |               7 |                 10090 |                  395 |            1192861 |             0 |                0 |          710857 |                     0 |        452568 | 2017-02-06 09:42:18.893067+01

 2017-02-06 10:16:37.752078+01 | 1486372597.75208 |                 0 |               7 |                 10090 |                  395 |            1192861 |             0 |                0 |          710857 |                     0 |        452762 | 2017-02-06 09:42:18.893067+01

 2017-02-06 10:16:38.839409+01 | 1486372598.83941 |                 0 |               7 |                 10090 |                  395 |            1192861 |             0 |                0 |          710857 |                     0 |        452998 | 2017-02-06 09:42:18.893067+01

 2017-02-06 10:16:39.936335+01 | 1486372599.93634 |                 0 |               7 |                 10090 |                  395 |            1192861 |             0 |                0 |          710857 |                     0 |        453139 | 2017-02-06 09:42:18.893067+01

 2017-02-06 10:16:41.019671+01 | 1486372601.01967 |                 0 |               7 |                 10090 |                  395 |            1192861 |             0 |                0 |          710857 |                     0 |        453408 | 2017-02-06 09:42:18.893067+01

 2017-02-06 10:16:42.106537+01 | 1486372602.10654 |                 0 |               7 |                 10090 |                  395 |            1192861 |             0 |                0 |          710857 |                     0 |        453514 | 2017-02-06 09:42:18.893067+01

 2017-02-06 10:16:43.196272+01 | 1486372603.19627 |                 0 |               7 |                 10090 |                  395 |            1192861 |             0 |                0 |          710857 |                     0 |        453514 | 2017-02-06 09:42:18.893067+01

 2017-02-06 10:16:44.283969+01 | 1486372604.28397 |                 0 |               7 |                 10090 |                  395 |            1192861 |             0 |                0 |          710857 |                     0 |        453892 | 2017-02-06 09:42:18.893067+01

 2017-02-06 10:16:45.364366+01 | 1486372605.36437 |                 0 |               7 |                 10090 |                  395 |            1192861 |             0 |                0 |          710857 |                     0 |        454052 | 2017-02-06 09:42:18.893067+01

 2017-02-06 10:16:46.440008+01 | 1486372606.44001 |                 0 |               7 |                 10090 |                  395 |            1192861 |             0 |                0 |          710857 |                     0 |        454424 | 2017-02-06 09:42:18.893067+01

 2017-02-06 10:16:47.522813+01 | 1486372607.52281 |                 0 |               7 |                 10090 |                  395 |            1192861 |             0 |                0 |          710857 |                     0 |        454424 | 2017-02-06 09:42:18.893067+01

 2017-02-06 10:16:48.603644+01 | 1486372608.60364 |                 0 |               7 |                 10090 |                  395 |            1192861 |             0 |                0 |          710857 |                     0 |        454940 | 2017-02-06 09:42:18.893067+01

 2017-02-06 10:16:49.68975+01 | 1486372609.68975 |                 0 |               7 |                 10090 |                  395 |            1192861 |             0 |                0 |          710857 |                     0 |        454940 | 2017-02-06 09:42:18.893067+01

 2017-02-06 10:16:50.784691+01 | 1486372610.78469 |                 0 |               7 |                 10090 |                  395 |            1192861 |             0 |                0 |          710857 |                     0 |        454940 | 2017-02-06 09:42:18.893067+01

 2017-02-06 10:16:51.868584+01 | 1486372611.86858 |                 0 |               7 |                 10090 |                  395 |            1192861 |             0 |                0 |          710857 |                     0 |        455104 | 2017-02-06 09:42:18.893067+01

 2017-02-06 10:16:52.950876+01 | 1486372612.95088 |                 0 |               7 |                 10090 |                  395 |            1192861 |             0 |                0 |          710857 |                     0 |        455293 | 2017-02-06 09:42:18.893067+01

 2017-02-06 10:16:54.03547+01 | 1486372614.03547 |                 0 |               7 |                 10090 |                  395 |            1192861 |             0 |                0 |          710857 |                     0 |        455503 | 2017-02-06 09:42:18.893067+01

 2017-02-06 10:16:55.105182+01 | 1486372615.10518 |                 0 |               7 |                 10090 |                  395 |            1192861 |             0 |                0 |          710857 |                     0 |        455749 | 2017-02-06 09:42:18.893067+01

 2017-02-06 10:16:56.195712+01 | 1486372616.19571 |                 0 |               7 |                 10090 |                  395 |            1192861 |             0 |                0 |          710857 |                     0 |        455873 | 2017-02-06 09:42:18.893067+01

 2017-02-06 10:16:57.277482+01 | 1486372617.27748 |                 0 |               7 |                 10090 |                  395 |            1192861 |             0 |                0 |          710857 |                     0 |        456082 | 2017-02-06 09:42:18.893067+01

 2017-02-06 10:16:58.355316+01 | 1486372618.35532 |                 0 |               7 |                 10090 |                  395 |            1192861 |             0 |                0 |          710857 |                     0 |        456288 | 2017-02-06 09:42:18.893067+01

 2017-02-06 10:16:59.432553+01 | 1486372619.43255 |                 0 |               7 |                 10090 |                  395 |            1192861 |             0 |                0 |          710857 |                     0 |        456454 | 2017-02-06 09:42:18.893067+01

 2017-02-06 10:17:00.512178+01 | 1486372620.51218 |                 0 |               7 |                 10090 |                  395 |            1192861 |             0 |                0 |          710857 |                     0 |        456541 | 2017-02-06 09:42:18.893067+01

 2017-02-06 10:17:01.594721+01 | 1486372621.59472 |                 0 |               7 |                 10090 |                  395 |            1192861 |             0 |                0 |          710857 |                     0 |        456712 | 2017-02-06 09:42:18.893067+01

 2017-02-06 10:17:02.682261+01 | 1486372622.68226 |                 0 |               7 |                 10090 |                  395 |            1192861 |             0 |                0 |          710857 |                     0 |        456922 | 2017-02-06 09:42:18.893067+01

 2017-02-06 10:17:03.767499+01 | 1486372623.7675 |                 0 |               7 |                 10090 |                  395 |            1192861 |             0 |                0 |          710857 |                     0 |        457211 | 2017-02-06 09:42:18.893067+01

 2017-02-06 10:17:04.861749+01 | 1486372624.86175 |                 0 |               7 |                 10090 |                  395 |            1192861 |             0 |                0 |          710857 |                     0 |        457294 | 2017-02-06 09:42:18.893067+01

 2017-02-06 10:17:05.961608+01 | 1486372625.96161 |                 0 |               7 |                 10090 |                  395 |            1192861 |             0 |                0 |          710857 |                     0 |        457450 | 2017-02-06 09:42:18.893067+01

 2017-02-06 10:17:07.049332+01 | 1486372627.04933 |                 0 |               7 |                 10090 |                  395 |            1192861 |             0 |                0 |          710857 |                     0 |        457644 | 2017-02-06 09:42:18.893067+01

 2017-02-06 10:17:08.13541+01 | 1486372628.13541 |                 0 |               7 |                 10090 |                  395 |            1192861 |             0 |                0 |          710857 |                     0 |        457821 | 2017-02-06 09:42:18.893067+01

 2017-02-06 10:17:09.216106+01 | 1486372629.21611 |                 0 |               7 |                 10090 |                  395 |            1192861 |             0 |                0 |          710857 |                     0 |        458019 | 2017-02-06 09:42:18.893067+01

 2017-02-06 10:17:10.298605+01 | 1486372630.2986 |                 0 |               7 |                 10090 |                  395 |            1192861 |             0 |                0 |          710857 |                     0 |        458170 | 2017-02-06 09:42:18.893067+01

 2017-02-06 10:17:11.376882+01 | 1486372631.37688 |                 0 |               7 |                 10090 |                  395 |            1192861 |             0 |                0 |          710857 |                     0 |        458337 | 2017-02-06 09:42:18.893067+01

 2017-02-06 10:17:12.466326+01 | 1486372632.46633 |                 0 |               7 |                 10090 |                  395 |            1192861 |             0 |                0 |          710857 |                     0 |        458506 | 2017-02-06 09:42:18.893067+01

 2017-02-06 10:17:13.548251+01 | 1486372633.54825 |                 0 |               7 |                 10090 |                  395 |            1192861 |             0 |                0 |          710857 |                     0 |        458698 | 2017-02-06 09:42:18.893067+01

 2017-02-06 10:17:14.631973+01 | 1486372634.63197 |                 0 |               7 |                 10090 |                  395 |            1192861 |             0 |                0 |          710857 |                     0 |        458781 | 2017-02-06 09:42:18.893067+01

 2017-02-06 10:17:15.715896+01 | 1486372635.7159 |                 0 |               7 |                 10090 |                  395 |            1192861 |             0 |                0 |          710857 |                     0 |        459013 | 2017-02-06 09:42:18.893067+01

 2017-02-06 10:17:16.816079+01 | 1486372636.81608 |                 0 |               7 |                 10090 |                  395 |            1192861 |             0 |                0 |          710857 |                     0 |        459245 | 2017-02-06 09:42:18.893067+01

 2017-02-06 10:17:17.909646+01 | 1486372637.90965 |                 0 |               7 |                 10090 |                  395 |            1192861 |             0 |                0 |          710857 |                     0 |        459431 | 2017-02-06 09:42:18.893067+01

 2017-02-06 10:17:19.001109+01 | 1486372639.00111 |                 0 |               7 |                 10090 |                  395 |            1192861 |             0 |                0 |          710857 |                     0 |        459588 | 2017-02-06 09:42:18.893067+01

 2017-02-06 10:17:20.08662+01 | 1486372640.08662 |                 0 |               7 |                 10090 |                  395 |            1192861 |             0 |                0 |          710857 |                     0 |        459837 | 2017-02-06 09:42:18.893067+01

 2017-02-06 10:17:21.168905+01 | 1486372641.16891 |                 0 |               7 |                 10090 |                  395 |            1192861 |             0 |                0 |          710857 |                     0 |        459906 | 2017-02-06 09:42:18.893067+01

 2017-02-06 10:17:22.256951+01 | 1486372642.25695 |                 0 |               7 |                 10090 |                  395 |            1192861 |             0 |                0 |          710857 |                     0 |        460117 | 2017-02-06 09:42:18.893067+01

 2017-02-06 10:17:23.337228+01 | 1486372643.33723 |                 0 |               7 |                 10090 |                  395 |            1192861 |             0 |                0 |          710857 |                     0 |        460263 | 2017-02-06 09:42:18.893067+01

 2017-02-06 10:17:24.418972+01 | 1486372644.41897 |                 0 |               7 |                 10090 |                  395 |            1192861 |             0 |                0 |          710857 |                     0 |        460456 | 2017-02-06 09:42:18.893067+01

 2017-02-06 10:17:25.502312+01 | 1486372645.50231 |                 0 |               7 |                 10090 |                  395 |            1192861 |             0 |                0 |          710857 |                     0 |        460625 | 2017-02-06 09:42:18.893067+01

 2017-02-06 10:17:26.580802+01 | 1486372646.5808 |                 0 |               7 |                 10090 |                  395 |            1192861 |             0 |                0 |          710857 |                     0 |        460812 | 2017-02-06 09:42:18.893067+01

 2017-02-06 10:17:27.668185+01 | 1486372647.66818 |                 0 |               7 |                 10090 |                  395 |            1192861 |             0 |                0 |          710857 |                     0 |        460980 | 2017-02-06 09:42:18.893067+01

 2017-02-06 10:17:28.753377+01 | 1486372648.75338 |                 0 |               7 |                 10090 |                  395 |            1192861 |             0 |                0 |          710857 |                     0 |        461152 | 2017-02-06 09:42:18.893067+01

 2017-02-06 10:17:29.852559+01 | 1486372649.85256 |                 0 |               7 |                 10090 |                  395 |            1192861 |             0 |                0 |          710857 |                     0 |        461275 | 2017-02-06 09:42:18.893067+01

 2017-02-06 10:17:30.948411+01 | 1486372650.94841 |                 0 |               7 |                 10090 |                  395 |            1192861 |             0 |                0 |          710857 |                     0 |        461509 | 2017-02-06 09:42:18.893067+01

 2017-02-06 10:17:32.035494+01 | 1486372652.03549 |                 0 |               7 |                 10090 |                  395 |            1192861 |             0 |                0 |          710857 |                     0 |        461880 | 2017-02-06 09:42:18.893067+01

 2017-02-06 10:17:33.117824+01 | 1486372653.11782 |                 0 |               7 |                 10090 |                  395 |            1192861 |             0 |                0 |          710857 |                     0 |        461880 | 2017-02-06 09:42:18.893067+01

 2017-02-06 10:17:34.215372+01 | 1486372654.21537 |                 0 |               7 |                 10090 |                  395 |            1192861 |             0 |                0 |          710857 |                     0 |        462057 | 2017-02-06 09:42:18.893067+01

 2017-02-06 10:17:35.294982+01 | 1486372655.29498 |                 0 |               7 |                 10090 |                  395 |            1192861 |             0 |                0 |          710857 |                     0 |        462246 | 2017-02-06 09:42:18.893067+01

 2017-02-06 10:17:36.38231+01 | 1486372656.38231 |                 0 |               7 |                 10090 |                  395 |            1192861 |             0 |                0 |          710857 |                     0 |        462421 | 2017-02-06 09:42:18.893067+01

 2017-02-06 10:17:37.459067+01 | 1486372657.45907 |                 0 |               7 |                 10090 |                  395 |            1192861 |             0 |                0 |          710857 |                     0 |        462592 | 2017-02-06 09:42:18.893067+01

 2017-02-06 10:17:38.53591+01 | 1486372658.53591 |                 0 |               7 |                 10090 |                  395 |            1192861 |             0 |                0 |          710857 |                     0 |        462763 | 2017-02-06 09:42:18.893067+01

 2017-02-06 10:17:39.617045+01 | 1486372659.61704 |                 0 |               7 |                 10090 |                  395 |            1192861 |             0 |                0 |          710857 |                     0 |        463003 | 2017-02-06 09:42:18.893067+01

 2017-02-06 10:17:40.70515+01 | 1486372660.70515 |                 0 |               7 |                 10090 |                  395 |            1192861 |             0 |                0 |          710857 |                     0 |        463169 | 2017-02-06 09:42:18.893067+01

 2017-02-06 10:17:41.790594+01 | 1486372661.79059 |                 0 |               7 |                 10090 |                  395 |            1192861 |             0 |                0 |          710857 |                     0 |        463318 | 2017-02-06 09:42:18.893067+01

 2017-02-06 10:17:42.879101+01 | 1486372662.8791 |                 0 |               7 |                 10090 |                  395 |            1192861 |             0 |                0 |          710857 |                     0 |        463446 | 2017-02-06 09:42:18.893067+01

 2017-02-06 10:17:43.962874+01 | 1486372663.96287 |                 0 |               7 |                 10090 |                  395 |            1192861 |             0 |                0 |          710857 |                     0 |        463646 | 2017-02-06 09:42:18.893067+01

 2017-02-06 10:17:45.048806+01 | 1486372665.04881 |                 0 |               7 |                 10090 |                  395 |            1192861 |             0 |                0 |          710857 |                     0 |        463818 | 2017-02-06 09:42:18.893067+01

 2017-02-06 10:17:46.130814+01 | 1486372666.13081 |                 0 |               7 |                 10090 |                  395 |            1192861 |             0 |                0 |          710857 |                     0 |        464073 | 2017-02-06 09:42:18.893067+01

 2017-02-06 10:17:47.224113+01 | 1486372667.22411 |                 0 |               7 |                 10090 |                  395 |            1192861 |             0 |                0 |          710857 |                     0 |        464179 | 2017-02-06 09:42:18.893067+01

 2017-02-06 10:17:48.306692+01 | 1486372668.30669 |                 0 |               7 |                 10090 |                  395 |            1192861 |             0 |                0 |          710857 |                     0 |        464415 | 2017-02-06 09:42:18.893067+01

 2017-02-06 10:17:49.382889+01 | 1486372669.38289 |                 0 |               7 |                 10090 |                  395 |            1192861 |             0 |                0 |          710857 |                     0 |        464522 | 2017-02-06 09:42:18.893067+01

 2017-02-06 10:17:50.449456+01 | 1486372670.44946 |                 0 |               7 |                 10090 |                  395 |            1192861 |             0 |                0 |          710857 |                     0 |        464734 | 2017-02-06 09:42:18.893067+01

 2017-02-06 10:17:51.54528+01 | 1486372671.54528 |                 0 |               7 |                 10090 |                  395 |            1192861 |             0 |                0 |          710857 |                     0 |        464884 | 2017-02-06 09:42:18.893067+01

 2017-02-06 10:17:52.629418+01 | 1486372672.62942 |                 0 |               7 |                 10090 |                  395 |            1192861 |             0 |                0 |          710857 |                     0 |        465054 | 2017-02-06 09:42:18.893067+01

 2017-02-06 10:17:53.704486+01 | 1486372673.70449 |                 0 |               7 |                 10090 |                  395 |            1192861 |             0 |                0 |          710857 |                     0 |        465281 | 2017-02-06 09:42:18.893067+01

 2017-02-06 10:17:54.788065+01 | 1486372674.78806 |                 0 |               7 |                 10090 |                  395 |            1192861 |             0 |                0 |          710857 |                     0 |        465387 | 2017-02-06 09:42:18.893067+01

 2017-02-06 10:17:55.877977+01 | 1486372675.87798 |                 0 |               7 |                 10090 |                  395 |            1192861 |             0 |                0 |          710857 |                     0 |        465623 | 2017-02-06 09:42:18.893067+01

